%!PS-Adobe-3.0 EPSF-3.0
%%Title: glps_renderer figure
%%Creator: GL2PS 1.3.8, (C) 1999-2012 C. Geuzaine
%%For: Octave
%%CreationDate: Thu May 14 12:25:15 2015
%%LanguageLevel: 3
%%DocumentData: Clean7Bit
%%Pages: 1
%%BoundingBox: 0 0 576 432
%%EndComments
%%BeginProlog
/gl2psdict 64 dict def gl2psdict begin
0 setlinecap 0 setlinejoin
/tryPS3shading false def % set to false to force subdivision
/rThreshold 0.064 def % red component subdivision threshold
/gThreshold 0.034 def % green component subdivision threshold
/bThreshold 0.1 def % blue component subdivision threshold
/BD { bind def } bind def
/C  { setrgbcolor } BD
/G  { 0.082 mul exch 0.6094 mul add exch 0.3086 mul add neg 1.0 add setgray } BD
/W  { setlinewidth } BD
/FC { findfont exch /SH exch def SH scalefont setfont } BD
/SW { dup stringwidth pop } BD
/S  { FC moveto show } BD
/SBC{ FC moveto SW -2 div 0 rmoveto show } BD
/SBR{ FC moveto SW neg 0 rmoveto show } BD
/SCL{ FC moveto 0 SH -2 div rmoveto show } BD
/SCC{ FC moveto SW -2 div SH -2 div rmoveto show } BD
/SCR{ FC moveto SW neg SH -2 div rmoveto show } BD
/STL{ FC moveto 0 SH neg rmoveto show } BD
/STC{ FC moveto SW -2 div SH neg rmoveto show } BD
/STR{ FC moveto SW neg SH neg rmoveto show } BD
/FCT { FC translate 0 0 } BD
/SR  { gsave FCT moveto rotate show grestore } BD
/SBCR{ gsave FCT moveto rotate SW -2 div 0 rmoveto show grestore } BD
/SBRR{ gsave FCT moveto rotate SW neg 0 rmoveto show grestore } BD
/SCLR{ gsave FCT moveto rotate 0 SH -2 div rmoveto show grestore} BD
/SCCR{ gsave FCT moveto rotate SW -2 div SH -2 div rmoveto show grestore} BD
/SCRR{ gsave FCT moveto rotate SW neg SH -2 div rmoveto show grestore} BD
/STLR{ gsave FCT moveto rotate 0 SH neg rmoveto show grestore } BD
/STCR{ gsave FCT moveto rotate SW -2 div SH neg rmoveto show grestore } BD
/STRR{ gsave FCT moveto rotate SW neg SH neg rmoveto show grestore } BD
/P  { newpath 0.0 360.0 arc closepath fill } BD
/LS { newpath moveto } BD
/L  { lineto } BD
/LE { lineto stroke } BD
/T  { newpath moveto lineto lineto closepath fill } BD
/STshfill {
      /b1 exch def /g1 exch def /r1 exch def /y1 exch def /x1 exch def
      /b2 exch def /g2 exch def /r2 exch def /y2 exch def /x2 exch def
      /b3 exch def /g3 exch def /r3 exch def /y3 exch def /x3 exch def
      gsave << /ShadingType 4 /ColorSpace [/DeviceRGB]
      /DataSource [ 0 x1 y1 r1 g1 b1 0 x2 y2 r2 g2 b2 0 x3 y3 r3 g3 b3 ] >>
      shfill grestore } BD
/Tm { 3 -1 roll 8 -1 roll 13 -1 roll add add 3 div
      3 -1 roll 7 -1 roll 11 -1 roll add add 3 div
      3 -1 roll 6 -1 roll 9 -1 roll add add 3 div C T } BD
/STsplit {
      4 index 15 index add 0.5 mul
      4 index 15 index add 0.5 mul
      4 index 15 index add 0.5 mul
      4 index 15 index add 0.5 mul
      4 index 15 index add 0.5 mul
      5 copy 5 copy 25 15 roll
      9 index 30 index add 0.5 mul
      9 index 30 index add 0.5 mul
      9 index 30 index add 0.5 mul
      9 index 30 index add 0.5 mul
      9 index 30 index add 0.5 mul
      5 copy 5 copy 35 5 roll 25 5 roll 15 5 roll
      4 index 10 index add 0.5 mul
      4 index 10 index add 0.5 mul
      4 index 10 index add 0.5 mul
      4 index 10 index add 0.5 mul
      4 index 10 index add 0.5 mul
      5 copy 5 copy 40 5 roll 25 5 roll 15 5 roll 25 5 roll
      STnoshfill STnoshfill STnoshfill STnoshfill } BD
/STnoshfill {
      2 index 8 index sub abs rThreshold gt
      { STsplit }
      { 1 index 7 index sub abs gThreshold gt
        { STsplit }
        { dup 6 index sub abs bThreshold gt
          { STsplit }
          { 2 index 13 index sub abs rThreshold gt
            { STsplit }
            { 1 index 12 index sub abs gThreshold gt
              { STsplit }
              { dup 11 index sub abs bThreshold gt
                { STsplit }
                { 7 index 13 index sub abs rThreshold gt
                  { STsplit }
                  { 6 index 12 index sub abs gThreshold gt
                    { STsplit }
                    { 5 index 11 index sub abs bThreshold gt
                      { STsplit }
                      { Tm }
                      ifelse }
                    ifelse }
                  ifelse }
                ifelse }
              ifelse }
            ifelse }
          ifelse }
        ifelse }
      ifelse } BD
tryPS3shading
{ /shfill where
  { /ST { STshfill } BD }
  { /ST { STnoshfill } BD }
  ifelse }
{ /ST { STnoshfill } BD }
ifelse
end
%%EndProlog
%%BeginSetup
/DeviceRGB setcolorspace
gl2psdict begin
%%EndSetup
%%Page: 1 1
%%BeginPageSetup
%%EndPageSetup
mark
gsave
1.0 1.0 scale
1 1 1 C
521.28 47.52 521.28 399.6 521.28 47.52 T
521.28 47.52 521.28 399.6 521.28 399.6 T
74.88 399.6 521.28 399.6 74.88 399.6 T
74.88 399.6 521.28 399.6 521.28 399.6 T
74.88 399.6 521.28 47.52 74.88 47.52 T
74.88 399.6 521.28 399.6 521.28 47.52 T
0.5 W
[16 0] 0 setdash
0 0 0 C
74.88 47.52 LS
521.28 47.52 LE
74.88 399.6 LS
521.28 399.6 LE
74.88 399.6 LS
521.28 399.6 LE
74.88 47.52 LS
521.28 47.52 LE
74.88 47.52 LS
74.88 399.6 LE
521.28 47.52 LS
521.28 399.6 LE
521.28 47.52 LS
521.28 399.6 LE
74.88 47.52 LS
74.88 399.6 L
74.88 399.6 LE
521.28 399.6 LS
521.28 399.6 LE
521.28 47.52 LS
521.28 47.52 LE
74.88 47.52 LS
74.88 47.52 L
74.88 51.985 LE
74.88 399.6 LS
74.88 395.135 LE
164.16 47.52 LS
164.16 51.985 LE
164.16 399.6 LS
164.16 395.135 LE
253.44 47.52 LS
253.44 51.985 LE
253.44 399.6 LS
253.44 395.135 LE
342.72 47.52 LS
342.72 51.985 LE
342.72 399.6 LS
342.72 395.135 LE
432 47.52 LS
432 51.985 LE
432 399.6 LS
432 395.135 LE
521.28 47.52 LS
521.28 51.985 LE
521.28 399.6 LS
521.28 395.135 LE
(0) 74.88 42.5189 10 /Helvetica STC
(0.2) 164.16 42.5189 10 /Helvetica STC
(0.4) 253.44 42.5189 10 /Helvetica STC
(0.6) 342.72 42.5189 10 /Helvetica STC
(0.8) 432 42.5189 10 /Helvetica STC
(1) 521.28 42.5189 10 /Helvetica STC
74.88 47.52 LS
79.348 47.52 LE
521.28 47.52 LS
516.812 47.52 LE
74.88 117.936 LS
79.348 117.936 LE
521.28 117.936 LS
516.812 117.936 LE
74.88 188.352 LS
79.348 188.352 LE
521.28 188.352 LS
516.812 188.352 LE
74.88 258.768 LS
79.348 258.768 LE
521.28 258.768 LS
516.812 258.768 LE
74.88 329.184 LS
79.348 329.184 LE
521.28 329.184 LS
516.812 329.184 LE
74.88 399.6 LS
79.348 399.6 LE
521.28 399.6 LS
516.812 399.6 LE
(0) 69.8755 47.52 10 /Helvetica SCR
(0.2) 69.8755 117.936 10 /Helvetica SCR
(0.4) 69.8755 188.352 10 /Helvetica SCR
(0.6) 69.8755 258.768 10 /Helvetica SCR
(0.8) 69.8755 329.184 10 /Helvetica SCR
(1) 69.8755 399.6 10 /Helvetica SCR
0 0 1 C
523.28 47.52 521.898 45.6179 522.898 46.3444 T
523.28 47.52 520.662 45.6179 521.898 45.6179 T
523.28 47.52 519.662 46.3444 520.662 45.6179 T
523.28 47.52 519.28 47.52 519.662 46.3444 T
523.28 47.52 519.662 48.6955 519.28 47.52 T
523.28 47.52 520.662 49.4221 519.662 48.6955 T
523.28 47.52 521.898 49.4221 520.662 49.4221 T
523.28 47.52 522.898 48.6955 521.898 49.4221 T
523.255 51.2259 521.873 49.3238 522.873 50.0503 T
523.255 51.2259 520.637 49.3238 521.873 49.3238 T
523.255 51.2259 519.637 50.0503 520.637 49.3238 T
523.255 51.2259 519.255 51.2259 519.637 50.0503 T
523.255 51.2259 519.637 52.4014 519.255 51.2259 T
523.255 51.2259 520.637 53.128 519.637 52.4014 T
523.255 51.2259 521.873 53.128 520.637 53.128 T
523.255 51.2259 522.873 52.4014 521.873 53.128 T
523.179 55.0094 521.797 53.1073 522.797 53.8338 T
523.179 55.0094 520.561 53.1073 521.797 53.1073 T
523.179 55.0094 519.561 53.8338 520.561 53.1073 T
523.179 55.0094 519.179 55.0094 519.561 53.8338 T
523.179 55.0094 519.561 56.1849 519.179 55.0094 T
523.179 55.0094 520.561 56.9115 519.561 56.1849 T
523.179 55.0094 521.797 56.9115 520.561 56.9115 T
523.179 55.0094 522.797 56.1849 521.797 56.9115 T
523.048 58.8715 521.666 56.9694 522.666 57.696 T
523.048 58.8715 520.43 56.9694 521.666 56.9694 T
523.048 58.8715 519.43 57.696 520.43 56.9694 T
523.048 58.8715 519.048 58.8715 519.43 57.696 T
523.048 58.8715 519.43 60.0471 519.048 58.8715 T
523.048 58.8715 520.43 60.7736 519.43 60.0471 T
523.048 58.8715 521.666 60.7736 520.43 60.7736 T
523.048 58.8715 522.666 60.0471 521.666 60.7736 T
522.859 62.8134 521.477 60.9113 522.477 61.6378 T
522.859 62.8134 520.241 60.9113 521.477 60.9113 T
522.859 62.8134 519.241 61.6378 520.241 60.9113 T
522.859 62.8134 518.859 62.8134 519.241 61.6378 T
522.859 62.8134 519.241 63.989 518.859 62.8134 T
522.859 62.8134 520.241 64.7155 519.241 63.989 T
522.859 62.8134 521.477 64.7155 520.241 64.7155 T
522.859 62.8134 522.477 63.989 521.477 64.7155 T
522.608 66.8359 521.226 64.9338 522.226 65.6603 T
522.608 66.8359 519.99 64.9338 521.226 64.9338 T
522.608 66.8359 518.99 65.6603 519.99 64.9338 T
522.608 66.8359 518.608 66.8359 518.99 65.6603 T
522.608 66.8359 518.99 68.0115 518.608 66.8359 T
522.608 66.8359 519.99 68.738 518.99 68.0115 T
522.608 66.8359 521.226 68.738 519.99 68.738 T
522.608 66.8359 522.226 68.0115 521.226 68.738 T
522.291 70.94 520.909 69.0379 521.909 69.7644 T
522.291 70.94 519.673 69.0379 520.909 69.0379 T
522.291 70.94 518.673 69.7644 519.673 69.0379 T
522.291 70.94 518.291 70.94 518.673 69.7644 T
522.291 70.94 518.673 72.1156 518.291 70.94 T
522.291 70.94 519.673 72.8421 518.673 72.1156 T
522.291 70.94 520.909 72.8421 519.673 72.8421 T
522.291 70.94 521.909 72.1156 520.909 72.8421 T
521.906 75.1264 520.524 73.2243 521.524 73.9509 T
521.906 75.1264 519.288 73.2243 520.524 73.2243 T
521.906 75.1264 518.288 73.9509 519.288 73.2243 T
521.906 75.1264 517.906 75.1264 518.288 73.9509 T
521.906 75.1264 518.288 76.302 517.906 75.1264 T
521.906 75.1264 519.288 77.0285 518.288 76.302 T
521.906 75.1264 520.524 77.0285 519.288 77.0285 T
521.906 75.1264 521.524 76.302 520.524 77.0285 T
521.447 79.3958 520.065 77.4937 521.065 78.2202 T
521.447 79.3958 518.829 77.4937 520.065 77.4937 T
521.447 79.3958 517.829 78.2202 518.829 77.4937 T
521.447 79.3958 517.447 79.3958 517.829 78.2202 T
521.447 79.3958 517.829 80.5714 517.447 79.3958 T
521.447 79.3958 518.829 81.2979 517.829 80.5714 T
521.447 79.3958 520.065 81.2979 518.829 81.2979 T
521.447 79.3958 521.065 80.5714 520.065 81.2979 T
520.91 83.7487 519.528 81.8466 520.528 82.5732 T
520.91 83.7487 518.292 81.8466 519.528 81.8466 T
520.91 83.7487 517.292 82.5732 518.292 81.8466 T
520.91 83.7487 516.91 83.7487 517.292 82.5732 T
520.91 83.7487 517.292 84.9243 516.91 83.7487 T
520.91 83.7487 518.292 85.6508 517.292 84.9243 T
520.91 83.7487 519.528 85.6508 518.292 85.6508 T
520.91 83.7487 520.528 84.9243 519.528 85.6508 T
520.292 88.1855 518.91 86.2834 519.91 87.01 T
520.292 88.1855 517.674 86.2834 518.91 86.2834 T
520.292 88.1855 516.674 87.01 517.674 86.2834 T
520.292 88.1855 516.292 88.1855 516.674 87.01 T
520.292 88.1855 516.674 89.3611 516.292 88.1855 T
520.292 88.1855 517.674 90.0877 516.674 89.3611 T
520.292 88.1855 518.91 90.0877 517.674 90.0877 T
520.292 88.1855 519.91 89.3611 518.91 90.0877 T
519.588 92.7065 518.206 90.8044 519.206 91.5309 T
519.588 92.7065 516.97 90.8044 518.206 90.8044 T
519.588 92.7065 515.97 91.5309 516.97 90.8044 T
519.588 92.7065 515.588 92.7065 515.97 91.5309 T
519.588 92.7065 515.97 93.8821 515.588 92.7065 T
519.588 92.7065 516.97 94.6086 515.97 93.8821 T
519.588 92.7065 518.206 94.6086 516.97 94.6086 T
519.588 92.7065 519.206 93.8821 518.206 94.6086 T
518.793 97.3116 517.411 95.4095 518.411 96.1361 T
518.793 97.3116 516.175 95.4095 517.411 95.4095 T
518.793 97.3116 515.175 96.1361 516.175 95.4095 T
518.793 97.3116 514.793 97.3116 515.175 96.1361 T
518.793 97.3116 515.175 98.4872 514.793 97.3116 T
518.793 97.3116 516.175 99.2137 515.175 98.4872 T
518.793 97.3116 517.411 99.2137 516.175 99.2137 T
518.793 97.3116 518.411 98.4872 517.411 99.2137 T
517.903 102.001 516.521 100.099 517.521 100.825 T
517.903 102.001 515.285 100.099 516.521 100.099 T
517.903 102.001 514.285 100.825 515.285 100.099 T
517.903 102.001 513.903 102.001 514.285 100.825 T
517.903 102.001 514.285 103.176 513.903 102.001 T
517.903 102.001 515.285 103.903 514.285 103.176 T
517.903 102.001 516.521 103.903 515.285 103.903 T
517.903 102.001 517.521 103.176 516.521 103.903 T
516.913 106.774 515.531 104.872 516.531 105.598 T
516.913 106.774 514.295 104.872 515.531 104.872 T
516.913 106.774 513.295 105.598 514.295 104.872 T
516.913 106.774 512.913 106.774 513.295 105.598 T
516.913 106.774 513.295 107.949 512.913 106.774 T
516.913 106.774 514.295 108.676 513.295 107.949 T
516.913 106.774 515.531 108.676 514.295 108.676 T
516.913 106.774 516.531 107.949 515.531 108.676 T
515.817 111.63 514.435 109.728 515.435 110.454 T
515.817 111.63 513.199 109.728 514.435 109.728 T
515.817 111.63 512.199 110.454 513.199 109.728 T
515.817 111.63 511.817 111.63 512.199 110.454 T
515.817 111.63 512.199 112.806 511.817 111.63 T
515.817 111.63 513.199 113.532 512.199 112.806 T
515.817 111.63 514.435 113.532 513.199 113.532 T
515.817 111.63 515.435 112.806 514.435 113.532 T
514.611 116.569 513.229 114.666 514.229 115.393 T
514.611 116.569 511.993 114.666 513.229 114.666 T
514.611 116.569 510.993 115.393 511.993 114.666 T
514.611 116.569 510.611 116.569 510.993 115.393 T
514.611 116.569 510.993 117.744 510.611 116.569 T
514.611 116.569 511.993 118.471 510.993 117.744 T
514.611 116.569 513.229 118.471 511.993 118.471 T
514.611 116.569 514.229 117.744 513.229 118.471 T
513.29 121.589 511.908 119.686 512.908 120.413 T
513.29 121.589 510.672 119.686 511.908 119.686 T
513.29 121.589 509.672 120.413 510.672 119.686 T
513.29 121.589 509.29 121.589 509.672 120.413 T
513.29 121.589 509.672 122.764 509.29 121.589 T
513.29 121.589 510.672 123.491 509.672 122.764 T
513.29 121.589 511.908 123.491 510.672 123.491 T
513.29 121.589 512.908 122.764 511.908 123.491 T
511.848 126.689 510.466 124.786 511.466 125.513 T
511.848 126.689 509.23 124.786 510.466 124.786 T
511.848 126.689 508.23 125.513 509.23 124.786 T
511.848 126.689 507.848 126.689 508.23 125.513 T
511.848 126.689 508.23 127.864 507.848 126.689 T
511.848 126.689 509.23 128.591 508.23 127.864 T
511.848 126.689 510.466 128.591 509.23 128.591 T
511.848 126.689 511.466 127.864 510.466 128.591 T
510.281 131.867 508.899 129.965 509.899 130.691 T
510.281 131.867 507.663 129.965 508.899 129.965 T
510.281 131.867 506.663 130.691 507.663 129.965 T
510.281 131.867 506.281 131.867 506.663 130.691 T
510.281 131.867 506.663 133.043 506.281 131.867 T
510.281 131.867 507.663 133.769 506.663 133.043 T
510.281 131.867 508.899 133.769 507.663 133.769 T
510.281 131.867 509.899 133.043 508.899 133.769 T
508.582 137.122 507.2 135.22 508.2 135.946 T
508.582 137.122 505.964 135.22 507.2 135.22 T
508.582 137.122 504.964 135.946 505.964 135.22 T
508.582 137.122 504.582 137.122 504.964 135.946 T
508.582 137.122 504.964 138.298 504.582 137.122 T
508.582 137.122 505.964 139.024 504.964 138.298 T
508.582 137.122 507.2 139.024 505.964 139.024 T
508.582 137.122 508.2 138.298 507.2 139.024 T
506.747 142.451 505.365 140.549 506.365 141.276 T
506.747 142.451 504.129 140.549 505.365 140.549 T
506.747 142.451 503.129 141.276 504.129 140.549 T
506.747 142.451 502.747 142.451 503.129 141.276 T
506.747 142.451 503.129 143.627 502.747 142.451 T
506.747 142.451 504.129 144.353 503.129 143.627 T
506.747 142.451 505.365 144.353 504.129 144.353 T
506.747 142.451 506.365 143.627 505.365 144.353 T
504.771 147.852 503.389 145.95 504.389 146.677 T
504.771 147.852 502.153 145.95 503.389 145.95 T
504.771 147.852 501.153 146.677 502.153 145.95 T
504.771 147.852 500.771 147.852 501.153 146.677 T
504.771 147.852 501.153 149.028 500.771 147.852 T
504.771 147.852 502.153 149.754 501.153 149.028 T
504.771 147.852 503.389 149.754 502.153 149.754 T
504.771 147.852 504.389 149.028 503.389 149.754 T
502.647 153.322 501.265 151.42 502.265 152.147 T
502.647 153.322 500.029 151.42 501.265 151.42 T
502.647 153.322 499.029 152.147 500.029 151.42 T
502.647 153.322 498.647 153.322 499.029 152.147 T
502.647 153.322 499.029 154.498 498.647 153.322 T
502.647 153.322 500.029 155.224 499.029 154.498 T
502.647 153.322 501.265 155.224 500.029 155.224 T
502.647 153.322 502.265 154.498 501.265 155.224 T
500.372 158.857 498.99 156.955 499.99 157.682 T
500.372 158.857 497.754 156.955 498.99 156.955 T
500.372 158.857 496.754 157.682 497.754 156.955 T
500.372 158.857 496.372 158.857 496.754 157.682 T
500.372 158.857 496.754 160.033 496.372 158.857 T
500.372 158.857 497.754 160.76 496.754 160.033 T
500.372 158.857 498.99 160.76 497.754 160.76 T
500.372 158.857 499.99 160.033 498.99 160.76 T
497.94 164.455 496.558 162.553 497.558 163.279 T
497.94 164.455 495.322 162.553 496.558 162.553 T
497.94 164.455 494.322 163.279 495.322 162.553 T
497.94 164.455 493.94 164.455 494.322 163.279 T
497.94 164.455 494.322 165.63 493.94 164.455 T
497.94 164.455 495.322 166.357 494.322 165.63 T
497.94 164.455 496.558 166.357 495.322 166.357 T
497.94 164.455 497.558 165.63 496.558 166.357 T
495.347 170.11 493.965 168.207 494.965 168.934 T
495.347 170.11 492.729 168.207 493.965 168.207 T
495.347 170.11 491.729 168.934 492.729 168.207 T
495.347 170.11 491.347 170.11 491.729 168.934 T
495.347 170.11 491.729 171.285 491.347 170.11 T
495.347 170.11 492.729 172.012 491.729 171.285 T
495.347 170.11 493.965 172.012 492.729 172.012 T
495.347 170.11 494.965 171.285 493.965 172.012 T
492.587 175.818 491.205 173.916 492.205 174.642 T
492.587 175.818 489.969 173.916 491.205 173.916 T
492.587 175.818 488.969 174.642 489.969 173.916 T
492.587 175.818 488.587 175.818 488.969 174.642 T
492.587 175.818 488.969 176.993 488.587 175.818 T
492.587 175.818 489.969 177.72 488.969 176.993 T
492.587 175.818 491.205 177.72 489.969 177.72 T
492.587 175.818 492.205 176.993 491.205 177.72 T
489.656 181.574 488.274 179.672 489.274 180.399 T
489.656 181.574 487.038 179.672 488.274 179.672 T
489.656 181.574 486.038 180.399 487.038 179.672 T
489.656 181.574 485.656 181.574 486.038 180.399 T
489.656 181.574 486.038 182.75 485.656 181.574 T
489.656 181.574 487.038 183.477 486.038 182.75 T
489.656 181.574 488.274 183.477 487.038 183.477 T
489.656 181.574 489.274 182.75 488.274 183.477 T
486.551 187.374 485.169 185.472 486.169 186.199 T
486.551 187.374 483.933 185.472 485.169 185.472 T
486.551 187.374 482.933 186.199 483.933 185.472 T
486.551 187.374 482.551 187.374 482.933 186.199 T
486.551 187.374 482.933 188.55 482.551 187.374 T
486.551 187.374 483.933 189.276 482.933 188.55 T
486.551 187.374 485.169 189.276 483.933 189.276 T
486.551 187.374 486.169 188.55 485.169 189.276 T
483.268 193.212 481.886 191.31 482.886 192.036 T
483.268 193.212 480.65 191.31 481.886 191.31 T
483.268 193.212 479.65 192.036 480.65 191.31 T
483.268 193.212 479.268 193.212 479.65 192.036 T
483.268 193.212 479.65 194.387 479.268 193.212 T
483.268 193.212 480.65 195.114 479.65 194.387 T
483.268 193.212 481.886 195.114 480.65 195.114 T
483.268 193.212 482.886 194.387 481.886 195.114 T
479.802 199.081 478.42 197.179 479.42 197.905 T
479.802 199.081 477.184 197.179 478.42 197.179 T
479.802 199.081 476.184 197.905 477.184 197.179 T
479.802 199.081 475.802 199.081 476.184 197.905 T
479.802 199.081 476.184 200.256 475.802 199.081 T
479.802 199.081 477.184 200.983 476.184 200.256 T
479.802 199.081 478.42 200.983 477.184 200.983 T
479.802 199.081 479.42 200.256 478.42 200.983 T
476.152 204.975 474.77 203.073 475.77 203.799 T
476.152 204.975 473.534 203.073 474.77 203.073 T
476.152 204.975 472.534 203.799 473.534 203.073 T
476.152 204.975 472.152 204.975 472.534 203.799 T
476.152 204.975 472.534 206.151 472.152 204.975 T
476.152 204.975 473.534 206.877 472.534 206.151 T
476.152 204.975 474.77 206.877 473.534 206.877 T
476.152 204.975 475.77 206.151 474.77 206.877 T
472.315 210.888 470.933 208.985 471.933 209.712 T
472.315 210.888 469.697 208.985 470.933 208.985 T
472.315 210.888 468.697 209.712 469.697 208.985 T
472.315 210.888 468.315 210.888 468.697 209.712 T
472.315 210.888 468.697 212.063 468.315 210.888 T
472.315 210.888 469.697 212.79 468.697 212.063 T
472.315 210.888 470.933 212.79 469.697 212.79 T
472.315 210.888 471.933 212.063 470.933 212.79 T
468.289 216.812 466.907 214.909 467.907 215.636 T
468.289 216.812 465.671 214.909 466.907 214.909 T
468.289 216.812 464.671 215.636 465.671 214.909 T
468.289 216.812 464.289 216.812 464.671 215.636 T
468.289 216.812 464.671 217.987 464.289 216.812 T
468.289 216.812 465.671 218.714 464.671 217.987 T
468.289 216.812 466.907 218.714 465.671 218.714 T
468.289 216.812 467.907 217.987 466.907 218.714 T
464.073 222.739 462.691 220.837 463.691 221.564 T
464.073 222.739 461.454 220.837 462.691 220.837 T
464.073 222.739 460.454 221.564 461.454 220.837 T
464.073 222.739 460.073 222.739 460.454 221.564 T
464.073 222.739 460.454 223.915 460.073 222.739 T
464.073 222.739 461.454 224.642 460.454 223.915 T
464.073 222.739 462.691 224.642 461.454 224.642 T
464.073 222.739 463.691 223.915 462.691 224.642 T
459.665 228.664 458.283 226.762 459.283 227.488 T
459.665 228.664 457.047 226.762 458.283 226.762 T
459.665 228.664 456.047 227.488 457.047 226.762 T
459.665 228.664 455.665 228.664 456.047 227.488 T
459.665 228.664 456.047 229.839 455.665 228.664 T
459.665 228.664 457.047 230.566 456.047 229.839 T
459.665 228.664 458.283 230.566 457.047 230.566 T
459.665 228.664 459.283 229.839 458.283 230.566 T
455.066 234.576 453.684 232.674 454.684 233.401 T
455.066 234.576 452.448 232.674 453.684 232.674 T
455.066 234.576 451.448 233.401 452.448 232.674 T
455.066 234.576 451.066 234.576 451.448 233.401 T
455.066 234.576 451.448 235.752 451.066 234.576 T
455.066 234.576 452.448 236.478 451.448 235.752 T
455.066 234.576 453.684 236.478 452.448 236.478 T
455.066 234.576 454.684 235.752 453.684 236.478 T
450.276 240.469 448.894 238.567 449.894 239.294 T
450.276 240.469 447.658 238.567 448.894 238.567 T
450.276 240.469 446.658 239.294 447.658 238.567 T
450.276 240.469 446.276 240.469 446.658 239.294 T
450.276 240.469 446.658 241.645 446.276 240.469 T
450.276 240.469 447.658 242.371 446.658 241.645 T
450.276 240.469 448.894 242.371 447.658 242.371 T
450.276 240.469 449.894 241.645 448.894 242.371 T
445.297 246.334 443.915 244.432 444.915 245.158 T
445.297 246.334 442.679 244.432 443.915 244.432 T
445.297 246.334 441.679 245.158 442.679 244.432 T
445.297 246.334 441.297 246.334 441.679 245.158 T
445.297 246.334 441.679 247.509 441.297 246.334 T
445.297 246.334 442.679 248.236 441.679 247.509 T
445.297 246.334 443.915 248.236 442.679 248.236 T
445.297 246.334 444.915 247.509 443.915 248.236 T
440.131 252.162 438.749 250.26 439.749 250.987 T
440.131 252.162 437.513 250.26 438.749 250.26 T
440.131 252.162 436.513 250.987 437.513 250.26 T
440.131 252.162 436.131 252.162 436.513 250.987 T
440.131 252.162 436.513 253.338 436.131 252.162 T
440.131 252.162 437.513 254.064 436.513 253.338 T
440.131 252.162 438.749 254.064 437.513 254.064 T
440.131 252.162 439.749 253.338 438.749 254.064 T
434.779 257.946 433.397 256.044 434.397 256.77 T
434.779 257.946 432.161 256.044 433.397 256.044 T
434.779 257.946 431.161 256.77 432.161 256.044 T
434.779 257.946 430.779 257.946 431.161 256.77 T
434.779 257.946 431.161 259.121 430.779 257.946 T
434.779 257.946 432.161 259.848 431.161 259.121 T
434.779 257.946 433.397 259.848 432.161 259.848 T
434.779 257.946 434.397 259.121 433.397 259.848 T
429.247 263.676 427.865 261.774 428.865 262.501 T
429.247 263.676 426.629 261.774 427.865 261.774 T
429.247 263.676 425.629 262.501 426.629 261.774 T
429.247 263.676 425.247 263.676 425.629 262.501 T
429.247 263.676 425.629 264.852 425.247 263.676 T
429.247 263.676 426.629 265.578 425.629 264.852 T
429.247 263.676 427.865 265.578 426.629 265.578 T
429.247 263.676 428.865 264.852 427.865 265.578 T
423.537 269.345 422.155 267.443 423.155 268.169 T
423.537 269.345 420.919 267.443 422.155 267.443 T
423.537 269.345 419.919 268.169 420.919 267.443 T
423.537 269.345 419.537 269.345 419.919 268.169 T
423.537 269.345 419.919 270.52 419.537 269.345 T
423.537 269.345 420.919 271.247 419.919 270.52 T
423.537 269.345 422.155 271.247 420.919 271.247 T
423.537 269.345 423.155 270.52 422.155 271.247 T
417.656 274.943 416.274 273.041 417.274 273.768 T
417.656 274.943 415.038 273.041 416.274 273.041 T
417.656 274.943 414.038 273.768 415.038 273.041 T
417.656 274.943 413.656 274.943 414.038 273.768 T
417.656 274.943 414.038 276.119 413.656 274.943 T
417.656 274.943 415.038 276.845 414.038 276.119 T
417.656 274.943 416.274 276.845 415.038 276.845 T
417.656 274.943 417.274 276.119 416.274 276.845 T
411.608 280.464 410.226 278.562 411.226 279.288 T
411.608 280.464 408.99 278.562 410.226 278.562 T
411.608 280.464 407.99 279.288 408.99 278.562 T
411.608 280.464 407.608 280.464 407.99 279.288 T
411.608 280.464 407.99 281.639 407.608 280.464 T
411.608 280.464 408.99 282.366 407.99 281.639 T
411.608 280.464 410.226 282.366 408.99 282.366 T
411.608 280.464 411.226 281.639 410.226 282.366 T
405.4 285.898 404.018 283.996 405.018 284.722 T
405.4 285.898 402.782 283.996 404.018 283.996 T
405.4 285.898 401.782 284.722 402.782 283.996 T
405.4 285.898 401.4 285.898 401.782 284.722 T
405.4 285.898 401.782 287.074 401.4 285.898 T
405.4 285.898 402.782 287.8 401.782 287.074 T
405.4 285.898 404.018 287.8 402.782 287.8 T
405.4 285.898 405.018 287.074 404.018 287.8 T
399.039 291.239 397.657 289.337 398.657 290.063 T
399.039 291.239 396.421 289.337 397.657 289.337 T
399.039 291.239 395.421 290.063 396.421 289.337 T
399.039 291.239 395.039 291.239 395.421 290.063 T
399.039 291.239 395.421 292.414 395.039 291.239 T
399.039 291.239 396.421 293.141 395.421 292.414 T
399.039 291.239 397.657 293.141 396.421 293.141 T
399.039 291.239 398.657 292.414 397.657 293.141 T
392.532 296.478 391.151 294.576 392.151 295.303 T
392.532 296.478 389.914 294.576 391.151 294.576 T
392.532 296.478 388.914 295.303 389.914 294.576 T
392.532 296.478 388.532 296.478 388.914 295.303 T
392.532 296.478 388.914 297.654 388.532 296.478 T
392.532 296.478 389.914 298.38 388.914 297.654 T
392.532 296.478 391.151 298.38 389.914 298.38 T
392.532 296.478 392.151 297.654 391.151 298.38 T
385.889 301.61 384.507 299.708 385.507 300.434 T
385.889 301.61 383.271 299.708 384.507 299.708 T
385.889 301.61 382.271 300.434 383.271 299.708 T
385.889 301.61 381.889 301.61 382.271 300.434 T
385.889 301.61 382.271 302.785 381.889 301.61 T
385.889 301.61 383.271 303.512 382.271 302.785 T
385.889 301.61 384.507 303.512 383.271 303.512 T
385.889 301.61 385.507 302.785 384.507 303.512 T
379.118 306.627 377.736 304.724 378.736 305.451 T
379.118 306.627 376.5 304.724 377.736 304.724 T
379.118 306.627 375.5 305.451 376.5 304.724 T
379.118 306.627 375.118 306.627 375.5 305.451 T
379.118 306.627 375.5 307.802 375.118 306.627 T
379.118 306.627 376.5 308.529 375.5 307.802 T
379.118 306.627 377.736 308.529 376.5 308.529 T
379.118 306.627 378.736 307.802 377.736 308.529 T
372.228 311.523 370.846 309.621 371.846 310.347 T
372.228 311.523 369.61 309.621 370.846 309.621 T
372.228 311.523 368.61 310.347 369.61 309.621 T
372.228 311.523 368.228 311.523 368.61 310.347 T
372.228 311.523 368.61 312.698 368.228 311.523 T
372.228 311.523 369.61 313.425 368.61 312.698 T
372.228 311.523 370.846 313.425 369.61 313.425 T
372.228 311.523 371.846 312.698 370.846 313.425 T
365.229 316.293 363.847 314.391 364.847 315.117 T
365.229 316.293 362.611 314.391 363.847 314.391 T
365.229 316.293 361.611 315.117 362.611 314.391 T
365.229 316.293 361.229 316.293 361.611 315.117 T
365.229 316.293 361.611 317.469 361.229 316.293 T
365.229 316.293 362.611 318.195 361.611 317.469 T
365.229 316.293 363.847 318.195 362.611 318.195 T
365.229 316.293 364.847 317.469 363.847 318.195 T
358.13 320.932 356.748 319.03 357.748 319.756 T
358.13 320.932 355.512 319.03 356.748 319.03 T
358.13 320.932 354.512 319.756 355.512 319.03 T
358.13 320.932 354.13 320.932 354.512 319.756 T
358.13 320.932 354.512 322.108 354.13 320.932 T
358.13 320.932 355.512 322.834 354.512 322.108 T
358.13 320.932 356.748 322.834 355.512 322.834 T
358.13 320.932 357.748 322.108 356.748 322.834 T
350.943 325.435 349.561 323.533 350.561 324.26 T
350.943 325.435 348.325 323.533 349.561 323.533 T
350.943 325.435 347.325 324.26 348.325 323.533 T
350.943 325.435 346.943 325.435 347.325 324.26 T
350.943 325.435 347.325 326.611 346.943 325.435 T
350.943 325.435 348.325 327.337 347.325 326.611 T
350.943 325.435 349.561 327.337 348.325 327.337 T
350.943 325.435 350.561 326.611 349.561 327.337 T
343.678 329.799 342.296 327.897 343.296 328.623 T
343.678 329.799 341.06 327.897 342.296 327.897 T
343.678 329.799 340.06 328.623 341.06 327.897 T
343.678 329.799 339.678 329.799 340.06 328.623 T
343.678 329.799 340.06 330.974 339.678 329.799 T
343.678 329.799 341.06 331.701 340.06 330.974 T
343.678 329.799 342.296 331.701 341.06 331.701 T
343.678 329.799 343.296 330.974 342.296 331.701 T
336.345 334.019 334.963 332.117 335.963 332.844 T
336.345 334.019 333.727 332.117 334.963 332.117 T
336.345 334.019 332.727 332.844 333.727 332.117 T
336.345 334.019 332.345 334.019 332.727 332.844 T
336.345 334.019 332.727 335.195 332.345 334.019 T
336.345 334.019 333.727 335.921 332.727 335.195 T
336.345 334.019 334.963 335.921 333.727 335.921 T
336.345 334.019 335.963 335.195 334.963 335.921 T
328.955 338.094 327.573 336.192 328.573 336.919 T
328.955 338.094 326.337 336.192 327.573 336.192 T
328.955 338.094 325.337 336.919 326.337 336.192 T
328.955 338.094 324.955 338.094 325.337 336.919 T
328.955 338.094 325.337 339.27 324.955 338.094 T
328.955 338.094 326.337 339.996 325.337 339.27 T
328.955 338.094 327.573 339.996 326.337 339.996 T
328.955 338.094 328.573 339.27 327.573 339.996 T
321.519 342.021 320.137 340.119 321.137 340.846 T
321.519 342.021 318.901 340.119 320.137 340.119 T
321.519 342.021 317.901 340.846 318.901 340.119 T
321.519 342.021 317.519 342.021 317.901 340.846 T
321.519 342.021 317.901 343.197 317.519 342.021 T
321.519 342.021 318.901 343.923 317.901 343.197 T
321.519 342.021 320.137 343.923 318.901 343.923 T
321.519 342.021 321.137 343.197 320.137 343.923 T
314.047 345.799 312.665 343.897 313.665 344.623 T
314.047 345.799 311.429 343.897 312.665 343.897 T
314.047 345.799 310.429 344.623 311.429 343.897 T
314.047 345.799 310.047 345.799 310.429 344.623 T
314.047 345.799 310.429 346.974 310.047 345.799 T
314.047 345.799 311.429 347.701 310.429 346.974 T
314.047 345.799 312.665 347.701 311.429 347.701 T
314.047 345.799 313.665 346.974 312.665 347.701 T
306.551 349.426 305.169 347.524 306.169 348.251 T
306.551 349.426 303.933 347.524 305.169 347.524 T
306.551 349.426 302.933 348.251 303.933 347.524 T
306.551 349.426 302.551 349.426 302.933 348.251 T
306.551 349.426 302.933 350.602 302.551 349.426 T
306.551 349.426 303.933 351.328 302.933 350.602 T
306.551 349.426 305.169 351.328 303.933 351.328 T
306.551 349.426 306.169 350.602 305.169 351.328 T
299.04 352.902 297.658 351 298.658 351.727 T
299.04 352.902 296.422 351 297.658 351 T
299.04 352.902 295.422 351.727 296.422 351 T
299.04 352.902 295.04 352.902 295.422 351.727 T
299.04 352.902 295.422 354.078 295.04 352.902 T
299.04 352.902 296.422 354.805 295.422 354.078 T
299.04 352.902 297.658 354.805 296.422 354.805 T
299.04 352.902 298.658 354.078 297.658 354.805 T
291.524 356.228 290.142 354.326 291.142 355.053 T
291.524 356.228 288.906 354.326 290.142 354.326 T
291.524 356.228 287.906 355.053 288.906 354.326 T
291.524 356.228 287.524 356.228 287.906 355.053 T
291.524 356.228 287.906 357.404 287.524 356.228 T
291.524 356.228 288.906 358.13 287.906 357.404 T
291.524 356.228 290.142 358.13 288.906 358.13 T
291.524 356.228 291.142 357.404 290.142 358.13 T
284.013 359.404 282.631 357.501 283.631 358.228 T
284.013 359.404 281.395 357.501 282.631 357.501 T
284.013 359.404 280.395 358.228 281.395 357.501 T
284.013 359.404 280.013 359.404 280.395 358.228 T
284.013 359.404 280.395 360.579 280.013 359.404 T
284.013 359.404 281.395 361.306 280.395 360.579 T
284.013 359.404 282.631 361.306 281.395 361.306 T
284.013 359.404 283.631 360.579 282.631 361.306 T
276.516 362.43 275.134 360.528 276.134 361.254 T
276.516 362.43 273.898 360.528 275.134 360.528 T
276.516 362.43 272.898 361.254 273.898 360.528 T
276.516 362.43 272.516 362.43 272.898 361.254 T
276.516 362.43 272.898 363.605 272.516 362.43 T
276.516 362.43 273.898 364.332 272.898 363.605 T
276.516 362.43 275.134 364.332 273.898 364.332 T
276.516 362.43 276.134 363.605 275.134 364.332 T
269.043 365.309 267.661 363.407 268.661 364.133 T
269.043 365.309 266.425 363.407 267.661 363.407 T
269.043 365.309 265.425 364.133 266.425 363.407 T
269.043 365.309 265.043 365.309 265.425 364.133 T
269.043 365.309 265.425 366.484 265.043 365.309 T
269.043 365.309 266.425 367.211 265.425 366.484 T
269.043 365.309 267.661 367.211 266.425 367.211 T
269.043 365.309 268.661 366.484 267.661 367.211 T
261.602 368.042 260.22 366.14 261.22 366.866 T
261.602 368.042 258.984 366.14 260.22 366.14 T
261.602 368.042 257.984 366.866 258.984 366.14 T
261.602 368.042 257.602 368.042 257.984 366.866 T
261.602 368.042 257.984 369.217 257.602 368.042 T
261.602 368.042 258.984 369.944 257.984 369.217 T
261.602 368.042 260.22 369.944 258.984 369.944 T
261.602 368.042 261.22 369.217 260.22 369.944 T
254.2 370.632 252.818 368.729 253.818 369.456 T
254.2 370.632 251.582 368.729 252.818 368.729 T
254.2 370.632 250.582 369.456 251.582 368.729 T
254.2 370.632 250.2 370.632 250.582 369.456 T
254.2 370.632 250.582 371.807 250.2 370.632 T
254.2 370.632 251.582 372.534 250.582 371.807 T
254.2 370.632 252.818 372.534 251.582 372.534 T
254.2 370.632 253.818 371.807 252.818 372.534 T
246.847 373.081 245.465 371.179 246.465 371.905 T
246.847 373.081 244.229 371.179 245.465 371.179 T
246.847 373.081 243.229 371.905 244.229 371.179 T
246.847 373.081 242.847 373.081 243.229 371.905 T
246.847 373.081 243.229 374.256 242.847 373.081 T
246.847 373.081 244.229 374.983 243.229 374.256 T
246.847 373.081 245.465 374.983 244.229 374.983 T
246.847 373.081 246.465 374.256 245.465 374.983 T
239.548 375.392 238.166 373.49 239.166 374.216 T
239.548 375.392 236.93 373.49 238.166 373.49 T
239.548 375.392 235.93 374.216 236.93 373.49 T
239.548 375.392 235.548 375.392 235.93 374.216 T
239.548 375.392 235.93 376.568 235.548 375.392 T
239.548 375.392 236.93 377.294 235.93 376.568 T
239.548 375.392 238.166 377.294 236.93 377.294 T
239.548 375.392 239.166 376.568 238.166 377.294 T
232.31 377.569 230.928 375.667 231.928 376.393 T
232.31 377.569 229.692 375.667 230.928 375.667 T
232.31 377.569 228.692 376.393 229.692 375.667 T
232.31 377.569 228.31 377.569 228.692 376.393 T
232.31 377.569 228.692 378.744 228.31 377.569 T
232.31 377.569 229.692 379.471 228.692 378.744 T
232.31 377.569 230.928 379.471 229.692 379.471 T
232.31 377.569 231.928 378.744 230.928 379.471 T
225.141 379.614 223.759 377.712 224.759 378.439 T
225.141 379.614 222.523 377.712 223.759 377.712 T
225.141 379.614 221.523 378.439 222.523 377.712 T
225.141 379.614 221.141 379.614 221.523 378.439 T
225.141 379.614 221.523 380.79 221.141 379.614 T
225.141 379.614 222.523 381.516 221.523 380.79 T
225.141 379.614 223.759 381.516 222.523 381.516 T
225.141 379.614 224.759 380.79 223.759 381.516 T
218.044 381.532 216.662 379.63 217.662 380.357 T
218.044 381.532 215.426 379.63 216.662 379.63 T
218.044 381.532 214.426 380.357 215.426 379.63 T
218.044 381.532 214.044 381.532 214.426 380.357 T
218.044 381.532 214.426 382.708 214.044 381.532 T
218.044 381.532 215.426 383.435 214.426 382.708 T
218.044 381.532 216.662 383.435 215.426 383.435 T
218.044 381.532 217.662 382.708 216.662 383.435 T
211.026 383.327 209.644 381.425 210.644 382.151 T
211.026 383.327 208.408 381.425 209.644 381.425 T
211.026 383.327 207.408 382.151 208.408 381.425 T
211.026 383.327 207.026 383.327 207.408 382.151 T
211.026 383.327 207.408 384.502 207.026 383.327 T
211.026 383.327 208.408 385.229 207.408 384.502 T
211.026 383.327 209.644 385.229 208.408 385.229 T
211.026 383.327 210.644 384.502 209.644 385.229 T
204.091 385.001 202.709 383.099 203.709 383.826 T
204.091 385.001 201.473 383.099 202.709 383.099 T
204.091 385.001 200.473 383.826 201.473 383.099 T
204.091 385.001 200.091 385.001 200.473 383.826 T
204.091 385.001 200.473 386.177 200.091 385.001 T
204.091 385.001 201.473 386.904 200.473 386.177 T
204.091 385.001 202.709 386.904 201.473 386.904 T
204.091 385.001 203.709 386.177 202.709 386.904 T
197.243 386.56 195.861 384.658 196.861 385.385 T
197.243 386.56 194.625 384.658 195.861 384.658 T
197.243 386.56 193.625 385.385 194.625 384.658 T
197.243 386.56 193.243 386.56 193.625 385.385 T
197.243 386.56 193.625 387.736 193.243 386.56 T
197.243 386.56 194.625 388.462 193.625 387.736 T
197.243 386.56 195.861 388.462 194.625 388.462 T
197.243 386.56 196.861 387.736 195.861 388.462 T
190.486 388.008 189.104 386.105 190.104 386.832 T
190.486 388.008 187.868 386.105 189.104 386.105 T
190.486 388.008 186.868 386.832 187.868 386.105 T
190.486 388.008 186.486 388.008 186.868 386.832 T
190.486 388.008 186.868 389.183 186.486 388.008 T
190.486 388.008 187.868 389.91 186.868 389.183 T
190.486 388.008 189.104 389.91 187.868 389.91 T
190.486 388.008 190.104 389.183 189.104 389.91 T
183.823 389.347 182.441 387.445 183.441 388.172 T
183.823 389.347 181.205 387.445 182.441 387.445 T
183.823 389.347 180.205 388.172 181.205 387.445 T
183.823 389.347 179.823 389.347 180.205 388.172 T
183.823 389.347 180.205 390.523 179.823 389.347 T
183.823 389.347 181.205 391.249 180.205 390.523 T
183.823 389.347 182.441 391.249 181.205 391.249 T
183.823 389.347 183.441 390.523 182.441 391.249 T
177.257 390.584 175.875 388.682 176.875 389.408 T
177.257 390.584 174.639 388.682 175.875 388.682 T
177.257 390.584 173.639 389.408 174.639 388.682 T
177.257 390.584 173.257 390.584 173.639 389.408 T
177.257 390.584 173.639 391.759 173.257 390.584 T
177.257 390.584 174.639 392.486 173.639 391.759 T
177.257 390.584 175.875 392.486 174.639 392.486 T
177.257 390.584 176.875 391.759 175.875 392.486 T
170.791 391.721 169.409 389.819 170.409 390.545 T
170.791 391.721 168.173 389.819 169.409 389.819 T
170.791 391.721 167.173 390.545 168.173 389.819 T
170.791 391.721 166.791 391.721 167.173 390.545 T
170.791 391.721 167.173 392.896 166.791 391.721 T
170.791 391.721 168.173 393.623 167.173 392.896 T
170.791 391.721 169.409 393.623 168.173 393.623 T
170.791 391.721 170.409 392.896 169.409 393.623 T
164.426 392.763 163.044 390.861 164.044 391.587 T
164.426 392.763 161.808 390.861 163.044 390.861 T
164.426 392.763 160.808 391.587 161.808 390.861 T
164.426 392.763 160.426 392.763 160.808 391.587 T
164.426 392.763 160.808 393.938 160.426 392.763 T
164.426 392.763 161.808 394.665 160.808 393.938 T
164.426 392.763 163.044 394.665 161.808 394.665 T
164.426 392.763 164.044 393.938 163.044 394.665 T
158.165 393.714 156.783 391.812 157.783 392.538 T
158.165 393.714 155.547 391.812 156.783 391.812 T
158.165 393.714 154.547 392.538 155.547 391.812 T
158.165 393.714 154.165 393.714 154.547 392.538 T
158.165 393.714 154.547 394.889 154.165 393.714 T
158.165 393.714 155.547 395.616 154.547 394.889 T
158.165 393.714 156.783 395.616 155.547 395.616 T
158.165 393.714 157.783 394.889 156.783 395.616 T
152.008 394.578 150.626 392.676 151.626 393.403 T
152.008 394.578 149.39 392.676 150.626 392.676 T
152.008 394.578 148.39 393.403 149.39 392.676 T
152.008 394.578 148.008 394.578 148.39 393.403 T
152.008 394.578 148.39 395.754 148.008 394.578 T
152.008 394.578 149.39 396.48 148.39 395.754 T
152.008 394.578 150.626 396.48 149.39 396.48 T
152.008 394.578 151.626 395.754 150.626 396.48 T
145.956 395.359 144.574 393.457 145.574 394.184 T
145.956 395.359 143.338 393.457 144.574 393.457 T
145.956 395.359 142.338 394.184 143.338 393.457 T
145.956 395.359 141.956 395.359 142.338 394.184 T
145.956 395.359 142.338 396.535 141.956 395.359 T
145.956 395.359 143.338 397.261 142.338 396.535 T
145.956 395.359 144.574 397.261 143.338 397.261 T
145.956 395.359 145.574 396.535 144.574 397.261 T
140.01 396.061 138.629 394.159 139.629 394.886 T
140.01 396.061 137.392 394.159 138.629 394.159 T
140.01 396.061 136.392 394.886 137.392 394.159 T
140.01 396.061 136.01 396.061 136.392 394.886 T
140.01 396.061 136.392 397.237 136.01 396.061 T
140.01 396.061 137.392 397.964 136.392 397.237 T
140.01 396.061 138.629 397.964 137.392 397.964 T
140.01 396.061 139.629 397.237 138.629 397.964 T
134.172 396.688 132.79 394.786 133.79 395.513 T
134.172 396.688 131.554 394.786 132.79 394.786 T
134.172 396.688 130.554 395.513 131.554 394.786 T
134.172 396.688 130.172 396.688 130.554 395.513 T
134.172 396.688 130.554 397.864 130.172 396.688 T
134.172 396.688 131.554 398.59 130.554 397.864 T
134.172 396.688 132.79 398.59 131.554 398.59 T
134.172 396.688 133.79 397.864 132.79 398.59 T
128.44 397.244 127.058 395.342 128.058 396.068 T
128.44 397.244 125.822 395.342 127.058 395.342 T
128.44 397.244 124.822 396.068 125.822 395.342 T
128.44 397.244 124.44 397.244 124.822 396.068 T
128.44 397.244 124.822 398.419 124.44 397.244 T
128.44 397.244 125.822 399.146 124.822 398.419 T
128.44 397.244 127.058 399.146 125.822 399.146 T
128.44 397.244 128.058 398.419 127.058 399.146 T
122.814 397.731 121.432 395.829 122.432 396.556 T
122.814 397.731 120.196 395.829 121.432 395.829 T
122.814 397.731 119.196 396.556 120.196 395.829 T
122.814 397.731 118.814 397.731 119.196 396.556 T
122.814 397.731 119.196 398.907 118.814 397.731 T
122.814 397.731 120.196 399.633 119.196 398.907 T
122.814 397.731 121.432 399.633 120.196 399.633 T
122.814 397.731 122.432 398.907 121.432 399.633 T
117.295 398.154 115.913 396.252 116.913 396.979 T
117.295 398.154 114.677 396.252 115.913 396.252 T
117.295 398.154 113.677 396.979 114.677 396.252 T
117.295 398.154 113.295 398.154 113.677 396.979 T
117.295 398.154 113.677 399.33 113.295 398.154 T
117.295 398.154 114.677 400.056 113.677 399.33 T
117.295 398.154 115.913 400.056 114.677 400.056 T
117.295 398.154 116.913 399.33 115.913 400.056 T
111.882 398.516 110.5 396.614 111.5 397.34 T
111.882 398.516 109.264 396.614 110.5 396.614 T
111.882 398.516 108.264 397.34 109.264 396.614 T
111.882 398.516 107.882 398.516 108.264 397.34 T
111.882 398.516 108.264 399.692 107.882 398.516 T
111.882 398.516 109.264 400.418 108.264 399.692 T
111.882 398.516 110.5 400.418 109.264 400.418 T
111.882 398.516 111.5 399.692 110.5 400.418 T
106.574 398.82 105.192 396.918 106.192 397.645 T
106.574 398.82 103.956 396.918 105.192 396.918 T
106.574 398.82 102.956 397.645 103.956 396.918 T
106.574 398.82 102.574 398.82 102.956 397.645 T
106.574 398.82 102.956 399.996 102.574 398.82 T
106.574 398.82 103.956 400.722 102.956 399.996 T
106.574 398.82 105.192 400.722 103.956 400.722 T
106.574 398.82 106.192 399.996 105.192 400.722 T
101.371 399.07 99.9886 397.168 100.989 397.894 T
101.371 399.07 98.7525 397.168 99.9886 397.168 T
101.371 399.07 97.7525 397.894 98.7525 397.168 T
101.371 399.07 97.3705 399.07 97.7525 397.894 T
101.371 399.07 97.7525 400.245 97.3705 399.07 T
101.371 399.07 98.7525 400.972 97.7525 400.245 T
101.371 399.07 99.9886 400.972 98.7525 400.972 T
101.371 399.07 100.989 400.245 99.9886 400.972 T
96.2704 399.268 94.8884 397.366 95.8884 398.092 T
96.2704 399.268 93.6524 397.366 94.8884 397.366 T
96.2704 399.268 92.6524 398.092 93.6524 397.366 T
96.2704 399.268 92.2704 399.268 92.6524 398.092 T
96.2704 399.268 92.6524 400.443 92.2704 399.268 T
96.2704 399.268 93.6524 401.17 92.6524 400.443 T
96.2704 399.268 94.8884 401.17 93.6524 401.17 T
96.2704 399.268 95.8884 400.443 94.8884 401.17 T
91.2725 399.417 89.8905 397.515 90.8905 398.241 T
91.2725 399.417 88.6545 397.515 89.8905 397.515 T
91.2725 399.417 87.6545 398.241 88.6545 397.515 T
91.2725 399.417 87.2725 399.417 87.6545 398.241 T
91.2725 399.417 87.6545 400.593 87.2725 399.417 T
91.2725 399.417 88.6545 401.319 87.6545 400.593 T
91.2725 399.417 89.8905 401.319 88.6545 401.319 T
91.2725 399.417 90.8905 400.593 89.8905 401.319 T
86.3757 399.52 84.9938 397.618 85.9937 398.345 T
86.3757 399.52 83.7577 397.618 84.9938 397.618 T
86.3757 399.52 82.7577 398.345 83.7577 397.618 T
86.3757 399.52 82.3757 399.52 82.7577 398.345 T
86.3757 399.52 82.7577 400.696 82.3757 399.52 T
86.3757 399.52 83.7577 401.422 82.7577 400.696 T
86.3757 399.52 84.9938 401.422 83.7577 401.422 T
86.3757 399.52 85.9937 400.696 84.9938 401.422 T
81.5787 399.581 80.1967 397.678 81.1967 398.405 T
81.5787 399.581 78.9606 397.678 80.1967 397.678 T
81.5787 399.581 77.9606 398.405 78.9606 397.678 T
81.5787 399.581 77.5787 399.581 77.9606 398.405 T
81.5787 399.581 77.9606 400.756 77.5787 399.581 T
81.5787 399.581 78.9606 401.483 77.9606 400.756 T
81.5787 399.581 80.1967 401.483 78.9606 401.483 T
81.5787 399.581 81.1967 400.756 80.1967 401.483 T
76.88 399.6 75.498 397.698 76.498 398.424 T
76.88 399.6 74.262 397.698 75.498 397.698 T
76.88 399.6 73.262 398.424 74.262 397.698 T
76.88 399.6 72.88 399.6 73.262 398.424 T
76.88 399.6 73.262 400.776 72.88 399.6 T
76.88 399.6 74.262 401.502 73.262 400.776 T
76.88 399.6 75.498 401.502 74.262 401.502 T
76.88 399.6 76.498 400.776 75.498 401.502 T
grestore
showpage
cleartomark
%%PageTrailer
%%Trailer
end
%%EOF
