%!PS-Adobe-3.0 EPSF-3.0
%%Title: glps_renderer figure
%%Creator: GL2PS 1.3.8, (C) 1999-2012 C. Geuzaine
%%For: Octave
%%CreationDate: Thu May 14 12:25:16 2015
%%LanguageLevel: 3
%%DocumentData: Clean7Bit
%%Pages: 1
%%BoundingBox: 0 0 576 432
%%EndComments
%%BeginProlog
/gl2psdict 64 dict def gl2psdict begin
0 setlinecap 0 setlinejoin
/tryPS3shading false def % set to false to force subdivision
/rThreshold 0.064 def % red component subdivision threshold
/gThreshold 0.034 def % green component subdivision threshold
/bThreshold 0.1 def % blue component subdivision threshold
/BD { bind def } bind def
/C  { setrgbcolor } BD
/G  { 0.082 mul exch 0.6094 mul add exch 0.3086 mul add neg 1.0 add setgray } BD
/W  { setlinewidth } BD
/FC { findfont exch /SH exch def SH scalefont setfont } BD
/SW { dup stringwidth pop } BD
/S  { FC moveto show } BD
/SBC{ FC moveto SW -2 div 0 rmoveto show } BD
/SBR{ FC moveto SW neg 0 rmoveto show } BD
/SCL{ FC moveto 0 SH -2 div rmoveto show } BD
/SCC{ FC moveto SW -2 div SH -2 div rmoveto show } BD
/SCR{ FC moveto SW neg SH -2 div rmoveto show } BD
/STL{ FC moveto 0 SH neg rmoveto show } BD
/STC{ FC moveto SW -2 div SH neg rmoveto show } BD
/STR{ FC moveto SW neg SH neg rmoveto show } BD
/FCT { FC translate 0 0 } BD
/SR  { gsave FCT moveto rotate show grestore } BD
/SBCR{ gsave FCT moveto rotate SW -2 div 0 rmoveto show grestore } BD
/SBRR{ gsave FCT moveto rotate SW neg 0 rmoveto show grestore } BD
/SCLR{ gsave FCT moveto rotate 0 SH -2 div rmoveto show grestore} BD
/SCCR{ gsave FCT moveto rotate SW -2 div SH -2 div rmoveto show grestore} BD
/SCRR{ gsave FCT moveto rotate SW neg SH -2 div rmoveto show grestore} BD
/STLR{ gsave FCT moveto rotate 0 SH neg rmoveto show grestore } BD
/STCR{ gsave FCT moveto rotate SW -2 div SH neg rmoveto show grestore } BD
/STRR{ gsave FCT moveto rotate SW neg SH neg rmoveto show grestore } BD
/P  { newpath 0.0 360.0 arc closepath fill } BD
/LS { newpath moveto } BD
/L  { lineto } BD
/LE { lineto stroke } BD
/T  { newpath moveto lineto lineto closepath fill } BD
/STshfill {
      /b1 exch def /g1 exch def /r1 exch def /y1 exch def /x1 exch def
      /b2 exch def /g2 exch def /r2 exch def /y2 exch def /x2 exch def
      /b3 exch def /g3 exch def /r3 exch def /y3 exch def /x3 exch def
      gsave << /ShadingType 4 /ColorSpace [/DeviceRGB]
      /DataSource [ 0 x1 y1 r1 g1 b1 0 x2 y2 r2 g2 b2 0 x3 y3 r3 g3 b3 ] >>
      shfill grestore } BD
/Tm { 3 -1 roll 8 -1 roll 13 -1 roll add add 3 div
      3 -1 roll 7 -1 roll 11 -1 roll add add 3 div
      3 -1 roll 6 -1 roll 9 -1 roll add add 3 div C T } BD
/STsplit {
      4 index 15 index add 0.5 mul
      4 index 15 index add 0.5 mul
      4 index 15 index add 0.5 mul
      4 index 15 index add 0.5 mul
      4 index 15 index add 0.5 mul
      5 copy 5 copy 25 15 roll
      9 index 30 index add 0.5 mul
      9 index 30 index add 0.5 mul
      9 index 30 index add 0.5 mul
      9 index 30 index add 0.5 mul
      9 index 30 index add 0.5 mul
      5 copy 5 copy 35 5 roll 25 5 roll 15 5 roll
      4 index 10 index add 0.5 mul
      4 index 10 index add 0.5 mul
      4 index 10 index add 0.5 mul
      4 index 10 index add 0.5 mul
      4 index 10 index add 0.5 mul
      5 copy 5 copy 40 5 roll 25 5 roll 15 5 roll 25 5 roll
      STnoshfill STnoshfill STnoshfill STnoshfill } BD
/STnoshfill {
      2 index 8 index sub abs rThreshold gt
      { STsplit }
      { 1 index 7 index sub abs gThreshold gt
        { STsplit }
        { dup 6 index sub abs bThreshold gt
          { STsplit }
          { 2 index 13 index sub abs rThreshold gt
            { STsplit }
            { 1 index 12 index sub abs gThreshold gt
              { STsplit }
              { dup 11 index sub abs bThreshold gt
                { STsplit }
                { 7 index 13 index sub abs rThreshold gt
                  { STsplit }
                  { 6 index 12 index sub abs gThreshold gt
                    { STsplit }
                    { 5 index 11 index sub abs bThreshold gt
                      { STsplit }
                      { Tm }
                      ifelse }
                    ifelse }
                  ifelse }
                ifelse }
              ifelse }
            ifelse }
          ifelse }
        ifelse }
      ifelse } BD
tryPS3shading
{ /shfill where
  { /ST { STshfill } BD }
  { /ST { STnoshfill } BD }
  ifelse }
{ /ST { STnoshfill } BD }
ifelse
end
%%EndProlog
%%BeginSetup
/DeviceRGB setcolorspace
gl2psdict begin
%%EndSetup
%%Page: 1 1
%%BeginPageSetup
%%EndPageSetup
mark
gsave
1.0 1.0 scale
1 1 1 C
74.88 136.642 521.28 115.906 268.695 47.52 T
74.88 136.642 327.465 205.028 521.28 115.906 T
521.28 115.906 327.465 399.6 521.28 310.478 T
521.28 115.906 327.465 205.028 327.465 399.6 T
0.5 W
[16 0] 0 setdash
0 0 0 C
72.1037 137.919 LS
64.7461 141.302 LE
(0) 60.2059 143.39 10 /Helvetica SBR
72.1038 176.833 LS
64.7461 180.216 LE
(0.2) 60.2059 182.304 10 /Helvetica SBR
72.1038 215.748 LS
64.7461 219.131 LE
(0.4) 60.2059 221.219 10 /Helvetica SBR
72.1037 254.662 LS
64.7461 258.045 LE
(0.6) 60.2059 260.133 10 /Helvetica SBR
72.1037 293.576 LS
64.7461 296.96 LE
(0.8) 60.2059 299.047 10 /Helvetica SBR
72.1037 332.491 LS
64.7461 335.874 LE
(1) 60.2059 337.962 10 /Helvetica SBR
1 1 1 C
74.88 136.642 327.465 399.6 74.88 331.214 T
74.88 136.642 327.465 205.028 327.465 399.6 T
0 0 1 C
259.793 159.793 258.411 157.891 259.411 158.617 T
259.793 159.793 257.175 157.891 258.411 157.891 T
259.793 159.793 256.175 158.617 257.175 157.891 T
259.793 159.793 255.793 159.793 256.175 158.617 T
259.793 159.793 256.175 160.969 255.793 159.793 T
259.793 159.793 257.175 161.695 256.175 160.969 T
259.793 159.793 258.411 161.695 257.175 161.695 T
259.793 159.793 259.411 160.969 258.411 161.695 T
0 0 0 C
427.769 158.905 LS
327.465 205.028 LE
157.109 158.905 LS
327.465 205.028 LE
327.465 343.397 LS
327.465 205.028 LE
0 0 1 C
312.252 158.898 310.87 156.996 311.87 157.722 T
312.252 158.898 309.634 156.996 310.87 156.996 T
312.252 158.898 308.634 157.722 309.634 156.996 T
312.252 158.898 308.252 158.898 308.634 157.722 T
312.252 158.898 308.634 160.073 308.252 158.898 T
312.252 158.898 309.634 160.8 308.634 160.073 T
312.252 158.898 310.87 160.8 309.634 160.8 T
312.252 158.898 311.87 160.073 310.87 160.8 T
210.301 157.819 208.919 155.917 209.919 156.643 T
210.301 157.819 207.683 155.917 208.919 155.917 T
210.301 157.819 206.683 156.643 207.683 155.917 T
210.301 157.819 206.301 157.819 206.683 156.643 T
210.301 157.819 206.683 158.995 206.301 157.819 T
210.301 157.819 207.683 159.721 206.683 158.995 T
210.301 157.819 208.919 159.721 207.683 159.721 T
210.301 157.819 209.919 158.995 208.919 159.721 T
0 0 0 C
427.769 158.905 LS
436.306 154.979 LE
157.109 158.905 LS
142.609 154.979 LE
327.465 343.397 LS
327.465 355.174 LE
0 0 1 C
363.579 154.972 362.197 153.07 363.197 153.796 T
363.579 154.972 360.961 153.07 362.197 153.07 T
363.579 154.972 359.961 153.796 360.961 153.07 T
363.579 154.972 359.579 154.972 359.961 153.796 T
363.579 154.972 359.961 156.147 359.579 154.972 T
363.579 154.972 360.961 156.874 359.961 156.147 T
363.579 154.972 362.197 156.874 360.961 156.874 T
363.579 154.972 363.197 156.147 362.197 156.874 T
0 0 0 C
439.079 153.705 LS
436.306 154.979 LE
137.9 153.705 LS
142.609 154.979 LE
327.465 358.999 LS
327.465 355.174 LE
0 0 1 C
166.7 153.697 165.318 151.795 166.318 152.521 T
166.7 153.697 164.082 151.795 165.318 151.795 T
166.7 153.697 163.082 152.521 164.082 151.795 T
166.7 153.697 162.7 153.697 163.082 152.521 T
166.7 153.697 163.082 154.872 162.7 153.697 T
166.7 153.697 164.082 155.599 163.082 154.872 T
166.7 153.697 165.318 155.599 164.082 155.599 T
166.7 153.697 166.318 154.872 165.318 155.599 T
0 0 0 C
445.764 150.631 LS
439.079 153.705 LE
126.546 150.631 LS
137.9 153.705 LE
327.465 368.221 LS
327.465 358.999 LE
0 0 1 C
283.399 183.567 282.017 181.665 283.017 182.391 T
283.399 183.567 280.781 181.665 282.017 181.665 T
283.399 183.567 279.781 182.391 280.781 181.665 T
283.399 183.567 279.399 183.567 279.781 182.391 T
283.399 183.567 279.781 184.743 279.399 183.567 T
283.399 183.567 280.781 185.469 279.781 184.743 T
283.399 183.567 282.017 185.469 280.781 185.469 T
283.399 183.567 283.017 184.743 282.017 185.469 T
0 0 0 C
445.764 150.631 LS
450.282 148.553 LE
126.546 150.631 LS
118.873 148.553 LE
327.465 368.221 LS
327.465 374.453 LE
0 0 1 C
228.06 181.932 226.678 180.03 227.678 180.757 T
228.06 181.932 225.442 180.03 226.678 180.03 T
228.06 181.932 224.442 180.757 225.442 180.03 T
228.06 181.932 224.06 181.932 224.442 180.757 T
228.06 181.932 224.442 183.108 224.06 181.932 T
228.06 181.932 225.442 183.834 224.442 183.108 T
228.06 181.932 226.678 183.834 225.442 183.834 T
228.06 181.932 227.678 183.108 226.678 183.834 T
409.937 148.546 408.555 146.643 409.555 147.37 T
409.937 148.546 407.319 146.643 408.555 146.643 T
409.937 148.546 406.319 147.37 407.319 146.643 T
409.937 148.546 405.937 148.546 406.319 147.37 T
409.937 148.546 406.319 149.721 405.937 148.546 T
409.937 148.546 407.319 150.448 406.319 149.721 T
409.937 148.546 408.555 150.448 407.319 150.448 T
409.937 148.546 409.555 149.721 408.555 150.448 T
0 0 0 C
450.759 148.334 LS
450.282 148.553 LE
118.062 148.334 LS
118.873 148.553 LE
327.465 375.112 LS
327.465 374.453 LE
0 0 1 C
130.18 148.325 128.798 146.423 129.798 147.15 T
130.18 148.325 127.562 146.423 128.798 146.423 T
130.18 148.325 126.562 147.15 127.562 146.423 T
130.18 148.325 126.18 148.325 126.562 147.15 T
130.18 148.325 126.562 149.501 126.18 148.325 T
130.18 148.325 127.562 150.228 126.562 149.501 T
130.18 148.325 128.798 150.228 127.562 150.228 T
130.18 148.325 129.798 149.501 128.798 150.228 T
0 0 0 C
451.491 147.997 LS
450.759 148.334 LE
116.82 147.997 LS
118.062 148.334 LE
327.465 376.121 LS
327.465 375.112 LE
0 0 1 C
340.092 180.933 338.71 179.031 339.71 179.758 T
340.092 180.933 337.474 179.031 338.71 179.031 T
340.092 180.933 336.474 179.758 337.474 179.031 T
340.092 180.933 336.092 180.933 336.474 179.758 T
340.092 180.933 336.474 182.109 336.092 180.933 T
340.092 180.933 337.474 182.836 336.474 182.109 T
340.092 180.933 338.71 182.836 337.474 182.836 T
340.092 180.933 339.71 182.109 338.71 182.836 T
0 0 0 C
451.491 147.997 LS
463.493 142.478 LE
116.82 147.997 LS
96.4352 142.478 LE
327.465 376.121 LS
327.465 392.678 LE
0 0 1 C
178.538 176.87 177.156 174.967 178.156 175.694 T
178.538 176.87 175.92 174.967 177.156 174.967 T
178.538 176.87 174.92 175.694 175.92 174.967 T
178.538 176.87 174.538 176.87 174.92 175.694 T
178.538 176.87 174.92 178.045 174.538 176.87 T
178.538 176.87 175.92 178.772 174.92 178.045 T
178.538 176.87 177.156 178.772 175.92 178.772 T
178.538 176.87 178.156 178.045 177.156 178.772 T
100.544 142.47 99.1619 140.568 100.162 141.294 T
100.544 142.47 97.9259 140.568 99.1619 140.568 T
100.544 142.47 96.9259 141.294 97.9259 140.568 T
100.544 142.47 96.5439 142.47 96.9259 141.294 T
100.544 142.47 96.9259 143.645 96.5439 142.47 T
100.544 142.47 97.9259 144.372 96.9259 143.645 T
100.544 142.47 99.1619 144.372 97.9259 144.372 T
100.544 142.47 100.162 143.645 99.1619 144.372 T
0 0 0 C
463.766 142.353 LS
463.493 142.478 LE
95.9719 142.353 LS
96.4352 142.478 LE
327.465 393.054 LS
327.465 392.678 LE
0 0 1 C
392.904 174.275 391.523 172.373 392.523 173.099 T
392.904 174.275 390.286 172.373 391.523 172.373 T
392.904 174.275 389.286 173.099 390.286 172.373 T
392.904 174.275 388.904 174.275 389.286 173.099 T
392.904 174.275 389.286 175.451 388.904 174.275 T
392.904 174.275 390.286 176.177 389.286 175.451 T
392.904 174.275 391.523 176.177 390.286 176.177 T
392.904 174.275 392.523 175.451 391.523 176.177 T
0 0 0 C
463.766 142.353 LS
467.599 140.59 LE
95.9719 142.353 LS
89.4606 140.59 LE
327.465 393.054 LS
327.465 398.343 LE
0 0 1 C
137.072 169.742 135.69 167.84 136.69 168.567 T
137.072 169.742 134.454 167.84 135.69 167.84 T
137.072 169.742 133.454 168.567 134.454 167.84 T
137.072 169.742 133.072 169.742 133.454 168.567 T
137.072 169.742 133.454 170.918 133.072 169.742 T
137.072 169.742 134.454 171.645 133.454 170.918 T
137.072 169.742 135.69 171.645 134.454 171.645 T
137.072 169.742 136.69 170.918 135.69 171.645 T
449.028 140.582 447.646 138.68 448.646 139.406 T
449.028 140.582 446.41 138.68 447.646 138.68 T
449.028 140.582 445.41 139.406 446.41 138.68 T
449.028 140.582 445.028 140.582 445.41 139.406 T
449.028 140.582 445.41 141.758 445.028 140.582 T
449.028 140.582 446.41 142.484 445.41 141.758 T
449.028 140.582 447.646 142.484 446.41 142.484 T
449.028 140.582 448.646 141.758 447.646 142.484 T
0 0 0 C
472.779 138.208 LS
467.599 140.59 LE
80.663 138.208 LS
89.4606 140.59 LE
327.465 398.343 LS
327.465 399.6 LE
331.734 397.637 LS
327.465 399.6 LE
320.215 397.637 LS
327.465 399.6 LE
0 0 1 C
250.31 207.532 248.928 205.63 249.928 206.356 T
250.31 207.532 247.692 205.63 248.928 205.63 T
250.31 207.532 246.692 206.356 247.692 205.63 T
250.31 207.532 246.31 207.532 246.692 206.356 T
250.31 207.532 246.692 208.708 246.31 207.532 T
250.31 207.532 247.692 209.434 246.692 208.708 T
250.31 207.532 248.928 209.434 247.692 209.434 T
250.31 207.532 249.928 208.708 248.928 209.434 T
0 0 0 C
472.779 138.208 LS
476.16 136.654 LE
80.663 138.208 LS
74.9217 136.654 LE
74.8554 136.654 LS
72.1037 137.919 LE
0 0 1 C
310.683 207.646 309.301 205.744 310.301 206.471 T
310.683 207.646 308.065 205.744 309.301 205.744 T
310.683 207.646 307.065 206.471 308.065 205.744 T
310.683 207.646 306.683 207.646 307.065 206.471 T
310.683 207.646 307.065 208.822 306.683 207.646 T
310.683 207.646 308.065 209.549 307.065 208.822 T
310.683 207.646 309.301 209.549 308.065 209.549 T
310.683 207.646 310.301 208.822 309.301 209.549 T
0 0 0 C
331.734 397.637 LS
335.114 396.083 LE
320.215 397.637 LS
314.474 396.083 LE
0 0 1 C
76.8825 136.645 75.5005 134.743 76.5005 135.469 T
76.8825 136.645 74.2645 134.743 75.5005 134.743 T
76.8825 136.645 73.2645 135.469 74.2645 134.743 T
76.8825 136.645 72.8825 136.645 73.2645 135.469 T
76.8825 136.645 73.2645 137.82 72.8825 136.645 T
76.8825 136.645 74.2645 138.547 73.2645 137.82 T
76.8825 136.645 75.5005 138.547 74.2645 138.547 T
76.8825 136.645 76.5005 137.82 75.5005 138.547 T
0 0 0 C
76.0054 136.125 LS
74.88 136.642 LE
477.31 136.125 LS
476.16 136.654 LE
74.9217 136.654 LS
74.88 136.642 LE
72.9686 136.125 LS
74.88 136.642 LE
74.8554 136.654 LS
74.88 136.642 LE
0 0 1 C
194.628 202.226 193.246 200.324 194.246 201.051 T
194.628 202.226 192.01 200.324 193.246 200.324 T
194.628 202.226 191.01 201.051 192.01 200.324 T
194.628 202.226 190.628 202.226 191.01 201.051 T
194.628 202.226 191.01 203.402 190.628 202.226 T
194.628 202.226 192.01 204.128 191.01 203.402 T
194.628 202.226 193.246 204.128 192.01 204.128 T
194.628 202.226 194.246 203.402 193.246 204.128 T
0 0 0 C
74.88 138.195 LS
74.88 136.642 LE
336.264 395.554 LS
335.114 396.083 LE
312.521 395.554 LS
314.474 396.083 LE
0 0 1 C
103.799 161.801 102.417 159.899 103.417 160.625 T
103.799 161.801 101.181 159.899 102.417 159.899 T
103.799 161.801 100.181 160.625 101.181 159.899 T
103.799 161.801 99.7992 161.801 100.181 160.625 T
103.799 161.801 100.181 162.976 99.7992 161.801 T
103.799 161.801 101.181 163.703 100.181 162.976 T
103.799 161.801 102.417 163.703 101.181 163.703 T
103.799 161.801 103.417 162.976 102.417 163.703 T
0 0 0 C
72.9686 136.125 LS
67.5959 134.67 LE
76.0054 136.125 LS
79.1688 134.67 LE
74.88 138.195 LS
74.88 142.559 LE
477.31 136.125 LS
480.473 134.67 LE
336.264 395.554 LS
339.427 394.099 LE
312.521 395.554 LS
307.148 394.099 LE
0 0 1 C
438.003 164.817 436.621 162.915 437.621 163.641 T
438.003 164.817 435.385 162.915 436.621 162.915 T
438.003 164.817 434.385 163.641 435.385 162.915 T
438.003 164.817 434.003 164.817 434.385 163.641 T
438.003 164.817 434.385 165.992 434.003 164.817 T
438.003 164.817 435.385 166.719 434.385 165.992 T
438.003 164.817 436.621 166.719 435.385 166.719 T
438.003 164.817 437.621 165.992 436.621 166.719 T
0 0 0 C
67.5959 134.67 LS
64.1202 133.729 LE
83.5272 132.666 LS
79.1688 134.67 LE
74.88 148.571 LS
74.88 142.559 LE
484.832 132.666 LS
480.473 134.67 LE
343.786 392.095 LS
339.427 394.099 LE
299.746 392.095 LS
307.148 394.099 LE
0 0 1 C
369.615 201.99 368.233 200.088 369.233 200.814 T
369.615 201.99 366.997 200.088 368.233 200.088 T
369.615 201.99 365.997 200.814 366.997 200.088 T
369.615 201.99 365.615 201.99 365.997 200.814 T
369.615 201.99 365.997 203.166 365.615 201.99 T
369.615 201.99 366.997 203.892 365.997 203.166 T
369.615 201.99 368.233 203.892 366.997 203.892 T
369.615 201.99 369.233 203.166 368.233 203.892 T
0 0 0 C
(1) 59.2995 132.424 10 /Helvetica STR
83.5272 132.666 LS
84.8307 132.067 LE
0 0 1 C
147.499 193.525 146.117 191.623 147.117 192.349 T
147.499 193.525 144.881 191.623 146.117 191.623 T
147.499 193.525 143.881 192.349 144.881 191.623 T
147.499 193.525 143.499 193.525 143.881 192.349 T
147.499 193.525 143.881 194.701 143.499 193.525 T
147.499 193.525 144.881 195.427 143.881 194.701 T
147.499 193.525 146.117 195.427 144.881 195.427 T
147.499 193.525 147.117 194.701 146.117 195.427 T
0 0 0 C
74.88 148.571 LS
74.88 150.369 LE
484.832 132.666 LS
486.135 132.067 LE
343.786 392.095 LS
345.089 391.496 LE
299.746 392.095 LS
297.532 391.496 LE
0 0 1 C
480.365 132.058 478.983 130.156 479.983 130.883 T
480.365 132.058 477.747 130.156 478.983 130.156 T
480.365 132.058 476.747 130.883 477.747 130.156 T
480.365 132.058 476.365 132.058 476.747 130.883 T
480.365 132.058 476.747 133.234 476.365 132.058 T
480.365 132.058 477.747 133.961 476.747 133.234 T
480.365 132.058 478.983 133.961 477.747 133.961 T
480.365 132.058 479.983 133.234 478.983 133.961 T
0 0 0 C
88.4196 130.416 LS
84.8307 132.067 LE
74.88 155.32 LS
74.88 150.369 LE
489.724 130.416 LS
486.135 132.067 LE
348.678 389.845 LS
345.089 391.496 LE
291.436 389.845 LS
297.532 391.496 LE
0 0 1 C
77.6787 153.893 76.2967 151.991 77.2967 152.717 T
77.6787 153.893 75.0607 151.991 76.2967 151.991 T
77.6787 153.893 74.0607 152.717 75.0607 151.991 T
77.6787 153.893 73.6787 153.893 74.0607 152.717 T
77.6787 153.893 74.0607 155.068 73.6787 153.893 T
77.6787 153.893 75.0607 155.795 74.0607 155.068 T
77.6787 153.893 76.2967 155.795 75.0607 155.795 T
77.6787 153.893 77.2967 155.068 76.2967 155.795 T
0 0 0 C
88.4196 130.416 LS
97.7492 126.126 LE
0 0 1 C
109.835 183.349 108.453 181.447 109.453 182.174 T
109.835 183.349 107.217 181.447 108.453 181.447 T
109.835 183.349 106.217 182.174 107.217 181.447 T
109.835 183.349 105.835 183.349 106.217 182.174 T
109.835 183.349 106.217 184.525 105.835 183.349 T
109.835 183.349 107.217 185.251 106.217 184.525 T
109.835 183.349 108.453 185.251 107.217 185.251 T
109.835 183.349 109.453 184.525 108.453 185.251 T
0 0 0 C
74.88 155.32 LS
74.88 168.19 LE
489.724 130.416 LS
499.054 126.126 LE
348.678 389.845 LS
358.008 385.555 LE
291.436 389.845 LS
275.591 385.555 LE
0 0 1 C
474.028 154.09 472.646 152.188 473.646 152.914 T
474.028 154.09 471.41 152.188 472.646 152.188 T
474.028 154.09 470.41 152.914 471.41 152.188 T
474.028 154.09 470.028 154.09 470.41 152.914 T
474.028 154.09 470.41 155.266 470.028 154.09 T
474.028 154.09 471.41 155.992 470.41 155.266 T
474.028 154.09 472.646 155.992 471.41 155.992 T
474.028 154.09 473.646 155.266 472.646 155.992 T
0 0 0 C
97.7492 126.126 LS
103.016 123.704 LE
74.8069 175.59 LS
72.1038 176.833 LE
74.88 168.19 LS
74.88 175.456 LE
499.054 126.126 LS
504.321 123.704 LE
0 0 1 C
421.4 191.692 420.018 189.79 421.018 190.516 T
421.4 191.692 418.782 189.79 420.018 189.79 T
421.4 191.692 417.782 190.516 418.782 189.79 T
421.4 191.692 417.4 191.692 417.782 190.516 T
421.4 191.692 417.782 192.868 417.4 191.692 T
421.4 191.692 418.782 193.594 417.782 192.868 T
421.4 191.692 420.018 193.594 418.782 193.594 T
421.4 191.692 421.018 192.868 420.018 193.594 T
0 0 0 C
358.008 385.555 LS
363.275 383.134 LE
275.591 385.555 LS
266.646 383.134 LE
0 0 1 C
504.695 123.696 503.314 121.794 504.314 122.52 T
504.695 123.696 502.077 121.794 503.314 121.794 T
504.695 123.696 501.077 122.52 502.077 121.794 T
504.695 123.696 500.696 123.696 501.077 122.52 T
504.695 123.696 501.077 124.871 500.696 123.696 T
504.695 123.696 502.077 125.598 501.077 124.871 T
504.695 123.696 503.314 125.598 502.077 125.598 T
504.695 123.696 504.314 124.871 503.314 125.598 T
0 0 0 C
106.279 122.204 LS
103.016 123.704 LE
74.8069 175.59 LS
74.88 175.557 LE
74.88 179.957 LS
74.88 175.456 LE
507.583 122.204 LS
504.321 123.704 LE
366.537 381.633 LS
363.275 383.134 LE
261.104 381.633 LS
266.646 383.134 LE
0 0 1 C
80.6467 173.071 79.2648 171.169 80.2648 171.895 T
80.6467 173.071 78.0287 171.169 79.2648 171.169 T
80.6467 173.071 77.0287 171.895 78.0287 171.169 T
80.6467 173.071 76.6467 173.071 77.0287 171.895 T
80.6467 173.071 77.0287 174.247 76.6467 173.071 T
80.6467 173.071 78.0287 174.973 77.0287 174.247 T
80.6467 173.071 79.2648 174.973 78.0287 174.973 T
80.6467 173.071 80.2648 174.247 79.2648 174.973 T
0 0 0 C
107.335 121.718 LS
106.279 122.204 LE
0 0 1 C
215.563 227.64 214.181 225.738 215.181 226.464 T
215.563 227.64 212.945 225.738 214.181 225.738 T
215.563 227.64 211.945 226.464 212.945 225.738 T
215.563 227.64 211.563 227.64 211.945 226.464 T
215.563 227.64 211.945 228.816 211.563 227.64 T
215.563 227.64 212.945 229.542 211.945 228.816 T
215.563 227.64 214.181 229.542 212.945 229.542 T
215.563 227.64 215.181 228.816 214.181 229.542 T
0 0 0 C
74.88 181.414 LS
74.88 179.957 LE
508.64 121.718 LS
507.583 122.204 LE
367.594 381.148 LS
366.537 381.633 LE
259.31 381.148 LS
261.104 381.633 LE
0 0 1 C
276.531 231.774 275.149 229.872 276.149 230.598 T
276.531 231.774 273.913 229.872 275.149 229.872 T
276.531 231.774 272.913 230.598 273.913 229.872 T
276.531 231.774 272.531 231.774 272.913 230.598 T
276.531 231.774 272.913 232.949 272.531 231.774 T
276.531 231.774 273.913 233.676 272.913 232.949 T
276.531 231.774 275.149 233.676 273.913 233.676 T
276.531 231.774 276.149 232.949 275.149 233.676 T
0 0 0 C
112.333 119.42 LS
107.335 121.718 LE
74.88 188.308 LS
74.88 181.414 LE
513.637 119.42 LS
508.64 121.718 LE
372.591 378.85 LS
367.594 381.148 LE
250.822 378.849 LS
259.31 381.148 LE
0 0 1 C
162.55 218.252 161.168 216.35 162.168 217.076 T
162.55 218.252 159.932 216.35 161.168 216.35 T
162.55 218.252 158.932 217.076 159.932 216.35 T
162.55 218.252 158.55 218.252 158.932 217.076 T
162.55 218.252 158.932 219.427 158.55 218.252 T
162.55 218.252 159.932 220.154 158.932 219.427 T
162.55 218.252 161.168 220.154 159.932 220.154 T
162.55 218.252 162.168 219.427 161.168 220.154 T
0 0 0 C
109.608 117.725 LS
113.643 118.818 LE
112.333 119.42 LS
116.019 117.725 LE
74.88 188.308 LS
74.88 193.393 LE
513.637 119.42 LS
517.323 117.725 LE
0 0 1 C
339.661 228.841 338.279 226.939 339.279 227.666 T
339.661 228.841 337.043 226.939 338.279 226.939 T
339.661 228.841 336.043 227.666 337.043 226.939 T
339.661 228.841 335.661 228.841 336.043 227.666 T
339.661 228.841 336.043 230.017 335.661 228.841 T
339.661 228.841 337.043 230.743 336.043 230.017 T
339.661 228.841 338.279 230.743 337.043 230.743 T
339.661 228.841 339.279 230.017 338.279 230.743 T
0 0 0 C
372.591 378.85 LS
376.277 377.155 LE
250.822 378.849 LS
244.562 377.155 LE
0 0 1 C
463.152 178.862 461.77 176.96 462.77 177.687 T
463.152 178.862 460.534 176.96 461.77 176.96 T
463.152 178.862 459.534 177.687 460.534 176.96 T
463.152 178.862 459.152 178.862 459.534 177.687 T
463.152 178.862 459.534 180.038 459.152 178.862 T
463.152 178.862 460.534 180.764 459.534 180.038 T
463.152 178.862 461.77 180.764 460.534 180.764 T
463.152 178.862 462.77 180.038 461.77 180.764 T
0 0 0 C
109.608 117.725 LS
109.315 117.646 LE
116.019 117.725 LS
116.192 117.646 LE
74.88 193.393 LS
74.88 193.631 LE
517.323 117.725 LS
517.496 117.646 LE
376.277 377.155 LS
376.45 377.075 LE
244.562 377.155 LS
244.268 377.075 LE
0 0 1 C
501.601 143.322 500.219 141.42 501.219 142.146 T
501.601 143.322 498.983 141.42 500.219 141.42 T
501.601 143.322 497.983 142.146 498.983 141.42 T
501.601 143.322 497.601 143.322 497.983 142.146 T
501.601 143.322 497.983 144.498 497.601 143.322 T
501.601 143.322 498.983 145.224 497.983 144.498 T
501.601 143.322 500.219 145.224 498.983 145.224 T
501.601 143.322 501.219 144.498 500.219 145.224 T
0 0 0 C
109.315 117.646 LS
102.93 115.917 LE
116.192 117.646 LS
119.951 115.917 LE
74.88 193.631 LS
74.88 198.817 LE
517.496 117.646 LS
521.255 115.917 LE
376.45 377.075 LS
380.209 375.347 LE
244.268 377.075 LS
237.884 375.347 LE
0 0 1 C
523.278 115.909 521.896 114.007 522.896 114.733 T
523.278 115.909 520.66 114.007 521.896 114.007 T
523.278 115.909 519.66 114.733 520.66 114.007 T
523.278 115.909 519.278 115.909 519.66 114.733 T
523.278 115.909 519.66 117.084 519.278 115.909 T
523.278 115.909 520.66 117.811 519.66 117.084 T
523.278 115.909 521.896 117.811 520.66 117.811 T
523.278 115.909 522.896 117.084 521.896 117.811 T
0 0 0 C
102.93 115.917 LS
102.883 115.905 LE
(0.8) 98.0625 114.599 10 /Helvetica STR
125.698 113.274 LS
119.951 115.917 LE
0 0 1 C
119.813 206.207 118.431 204.305 119.431 205.032 T
119.813 206.207 117.195 204.305 118.431 204.305 T
119.813 206.207 116.195 205.032 117.195 204.305 T
119.813 206.207 115.813 206.207 116.195 205.032 T
119.813 206.207 116.195 207.383 115.813 206.207 T
119.813 206.207 117.195 208.109 116.195 207.383 T
119.813 206.207 118.431 208.109 117.195 208.109 T
119.813 206.207 119.431 207.383 118.431 208.109 T
0 0 0 C
74.88 206.746 LS
74.88 198.817 LE
521.255 115.917 LS
521.28 115.906 LE
521.28 123.801 LS
521.28 115.906 LE
385.957 372.703 LS
380.209 375.347 LE
228.122 372.703 LS
237.884 375.347 LE
511.56 113.274 LS
521.28 115.906 LE
527.003 113.274 LS
521.28 115.906 LE
0 0 1 C
397.805 219.174 396.423 217.272 397.423 217.999 T
397.805 219.174 395.187 217.272 396.423 217.272 T
397.805 219.174 394.187 217.999 395.187 217.272 T
397.805 219.174 393.805 219.174 394.187 217.999 T
397.805 219.174 394.187 220.35 393.805 219.174 T
397.805 219.174 395.187 221.077 394.187 220.35 T
397.805 219.174 396.423 221.077 395.187 221.077 T
397.805 219.174 397.423 220.35 396.423 221.077 T
0 0 0 C
125.698 113.274 LS
133.329 109.765 LE
72.1038 215.748 LS
74.88 214.471 LE
74.88 206.746 LS
74.88 217.273 LE
0 0 1 C
86.8291 193.599 85.4472 191.697 86.4472 192.423 T
86.8291 193.599 84.2111 191.697 85.4472 191.697 T
86.8291 193.599 83.2111 192.423 84.2111 191.697 T
86.8291 193.599 82.8292 193.599 83.2111 192.423 T
86.8291 193.599 83.2111 194.774 82.8292 193.599 T
86.8291 193.599 84.2111 195.501 83.2111 194.774 T
86.8291 193.599 85.4472 195.501 84.2111 195.501 T
86.8291 193.599 86.4472 194.774 85.4472 195.501 T
0 0 0 C
521.28 123.801 LS
521.28 134.327 LE
385.957 372.703 LS
393.588 369.195 LE
228.122 372.703 LS
215.162 369.195 LE
511.56 113.274 LS
498.6 109.765 LE
527.003 113.274 LS
531.414 111.246 LE
0 0 1 C
522.241 133.242 520.859 131.34 521.859 132.066 T
522.241 133.242 519.623 131.34 520.859 131.34 T
522.241 133.242 518.623 132.066 519.623 131.34 T
522.241 133.242 518.241 133.242 518.623 132.066 T
522.241 133.242 518.623 134.417 518.241 133.242 T
522.241 133.242 519.623 135.144 518.623 134.417 T
522.241 133.242 520.859 135.144 519.623 135.144 T
522.241 133.242 521.859 134.417 520.859 135.144 T
0 0 0 C
133.858 109.522 LS
133.329 109.765 LE
74.88 218.002 LS
74.88 217.273 LE
521.28 135.057 LS
521.28 134.327 LE
394.117 368.951 LS
393.588 369.195 LE
214.264 368.951 LS
215.162 369.195 LE
497.702 109.522 LS
498.6 109.765 LE
0 0 1 C
494.928 165.461 493.546 163.559 494.546 164.285 T
494.928 165.461 492.31 163.559 493.546 163.559 T
494.928 165.461 491.31 164.285 492.31 163.559 T
494.928 165.461 490.928 165.461 491.31 164.285 T
494.928 165.461 491.31 166.636 490.928 165.461 T
494.928 165.461 492.31 167.363 491.31 166.636 T
494.928 165.461 493.546 167.363 492.31 167.363 T
494.928 165.461 494.546 166.636 493.546 167.363 T
0 0 0 C
140.968 106.253 LS
133.858 109.522 LE
74.88 227.811 LS
74.88 218.002 LE
521.28 144.865 LS
521.28 135.057 LE
401.227 365.682 LS
394.117 368.951 LE
202.188 365.682 LS
214.264 368.951 LE
485.626 106.253 LS
497.702 109.522 LE
(1) 535.954 109.158 10 /Helvetica STL
0 0 1 C
446.014 205.084 444.632 203.182 445.632 203.909 T
446.014 205.084 443.396 203.182 444.632 203.182 T
446.014 205.084 442.396 203.909 443.396 203.182 T
446.014 205.084 442.014 205.084 442.396 203.909 T
446.014 205.084 442.396 206.26 442.014 205.084 T
446.014 205.084 443.396 206.986 442.396 206.26 T
446.014 205.084 444.632 206.986 443.396 206.986 T
446.014 205.084 445.632 206.26 444.632 206.986 T
0 0 0 C
148.314 102.875 LS
140.968 106.253 LE
74.88 237.944 LS
74.88 227.811 LE
521.28 154.998 LS
521.28 144.865 LE
408.572 362.304 LS
401.227 365.682 LE
189.712 362.304 LS
202.188 365.682 LE
473.151 102.875 LS
485.626 106.253 LE
0 0 1 C
240.81 249.619 239.428 247.717 240.428 248.444 T
240.81 249.619 238.192 247.717 239.428 247.717 T
240.81 249.619 237.192 248.444 238.192 247.717 T
240.81 249.619 236.81 249.619 237.192 248.444 T
240.81 249.619 237.192 250.795 236.81 249.619 T
240.81 249.619 238.192 251.521 237.192 250.795 T
240.81 249.619 239.428 251.521 238.192 251.521 T
240.81 249.619 240.428 250.795 239.428 251.521 T
0 0 0 C
148.314 102.875 LS
150.498 101.871 LE
0 0 1 C
182.803 241.257 181.421 239.355 182.422 240.081 T
182.803 241.257 180.185 239.355 181.421 239.355 T
182.803 241.257 179.185 240.081 180.185 239.355 T
182.803 241.257 178.803 241.257 179.185 240.081 T
182.803 241.257 179.185 242.432 178.803 241.257 T
182.803 241.257 180.185 243.159 179.185 242.432 T
182.803 241.257 181.421 243.159 180.185 243.159 T
182.803 241.257 182.422 242.432 181.421 243.159 T
0 0 0 C
74.88 237.944 LS
74.88 240.957 LE
521.28 154.998 LS
521.28 158.012 LE
408.572 362.304 LS
410.757 361.3 LE
189.712 362.304 LS
186.002 361.3 LE
473.151 102.875 LS
469.44 101.871 LE
471.542 101.871 LS
470.763 102.229 LE
0 0 1 C
518.373 152.738 516.991 150.835 517.991 151.562 T
518.373 152.738 515.755 150.835 516.991 150.835 T
518.373 152.738 514.755 151.562 515.755 150.835 T
518.373 152.738 514.373 152.738 514.755 151.562 T
518.373 152.738 514.755 153.913 514.373 152.738 T
518.373 152.738 515.755 154.64 514.755 153.913 T
518.373 152.738 516.991 154.64 515.755 154.64 T
518.373 152.738 517.991 153.913 516.991 154.64 T
0 0 0 C
152.341 101.023 LS
150.498 101.871 LE
74.88 243.499 LS
74.88 240.957 LE
521.28 160.554 LS
521.28 158.012 LE
412.6 360.452 LS
410.757 361.3 LE
182.872 360.452 LS
186.002 361.3 LE
466.311 101.023 LS
469.44 101.871 LE
473.385 101.023 LS
471.542 101.871 LE
0 0 1 C
304.626 250.793 303.244 248.891 304.244 249.618 T
304.626 250.793 302.008 248.891 303.244 248.891 T
304.626 250.793 301.008 249.618 302.008 248.891 T
304.626 250.793 300.626 250.793 301.008 249.618 T
304.626 250.793 301.008 251.969 300.626 250.793 T
304.626 250.793 302.008 252.696 301.008 251.969 T
304.626 250.793 303.244 252.696 302.008 252.696 T
304.626 250.793 304.244 251.969 303.244 252.696 T
0 0 0 C
151.717 100.807 LS
152.406 100.993 LE
152.812 100.807 LS
152.341 101.023 LE
74.88 244.149 LS
74.88 243.499 LE
521.28 161.203 LS
521.28 160.554 LE
413.07 360.236 LS
412.6 360.452 LE
182.073 360.236 LS
182.872 360.452 LE
465.511 100.807 LS
466.311 101.023 LE
473.855 100.807 LS
473.385 101.023 LE
0 0 1 C
134.787 228.53 133.405 226.627 134.405 227.354 T
134.787 228.53 132.169 226.627 133.405 226.627 T
134.787 228.53 131.169 227.354 132.169 226.627 T
134.787 228.53 130.787 228.53 131.169 227.354 T
134.787 228.53 131.169 229.705 130.787 228.53 T
134.787 228.53 132.169 230.432 131.169 229.705 T
134.787 228.53 133.405 230.432 132.169 230.432 T
134.787 228.53 134.405 229.705 133.405 230.432 T
0 0 0 C
144.565 98.8705 LS
151.717 100.807 LE
157.023 98.8705 LS
152.812 100.807 LE
72.3951 254.528 LS
72.1037 254.662 LE
74.88 249.957 LS
74.88 244.149 LE
521.28 167.012 LS
521.28 161.203 LE
417.281 358.3 LS
413.07 360.236 LE
174.921 358.3 LS
182.073 360.236 LE
458.359 98.8705 LS
465.511 100.807 LE
478.066 98.8705 LS
473.855 100.807 LE
0 0 1 C
483.064 189.333 481.682 187.431 482.682 188.158 T
483.064 189.333 480.446 187.431 481.682 187.431 T
483.064 189.333 479.446 188.158 480.446 187.431 T
483.064 189.333 479.064 189.333 479.446 188.158 T
483.064 189.333 479.446 190.509 479.064 189.333 T
483.064 189.333 480.446 191.236 479.446 190.509 T
483.064 189.333 481.682 191.236 480.446 191.236 T
483.064 189.333 482.682 190.509 481.682 191.236 T
0 0 0 C
144.565 98.8705 LS
141.646 98.0802 LE
157.023 98.8705 LS
161.069 97.0099 LE
72.3951 254.528 LS
74.88 253.385 LE
74.88 249.957 LS
74.88 255.539 LE
0 0 1 C
97.345 214.249 95.963 212.347 96.963 213.074 T
97.345 214.249 94.727 212.347 95.963 212.347 T
97.345 214.249 93.727 213.074 94.727 212.347 T
97.345 214.249 93.345 214.249 93.727 213.074 T
97.345 214.249 93.727 215.425 93.345 214.249 T
97.345 214.249 94.727 216.152 93.727 215.425 T
97.345 214.249 95.963 216.152 94.727 216.152 T
97.345 214.249 96.963 215.425 95.963 216.152 T
0 0 0 C
521.28 167.012 LS
521.28 172.594 LE
417.281 358.3 LS
421.327 356.439 LE
174.921 358.3 LS
168.049 356.439 LE
458.359 98.8705 LS
451.487 97.0099 LE
478.066 98.8705 LS
480.897 97.5688 LE
0 0 1 C
367.071 243.754 365.689 241.852 366.689 242.578 T
367.071 243.754 364.453 241.852 365.689 241.852 T
367.071 243.754 363.453 242.578 364.453 241.852 T
367.071 243.754 363.071 243.754 363.453 242.578 T
367.071 243.754 363.453 244.93 363.071 243.754 T
367.071 243.754 364.453 245.656 363.453 244.93 T
367.071 243.754 365.689 245.656 364.453 245.656 T
367.071 243.754 366.689 244.93 365.689 245.656 T
0 0 0 C
(0.6) 136.826 96.775 10 /Helvetica STR
161.069 97.0099 LS
172.183 91.8992 LE
74.88 255.539 LS
74.88 270.871 LE
521.28 172.594 LS
521.28 187.926 LE
421.327 356.439 LS
432.442 351.328 LE
168.049 356.439 LS
149.172 351.328 LE
451.487 97.0099 LS
432.611 91.8992 LE
(0.8) 485.437 95.4811 10 /Helvetica STL
0 0 1 C
510.316 173.927 508.934 172.025 509.934 172.751 T
510.316 173.927 507.698 172.025 508.934 172.025 T
510.316 173.927 506.698 172.751 507.698 172.025 T
510.316 173.927 506.316 173.927 506.698 172.751 T
510.316 173.927 506.698 175.102 506.316 173.927 T
510.316 173.927 507.698 175.829 506.698 175.102 T
510.316 173.927 508.934 175.829 507.698 175.829 T
510.316 173.927 509.934 175.102 508.934 175.829 T
0 0 0 C
173.023 91.5131 LS
172.183 91.8992 LE
74.88 272.03 LS
74.88 270.871 LE
521.28 189.084 LS
521.28 187.926 LE
433.281 350.942 LS
432.442 351.328 LE
147.746 350.942 LS
149.172 351.328 LE
431.185 91.5131 LS
432.611 91.8992 LE
0 0 1 C
421.414 230.173 420.032 228.271 421.032 228.997 T
421.414 230.173 418.796 228.271 420.032 228.271 T
421.414 230.173 417.796 228.997 418.796 228.271 T
421.414 230.173 417.414 230.173 417.796 228.997 T
421.414 230.173 417.796 231.348 417.414 230.173 T
421.414 230.173 418.796 232.075 417.796 231.348 T
421.414 230.173 420.032 232.075 418.796 232.075 T
421.414 230.173 421.032 231.348 420.032 232.075 T
0 0 0 C
190.335 82.9431 LS
191.169 83.1689 LE
191.66 82.9431 LS
173.023 91.5131 LE
72.1037 293.576 LS
74.88 292.3 LE
74.88 297.74 LS
74.88 272.03 LE
0 0 1 C
464.475 213.215 463.094 211.313 464.094 212.039 T
464.475 213.215 461.857 211.313 463.094 211.313 T
464.475 213.215 460.857 212.039 461.857 211.313 T
464.475 213.215 460.475 213.215 460.857 212.039 T
464.475 213.215 460.857 214.39 460.475 213.215 T
464.475 213.215 461.857 215.117 460.857 214.39 T
464.475 213.215 463.094 215.117 461.857 215.117 T
464.475 213.215 464.094 214.39 463.094 215.117 T
0 0 0 C
521.28 214.794 LS
521.28 189.084 LE
451.919 342.372 LS
433.281 350.942 LE
116.093 342.372 LS
147.746 350.942 LE
399.531 82.9431 LS
431.185 91.5131 LE
420.246 88.5515 LS
430.38 83.8917 LE
0 0 1 C
155.086 247.669 153.704 245.767 154.704 246.494 T
155.086 247.669 152.468 245.767 153.704 245.767 T
155.086 247.669 151.468 246.494 152.468 245.767 T
155.086 247.669 151.086 247.669 151.468 246.494 T
155.086 247.669 151.468 248.845 151.086 247.669 T
155.086 247.669 152.468 249.572 151.468 248.845 T
155.086 247.669 153.704 249.572 152.468 249.572 T
155.086 247.669 154.704 248.845 153.704 249.572 T
0 0 0 C
190.335 82.9431 LS
189.266 82.6537 LE
191.66 82.9431 LS
192.289 82.6537 LE
74.88 297.74 LS
74.88 298.608 LE
521.28 214.794 LS
521.28 215.662 LE
451.919 342.372 LS
452.548 342.083 LE
116.093 342.372 LS
115.024 342.083 LE
399.531 82.9431 LS
398.462 82.6537 LE
0 0 1 C
207.566 259.162 206.184 257.26 207.184 257.986 T
207.566 259.162 204.948 257.26 206.184 257.26 T
207.566 259.162 203.948 257.986 204.948 257.26 T
207.566 259.162 203.566 259.162 203.948 257.986 T
207.566 259.162 203.948 260.337 203.566 259.162 T
207.566 259.162 204.948 261.064 203.948 260.337 T
207.566 259.162 206.184 261.064 204.948 261.064 T
0 0 0 C
189.266 82.6537 LS
183.524 81.0991 LE
192.289 82.6537 LS
195.67 81.0991 LE
74.88 298.608 LS
74.88 303.272 LE
0 0 1 C
112.985 233.135 111.603 231.233 112.603 231.96 T
112.985 233.135 110.367 231.233 111.603 231.233 T
112.985 233.135 109.367 231.96 110.367 231.233 T
112.985 233.135 108.985 233.135 109.367 231.96 T
112.985 233.135 109.367 234.311 108.985 233.135 T
112.985 233.135 110.367 235.037 109.367 234.311 T
112.985 233.135 111.603 235.037 110.367 235.037 T
112.985 233.135 112.603 234.311 111.603 235.037 T
0 0 0 C
521.28 215.662 LS
521.28 220.326 LE
452.548 342.083 LS
455.929 340.528 LE
115.024 342.083 LS
109.282 340.528 LE
398.462 82.6537 LS
392.72 81.0991 LE
(0.6) 434.92 81.8039 10 /Helvetica STL
0 0 1 C
268.219 264.532 266.837 262.63 267.837 263.356 T
268.219 264.532 265.601 262.63 266.837 262.63 T
268.219 264.532 264.601 263.356 265.601 262.63 T
268.219 264.532 264.219 264.532 264.601 263.356 T
268.219 264.532 264.601 265.707 264.219 264.532 T
268.219 264.532 265.601 266.434 264.601 265.707 T
268.219 264.532 266.837 266.434 265.601 266.434 T
268.219 264.532 267.837 265.707 266.837 266.434 T
0 0 0 C
183.524 81.0991 LS
180.409 80.2557 LE
195.67 81.0991 LS
198.727 79.6935 LE
74.88 303.272 LS
74.88 307.488 LE
521.28 220.326 LS
521.28 224.543 LE
455.929 340.528 LS
458.986 339.123 LE
109.282 340.528 LS
104.09 339.123 LE
392.72 81.0991 LS
387.529 79.6935 LE
0 0 1 C
496.611 195.703 495.229 193.8 496.229 194.527 T
496.611 195.703 493.993 193.8 495.229 193.8 T
496.611 195.703 492.993 194.527 493.993 193.8 T
496.611 195.703 492.611 195.703 492.993 194.527 T
496.611 195.703 492.993 196.878 492.611 195.703 T
496.611 195.703 493.993 197.605 492.993 196.878 T
496.611 195.703 495.229 197.605 493.993 197.605 T
496.611 195.703 496.229 196.878 495.229 197.605 T
0 0 0 C
(0.4) 175.589 78.9505 10 /Helvetica STR
202.048 78.1665 LS
198.727 79.6935 LE
74.88 312.069 LS
74.88 307.488 LE
521.28 229.124 LS
521.28 224.543 LE
462.306 337.596 LS
458.986 339.123 LE
98.4506 337.596 LS
104.09 339.123 LE
381.889 78.1665 LS
387.529 79.6935 LE
0 0 1 C
331.35 261.599 329.968 259.697 330.968 260.424 T
331.35 261.599 328.732 259.697 329.968 259.697 T
331.35 261.599 327.732 260.424 328.732 259.697 T
331.35 261.599 327.35 261.599 327.732 260.424 T
331.35 261.599 327.732 262.775 327.35 261.599 T
331.35 261.599 328.732 263.501 327.732 262.775 T
331.35 261.599 329.968 263.501 328.732 263.501 T
331.35 261.599 330.968 262.775 329.968 263.501 T
0 0 0 C
202.048 78.1665 LS
220.296 69.7755 LE
74.88 312.069 LS
74.88 331.214 LE
79.25 329.205 LS
74.88 331.214 LE
0 0 1 C
389.808 250.696 388.426 248.794 389.426 249.521 T
389.808 250.696 387.19 248.794 388.426 248.794 T
389.808 250.696 386.19 249.521 387.19 248.794 T
389.808 250.696 385.808 250.696 386.19 249.521 T
389.808 250.696 386.19 251.872 385.808 250.696 T
389.808 250.696 387.19 252.598 386.19 251.872 T
389.808 250.696 388.426 252.598 387.19 252.598 T
389.808 250.696 389.426 251.872 388.426 252.598 T
0 0 0 C
521.28 229.124 LS
521.28 254.297 LE
462.306 337.596 LS
480.554 329.205 LE
98.4506 337.596 LS
74.88 331.214 LE
72.1037 332.491 LS
74.88 331.214 LE
381.889 78.1665 LS
350.896 69.7755 LE
369.729 74.8743 LS
379.863 70.2145 LE
0 0 1 C
438.55 234.502 437.168 232.6 438.168 233.326 T
438.55 234.502 435.932 232.6 437.168 232.6 T
438.55 234.502 434.932 233.326 435.932 232.6 T
438.55 234.502 434.55 234.502 434.932 233.326 T
438.55 234.502 434.932 235.677 434.55 234.502 T
438.55 234.502 435.932 236.404 434.932 235.677 T
438.55 234.502 437.168 236.404 435.932 236.404 T
438.55 234.502 438.168 235.677 437.168 236.404 T
0 0 0 C
220.296 69.7755 LS
229.631 65.4829 LE
79.25 329.205 LS
88.5851 324.912 LE
521.28 254.297 LS
521.28 267.175 LE
480.554 329.205 LS
489.89 324.912 LE
350.896 69.7755 LS
335.042 65.4829 LE
(0.4) 384.403 68.1267 10 /Helvetica STL
0 0 1 C
476.229 216.262 474.847 214.36 475.847 215.086 T
476.229 216.262 473.611 214.36 474.847 214.36 T
476.229 216.262 472.611 215.086 473.611 214.36 T
476.229 216.262 472.229 216.262 472.611 215.086 T
476.229 216.262 472.611 217.437 472.229 216.262 T
476.229 216.262 473.611 218.164 472.611 217.437 T
476.229 216.262 474.847 218.164 473.611 218.164 T
476.229 216.262 475.847 217.437 474.847 218.164 T
0 0 0 C
222.704 63.3876 LS
229.932 65.3444 LE
234.188 63.3876 LS
229.631 65.4829 LE
0 0 1 C
133.651 248.123 132.269 246.221 133.269 246.947 T
133.651 248.123 131.033 246.221 132.269 246.221 T
133.651 248.123 130.033 246.947 131.033 246.221 T
133.651 248.123 129.651 248.123 130.033 246.947 T
133.651 248.123 130.033 249.299 129.651 248.123 T
133.651 248.123 131.033 250.025 130.033 249.299 T
133.651 248.123 132.269 250.025 131.033 250.025 T
133.651 248.123 133.269 249.299 132.269 250.025 T
0 0 0 C
93.1418 322.817 LS
88.5851 324.912 LE
521.28 273.461 LS
521.28 267.175 LE
494.446 322.817 LS
489.89 324.912 LE
327.302 63.3876 LS
335.042 65.4829 LE
0 0 1 C
179.701 261.062 178.319 259.159 179.319 259.886 T
179.701 261.062 177.083 259.159 178.319 259.159 T
179.701 261.062 176.083 259.886 177.083 259.159 T
179.701 261.062 175.701 261.062 176.083 259.886 T
179.701 261.062 176.083 262.237 175.701 261.062 T
179.701 261.062 177.083 262.964 176.083 262.237 T
179.701 261.062 178.319 262.964 177.083 262.964 T
179.701 261.062 179.319 262.237 178.319 262.964 T
0 0 0 C
222.704 63.3876 LS
219.172 62.4313 LE
234.188 63.3876 LS
238.413 61.4444 LE
93.1418 322.817 LS
97.3676 320.874 LE
521.28 273.461 LS
521.28 279.29 LE
494.446 322.817 LS
498.672 320.874 LE
327.302 63.3876 LS
320.125 61.4444 LE
0 0 1 C
234.603 269.439 233.221 267.537 234.221 268.264 T
234.603 269.439 231.985 267.537 233.221 267.537 T
234.603 269.439 230.985 268.264 231.985 267.537 T
234.603 269.439 230.603 269.439 230.985 268.264 T
234.603 269.439 230.985 270.615 230.603 269.439 T
234.603 269.439 231.985 271.341 230.985 270.615 T
234.603 269.439 233.221 271.341 231.985 271.341 T
234.603 269.439 234.221 270.615 233.221 271.341 T
0 0 0 C
(0.2) 214.352 61.1261 10 /Helvetica STR
238.413 61.4444 LS
250.466 55.9023 LE
97.3676 320.874 LS
109.42 315.332 LE
521.28 279.29 LS
521.28 295.916 LE
0 0 1 C
294.688 270.69 293.306 268.788 294.306 269.514 T
294.688 270.69 292.07 268.788 293.306 268.788 T
294.688 270.69 291.07 269.514 292.07 268.788 T
294.688 270.69 290.688 270.69 291.07 269.514 T
294.688 270.69 291.07 271.865 290.688 270.69 T
294.688 270.69 292.07 272.592 291.07 271.865 T
294.688 270.69 293.306 272.592 292.07 272.592 T
294.688 270.69 294.306 271.865 293.306 272.592 T
0 0 0 C
498.672 320.874 LS
510.724 315.332 LE
320.125 61.4444 LS
299.656 55.9023 LE
319.212 61.1972 LS
329.346 56.5373 LE
0 0 1 C
353.908 263.897 352.526 261.995 353.526 262.722 T
353.908 263.897 351.29 261.995 352.526 261.995 T
353.908 263.897 350.29 262.722 351.29 261.995 T
353.908 263.897 349.908 263.897 350.29 262.722 T
353.908 263.897 350.29 265.073 349.908 263.897 T
353.908 263.897 351.29 265.799 350.29 265.073 T
353.908 263.897 352.526 265.799 351.29 265.799 T
353.908 263.897 353.526 265.073 352.526 265.799 T
0 0 0 C
250.466 55.9023 LS
257.096 52.8535 LE
109.42 315.332 LS
116.05 312.283 LE
521.28 295.916 LS
521.28 305.063 LE
510.724 315.332 LS
517.355 312.283 LE
299.656 55.9023 LS
288.395 52.8535 LE
(0.2) 333.886 54.4496 10 /Helvetica STL
0 0 1 C
406.472 250.528 405.09 248.625 406.09 249.352 T
406.472 250.528 403.854 248.625 405.09 248.625 T
406.472 250.528 402.854 249.352 403.854 248.625 T
406.472 250.528 402.472 250.528 402.854 249.352 T
406.472 250.528 402.854 251.703 402.472 250.528 T
406.472 250.528 403.854 252.43 402.854 251.703 T
406.472 250.528 405.09 252.43 403.854 252.43 T
406.472 250.528 406.09 251.703 405.09 252.43 T
0 0 0 C
257.096 52.8535 LS
263.242 50.0276 LE
521.28 305.063 LS
521.28 310.478 LE
517.509 309.457 LS
521.28 310.478 LE
116.05 312.283 LS
122.196 309.457 LE
517.355 312.283 LS
521.28 310.478 LE
288.395 52.8535 LS
277.957 50.0276 LE
0 0 1 C
449.297 233.46 447.915 231.558 448.915 232.285 T
449.297 233.46 446.679 231.558 447.915 231.558 T
449.297 233.46 445.679 232.285 446.679 231.558 T
449.297 233.46 445.297 233.46 445.679 232.285 T
449.297 233.46 445.679 234.636 445.297 233.46 T
449.297 233.46 446.679 235.363 445.679 234.636 T
449.297 233.46 447.915 235.363 446.679 235.363 T
449.297 233.46 448.915 234.636 447.915 235.363 T
0 0 0 C
263.242 50.0276 LS
268.695 47.52 LE
268.695 58.2417 LS
268.695 47.52 LE
495.047 303.375 LS
517.509 309.457 LE
0 0 1 C
158.046 257.652 156.664 255.75 157.664 256.476 T
158.046 257.652 155.428 255.75 156.664 255.75 T
158.046 257.652 154.428 256.476 155.428 255.75 T
158.046 257.652 154.046 257.652 154.428 256.476 T
158.046 257.652 154.428 258.827 154.046 257.652 T
158.046 257.652 155.428 259.554 154.428 258.827 T
158.046 257.652 156.664 259.554 155.428 259.554 T
158.046 257.652 157.664 258.827 156.664 259.554 T
0 0 0 C
135.421 303.375 LS
122.196 309.457 LE
277.957 50.0276 LS
268.695 47.52 L
257.935 44.6068 LE
276.467 43.9461 LS
268.695 47.52 LE
0 0 1 C
206.358 267.469 204.976 265.567 205.976 266.294 T
206.358 267.469 203.74 265.567 204.976 265.567 T
206.358 267.469 202.74 266.294 203.74 265.567 T
206.358 267.469 202.358 267.469 202.74 266.294 T
206.358 267.469 202.74 268.645 202.358 267.469 T
206.358 267.469 203.74 269.372 202.74 268.645 T
206.358 267.469 204.976 269.372 203.74 269.372 T
206.358 267.469 205.976 268.645 204.976 269.372 T
0 0 0 C
268.695 58.2417 LS
268.695 66.4839 LE
(0) 253.115 43.3016 10 /Helvetica STR
276.467 43.9461 LS
278.829 42.8601 LE
495.047 303.375 LS
484.899 300.628 LE
135.421 303.375 LS
141.396 300.628 LE
0 0 1 C
261.008 271.82 259.626 269.918 260.626 270.645 T
261.008 271.82 258.39 269.918 259.626 269.918 T
261.008 271.82 257.39 270.645 258.39 269.918 T
261.008 271.82 257.008 271.82 257.39 270.645 T
261.008 271.82 257.39 272.996 257.008 271.82 T
261.008 271.82 258.39 273.722 257.39 272.996 T
261.008 271.82 259.626 273.722 258.39 273.722 T
261.008 271.82 260.626 272.996 259.626 273.722 T
0 0 0 C
268.695 66.4839 LS
268.695 74.3845 LE
(0) 283.369 40.7724 10 /Helvetica STL
484.899 300.628 LS
475.172 297.994 LE
141.396 300.628 LS
147.123 297.994 LE
0 0 1 C
317.701 269.187 316.319 267.285 317.319 268.011 T
317.701 269.187 315.083 267.285 316.319 267.285 T
317.701 269.187 314.083 268.011 315.083 267.285 T
317.701 269.187 313.701 269.187 314.083 268.011 T
317.701 269.187 314.083 270.362 313.701 269.187 T
317.701 269.187 315.083 271.089 314.083 270.362 T
317.701 269.187 316.319 271.089 315.083 271.089 T
317.701 269.187 317.319 270.362 316.319 271.089 T
0 0 0 C
268.695 74.3845 LS
268.695 81.214 LE
475.172 297.994 LS
466.764 295.718 LE
147.123 297.994 LS
152.074 295.718 LE
0 0 1 C
371.202 259.812 369.82 257.91 370.82 258.637 T
371.202 259.812 368.584 257.91 369.82 257.91 T
371.202 259.812 367.584 258.637 368.584 257.91 T
371.202 259.812 367.202 259.812 367.584 258.637 T
371.202 259.812 367.584 260.988 367.202 259.812 T
371.202 259.812 368.584 261.714 367.584 260.988 T
371.202 259.812 369.82 261.714 368.584 261.714 T
371.202 259.812 370.82 260.988 369.82 261.714 T
0 0 0 C
268.695 81.214 LS
268.695 86.5666 LE
466.764 295.718 LS
460.174 293.934 LE
152.074 295.718 LS
155.954 293.934 LE
0 0 1 C
417.504 245.599 416.122 243.697 417.122 244.424 T
417.504 245.599 414.886 243.697 416.122 243.697 T
417.504 245.599 413.886 244.424 414.886 243.697 T
417.504 245.599 413.504 245.599 413.886 244.424 T
417.504 245.599 413.886 246.775 413.504 245.599 T
417.504 245.599 414.886 247.501 413.886 246.775 T
417.504 245.599 416.122 247.501 414.886 247.501 T
417.504 245.599 417.122 246.775 416.122 247.501 T
0 0 0 C
268.695 111.343 LS
268.695 86.5666 LE
429.67 285.675 LS
460.174 293.934 LE
0 0 1 C
184.022 261.408 182.64 259.506 183.64 260.232 T
184.022 261.408 181.404 259.506 182.64 259.506 T
184.022 261.408 180.404 260.232 181.404 259.506 T
184.022 261.408 180.022 261.408 180.404 260.232 T
184.022 261.408 180.404 262.584 180.022 261.408 T
184.022 261.408 181.404 263.31 180.404 262.584 T
184.022 261.408 182.64 263.31 181.404 263.31 T
184.022 261.408 183.64 262.584 182.64 263.31 T
0 0 0 C
173.915 285.675 LS
155.954 293.934 LE
0 0 1 C
232.466 267.499 231.084 265.596 232.084 266.323 T
232.466 267.499 229.848 265.596 231.084 265.596 T
232.466 267.499 228.848 266.323 229.848 265.596 T
232.466 267.499 228.466 267.499 228.848 266.323 T
232.466 267.499 228.848 268.674 228.466 267.499 T
232.466 267.499 229.848 269.401 228.848 268.674 T
232.466 267.499 231.084 269.401 229.848 269.401 T
232.466 267.499 232.084 268.674 231.084 269.401 T
0 0 0 C
268.695 111.343 LS
268.695 119.555 LE
429.67 285.675 LS
419.559 282.937 LE
173.915 285.675 LS
179.868 282.937 LE
0 0 1 C
284.547 268.089 283.165 266.187 284.165 266.914 T
284.547 268.089 281.929 266.187 283.165 266.187 T
284.547 268.089 280.929 266.914 281.929 266.187 T
284.547 268.089 280.547 268.089 280.929 266.914 T
284.547 268.089 280.929 269.265 280.547 268.089 T
284.547 268.089 281.929 269.991 280.929 269.265 T
284.547 268.089 283.165 269.991 281.929 269.991 T
284.547 268.089 284.165 269.265 283.165 269.991 T
0 0 0 C
268.695 119.555 LS
268.695 125.806 LE
419.559 282.937 LS
411.863 280.854 LE
179.868 282.937 LS
184.399 280.854 LE
0 0 1 C
336.252 262.677 334.87 260.775 335.87 261.502 T
336.252 262.677 333.634 260.775 334.87 260.775 T
336.252 262.677 332.634 261.502 333.634 260.775 T
336.252 262.677 332.252 262.677 332.634 261.502 T
336.252 262.677 332.634 263.853 332.252 262.677 T
336.252 262.677 333.634 264.58 332.634 263.853 T
336.252 262.677 334.87 264.58 333.634 264.58 T
336.252 262.677 335.87 263.853 334.87 264.58 T
0 0 0 C
268.695 125.806 LS
268.695 129.764 LE
411.863 280.854 LS
406.991 279.535 LE
184.399 280.854 LS
187.268 279.535 LE
0 0 1 C
383.652 252.135 382.27 250.233 383.27 250.959 T
383.652 252.135 381.034 250.233 382.27 250.233 T
383.652 252.135 380.034 250.959 381.034 250.233 T
383.652 252.135 379.652 252.135 380.034 250.959 T
383.652 252.135 380.034 253.31 379.652 252.135 T
383.652 252.135 381.034 254.037 380.034 253.31 T
383.652 252.135 382.27 254.037 381.034 254.037 T
383.652 252.135 383.27 253.31 382.27 254.037 T
0 0 0 C
268.695 156.533 LS
268.695 129.764 LE
374.033 270.612 LS
406.991 279.535 LE
0 0 1 C
209.409 260.291 208.027 258.389 209.027 259.115 T
209.409 260.291 206.791 258.389 208.027 258.389 T
209.409 260.291 205.791 259.115 206.791 258.389 T
209.409 260.291 205.409 260.291 205.791 259.115 T
209.409 260.291 205.791 261.466 205.409 260.291 T
209.409 260.291 206.791 262.193 205.791 261.466 T
209.409 260.291 208.027 262.193 206.791 262.193 T
209.409 260.291 209.027 261.466 208.027 262.193 T
0 0 0 C
206.673 270.612 LS
187.268 279.535 LE
0 0 1 C
256.133 262.946 254.751 261.044 255.751 261.77 T
256.133 262.946 253.515 261.044 254.751 261.044 T
256.133 262.946 252.515 261.77 253.515 261.044 T
256.133 262.946 252.133 262.946 252.515 261.77 T
256.133 262.946 252.515 264.121 252.133 262.946 T
256.133 262.946 253.515 264.848 252.515 264.121 T
256.133 262.946 254.751 264.848 253.515 264.848 T
256.133 262.946 255.751 264.121 254.751 264.848 T
0 0 0 C
268.695 156.533 LS
268.695 163.241 LE
374.033 270.612 LS
365.775 268.376 LE
206.673 270.612 LS
211.536 268.376 LE
0 0 1 C
304.269 260.71 302.887 258.808 303.887 259.534 T
304.269 260.71 301.651 258.808 302.887 258.808 T
304.269 260.71 300.651 259.534 301.651 258.808 T
304.269 260.71 300.269 260.71 300.651 259.534 T
304.269 260.71 300.651 261.885 300.269 260.71 T
304.269 260.71 301.651 262.612 300.651 261.885 T
304.269 260.71 302.887 262.612 301.651 262.612 T
304.269 260.71 303.887 261.885 302.887 262.612 T
0 0 0 C
268.695 163.241 LS
268.695 167.193 LE
365.775 268.376 LS
360.909 267.058 LE
211.536 268.376 LS
214.401 267.058 LE
0 0 1 C
350.567 253.734 349.185 251.832 350.185 252.558 T
350.567 253.734 347.949 251.832 349.185 251.832 T
350.567 253.734 346.949 252.558 347.949 251.832 T
350.567 253.734 346.567 253.734 346.949 252.558 T
350.567 253.734 346.949 254.909 346.567 253.734 T
350.567 253.734 347.949 255.636 346.949 254.909 T
350.567 253.734 349.185 255.636 347.949 255.636 T
350.567 253.734 350.185 254.909 349.185 255.636 T
0 0 0 C
268.695 193.354 LS
268.695 167.193 LE
328.7 258.338 LS
360.909 267.058 LE
0 0 1 C
232.688 255.793 231.306 253.89 232.306 254.617 T
232.688 255.793 230.07 253.89 231.306 253.89 T
232.688 255.793 229.07 254.617 230.07 253.89 T
232.688 255.793 228.688 255.793 229.07 254.617 T
232.688 255.793 229.07 256.968 228.688 255.793 T
232.688 255.793 230.07 257.695 229.07 256.968 T
232.688 255.793 231.306 257.695 230.07 257.695 T
232.688 255.793 232.306 256.968 231.306 257.695 T
0 0 0 C
233.365 258.338 LS
214.401 267.058 LE
0 0 1 C
276.514 255.77 275.132 253.868 276.132 254.595 T
276.514 255.77 273.896 253.868 275.132 253.868 T
276.514 255.77 272.896 254.595 273.896 253.868 T
276.514 255.77 272.514 255.77 272.896 254.595 T
276.514 255.77 272.896 256.946 272.514 255.77 T
276.514 255.77 273.896 257.673 272.896 256.946 T
276.514 255.77 275.132 257.673 273.896 257.673 T
276.514 255.77 276.132 256.946 275.132 257.673 T
0 0 0 C
268.695 193.354 LS
268.695 198.042 LE
328.7 258.338 LS
322.928 256.775 LE
233.365 258.338 LS
236.763 256.775 LE
0 0 1 C
320.229 251.726 318.847 249.824 319.847 250.55 T
320.229 251.726 317.611 249.824 318.847 249.824 T
320.229 251.726 316.611 250.55 317.611 249.824 T
320.229 251.726 316.229 251.726 316.611 250.55 T
320.229 251.726 316.611 252.902 316.229 251.726 T
320.229 251.726 317.611 253.628 316.611 252.902 T
320.229 251.726 318.847 253.628 317.611 253.628 T
320.229 251.726 319.847 252.902 318.847 253.628 T
0 0 0 C
268.695 222.682 LS
268.695 198.042 LE
292.592 248.562 LS
322.928 256.775 LE
250.543 250.439 LS
236.763 256.775 LE
0 0 1 C
253.151 249.362 251.769 247.46 252.769 248.187 T
253.151 249.362 250.533 247.46 251.769 247.46 T
253.151 249.362 249.533 248.187 250.533 247.46 T
253.151 249.362 249.151 249.362 249.533 248.187 T
253.151 249.362 249.533 250.538 249.151 249.362 T
253.151 249.362 250.533 251.264 249.533 250.538 T
253.151 249.362 251.769 251.264 250.533 251.264 T
253.151 249.362 252.769 250.538 251.769 251.264 T
0 0 0 C
250.543 250.439 LS
254.625 248.562 LE
0 0 1 C
293.561 247.485 292.179 245.583 293.179 246.31 T
293.561 247.485 290.943 245.583 292.179 245.583 T
293.561 247.485 289.943 246.31 290.943 245.583 T
293.561 247.485 289.561 247.485 289.943 246.31 T
293.561 247.485 289.943 248.661 289.561 247.485 T
293.561 247.485 290.943 249.387 289.943 248.661 T
293.561 247.485 292.179 249.387 290.943 249.387 T
293.561 247.485 293.179 248.661 292.179 249.387 T
0 0 0 C
268.695 242.053 LS
268.695 222.682 LE
268.743 242.105 LS
292.592 248.562 LE
268.667 242.105 LS
254.625 248.562 LE
0 0 1 C
270.696 242.093 269.314 240.191 270.314 240.918 T
270.696 242.093 268.078 240.191 269.314 240.191 T
270.696 242.093 267.078 240.918 268.078 240.191 T
270.696 242.093 266.696 242.093 267.078 240.918 T
270.696 242.093 267.078 243.269 266.696 242.093 T
270.696 242.093 268.078 243.996 267.078 243.269 T
270.696 242.093 269.314 243.996 268.078 243.996 T
270.696 242.093 270.314 243.269 269.314 243.996 T
0 0 0 C
268.695 242.053 LS
268.695 242.092 LE
268.743 242.105 LS
268.695 242.092 LE
268.667 242.105 LS
268.695 242.092 LE
grestore
showpage
cleartomark
%%PageTrailer
%%Trailer
end
%%EOF
