%!PS-Adobe-3.0 EPSF-3.0
%%Title: glps_renderer figure
%%Creator: GL2PS 1.3.8, (C) 1999-2012 C. Geuzaine
%%For: Octave
%%CreationDate: Thu May 14 12:25:14 2015
%%LanguageLevel: 3
%%DocumentData: Clean7Bit
%%Pages: 1
%%BoundingBox: 0 0 576 432
%%EndComments
%%BeginProlog
/gl2psdict 64 dict def gl2psdict begin
0 setlinecap 0 setlinejoin
/tryPS3shading false def % set to false to force subdivision
/rThreshold 0.064 def % red component subdivision threshold
/gThreshold 0.034 def % green component subdivision threshold
/bThreshold 0.1 def % blue component subdivision threshold
/BD { bind def } bind def
/C  { setrgbcolor } BD
/G  { 0.082 mul exch 0.6094 mul add exch 0.3086 mul add neg 1.0 add setgray } BD
/W  { setlinewidth } BD
/FC { findfont exch /SH exch def SH scalefont setfont } BD
/SW { dup stringwidth pop } BD
/S  { FC moveto show } BD
/SBC{ FC moveto SW -2 div 0 rmoveto show } BD
/SBR{ FC moveto SW neg 0 rmoveto show } BD
/SCL{ FC moveto 0 SH -2 div rmoveto show } BD
/SCC{ FC moveto SW -2 div SH -2 div rmoveto show } BD
/SCR{ FC moveto SW neg SH -2 div rmoveto show } BD
/STL{ FC moveto 0 SH neg rmoveto show } BD
/STC{ FC moveto SW -2 div SH neg rmoveto show } BD
/STR{ FC moveto SW neg SH neg rmoveto show } BD
/FCT { FC translate 0 0 } BD
/SR  { gsave FCT moveto rotate show grestore } BD
/SBCR{ gsave FCT moveto rotate SW -2 div 0 rmoveto show grestore } BD
/SBRR{ gsave FCT moveto rotate SW neg 0 rmoveto show grestore } BD
/SCLR{ gsave FCT moveto rotate 0 SH -2 div rmoveto show grestore} BD
/SCCR{ gsave FCT moveto rotate SW -2 div SH -2 div rmoveto show grestore} BD
/SCRR{ gsave FCT moveto rotate SW neg SH -2 div rmoveto show grestore} BD
/STLR{ gsave FCT moveto rotate 0 SH neg rmoveto show grestore } BD
/STCR{ gsave FCT moveto rotate SW -2 div SH neg rmoveto show grestore } BD
/STRR{ gsave FCT moveto rotate SW neg SH neg rmoveto show grestore } BD
/P  { newpath 0.0 360.0 arc closepath fill } BD
/LS { newpath moveto } BD
/L  { lineto } BD
/LE { lineto stroke } BD
/T  { newpath moveto lineto lineto closepath fill } BD
/STshfill {
      /b1 exch def /g1 exch def /r1 exch def /y1 exch def /x1 exch def
      /b2 exch def /g2 exch def /r2 exch def /y2 exch def /x2 exch def
      /b3 exch def /g3 exch def /r3 exch def /y3 exch def /x3 exch def
      gsave << /ShadingType 4 /ColorSpace [/DeviceRGB]
      /DataSource [ 0 x1 y1 r1 g1 b1 0 x2 y2 r2 g2 b2 0 x3 y3 r3 g3 b3 ] >>
      shfill grestore } BD
/Tm { 3 -1 roll 8 -1 roll 13 -1 roll add add 3 div
      3 -1 roll 7 -1 roll 11 -1 roll add add 3 div
      3 -1 roll 6 -1 roll 9 -1 roll add add 3 div C T } BD
/STsplit {
      4 index 15 index add 0.5 mul
      4 index 15 index add 0.5 mul
      4 index 15 index add 0.5 mul
      4 index 15 index add 0.5 mul
      4 index 15 index add 0.5 mul
      5 copy 5 copy 25 15 roll
      9 index 30 index add 0.5 mul
      9 index 30 index add 0.5 mul
      9 index 30 index add 0.5 mul
      9 index 30 index add 0.5 mul
      9 index 30 index add 0.5 mul
      5 copy 5 copy 35 5 roll 25 5 roll 15 5 roll
      4 index 10 index add 0.5 mul
      4 index 10 index add 0.5 mul
      4 index 10 index add 0.5 mul
      4 index 10 index add 0.5 mul
      4 index 10 index add 0.5 mul
      5 copy 5 copy 40 5 roll 25 5 roll 15 5 roll 25 5 roll
      STnoshfill STnoshfill STnoshfill STnoshfill } BD
/STnoshfill {
      2 index 8 index sub abs rThreshold gt
      { STsplit }
      { 1 index 7 index sub abs gThreshold gt
        { STsplit }
        { dup 6 index sub abs bThreshold gt
          { STsplit }
          { 2 index 13 index sub abs rThreshold gt
            { STsplit }
            { 1 index 12 index sub abs gThreshold gt
              { STsplit }
              { dup 11 index sub abs bThreshold gt
                { STsplit }
                { 7 index 13 index sub abs rThreshold gt
                  { STsplit }
                  { 6 index 12 index sub abs gThreshold gt
                    { STsplit }
                    { 5 index 11 index sub abs bThreshold gt
                      { STsplit }
                      { Tm }
                      ifelse }
                    ifelse }
                  ifelse }
                ifelse }
              ifelse }
            ifelse }
          ifelse }
        ifelse }
      ifelse } BD
tryPS3shading
{ /shfill where
  { /ST { STshfill } BD }
  { /ST { STnoshfill } BD }
  ifelse }
{ /ST { STnoshfill } BD }
ifelse
end
%%EndProlog
%%BeginSetup
/DeviceRGB setcolorspace
gl2psdict begin
%%EndSetup
%%Page: 1 1
%%BeginPageSetup
%%EndPageSetup
mark
gsave
1.0 1.0 scale
1 1 1 C
521.28 47.52 521.28 399.6 521.28 47.52 T
521.28 47.52 521.28 399.6 521.28 399.6 T
74.88 399.6 521.28 399.6 74.88 399.6 T
74.88 399.6 521.28 399.6 521.28 399.6 T
74.88 399.6 521.28 47.52 74.88 47.52 T
74.88 399.6 521.28 399.6 521.28 47.52 T
0.5 W
[16 0] 0 setdash
0 0 0 C
74.88 47.52 LS
521.28 47.52 LE
74.88 399.6 LS
521.28 399.6 LE
74.88 399.6 LS
521.28 399.6 LE
74.88 47.52 LS
521.28 47.52 LE
74.88 47.52 LS
74.88 399.6 LE
521.28 47.52 LS
521.28 399.6 LE
521.28 47.52 LS
521.28 399.6 LE
74.88 47.52 LS
74.88 399.6 L
74.88 399.6 LE
521.28 399.6 LS
521.28 399.6 LE
521.28 47.52 LS
521.28 47.52 LE
74.88 47.52 LS
74.88 47.52 L
74.88 51.985 LE
74.88 399.6 LS
74.88 395.135 LE
164.16 47.52 LS
164.16 51.985 LE
164.16 399.6 LS
164.16 395.135 LE
253.44 47.52 LS
253.44 51.985 LE
253.44 399.6 LS
253.44 395.135 LE
342.72 47.52 LS
342.72 51.985 LE
342.72 399.6 LS
342.72 395.135 LE
432 47.52 LS
432 51.985 LE
432 399.6 LS
432 395.135 LE
521.28 47.52 LS
521.28 51.985 LE
521.28 399.6 LS
521.28 395.135 LE
(0) 74.88 42.5189 10 /Helvetica STC
(0.1) 164.16 42.5189 10 /Helvetica STC
(0.2) 253.44 42.5189 10 /Helvetica STC
(0.3) 342.72 42.5189 10 /Helvetica STC
(0.4) 432 42.5189 10 /Helvetica STC
(0.5) 521.28 42.5189 10 /Helvetica STC
74.88 47.52 LS
79.348 47.52 LE
521.28 47.52 LS
516.812 47.52 LE
74.88 117.936 LS
79.348 117.936 LE
521.28 117.936 LS
516.812 117.936 LE
74.88 188.352 LS
79.348 188.352 LE
521.28 188.352 LS
516.812 188.352 LE
74.88 258.768 LS
79.348 258.768 LE
521.28 258.768 LS
516.812 258.768 LE
74.88 329.184 LS
79.348 329.184 LE
521.28 329.184 LS
516.812 329.184 LE
74.88 399.6 LS
79.348 399.6 LE
521.28 399.6 LS
516.812 399.6 LE
(0) 69.8755 47.52 10 /Helvetica SCR
(0.1) 69.8755 117.936 10 /Helvetica SCR
(0.2) 69.8755 188.352 10 /Helvetica SCR
(0.3) 69.8755 258.768 10 /Helvetica SCR
(0.4) 69.8755 329.184 10 /Helvetica SCR
(0.5) 69.8755 399.6 10 /Helvetica SCR
0 0 1 C
523.28 47.52 521.898 45.6179 522.898 46.3444 T
523.28 47.52 520.662 45.6179 521.898 45.6179 T
523.28 47.52 519.662 46.3444 520.662 45.6179 T
523.28 47.52 519.28 47.52 519.662 46.3444 T
523.28 47.52 519.662 48.6955 519.28 47.52 T
523.28 47.52 520.662 49.4221 519.662 48.6955 T
523.28 47.52 521.898 49.4221 520.662 49.4221 T
523.28 47.52 522.898 48.6955 521.898 49.4221 T
518.63 51.1875 517.248 49.2854 518.248 50.0119 T
518.63 51.1875 516.012 49.2854 517.248 49.2854 T
518.63 51.1875 515.012 50.0119 516.012 49.2854 T
518.63 51.1875 514.63 51.1875 515.012 50.0119 T
518.63 51.1875 515.012 52.3631 514.63 51.1875 T
518.63 51.1875 516.012 53.0896 515.012 52.3631 T
518.63 51.1875 517.248 53.0896 516.012 53.0896 T
518.63 51.1875 518.248 52.3631 517.248 53.0896 T
513.98 54.855 512.598 52.9529 513.598 53.6794 T
513.98 54.855 511.362 52.9529 512.598 52.9529 T
513.98 54.855 510.362 53.6794 511.362 52.9529 T
513.98 54.855 509.98 54.855 510.362 53.6794 T
513.98 54.855 510.362 56.0306 509.98 54.855 T
513.98 54.855 511.362 56.7571 510.362 56.0306 T
513.98 54.855 512.598 56.7571 511.362 56.7571 T
513.98 54.855 513.598 56.0306 512.598 56.7571 T
509.33 58.5225 507.948 56.6204 508.948 57.3469 T
509.33 58.5225 506.712 56.6204 507.948 56.6204 T
509.33 58.5225 505.712 57.3469 506.712 56.6204 T
509.33 58.5225 505.33 58.5225 505.712 57.3469 T
509.33 58.5225 505.712 59.6981 505.33 58.5225 T
509.33 58.5225 506.712 60.4246 505.712 59.6981 T
509.33 58.5225 507.948 60.4246 506.712 60.4246 T
509.33 58.5225 508.948 59.6981 507.948 60.4246 T
504.68 62.19 503.298 60.2879 504.298 61.0144 T
504.68 62.19 502.062 60.2879 503.298 60.2879 T
504.68 62.19 501.062 61.0144 502.062 60.2879 T
504.68 62.19 500.68 62.19 501.062 61.0144 T
504.68 62.19 501.062 63.3656 500.68 62.19 T
504.68 62.19 502.062 64.0921 501.062 63.3656 T
504.68 62.19 503.298 64.0921 502.062 64.0921 T
504.68 62.19 504.298 63.3656 503.298 64.0921 T
500.03 65.8575 498.648 63.9554 499.648 64.6819 T
500.03 65.8575 497.412 63.9554 498.648 63.9554 T
500.03 65.8575 496.412 64.6819 497.412 63.9554 T
500.03 65.8575 496.03 65.8575 496.412 64.6819 T
500.03 65.8575 496.412 67.0331 496.03 65.8575 T
500.03 65.8575 497.412 67.7596 496.412 67.0331 T
500.03 65.8575 498.648 67.7596 497.412 67.7596 T
500.03 65.8575 499.648 67.0331 498.648 67.7596 T
495.38 69.525 493.998 67.6229 494.998 68.3494 T
495.38 69.525 492.762 67.6229 493.998 67.6229 T
495.38 69.525 491.762 68.3494 492.762 67.6229 T
495.38 69.525 491.38 69.525 491.762 68.3494 T
495.38 69.525 491.762 70.7006 491.38 69.525 T
495.38 69.525 492.762 71.4271 491.762 70.7006 T
495.38 69.525 493.998 71.4271 492.762 71.4271 T
495.38 69.525 494.998 70.7006 493.998 71.4271 T
490.73 73.1925 489.348 71.2904 490.348 72.0169 T
490.73 73.1925 488.112 71.2904 489.348 71.2904 T
490.73 73.1925 487.112 72.0169 488.112 71.2904 T
490.73 73.1925 486.73 73.1925 487.112 72.0169 T
490.73 73.1925 487.112 74.3681 486.73 73.1925 T
490.73 73.1925 488.112 75.0946 487.112 74.3681 T
490.73 73.1925 489.348 75.0946 488.112 75.0946 T
490.73 73.1925 490.348 74.3681 489.348 75.0946 T
486.08 76.86 484.698 74.9579 485.698 75.6844 T
486.08 76.86 483.462 74.9579 484.698 74.9579 T
486.08 76.86 482.462 75.6844 483.462 74.9579 T
486.08 76.86 482.08 76.86 482.462 75.6844 T
486.08 76.86 482.462 78.0356 482.08 76.86 T
486.08 76.86 483.462 78.7621 482.462 78.0356 T
486.08 76.86 484.698 78.7621 483.462 78.7621 T
486.08 76.86 485.698 78.0356 484.698 78.7621 T
481.43 80.5275 480.048 78.6254 481.048 79.3519 T
481.43 80.5275 478.812 78.6254 480.048 78.6254 T
481.43 80.5275 477.812 79.3519 478.812 78.6254 T
481.43 80.5275 477.43 80.5275 477.812 79.3519 T
481.43 80.5275 477.812 81.7031 477.43 80.5275 T
481.43 80.5275 478.812 82.4296 477.812 81.7031 T
481.43 80.5275 480.048 82.4296 478.812 82.4296 T
481.43 80.5275 481.048 81.7031 480.048 82.4296 T
476.78 84.195 475.398 82.2929 476.398 83.0194 T
476.78 84.195 474.162 82.2929 475.398 82.2929 T
476.78 84.195 473.162 83.0194 474.162 82.2929 T
476.78 84.195 472.78 84.195 473.162 83.0194 T
476.78 84.195 473.162 85.3706 472.78 84.195 T
476.78 84.195 474.162 86.0971 473.162 85.3706 T
476.78 84.195 475.398 86.0971 474.162 86.0971 T
476.78 84.195 476.398 85.3706 475.398 86.0971 T
472.13 87.8625 470.748 85.9604 471.748 86.6869 T
472.13 87.8625 469.512 85.9604 470.748 85.9604 T
472.13 87.8625 468.512 86.6869 469.512 85.9604 T
472.13 87.8625 468.13 87.8625 468.512 86.6869 T
472.13 87.8625 468.512 89.038 468.13 87.8625 T
472.13 87.8625 469.512 89.7646 468.512 89.038 T
472.13 87.8625 470.748 89.7646 469.512 89.7646 T
472.13 87.8625 471.748 89.038 470.748 89.7646 T
467.48 91.53 466.098 89.6279 467.098 90.3544 T
467.48 91.53 464.862 89.6279 466.098 89.6279 T
467.48 91.53 463.862 90.3544 464.862 89.6279 T
467.48 91.53 463.48 91.53 463.862 90.3544 T
467.48 91.53 463.862 92.7056 463.48 91.53 T
467.48 91.53 464.862 93.4321 463.862 92.7056 T
467.48 91.53 466.098 93.4321 464.862 93.4321 T
467.48 91.53 467.098 92.7056 466.098 93.4321 T
462.83 95.1975 461.448 93.2954 462.448 94.0219 T
462.83 95.1975 460.212 93.2954 461.448 93.2954 T
462.83 95.1975 459.212 94.0219 460.212 93.2954 T
462.83 95.1975 458.83 95.1975 459.212 94.0219 T
462.83 95.1975 459.212 96.3731 458.83 95.1975 T
462.83 95.1975 460.212 97.0996 459.212 96.3731 T
462.83 95.1975 461.448 97.0996 460.212 97.0996 T
462.83 95.1975 462.448 96.3731 461.448 97.0996 T
458.18 98.865 456.798 96.9629 457.798 97.6894 T
458.18 98.865 455.562 96.9629 456.798 96.9629 T
458.18 98.865 454.562 97.6894 455.562 96.9629 T
458.18 98.865 454.18 98.865 454.562 97.6894 T
458.18 98.865 454.562 100.041 454.18 98.865 T
458.18 98.865 455.562 100.767 454.562 100.041 T
458.18 98.865 456.798 100.767 455.562 100.767 T
458.18 98.865 457.798 100.041 456.798 100.767 T
453.53 102.532 452.148 100.63 453.148 101.357 T
453.53 102.532 450.912 100.63 452.148 100.63 T
453.53 102.532 449.912 101.357 450.912 100.63 T
453.53 102.532 449.53 102.532 449.912 101.357 T
453.53 102.532 449.912 103.708 449.53 102.532 T
453.53 102.532 450.912 104.435 449.912 103.708 T
453.53 102.532 452.148 104.435 450.912 104.435 T
453.53 102.532 453.148 103.708 452.148 104.435 T
448.88 106.2 447.498 104.298 448.498 105.024 T
448.88 106.2 446.262 104.298 447.498 104.298 T
448.88 106.2 445.262 105.024 446.262 104.298 T
448.88 106.2 444.88 106.2 445.262 105.024 T
448.88 106.2 445.262 107.376 444.88 106.2 T
448.88 106.2 446.262 108.102 445.262 107.376 T
448.88 106.2 447.498 108.102 446.262 108.102 T
448.88 106.2 448.498 107.376 447.498 108.102 T
444.23 109.867 442.848 107.965 443.848 108.692 T
444.23 109.867 441.612 107.965 442.848 107.965 T
444.23 109.867 440.612 108.692 441.612 107.965 T
444.23 109.867 440.23 109.867 440.612 108.692 T
444.23 109.867 440.612 111.043 440.23 109.867 T
444.23 109.867 441.612 111.77 440.612 111.043 T
444.23 109.867 442.848 111.77 441.612 111.77 T
444.23 109.867 443.848 111.043 442.848 111.77 T
439.58 113.535 438.198 111.633 439.198 112.359 T
439.58 113.535 436.962 111.633 438.198 111.633 T
439.58 113.535 435.962 112.359 436.962 111.633 T
439.58 113.535 435.58 113.535 435.962 112.359 T
439.58 113.535 435.962 114.711 435.58 113.535 T
439.58 113.535 436.962 115.437 435.962 114.711 T
439.58 113.535 438.198 115.437 436.962 115.437 T
439.58 113.535 439.198 114.711 438.198 115.437 T
434.93 117.203 433.548 115.3 434.548 116.027 T
434.93 117.203 432.312 115.3 433.548 115.3 T
434.93 117.203 431.312 116.027 432.312 115.3 T
434.93 117.203 430.93 117.203 431.312 116.027 T
434.93 117.203 431.312 118.378 430.93 117.203 T
434.93 117.203 432.312 119.105 431.312 118.378 T
434.93 117.203 433.548 119.105 432.312 119.105 T
434.93 117.203 434.548 118.378 433.548 119.105 T
430.28 120.87 428.898 118.968 429.898 119.694 T
430.28 120.87 427.662 118.968 428.898 118.968 T
430.28 120.87 426.662 119.694 427.662 118.968 T
430.28 120.87 426.28 120.87 426.662 119.694 T
430.28 120.87 426.662 122.046 426.28 120.87 T
430.28 120.87 427.662 122.772 426.662 122.046 T
430.28 120.87 428.898 122.772 427.662 122.772 T
430.28 120.87 429.898 122.046 428.898 122.772 T
425.63 124.538 424.248 122.635 425.248 123.362 T
425.63 124.538 423.012 122.635 424.248 122.635 T
425.63 124.538 422.012 123.362 423.012 122.635 T
425.63 124.538 421.63 124.538 422.012 123.362 T
425.63 124.538 422.012 125.713 421.63 124.538 T
425.63 124.538 423.012 126.44 422.012 125.713 T
425.63 124.538 424.248 126.44 423.012 126.44 T
425.63 124.538 425.248 125.713 424.248 126.44 T
420.98 128.205 419.598 126.303 420.598 127.029 T
420.98 128.205 418.362 126.303 419.598 126.303 T
420.98 128.205 417.362 127.029 418.362 126.303 T
420.98 128.205 416.98 128.205 417.362 127.029 T
420.98 128.205 417.362 129.381 416.98 128.205 T
420.98 128.205 418.362 130.107 417.362 129.381 T
420.98 128.205 419.598 130.107 418.362 130.107 T
420.98 128.205 420.598 129.381 419.598 130.107 T
416.33 131.872 414.948 129.97 415.948 130.697 T
416.33 131.872 413.712 129.97 414.948 129.97 T
416.33 131.872 412.712 130.697 413.712 129.97 T
416.33 131.872 412.33 131.872 412.712 130.697 T
416.33 131.872 412.712 133.048 412.33 131.872 T
416.33 131.872 413.712 133.775 412.712 133.048 T
416.33 131.872 414.948 133.775 413.712 133.775 T
416.33 131.872 415.948 133.048 414.948 133.775 T
411.68 135.54 410.298 133.638 411.298 134.364 T
411.68 135.54 409.062 133.638 410.298 133.638 T
411.68 135.54 408.062 134.364 409.062 133.638 T
411.68 135.54 407.68 135.54 408.062 134.364 T
411.68 135.54 408.062 136.716 407.68 135.54 T
411.68 135.54 409.062 137.442 408.062 136.716 T
411.68 135.54 410.298 137.442 409.062 137.442 T
411.68 135.54 411.298 136.716 410.298 137.442 T
407.03 139.207 405.648 137.305 406.648 138.032 T
407.03 139.207 404.412 137.305 405.648 137.305 T
407.03 139.207 403.412 138.032 404.412 137.305 T
407.03 139.207 403.03 139.207 403.412 138.032 T
407.03 139.207 403.412 140.383 403.03 139.207 T
407.03 139.207 404.412 141.11 403.412 140.383 T
407.03 139.207 405.648 141.11 404.412 141.11 T
407.03 139.207 406.648 140.383 405.648 141.11 T
402.38 142.875 400.998 140.973 401.998 141.699 T
402.38 142.875 399.762 140.973 400.998 140.973 T
402.38 142.875 398.762 141.699 399.762 140.973 T
402.38 142.875 398.38 142.875 398.762 141.699 T
402.38 142.875 398.762 144.051 398.38 142.875 T
402.38 142.875 399.762 144.777 398.762 144.051 T
402.38 142.875 400.998 144.777 399.762 144.777 T
402.38 142.875 401.998 144.051 400.998 144.777 T
397.73 146.543 396.348 144.64 397.348 145.367 T
397.73 146.543 395.112 144.64 396.348 144.64 T
397.73 146.543 394.112 145.367 395.112 144.64 T
397.73 146.543 393.73 146.543 394.112 145.367 T
397.73 146.543 394.112 147.718 393.73 146.543 T
397.73 146.543 395.112 148.445 394.112 147.718 T
397.73 146.543 396.348 148.445 395.112 148.445 T
397.73 146.543 397.348 147.718 396.348 148.445 T
393.08 150.21 391.698 148.308 392.698 149.034 T
393.08 150.21 390.462 148.308 391.698 148.308 T
393.08 150.21 389.462 149.034 390.462 148.308 T
393.08 150.21 389.08 150.21 389.462 149.034 T
393.08 150.21 389.462 151.386 389.08 150.21 T
393.08 150.21 390.462 152.112 389.462 151.386 T
393.08 150.21 391.698 152.112 390.462 152.112 T
393.08 150.21 392.698 151.386 391.698 152.112 T
388.43 153.877 387.048 151.975 388.048 152.702 T
388.43 153.877 385.812 151.975 387.048 151.975 T
388.43 153.877 384.812 152.702 385.812 151.975 T
388.43 153.877 384.43 153.877 384.812 152.702 T
388.43 153.877 384.812 155.053 384.43 153.877 T
388.43 153.877 385.812 155.78 384.812 155.053 T
388.43 153.877 387.048 155.78 385.812 155.78 T
388.43 153.877 388.048 155.053 387.048 155.78 T
383.78 157.545 382.398 155.643 383.398 156.369 T
383.78 157.545 381.162 155.643 382.398 155.643 T
383.78 157.545 380.162 156.369 381.162 155.643 T
383.78 157.545 379.78 157.545 380.162 156.369 T
383.78 157.545 380.162 158.721 379.78 157.545 T
383.78 157.545 381.162 159.447 380.162 158.721 T
383.78 157.545 382.398 159.447 381.162 159.447 T
383.78 157.545 383.398 158.721 382.398 159.447 T
379.13 161.212 377.748 159.31 378.748 160.037 T
379.13 161.212 376.512 159.31 377.748 159.31 T
379.13 161.212 375.512 160.037 376.512 159.31 T
379.13 161.212 375.13 161.212 375.512 160.037 T
379.13 161.212 375.512 162.388 375.13 161.212 T
379.13 161.212 376.512 163.115 375.512 162.388 T
379.13 161.212 377.748 163.115 376.512 163.115 T
379.13 161.212 378.748 162.388 377.748 163.115 T
374.48 164.88 373.098 162.978 374.098 163.704 T
374.48 164.88 371.862 162.978 373.098 162.978 T
374.48 164.88 370.862 163.704 371.862 162.978 T
374.48 164.88 370.48 164.88 370.862 163.704 T
374.48 164.88 370.862 166.056 370.48 164.88 T
374.48 164.88 371.862 166.782 370.862 166.056 T
374.48 164.88 373.098 166.782 371.862 166.782 T
374.48 164.88 374.098 166.056 373.098 166.782 T
369.83 168.547 368.448 166.645 369.448 167.372 T
369.83 168.547 367.212 166.645 368.448 166.645 T
369.83 168.547 366.212 167.372 367.212 166.645 T
369.83 168.547 365.83 168.547 366.212 167.372 T
369.83 168.547 366.212 169.723 365.83 168.547 T
369.83 168.547 367.212 170.45 366.212 169.723 T
369.83 168.547 368.448 170.45 367.212 170.45 T
369.83 168.547 369.448 169.723 368.448 170.45 T
365.18 172.215 363.798 170.313 364.798 171.039 T
365.18 172.215 362.562 170.313 363.798 170.313 T
365.18 172.215 361.562 171.039 362.562 170.313 T
365.18 172.215 361.18 172.215 361.562 171.039 T
365.18 172.215 361.562 173.391 361.18 172.215 T
365.18 172.215 362.562 174.117 361.562 173.391 T
365.18 172.215 363.798 174.117 362.562 174.117 T
365.18 172.215 364.798 173.391 363.798 174.117 T
360.53 175.883 359.148 173.98 360.148 174.707 T
360.53 175.883 357.912 173.98 359.148 173.98 T
360.53 175.883 356.912 174.707 357.912 173.98 T
360.53 175.883 356.53 175.883 356.912 174.707 T
360.53 175.883 356.912 177.058 356.53 175.883 T
360.53 175.883 357.912 177.785 356.912 177.058 T
360.53 175.883 359.148 177.785 357.912 177.785 T
360.53 175.883 360.148 177.058 359.148 177.785 T
355.88 179.55 354.498 177.648 355.498 178.374 T
355.88 179.55 353.262 177.648 354.498 177.648 T
355.88 179.55 352.262 178.374 353.262 177.648 T
355.88 179.55 351.88 179.55 352.262 178.374 T
355.88 179.55 352.262 180.726 351.88 179.55 T
355.88 179.55 353.262 181.452 352.262 180.726 T
355.88 179.55 354.498 181.452 353.262 181.452 T
355.88 179.55 355.498 180.726 354.498 181.452 T
351.23 183.217 349.848 181.315 350.848 182.042 T
351.23 183.217 348.612 181.315 349.848 181.315 T
351.23 183.217 347.612 182.042 348.612 181.315 T
351.23 183.217 347.23 183.217 347.612 182.042 T
351.23 183.217 347.612 184.393 347.23 183.217 T
351.23 183.217 348.612 185.12 347.612 184.393 T
351.23 183.217 349.848 185.12 348.612 185.12 T
351.23 183.217 350.848 184.393 349.848 185.12 T
346.58 186.885 345.198 184.983 346.198 185.709 T
346.58 186.885 343.962 184.983 345.198 184.983 T
346.58 186.885 342.962 185.709 343.962 184.983 T
346.58 186.885 342.58 186.885 342.962 185.709 T
346.58 186.885 342.962 188.061 342.58 186.885 T
346.58 186.885 343.962 188.787 342.962 188.061 T
346.58 186.885 345.198 188.787 343.962 188.787 T
346.58 186.885 346.198 188.061 345.198 188.787 T
341.93 190.552 340.548 188.65 341.548 189.377 T
341.93 190.552 339.312 188.65 340.548 188.65 T
341.93 190.552 338.312 189.377 339.312 188.65 T
341.93 190.552 337.93 190.552 338.312 189.377 T
341.93 190.552 338.312 191.728 337.93 190.552 T
341.93 190.552 339.312 192.455 338.312 191.728 T
341.93 190.552 340.548 192.455 339.312 192.455 T
341.93 190.552 341.548 191.728 340.548 192.455 T
337.28 194.22 335.898 192.318 336.898 193.044 T
337.28 194.22 334.662 192.318 335.898 192.318 T
337.28 194.22 333.662 193.044 334.662 192.318 T
337.28 194.22 333.28 194.22 333.662 193.044 T
337.28 194.22 333.662 195.396 333.28 194.22 T
337.28 194.22 334.662 196.122 333.662 195.396 T
337.28 194.22 335.898 196.122 334.662 196.122 T
337.28 194.22 336.898 195.396 335.898 196.122 T
332.63 197.887 331.248 195.985 332.248 196.712 T
332.63 197.887 330.012 195.985 331.248 195.985 T
332.63 197.887 329.012 196.712 330.012 195.985 T
332.63 197.887 328.63 197.887 329.012 196.712 T
332.63 197.887 329.012 199.063 328.63 197.887 T
332.63 197.887 330.012 199.79 329.012 199.063 T
332.63 197.887 331.248 199.79 330.012 199.79 T
332.63 197.887 332.248 199.063 331.248 199.79 T
327.98 201.555 326.598 199.653 327.598 200.379 T
327.98 201.555 325.362 199.653 326.598 199.653 T
327.98 201.555 324.362 200.379 325.362 199.653 T
327.98 201.555 323.98 201.555 324.362 200.379 T
327.98 201.555 324.362 202.731 323.98 201.555 T
327.98 201.555 325.362 203.457 324.362 202.731 T
327.98 201.555 326.598 203.457 325.362 203.457 T
327.98 201.555 327.598 202.731 326.598 203.457 T
323.33 205.222 321.948 203.32 322.948 204.047 T
323.33 205.222 320.712 203.32 321.948 203.32 T
323.33 205.222 319.712 204.047 320.712 203.32 T
323.33 205.222 319.33 205.222 319.712 204.047 T
323.33 205.222 319.712 206.398 319.33 205.222 T
323.33 205.222 320.712 207.125 319.712 206.398 T
323.33 205.222 321.948 207.125 320.712 207.125 T
323.33 205.222 322.948 206.398 321.948 207.125 T
318.68 208.89 317.298 206.988 318.298 207.714 T
318.68 208.89 316.062 206.988 317.298 206.988 T
318.68 208.89 315.062 207.714 316.062 206.988 T
318.68 208.89 314.68 208.89 315.062 207.714 T
318.68 208.89 315.062 210.066 314.68 208.89 T
318.68 208.89 316.062 210.792 315.062 210.066 T
318.68 208.89 317.298 210.792 316.062 210.792 T
318.68 208.89 318.298 210.066 317.298 210.792 T
314.03 212.557 312.648 210.655 313.648 211.382 T
314.03 212.557 311.412 210.655 312.648 210.655 T
314.03 212.557 310.412 211.382 311.412 210.655 T
314.03 212.557 310.03 212.557 310.412 211.382 T
314.03 212.557 310.412 213.733 310.03 212.557 T
314.03 212.557 311.412 214.46 310.412 213.733 T
314.03 212.557 312.648 214.46 311.412 214.46 T
314.03 212.557 313.648 213.733 312.648 214.46 T
309.38 216.225 307.998 214.323 308.998 215.049 T
309.38 216.225 306.762 214.323 307.998 214.323 T
309.38 216.225 305.762 215.049 306.762 214.323 T
309.38 216.225 305.38 216.225 305.762 215.049 T
309.38 216.225 305.762 217.401 305.38 216.225 T
309.38 216.225 306.762 218.127 305.762 217.401 T
309.38 216.225 307.998 218.127 306.762 218.127 T
309.38 216.225 308.998 217.401 307.998 218.127 T
304.73 219.893 303.348 217.99 304.348 218.717 T
304.73 219.893 302.112 217.99 303.348 217.99 T
304.73 219.893 301.112 218.717 302.112 217.99 T
304.73 219.893 300.73 219.893 301.112 218.717 T
304.73 219.893 301.112 221.068 300.73 219.893 T
304.73 219.893 302.112 221.795 301.112 221.068 T
304.73 219.893 303.348 221.795 302.112 221.795 T
304.73 219.893 304.348 221.068 303.348 221.795 T
300.08 223.56 298.698 221.658 299.698 222.384 T
300.08 223.56 297.462 221.658 298.698 221.658 T
300.08 223.56 296.462 222.384 297.462 221.658 T
300.08 223.56 296.08 223.56 296.462 222.384 T
300.08 223.56 296.462 224.736 296.08 223.56 T
300.08 223.56 297.462 225.462 296.462 224.736 T
300.08 223.56 298.698 225.462 297.462 225.462 T
300.08 223.56 299.698 224.736 298.698 225.462 T
295.43 227.227 294.048 225.325 295.048 226.052 T
295.43 227.227 292.812 225.325 294.048 225.325 T
295.43 227.227 291.812 226.052 292.812 225.325 T
295.43 227.227 291.43 227.227 291.812 226.052 T
295.43 227.227 291.812 228.403 291.43 227.227 T
295.43 227.227 292.812 229.13 291.812 228.403 T
295.43 227.227 294.048 229.13 292.812 229.13 T
295.43 227.227 295.048 228.403 294.048 229.13 T
290.78 230.895 289.398 228.993 290.398 229.719 T
290.78 230.895 288.162 228.993 289.398 228.993 T
290.78 230.895 287.162 229.719 288.162 228.993 T
290.78 230.895 286.78 230.895 287.162 229.719 T
290.78 230.895 287.162 232.071 286.78 230.895 T
290.78 230.895 288.162 232.797 287.162 232.071 T
290.78 230.895 289.398 232.797 288.162 232.797 T
290.78 230.895 290.398 232.071 289.398 232.797 T
286.13 234.562 284.748 232.66 285.748 233.387 T
286.13 234.562 283.512 232.66 284.748 232.66 T
286.13 234.562 282.512 233.387 283.512 232.66 T
286.13 234.562 282.13 234.562 282.512 233.387 T
286.13 234.562 282.512 235.738 282.13 234.562 T
286.13 234.562 283.512 236.465 282.512 235.738 T
286.13 234.562 284.748 236.465 283.512 236.465 T
286.13 234.562 285.748 235.738 284.748 236.465 T
281.48 238.23 280.098 236.328 281.098 237.054 T
281.48 238.23 278.862 236.328 280.098 236.328 T
281.48 238.23 277.862 237.054 278.862 236.328 T
281.48 238.23 277.48 238.23 277.862 237.054 T
281.48 238.23 277.862 239.406 277.48 238.23 T
281.48 238.23 278.862 240.132 277.862 239.406 T
281.48 238.23 280.098 240.132 278.862 240.132 T
281.48 238.23 281.098 239.406 280.098 240.132 T
276.83 241.898 275.448 239.995 276.448 240.722 T
276.83 241.898 274.212 239.995 275.448 239.995 T
276.83 241.898 273.212 240.722 274.212 239.995 T
276.83 241.898 272.83 241.898 273.212 240.722 T
276.83 241.898 273.212 243.073 272.83 241.898 T
276.83 241.898 274.212 243.8 273.212 243.073 T
276.83 241.898 275.448 243.8 274.212 243.8 T
276.83 241.898 276.448 243.073 275.448 243.8 T
272.18 245.565 270.798 243.663 271.798 244.389 T
272.18 245.565 269.562 243.663 270.798 243.663 T
272.18 245.565 268.562 244.389 269.562 243.663 T
272.18 245.565 268.18 245.565 268.562 244.389 T
272.18 245.565 268.562 246.741 268.18 245.565 T
272.18 245.565 269.562 247.467 268.562 246.741 T
272.18 245.565 270.798 247.467 269.562 247.467 T
272.18 245.565 271.798 246.741 270.798 247.467 T
267.53 249.232 266.148 247.33 267.148 248.057 T
267.53 249.232 264.912 247.33 266.148 247.33 T
267.53 249.232 263.912 248.057 264.912 247.33 T
267.53 249.232 263.53 249.232 263.912 248.057 T
267.53 249.232 263.912 250.408 263.53 249.232 T
267.53 249.232 264.912 251.135 263.912 250.408 T
267.53 249.232 266.148 251.135 264.912 251.135 T
267.53 249.232 267.148 250.408 266.148 251.135 T
262.88 252.9 261.498 250.998 262.498 251.724 T
262.88 252.9 260.262 250.998 261.498 250.998 T
262.88 252.9 259.262 251.724 260.262 250.998 T
262.88 252.9 258.88 252.9 259.262 251.724 T
262.88 252.9 259.262 254.076 258.88 252.9 T
262.88 252.9 260.262 254.802 259.262 254.076 T
262.88 252.9 261.498 254.802 260.262 254.802 T
262.88 252.9 262.498 254.076 261.498 254.802 T
258.23 256.568 256.848 254.665 257.848 255.392 T
258.23 256.568 255.612 254.665 256.848 254.665 T
258.23 256.568 254.612 255.392 255.612 254.665 T
258.23 256.568 254.23 256.568 254.612 255.392 T
258.23 256.568 254.612 257.743 254.23 256.568 T
258.23 256.568 255.612 258.47 254.612 257.743 T
258.23 256.568 256.848 258.47 255.612 258.47 T
258.23 256.568 257.848 257.743 256.848 258.47 T
253.58 260.235 252.198 258.333 253.198 259.059 T
253.58 260.235 250.962 258.333 252.198 258.333 T
253.58 260.235 249.962 259.059 250.962 258.333 T
253.58 260.235 249.58 260.235 249.962 259.059 T
253.58 260.235 249.962 261.411 249.58 260.235 T
253.58 260.235 250.962 262.137 249.962 261.411 T
253.58 260.235 252.198 262.137 250.962 262.137 T
253.58 260.235 253.198 261.411 252.198 262.137 T
248.93 263.902 247.548 262 248.548 262.727 T
248.93 263.902 246.312 262 247.548 262 T
248.93 263.902 245.312 262.727 246.312 262 T
248.93 263.902 244.93 263.902 245.312 262.727 T
248.93 263.902 245.312 265.078 244.93 263.902 T
248.93 263.902 246.312 265.805 245.312 265.078 T
248.93 263.902 247.548 265.805 246.312 265.805 T
248.93 263.902 248.548 265.078 247.548 265.805 T
244.28 267.57 242.898 265.668 243.898 266.394 T
244.28 267.57 241.662 265.668 242.898 265.668 T
244.28 267.57 240.662 266.394 241.662 265.668 T
244.28 267.57 240.28 267.57 240.662 266.394 T
244.28 267.57 240.662 268.746 240.28 267.57 T
244.28 267.57 241.662 269.472 240.662 268.746 T
244.28 267.57 242.898 269.472 241.662 269.472 T
244.28 267.57 243.898 268.746 242.898 269.472 T
239.63 271.238 238.248 269.335 239.248 270.062 T
239.63 271.238 237.012 269.335 238.248 269.335 T
239.63 271.238 236.012 270.062 237.012 269.335 T
239.63 271.238 235.63 271.238 236.012 270.062 T
239.63 271.238 236.012 272.413 235.63 271.238 T
239.63 271.238 237.012 273.14 236.012 272.413 T
239.63 271.238 238.248 273.14 237.012 273.14 T
239.63 271.238 239.248 272.413 238.248 273.14 T
234.98 274.905 233.598 273.003 234.598 273.729 T
234.98 274.905 232.362 273.003 233.598 273.003 T
234.98 274.905 231.362 273.729 232.362 273.003 T
234.98 274.905 230.98 274.905 231.362 273.729 T
234.98 274.905 231.362 276.081 230.98 274.905 T
234.98 274.905 232.362 276.807 231.362 276.081 T
234.98 274.905 233.598 276.807 232.362 276.807 T
234.98 274.905 234.598 276.081 233.598 276.807 T
230.33 278.572 228.948 276.67 229.948 277.397 T
230.33 278.572 227.712 276.67 228.948 276.67 T
230.33 278.572 226.712 277.397 227.712 276.67 T
230.33 278.572 226.33 278.572 226.712 277.397 T
230.33 278.572 226.712 279.748 226.33 278.572 T
230.33 278.572 227.712 280.475 226.712 279.748 T
230.33 278.572 228.948 280.475 227.712 280.475 T
230.33 278.572 229.948 279.748 228.948 280.475 T
225.68 282.24 224.298 280.338 225.298 281.064 T
225.68 282.24 223.062 280.338 224.298 280.338 T
225.68 282.24 222.062 281.064 223.062 280.338 T
225.68 282.24 221.68 282.24 222.062 281.064 T
225.68 282.24 222.062 283.416 221.68 282.24 T
225.68 282.24 223.062 284.142 222.062 283.416 T
225.68 282.24 224.298 284.142 223.062 284.142 T
225.68 282.24 225.298 283.416 224.298 284.142 T
221.03 285.908 219.648 284.005 220.648 284.732 T
221.03 285.908 218.412 284.005 219.648 284.005 T
221.03 285.908 217.412 284.732 218.412 284.005 T
221.03 285.908 217.03 285.908 217.412 284.732 T
221.03 285.908 217.412 287.083 217.03 285.908 T
221.03 285.908 218.412 287.81 217.412 287.083 T
221.03 285.908 219.648 287.81 218.412 287.81 T
221.03 285.908 220.648 287.083 219.648 287.81 T
216.38 289.575 214.998 287.673 215.998 288.399 T
216.38 289.575 213.762 287.673 214.998 287.673 T
216.38 289.575 212.762 288.399 213.762 287.673 T
216.38 289.575 212.38 289.575 212.762 288.399 T
216.38 289.575 212.762 290.751 212.38 289.575 T
216.38 289.575 213.762 291.477 212.762 290.751 T
216.38 289.575 214.998 291.477 213.762 291.477 T
216.38 289.575 215.998 290.751 214.998 291.477 T
211.73 293.242 210.348 291.34 211.348 292.067 T
211.73 293.242 209.112 291.34 210.348 291.34 T
211.73 293.242 208.112 292.067 209.112 291.34 T
211.73 293.242 207.73 293.242 208.112 292.067 T
211.73 293.242 208.112 294.418 207.73 293.242 T
211.73 293.242 209.112 295.145 208.112 294.418 T
211.73 293.242 210.348 295.145 209.112 295.145 T
211.73 293.242 211.348 294.418 210.348 295.145 T
207.08 296.91 205.698 295.008 206.698 295.734 T
207.08 296.91 204.462 295.008 205.698 295.008 T
207.08 296.91 203.462 295.734 204.462 295.008 T
207.08 296.91 203.08 296.91 203.462 295.734 T
207.08 296.91 203.462 298.086 203.08 296.91 T
207.08 296.91 204.462 298.812 203.462 298.086 T
207.08 296.91 205.698 298.812 204.462 298.812 T
207.08 296.91 206.698 298.086 205.698 298.812 T
202.43 300.578 201.048 298.675 202.048 299.402 T
202.43 300.578 199.812 298.675 201.048 298.675 T
202.43 300.578 198.812 299.402 199.812 298.675 T
202.43 300.578 198.43 300.578 198.812 299.402 T
202.43 300.578 198.812 301.753 198.43 300.578 T
202.43 300.578 199.812 302.48 198.812 301.753 T
202.43 300.578 201.048 302.48 199.812 302.48 T
202.43 300.578 202.048 301.753 201.048 302.48 T
197.78 304.245 196.398 302.343 197.398 303.069 T
197.78 304.245 195.162 302.343 196.398 302.343 T
197.78 304.245 194.162 303.069 195.162 302.343 T
197.78 304.245 193.78 304.245 194.162 303.069 T
197.78 304.245 194.162 305.421 193.78 304.245 T
197.78 304.245 195.162 306.147 194.162 305.421 T
197.78 304.245 196.398 306.147 195.162 306.147 T
197.78 304.245 197.398 305.421 196.398 306.147 T
193.13 307.913 191.748 306.01 192.748 306.737 T
193.13 307.913 190.512 306.01 191.748 306.01 T
193.13 307.913 189.512 306.737 190.512 306.01 T
193.13 307.913 189.13 307.913 189.512 306.737 T
193.13 307.913 189.512 309.088 189.13 307.913 T
193.13 307.913 190.512 309.815 189.512 309.088 T
193.13 307.913 191.748 309.815 190.512 309.815 T
193.13 307.913 192.748 309.088 191.748 309.815 T
188.48 311.58 187.098 309.678 188.098 310.404 T
188.48 311.58 185.862 309.678 187.098 309.678 T
188.48 311.58 184.862 310.404 185.862 309.678 T
188.48 311.58 184.48 311.58 184.862 310.404 T
188.48 311.58 184.862 312.756 184.48 311.58 T
188.48 311.58 185.862 313.482 184.862 312.756 T
188.48 311.58 187.098 313.482 185.862 313.482 T
188.48 311.58 188.098 312.756 187.098 313.482 T
183.83 315.247 182.448 313.345 183.448 314.072 T
183.83 315.247 181.212 313.345 182.448 313.345 T
183.83 315.247 180.212 314.072 181.212 313.345 T
183.83 315.247 179.83 315.247 180.212 314.072 T
183.83 315.247 180.212 316.423 179.83 315.247 T
183.83 315.247 181.212 317.15 180.212 316.423 T
183.83 315.247 182.448 317.15 181.212 317.15 T
183.83 315.247 183.448 316.423 182.448 317.15 T
179.18 318.915 177.798 317.013 178.798 317.739 T
179.18 318.915 176.562 317.013 177.798 317.013 T
179.18 318.915 175.562 317.739 176.562 317.013 T
179.18 318.915 175.18 318.915 175.562 317.739 T
179.18 318.915 175.562 320.091 175.18 318.915 T
179.18 318.915 176.562 320.817 175.562 320.091 T
179.18 318.915 177.798 320.817 176.562 320.817 T
179.18 318.915 178.798 320.091 177.798 320.817 T
174.53 322.582 173.148 320.68 174.148 321.407 T
174.53 322.582 171.912 320.68 173.148 320.68 T
174.53 322.582 170.912 321.407 171.912 320.68 T
174.53 322.582 170.53 322.582 170.912 321.407 T
174.53 322.582 170.912 323.758 170.53 322.582 T
174.53 322.582 171.912 324.485 170.912 323.758 T
174.53 322.582 173.148 324.485 171.912 324.485 T
174.53 322.582 174.148 323.758 173.148 324.485 T
169.88 326.25 168.498 324.348 169.498 325.074 T
169.88 326.25 167.262 324.348 168.498 324.348 T
169.88 326.25 166.262 325.074 167.262 324.348 T
169.88 326.25 165.88 326.25 166.262 325.074 T
169.88 326.25 166.262 327.426 165.88 326.25 T
169.88 326.25 167.262 328.152 166.262 327.426 T
169.88 326.25 168.498 328.152 167.262 328.152 T
169.88 326.25 169.498 327.426 168.498 328.152 T
165.23 329.918 163.848 328.015 164.848 328.742 T
165.23 329.918 162.612 328.015 163.848 328.015 T
165.23 329.918 161.612 328.742 162.612 328.015 T
165.23 329.918 161.23 329.918 161.612 328.742 T
165.23 329.918 161.612 331.093 161.23 329.918 T
165.23 329.918 162.612 331.82 161.612 331.093 T
165.23 329.918 163.848 331.82 162.612 331.82 T
165.23 329.918 164.848 331.093 163.848 331.82 T
160.58 333.585 159.198 331.683 160.198 332.409 T
160.58 333.585 157.962 331.683 159.198 331.683 T
160.58 333.585 156.962 332.409 157.962 331.683 T
160.58 333.585 156.58 333.585 156.962 332.409 T
160.58 333.585 156.962 334.761 156.58 333.585 T
160.58 333.585 157.962 335.487 156.962 334.761 T
160.58 333.585 159.198 335.487 157.962 335.487 T
160.58 333.585 160.198 334.761 159.198 335.487 T
155.93 337.253 154.548 335.35 155.548 336.077 T
155.93 337.253 153.312 335.35 154.548 335.35 T
155.93 337.253 152.312 336.077 153.312 335.35 T
155.93 337.253 151.93 337.253 152.312 336.077 T
155.93 337.253 152.312 338.428 151.93 337.253 T
155.93 337.253 153.312 339.155 152.312 338.428 T
155.93 337.253 154.548 339.155 153.312 339.155 T
155.93 337.253 155.548 338.428 154.548 339.155 T
151.28 340.92 149.898 339.018 150.898 339.744 T
151.28 340.92 148.662 339.018 149.898 339.018 T
151.28 340.92 147.662 339.744 148.662 339.018 T
151.28 340.92 147.28 340.92 147.662 339.744 T
151.28 340.92 147.662 342.096 147.28 340.92 T
151.28 340.92 148.662 342.822 147.662 342.096 T
151.28 340.92 149.898 342.822 148.662 342.822 T
151.28 340.92 150.898 342.096 149.898 342.822 T
146.63 344.587 145.248 342.685 146.248 343.412 T
146.63 344.587 144.012 342.685 145.248 342.685 T
146.63 344.587 143.012 343.412 144.012 342.685 T
146.63 344.587 142.63 344.587 143.012 343.412 T
146.63 344.587 143.012 345.763 142.63 344.587 T
146.63 344.587 144.012 346.49 143.012 345.763 T
146.63 344.587 145.248 346.49 144.012 346.49 T
146.63 344.587 146.248 345.763 145.248 346.49 T
141.98 348.255 140.598 346.353 141.598 347.079 T
141.98 348.255 139.362 346.353 140.598 346.353 T
141.98 348.255 138.362 347.079 139.362 346.353 T
141.98 348.255 137.98 348.255 138.362 347.079 T
141.98 348.255 138.362 349.431 137.98 348.255 T
141.98 348.255 139.362 350.157 138.362 349.431 T
141.98 348.255 140.598 350.157 139.362 350.157 T
141.98 348.255 141.598 349.431 140.598 350.157 T
137.33 351.922 135.948 350.02 136.948 350.747 T
137.33 351.922 134.712 350.02 135.948 350.02 T
137.33 351.922 133.712 350.747 134.712 350.02 T
137.33 351.922 133.33 351.922 133.712 350.747 T
137.33 351.922 133.712 353.098 133.33 351.922 T
137.33 351.922 134.712 353.825 133.712 353.098 T
137.33 351.922 135.948 353.825 134.712 353.825 T
137.33 351.922 136.948 353.098 135.948 353.825 T
132.68 355.59 131.298 353.688 132.298 354.414 T
132.68 355.59 130.062 353.688 131.298 353.688 T
132.68 355.59 129.062 354.414 130.062 353.688 T
132.68 355.59 128.68 355.59 129.062 354.414 T
132.68 355.59 129.062 356.766 128.68 355.59 T
132.68 355.59 130.062 357.492 129.062 356.766 T
132.68 355.59 131.298 357.492 130.062 357.492 T
132.68 355.59 132.298 356.766 131.298 357.492 T
128.03 359.258 126.648 357.355 127.648 358.082 T
128.03 359.258 125.412 357.355 126.648 357.355 T
128.03 359.258 124.412 358.082 125.412 357.355 T
128.03 359.258 124.03 359.258 124.412 358.082 T
128.03 359.258 124.412 360.433 124.03 359.258 T
128.03 359.258 125.412 361.16 124.412 360.433 T
128.03 359.258 126.648 361.16 125.412 361.16 T
128.03 359.258 127.648 360.433 126.648 361.16 T
123.38 362.925 121.998 361.023 122.998 361.749 T
123.38 362.925 120.762 361.023 121.998 361.023 T
123.38 362.925 119.762 361.749 120.762 361.023 T
123.38 362.925 119.38 362.925 119.762 361.749 T
123.38 362.925 119.762 364.101 119.38 362.925 T
123.38 362.925 120.762 364.827 119.762 364.101 T
123.38 362.925 121.998 364.827 120.762 364.827 T
123.38 362.925 122.998 364.101 121.998 364.827 T
118.73 366.592 117.348 364.69 118.348 365.417 T
118.73 366.592 116.112 364.69 117.348 364.69 T
118.73 366.592 115.112 365.417 116.112 364.69 T
118.73 366.592 114.73 366.592 115.112 365.417 T
118.73 366.592 115.112 367.768 114.73 366.592 T
118.73 366.592 116.112 368.495 115.112 367.768 T
118.73 366.592 117.348 368.495 116.112 368.495 T
118.73 366.592 118.348 367.768 117.348 368.495 T
114.08 370.26 112.698 368.358 113.698 369.084 T
114.08 370.26 111.462 368.358 112.698 368.358 T
114.08 370.26 110.462 369.084 111.462 368.358 T
114.08 370.26 110.08 370.26 110.462 369.084 T
114.08 370.26 110.462 371.436 110.08 370.26 T
114.08 370.26 111.462 372.162 110.462 371.436 T
114.08 370.26 112.698 372.162 111.462 372.162 T
114.08 370.26 113.698 371.436 112.698 372.162 T
109.43 373.927 108.048 372.025 109.048 372.752 T
109.43 373.927 106.812 372.025 108.048 372.025 T
109.43 373.927 105.812 372.752 106.812 372.025 T
109.43 373.927 105.43 373.927 105.812 372.752 T
109.43 373.927 105.812 375.103 105.43 373.927 T
109.43 373.927 106.812 375.83 105.812 375.103 T
109.43 373.927 108.048 375.83 106.812 375.83 T
109.43 373.927 109.048 375.103 108.048 375.83 T
104.78 377.595 103.398 375.693 104.398 376.419 T
104.78 377.595 102.162 375.693 103.398 375.693 T
104.78 377.595 101.162 376.419 102.162 375.693 T
104.78 377.595 100.78 377.595 101.162 376.419 T
104.78 377.595 101.162 378.771 100.78 377.595 T
104.78 377.595 102.162 379.497 101.162 378.771 T
104.78 377.595 103.398 379.497 102.162 379.497 T
104.78 377.595 104.398 378.771 103.398 379.497 T
100.13 381.263 98.748 379.36 99.748 380.087 T
100.13 381.263 97.5119 379.36 98.748 379.36 T
100.13 381.263 96.512 380.087 97.5119 379.36 T
100.13 381.263 96.13 381.263 96.512 380.087 T
100.13 381.263 96.512 382.438 96.13 381.263 T
100.13 381.263 97.5119 383.165 96.512 382.438 T
100.13 381.263 98.748 383.165 97.5119 383.165 T
100.13 381.263 99.748 382.438 98.748 383.165 T
95.48 384.93 94.098 383.028 95.098 383.754 T
95.48 384.93 92.862 383.028 94.098 383.028 T
95.48 384.93 91.862 383.754 92.862 383.028 T
95.48 384.93 91.48 384.93 91.862 383.754 T
95.48 384.93 91.862 386.106 91.48 384.93 T
95.48 384.93 92.862 386.832 91.862 386.106 T
95.48 384.93 94.098 386.832 92.862 386.832 T
95.48 384.93 95.098 386.106 94.098 386.832 T
90.83 388.598 89.448 386.695 90.448 387.422 T
90.83 388.598 88.212 386.695 89.448 386.695 T
90.83 388.598 87.212 387.422 88.212 386.695 T
90.83 388.598 86.83 388.598 87.212 387.422 T
90.83 388.598 87.212 389.773 86.83 388.598 T
90.83 388.598 88.212 390.5 87.212 389.773 T
90.83 388.598 89.448 390.5 88.212 390.5 T
90.83 388.598 90.448 389.773 89.448 390.5 T
86.18 392.265 84.798 390.363 85.798 391.089 T
86.18 392.265 83.562 390.363 84.798 390.363 T
86.18 392.265 82.562 391.089 83.562 390.363 T
86.18 392.265 82.18 392.265 82.562 391.089 T
86.18 392.265 82.562 393.441 82.18 392.265 T
86.18 392.265 83.562 394.167 82.562 393.441 T
86.18 392.265 84.798 394.167 83.562 394.167 T
86.18 392.265 85.798 393.441 84.798 394.167 T
81.53 395.932 80.148 394.03 81.148 394.757 T
81.53 395.932 78.912 394.03 80.148 394.03 T
81.53 395.932 77.912 394.757 78.912 394.03 T
81.53 395.932 77.53 395.932 77.912 394.757 T
81.53 395.932 77.912 397.108 77.53 395.932 T
81.53 395.932 78.912 397.835 77.912 397.108 T
81.53 395.932 80.148 397.835 78.912 397.835 T
81.53 395.932 81.148 397.108 80.148 397.835 T
76.88 399.6 75.498 397.698 76.498 398.424 T
76.88 399.6 74.262 397.698 75.498 397.698 T
76.88 399.6 73.262 398.424 74.262 397.698 T
76.88 399.6 72.88 399.6 73.262 398.424 T
76.88 399.6 73.262 400.776 72.88 399.6 T
76.88 399.6 74.262 401.502 73.262 400.776 T
76.88 399.6 75.498 401.502 74.262 401.502 T
76.88 399.6 76.498 400.776 75.498 401.502 T
grestore
showpage
cleartomark
%%PageTrailer
%%Trailer
end
%%EOF
