%!PS-Adobe-3.0 EPSF-3.0
%%Title: glps_renderer figure
%%Creator: GL2PS 1.3.8, (C) 1999-2012 C. Geuzaine
%%For: Octave
%%CreationDate: Thu May 14 12:25:15 2015
%%LanguageLevel: 3
%%DocumentData: Clean7Bit
%%Pages: 1
%%BoundingBox: 0 0 560 420
%%EndComments
%%BeginProlog
/gl2psdict 64 dict def gl2psdict begin
0 setlinecap 0 setlinejoin
/tryPS3shading false def % set to false to force subdivision
/rThreshold 0.064 def % red component subdivision threshold
/gThreshold 0.034 def % green component subdivision threshold
/bThreshold 0.1 def % blue component subdivision threshold
/BD { bind def } bind def
/C  { setrgbcolor } BD
/G  { 0.082 mul exch 0.6094 mul add exch 0.3086 mul add neg 1.0 add setgray } BD
/W  { setlinewidth } BD
/FC { findfont exch /SH exch def SH scalefont setfont } BD
/SW { dup stringwidth pop } BD
/S  { FC moveto show } BD
/SBC{ FC moveto SW -2 div 0 rmoveto show } BD
/SBR{ FC moveto SW neg 0 rmoveto show } BD
/SCL{ FC moveto 0 SH -2 div rmoveto show } BD
/SCC{ FC moveto SW -2 div SH -2 div rmoveto show } BD
/SCR{ FC moveto SW neg SH -2 div rmoveto show } BD
/STL{ FC moveto 0 SH neg rmoveto show } BD
/STC{ FC moveto SW -2 div SH neg rmoveto show } BD
/STR{ FC moveto SW neg SH neg rmoveto show } BD
/FCT { FC translate 0 0 } BD
/SR  { gsave FCT moveto rotate show grestore } BD
/SBCR{ gsave FCT moveto rotate SW -2 div 0 rmoveto show grestore } BD
/SBRR{ gsave FCT moveto rotate SW neg 0 rmoveto show grestore } BD
/SCLR{ gsave FCT moveto rotate 0 SH -2 div rmoveto show grestore} BD
/SCCR{ gsave FCT moveto rotate SW -2 div SH -2 div rmoveto show grestore} BD
/SCRR{ gsave FCT moveto rotate SW neg SH -2 div rmoveto show grestore} BD
/STLR{ gsave FCT moveto rotate 0 SH neg rmoveto show grestore } BD
/STCR{ gsave FCT moveto rotate SW -2 div SH neg rmoveto show grestore } BD
/STRR{ gsave FCT moveto rotate SW neg SH neg rmoveto show grestore } BD
/P  { newpath 0.0 360.0 arc closepath fill } BD
/LS { newpath moveto } BD
/L  { lineto } BD
/LE { lineto stroke } BD
/T  { newpath moveto lineto lineto closepath fill } BD
/STshfill {
      /b1 exch def /g1 exch def /r1 exch def /y1 exch def /x1 exch def
      /b2 exch def /g2 exch def /r2 exch def /y2 exch def /x2 exch def
      /b3 exch def /g3 exch def /r3 exch def /y3 exch def /x3 exch def
      gsave << /ShadingType 4 /ColorSpace [/DeviceRGB]
      /DataSource [ 0 x1 y1 r1 g1 b1 0 x2 y2 r2 g2 b2 0 x3 y3 r3 g3 b3 ] >>
      shfill grestore } BD
/Tm { 3 -1 roll 8 -1 roll 13 -1 roll add add 3 div
      3 -1 roll 7 -1 roll 11 -1 roll add add 3 div
      3 -1 roll 6 -1 roll 9 -1 roll add add 3 div C T } BD
/STsplit {
      4 index 15 index add 0.5 mul
      4 index 15 index add 0.5 mul
      4 index 15 index add 0.5 mul
      4 index 15 index add 0.5 mul
      4 index 15 index add 0.5 mul
      5 copy 5 copy 25 15 roll
      9 index 30 index add 0.5 mul
      9 index 30 index add 0.5 mul
      9 index 30 index add 0.5 mul
      9 index 30 index add 0.5 mul
      9 index 30 index add 0.5 mul
      5 copy 5 copy 35 5 roll 25 5 roll 15 5 roll
      4 index 10 index add 0.5 mul
      4 index 10 index add 0.5 mul
      4 index 10 index add 0.5 mul
      4 index 10 index add 0.5 mul
      4 index 10 index add 0.5 mul
      5 copy 5 copy 40 5 roll 25 5 roll 15 5 roll 25 5 roll
      STnoshfill STnoshfill STnoshfill STnoshfill } BD
/STnoshfill {
      2 index 8 index sub abs rThreshold gt
      { STsplit }
      { 1 index 7 index sub abs gThreshold gt
        { STsplit }
        { dup 6 index sub abs bThreshold gt
          { STsplit }
          { 2 index 13 index sub abs rThreshold gt
            { STsplit }
            { 1 index 12 index sub abs gThreshold gt
              { STsplit }
              { dup 11 index sub abs bThreshold gt
                { STsplit }
                { 7 index 13 index sub abs rThreshold gt
                  { STsplit }
                  { 6 index 12 index sub abs gThreshold gt
                    { STsplit }
                    { 5 index 11 index sub abs bThreshold gt
                      { STsplit }
                      { Tm }
                      ifelse }
                    ifelse }
                  ifelse }
                ifelse }
              ifelse }
            ifelse }
          ifelse }
        ifelse }
      ifelse } BD
tryPS3shading
{ /shfill where
  { /ST { STshfill } BD }
  { /ST { STnoshfill } BD }
  ifelse }
{ /ST { STnoshfill } BD }
ifelse
end
%%EndProlog
%%BeginSetup
/DeviceRGB setcolorspace
gl2psdict begin
%%EndSetup
%%Page: 1 1
%%BeginPageSetup
%%EndPageSetup
mark
gsave
1.0 1.0 scale
1 1 1 C
72.8 132.847 506.8 112.686 261.231 46.2 T
72.8 132.847 318.369 199.333 506.8 112.686 T
506.8 112.686 318.369 388.5 506.8 301.853 T
506.8 112.686 318.369 199.333 318.369 388.5 T
0.5 W
[16 0] 0 setdash
0 0 0 C
70.0399 134.116 LS
62.9306 137.385 LE
(0) 58.3825 139.476 10 /Helvetica SBR
70.0399 171.949 LS
62.9306 175.218 LE
(0.1) 58.3825 177.31 10 /Helvetica SBR
70.0399 209.783 LS
62.9306 213.052 LE
(0.2) 58.3825 215.143 10 /Helvetica SBR
70.0399 247.616 LS
62.9306 250.885 LE
(0.3) 58.3825 252.976 10 /Helvetica SBR
70.0399 285.449 LS
62.9306 288.719 LE
(0.4) 58.3825 290.81 10 /Helvetica SBR
70.0399 323.283 LS
62.9306 326.552 LE
(0.5) 58.3825 328.643 10 /Helvetica SBR
1 1 1 C
72.8 132.847 318.369 388.5 72.8 322.014 T
72.8 132.847 318.369 199.333 318.369 388.5 T
0 0 0 C
462.933 132.858 LS
318.369 199.333 LE
72.8406 132.858 LS
318.369 199.333 LE
318.369 388.5 LS
318.369 199.333 LE
72.7761 132.858 LS
70.0399 134.116 LE
325.805 385.08 LS
318.369 388.5 LE
305.738 385.08 LS
318.369 388.5 LE
0 0 1 C
74.8024 132.849 73.4205 130.947 74.4205 131.674 T
74.8024 132.849 72.1844 130.947 73.4205 130.947 T
74.8024 132.849 71.1844 131.674 72.1844 130.947 T
74.8024 132.849 70.8025 132.849 71.1844 131.674 T
74.8024 132.849 71.1844 134.025 70.8025 132.849 T
74.8024 132.849 72.1844 134.751 71.1844 134.025 T
74.8024 132.849 73.4205 134.751 72.1844 134.751 T
74.8024 132.849 74.4205 134.025 73.4205 134.751 T
0 0 0 C
80.0847 129.497 LS
72.8 132.847 LE
0 0 1 C
110.967 131.168 109.585 129.266 110.585 129.993 T
110.967 131.168 108.349 129.266 109.585 129.266 T
110.967 131.168 107.349 129.993 108.349 129.266 T
110.967 131.168 106.967 131.168 107.349 129.993 T
110.967 131.168 107.349 132.344 106.967 131.168 T
110.967 131.168 108.349 133.071 107.349 132.344 T
110.967 131.168 109.585 133.071 108.349 133.071 T
110.967 131.168 110.585 132.344 109.585 133.071 T
0 0 0 C
462.933 132.858 LS
470.242 129.497 LE
72.8406 132.858 LS
72.8 132.847 L
62.339 130.014 LE
72.7761 132.858 LS
72.8 132.847 LE
72.8 142.896 LS
72.8 132.847 LE
325.805 385.08 LS
333.114 381.72 LE
305.738 385.08 LS
293.325 381.72 LE
0 0 1 C
147.133 129.488 145.751 127.586 146.751 128.313 T
147.133 129.488 144.515 127.586 145.751 127.586 T
147.133 129.488 143.515 128.313 144.515 127.586 T
147.133 129.488 143.133 129.488 143.515 128.313 T
147.133 129.488 143.515 130.664 143.133 129.488 T
147.133 129.488 144.515 131.391 143.515 130.664 T
147.133 129.488 145.751 131.391 144.515 131.391 T
147.133 129.488 146.751 130.664 145.751 131.391 T
0 0 0 C
(0.5) 57.5182 128.709 10 /Helvetica STR
80.0847 129.497 LS
83.7383 127.817 LE
72.8 142.896 LS
72.8 147.936 LE
470.242 129.497 LS
473.895 127.817 LE
333.114 381.72 LS
336.767 380.04 LE
293.325 381.72 LS
287.12 380.04 LE
0 0 1 C
183.3 127.808 181.918 125.906 182.918 126.633 T
183.3 127.808 180.682 125.906 181.918 125.906 T
183.3 127.808 179.682 126.633 180.682 125.906 T
183.3 127.808 179.3 127.808 179.682 126.633 T
183.3 127.808 179.682 128.984 179.3 127.808 T
183.3 127.808 180.682 129.711 179.682 128.984 T
183.3 127.808 181.918 129.711 180.682 129.711 T
183.3 127.808 182.918 128.984 181.918 129.711 T
0 0 0 C
83.7383 127.817 LS
87.392 126.137 LE
72.8 147.936 LS
72.8 152.976 LE
473.895 127.817 LS
477.549 126.137 LE
336.767 380.04 LS
340.421 378.36 LE
287.12 380.04 LS
280.915 378.36 LE
0 0 1 C
219.467 126.128 218.085 124.226 219.085 124.953 T
219.467 126.128 216.849 124.226 218.085 124.226 T
219.467 126.128 215.849 124.953 216.849 124.226 T
219.467 126.128 215.467 126.128 215.849 124.953 T
219.467 126.128 215.849 127.304 215.467 126.128 T
219.467 126.128 216.849 128.03 215.849 127.304 T
219.467 126.128 218.085 128.03 216.849 128.03 T
219.467 126.128 219.085 127.304 218.085 128.03 T
0 0 0 C
87.392 126.137 LS
91.0455 124.457 LE
72.8 152.976 LS
72.8 158.016 LE
477.549 126.137 LS
481.203 124.457 LE
340.421 378.36 LS
344.075 376.68 LE
280.915 378.36 LS
274.71 376.68 LE
0 0 1 C
255.633 124.448 254.251 122.546 255.251 123.273 T
255.633 124.448 253.015 122.546 254.251 122.546 T
255.633 124.448 252.015 123.273 253.015 122.546 T
255.633 124.448 251.633 124.448 252.015 123.273 T
255.633 124.448 252.015 125.624 251.633 124.448 T
255.633 124.448 253.015 126.35 252.015 125.624 T
255.633 124.448 254.251 126.35 253.015 126.35 T
255.633 124.448 255.251 125.624 254.251 126.35 T
0 0 0 C
91.0455 124.457 LS
94.6991 122.777 LE
72.8 158.016 LS
72.8 163.056 LE
481.203 124.457 LS
484.856 122.777 LE
344.075 376.68 LS
347.728 375 LE
274.71 376.68 LS
268.504 375 LE
0 0 1 C
291.8 122.768 290.418 120.866 291.418 121.593 T
291.8 122.768 289.182 120.866 290.418 120.866 T
291.8 122.768 288.182 121.593 289.182 120.866 T
291.8 122.768 287.8 122.768 288.182 121.593 T
291.8 122.768 288.182 123.944 287.8 122.768 T
291.8 122.768 289.182 124.67 288.182 123.944 T
291.8 122.768 290.418 124.67 289.182 124.67 T
291.8 122.768 291.418 123.944 290.418 124.67 T
0 0 0 C
98.3528 121.097 LS
94.6991 122.777 LE
70.9272 171.541 LS
70.0399 171.949 LE
72.8 168.097 LS
72.8 163.056 LE
488.51 121.097 LS
484.856 122.777 LE
351.382 373.319 LS
347.728 375 LE
262.299 373.319 LS
268.504 375 LE
0 0 1 C
327.967 121.088 326.585 119.186 327.585 119.913 T
327.967 121.088 325.349 119.186 326.585 119.186 T
327.967 121.088 324.349 119.913 325.349 119.186 T
327.967 121.088 323.967 121.088 324.349 119.913 T
327.967 121.088 324.349 122.264 323.967 121.088 T
327.967 121.088 325.349 122.99 324.349 122.264 T
327.967 121.088 326.585 122.99 325.349 122.99 T
327.967 121.088 327.585 122.264 326.585 122.99 T
0 0 0 C
98.3528 121.097 LS
102.006 119.417 LE
70.9272 171.541 LS
72.8 170.68 LE
72.8 168.097 LS
72.8 173.136 LE
0 0 1 C
90.5051 141.391 89.1231 139.489 90.1231 140.215 T
90.5051 141.391 87.887 139.489 89.1231 139.489 T
90.5051 141.391 86.887 140.215 87.887 139.489 T
90.5051 141.391 86.5051 141.391 86.887 140.215 T
90.5051 141.391 86.887 142.566 86.5051 141.391 T
90.5051 141.391 87.887 143.293 86.887 142.566 T
90.5051 141.391 89.1231 143.293 87.887 143.293 T
90.5051 141.391 90.1231 142.566 89.1231 143.293 T
0 0 0 C
488.51 121.097 LS
492.163 119.417 LE
351.382 373.319 LS
355.035 371.64 LE
262.299 373.319 LS
256.094 371.64 LE
0 0 1 C
364.133 119.408 362.751 117.506 363.751 118.233 T
364.133 119.408 361.515 117.506 362.751 117.506 T
364.133 119.408 360.515 118.233 361.515 117.506 T
364.133 119.408 360.133 119.408 360.515 118.233 T
364.133 119.408 360.515 120.584 360.133 119.408 T
364.133 119.408 361.515 121.31 360.515 120.584 T
364.133 119.408 362.751 121.31 361.515 121.31 T
364.133 119.408 363.751 120.584 362.751 121.31 T
0 0 0 C
102.006 119.417 LS
105.66 117.737 LE
72.8 173.136 LS
72.8 178.176 LE
0 0 1 C
126.669 139.71 125.287 137.808 126.287 138.534 T
126.669 139.71 124.051 137.808 125.287 137.808 T
126.669 139.71 123.051 138.534 124.051 137.808 T
126.669 139.71 122.669 139.71 123.051 138.534 T
126.669 139.71 123.051 140.886 122.669 139.71 T
126.669 139.71 124.051 141.612 123.051 140.886 T
126.669 139.71 125.287 141.612 124.051 141.612 T
126.669 139.71 126.287 140.886 125.287 141.612 T
0 0 0 C
492.163 119.417 LS
495.817 117.737 LE
355.035 371.64 LS
358.689 369.96 LE
256.094 371.64 LS
249.889 369.96 LE
0 0 1 C
400.3 117.728 398.918 115.826 399.918 116.553 T
400.3 117.728 397.682 115.826 398.918 115.826 T
400.3 117.728 396.682 116.553 397.682 115.826 T
400.3 117.728 396.3 117.728 396.682 116.553 T
400.3 117.728 396.682 118.904 396.3 117.728 T
400.3 117.728 397.682 119.63 396.682 118.904 T
400.3 117.728 398.918 119.63 397.682 119.63 T
400.3 117.728 399.918 118.904 398.918 119.63 T
0 0 0 C
105.66 117.737 LS
109.313 116.057 LE
72.8 178.176 LS
72.8 183.217 LE
0 0 1 C
162.836 138.03 161.454 136.128 162.454 136.854 T
162.836 138.03 160.218 136.128 161.454 136.128 T
162.836 138.03 159.218 136.854 160.218 136.128 T
162.836 138.03 158.836 138.03 159.218 136.854 T
162.836 138.03 159.218 139.205 158.836 138.03 T
162.836 138.03 160.218 139.932 159.218 139.205 T
162.836 138.03 161.454 139.932 160.218 139.932 T
162.836 138.03 162.454 139.205 161.454 139.932 T
0 0 0 C
495.817 117.737 LS
499.47 116.057 LE
358.689 369.96 LS
362.342 368.279 LE
249.889 369.96 LS
243.683 368.279 LE
0 0 1 C
436.467 116.048 435.085 114.146 436.085 114.873 T
436.467 116.048 433.849 114.146 435.085 114.146 T
436.467 116.048 432.849 114.873 433.849 114.146 T
436.467 116.048 432.467 116.048 432.849 114.873 T
436.467 116.048 432.849 117.224 432.467 116.048 T
436.467 116.048 433.849 117.95 432.849 117.224 T
436.467 116.048 435.085 117.95 433.849 117.95 T
436.467 116.048 436.085 117.224 435.085 117.95 T
0 0 0 C
106.273 114.377 LS
110.486 115.517 LE
112.967 114.377 LS
109.313 116.057 LE
72.8 188.257 LS
72.8 183.217 LE
0 0 1 C
199.003 136.35 197.621 134.448 198.621 135.174 T
199.003 136.35 196.385 134.448 197.621 134.448 T
199.003 136.35 195.385 135.174 196.385 134.448 T
199.003 136.35 195.003 136.35 195.385 135.174 T
199.003 136.35 195.385 137.525 195.003 136.35 T
199.003 136.35 196.385 138.252 195.385 137.525 T
199.003 136.35 197.621 138.252 196.385 138.252 T
199.003 136.35 198.621 137.525 197.621 138.252 T
0 0 0 C
503.124 114.377 LS
499.47 116.057 LE
365.996 366.599 LS
362.342 368.279 LE
237.478 366.599 LS
243.683 368.279 LE
0 0 1 C
472.633 114.368 471.251 112.466 472.251 113.193 T
472.633 114.368 470.015 112.466 471.251 112.466 T
472.633 114.368 469.015 113.193 470.015 112.466 T
472.633 114.368 468.633 114.368 469.015 113.193 T
472.633 114.368 469.015 115.544 468.633 114.368 T
472.633 114.368 470.015 116.27 469.015 115.544 T
472.633 114.368 471.251 116.27 470.015 116.27 T
472.633 114.368 472.251 115.544 471.251 116.27 T
0 0 0 C
106.273 114.377 LS
100.071 112.697 LE
112.967 114.377 LS
116.619 112.697 LE
72.8 188.257 LS
72.8 193.294 LE
0 0 1 C
235.169 134.67 233.787 132.768 234.787 133.494 T
235.169 134.67 232.551 132.768 233.787 132.768 T
235.169 134.67 231.551 133.494 232.551 132.768 T
235.169 134.67 231.169 134.67 231.551 133.494 T
235.169 134.67 231.551 135.845 231.169 134.67 T
235.169 134.67 232.551 136.572 231.551 135.845 T
235.169 134.67 233.787 136.572 232.551 136.572 T
235.169 134.67 234.787 135.845 233.787 136.572 T
0 0 0 C
503.124 114.377 LS
506.776 112.697 LE
365.996 366.599 LS
369.648 364.92 LE
237.478 366.599 LS
231.276 364.92 LE
0 0 1 C
508.798 112.689 507.416 110.787 508.416 111.513 T
508.798 112.689 506.18 110.787 507.416 110.787 T
508.798 112.689 505.18 111.513 506.18 110.787 T
508.798 112.689 504.798 112.689 505.18 111.513 T
508.798 112.689 505.18 113.865 504.798 112.689 T
508.798 112.689 506.18 114.591 505.18 113.865 T
508.798 112.689 507.416 114.591 506.18 114.591 T
508.798 112.689 508.416 113.865 507.416 114.591 T
0 0 0 C
100.071 112.697 LS
100.025 112.685 LE
(0.4) 95.2045 111.38 10 /Helvetica STR
121.828 110.302 LS
116.619 112.697 LE
72.8 200.48 LS
72.8 193.294 LE
0 0 1 C
271.336 132.99 269.954 131.088 270.954 131.814 T
271.336 132.99 268.718 131.088 269.954 131.088 T
271.336 132.99 267.718 131.814 268.718 131.088 T
271.336 132.99 267.336 132.99 267.718 131.814 T
271.336 132.99 267.718 134.165 267.336 132.99 T
271.336 132.99 268.718 134.892 267.718 134.165 T
271.336 132.99 269.954 134.892 268.718 134.892 T
271.336 132.99 270.954 134.165 269.954 134.892 T
0 0 0 C
506.776 112.697 LS
506.8 112.686 LE
506.8 119.839 LS
506.8 112.686 LE
374.857 362.525 LS
369.648 364.92 LE
222.429 362.525 LS
231.276 364.92 LE
497.994 110.302 LS
506.8 112.686 LE
511.985 110.302 LS
506.8 112.686 LE
0 0 1 C
307.503 131.31 306.121 129.408 307.121 130.134 T
307.503 131.31 304.885 129.408 306.121 129.408 T
307.503 131.31 303.885 130.134 304.885 129.408 T
307.503 131.31 303.503 131.31 303.885 130.134 T
307.503 131.31 303.885 132.485 303.503 131.31 T
307.503 131.31 304.885 133.212 303.885 132.485 T
307.503 131.31 306.121 133.212 304.885 133.212 T
307.503 131.31 307.121 132.485 306.121 133.212 T
0 0 0 C
127.035 107.908 LS
121.828 110.302 LE
72.1835 208.797 LS
70.0399 209.783 LE
72.8 207.663 LS
72.8 200.48 LE
0 0 1 C
343.669 129.63 342.287 127.728 343.287 128.454 T
343.669 129.63 341.051 127.728 342.287 127.728 T
343.669 129.63 340.051 128.454 341.051 127.728 T
343.669 129.63 339.669 129.63 340.051 128.454 T
343.669 129.63 340.051 130.805 339.669 129.63 T
343.669 129.63 341.051 131.532 340.051 130.805 T
343.669 129.63 342.287 131.532 341.051 131.532 T
343.669 129.63 343.287 130.805 342.287 131.532 T
0 0 0 C
506.8 127.022 LS
506.8 119.839 LE
380.064 360.131 LS
374.857 362.525 LE
213.586 360.131 LS
222.429 362.525 LE
489.151 107.908 LS
497.994 110.302 LE
511.985 110.302 LS
516.669 108.148 LE
0 0 1 C
106.208 149.934 104.826 148.032 105.826 148.758 T
106.208 149.934 103.59 148.032 104.826 148.032 T
106.208 149.934 102.59 148.758 103.59 148.032 T
106.208 149.934 102.208 149.934 102.59 148.758 T
106.208 149.934 102.59 151.11 102.208 149.934 T
106.208 149.934 103.59 151.836 102.59 151.11 T
106.208 149.934 104.826 151.836 103.59 151.836 T
106.208 149.934 105.826 151.11 104.826 151.836 T
0 0 0 C
127.035 107.908 LS
129.135 106.942 LE
72.1835 208.797 LS
72.8 208.513 LE
72.8 207.663 LS
72.8 210.56 LE
506.8 127.022 LS
506.8 129.918 LE
380.064 360.131 LS
382.164 359.165 LE
213.586 360.131 LS
210.019 359.165 LE
489.151 107.908 LS
485.584 106.942 LE
0 0 1 C
379.836 127.95 378.454 126.048 379.454 126.774 T
379.836 127.95 377.218 126.048 378.454 126.048 T
379.836 127.95 376.218 126.774 377.218 126.048 T
379.836 127.95 375.836 127.95 376.218 126.774 T
379.836 127.95 376.218 129.125 375.836 127.95 T
379.836 127.95 377.218 129.852 376.218 129.125 T
379.836 127.95 378.454 129.852 377.218 129.852 T
379.836 127.95 379.454 129.125 378.454 129.852 T
0 0 0 C
129.135 106.942 LS
132.788 105.262 LE
72.8 210.56 LS
72.8 215.6 LE
0 0 1 C
142.372 148.253 140.99 146.351 141.99 147.078 T
142.372 148.253 139.754 146.351 140.99 146.351 T
142.372 148.253 138.754 147.078 139.754 146.351 T
142.372 148.253 138.372 148.253 138.754 147.078 T
142.372 148.253 138.754 149.429 138.372 148.253 T
142.372 148.253 139.754 150.155 138.754 149.429 T
142.372 148.253 140.99 150.155 139.754 150.155 T
142.372 148.253 141.99 149.429 140.99 150.155 T
0 0 0 C
506.8 129.918 LS
506.8 134.959 LE
382.164 359.165 LS
385.817 357.485 LE
210.019 359.165 LS
203.814 357.485 LE
485.584 106.942 LS
479.379 105.262 LE
(0.5) 521.217 106.057 10 /Helvetica STL
0 0 1 C
416.003 126.27 414.621 124.368 415.621 125.094 T
416.003 126.27 413.385 124.368 414.621 124.368 T
416.003 126.27 412.385 125.094 413.385 124.368 T
416.003 126.27 412.003 126.27 412.385 125.094 T
416.003 126.27 412.385 127.445 412.003 126.27 T
416.003 126.27 413.385 128.172 412.385 127.445 T
416.003 126.27 414.621 128.172 413.385 128.172 T
416.003 126.27 415.621 127.445 414.621 128.172 T
0 0 0 C
132.788 105.262 LS
136.442 103.582 LE
72.8 215.6 LS
72.8 220.64 LE
0 0 1 C
178.539 146.573 177.157 144.671 178.157 145.398 T
178.539 146.573 175.921 144.671 177.157 144.671 T
178.539 146.573 174.921 145.398 175.921 144.671 T
178.539 146.573 174.539 146.573 174.921 145.398 T
178.539 146.573 174.921 147.749 174.539 146.573 T
178.539 146.573 175.921 148.475 174.921 147.749 T
178.539 146.573 177.157 148.475 175.921 148.475 T
178.539 146.573 178.157 147.749 177.157 148.475 T
0 0 0 C
506.8 134.959 LS
506.8 139.999 LE
385.817 357.485 LS
389.471 355.805 LE
203.814 357.485 LS
197.609 355.805 LE
479.379 105.262 LS
473.174 103.582 LE
0 0 1 C
452.169 124.59 450.787 122.688 451.787 123.414 T
452.169 124.59 449.551 122.688 450.787 122.688 T
452.169 124.59 448.551 123.414 449.551 122.688 T
452.169 124.59 448.169 124.59 448.551 123.414 T
452.169 124.59 448.551 125.765 448.169 124.59 T
452.169 124.59 449.551 126.492 448.551 125.765 T
452.169 124.59 450.787 126.492 449.551 126.492 T
452.169 124.59 451.787 125.765 450.787 126.492 T
0 0 0 C
136.442 103.582 LS
140.094 101.903 LE
72.8 220.64 LS
72.8 225.678 LE
0 0 1 C
214.705 144.893 213.323 142.991 214.323 143.718 T
214.705 144.893 212.087 142.991 213.323 142.991 T
214.705 144.893 211.087 143.718 212.087 142.991 T
214.705 144.893 210.705 144.893 211.087 143.718 T
214.705 144.893 211.087 146.069 210.705 144.893 T
214.705 144.893 212.087 146.795 211.087 146.069 T
214.705 144.893 213.323 146.795 212.087 146.795 T
214.705 144.893 214.323 146.069 213.323 146.795 T
0 0 0 C
506.8 139.999 LS
506.8 145.036 LE
389.471 355.805 LS
393.123 354.126 LE
197.609 355.805 LS
191.406 354.126 LE
473.174 103.582 LS
466.971 101.903 LE
0 0 1 C
488.334 122.911 486.952 121.008 487.952 121.735 T
488.334 122.911 485.716 121.008 486.952 121.008 T
488.334 122.911 484.716 121.735 485.716 121.008 T
488.334 122.911 484.334 122.911 484.716 121.735 T
488.334 122.911 484.716 124.086 484.334 122.911 T
488.334 122.911 485.716 124.813 484.716 124.086 T
488.334 122.911 486.952 124.813 485.716 124.813 T
488.334 122.911 487.952 124.086 486.952 124.813 T
0 0 0 C
145.304 99.5071 LS
140.094 101.903 LE
72.8 232.865 LS
72.8 225.678 LE
506.8 152.224 LS
506.8 145.036 LE
0 0 1 C
250.872 143.213 249.49 141.311 250.49 142.038 T
250.872 143.213 248.254 141.311 249.49 141.311 T
250.872 143.213 247.254 142.038 248.254 141.311 T
250.872 143.213 246.872 143.213 247.254 142.038 T
250.872 143.213 247.254 144.389 246.872 143.213 T
250.872 143.213 248.254 145.115 247.254 144.389 T
250.872 143.213 249.49 145.115 248.254 145.115 T
250.872 143.213 250.49 144.389 249.49 145.115 T
0 0 0 C
398.333 351.73 LS
393.123 354.126 LE
182.557 351.73 LS
191.406 354.126 LE
458.122 99.5071 LS
466.971 101.903 LE
0 0 1 C
287.039 141.533 285.657 139.631 286.657 140.358 T
287.039 141.533 284.421 139.631 285.657 139.631 T
287.039 141.533 283.421 140.358 284.421 139.631 T
287.039 141.533 283.039 141.533 283.421 140.358 T
287.039 141.533 283.421 142.709 283.039 141.533 T
287.039 141.533 284.421 143.435 283.421 142.709 T
287.039 141.533 285.657 143.435 284.421 143.435 T
287.039 141.533 286.657 142.709 285.657 143.435 T
0 0 0 C
146.839 97.8269 LS
148.173 98.188 LE
145.304 99.5071 LS
148.958 97.827 LE
72.8 232.865 LS
72.8 237.906 LE
506.8 152.224 LS
506.8 157.264 LE
398.333 351.73 LS
401.987 350.05 LE
182.557 351.73 LS
176.352 350.05 LE
458.122 99.5071 LS
451.917 97.827 LE
461.083 97.827 LS
457.686 99.389 LE
0 0 1 C
323.205 139.853 321.823 137.951 322.823 138.678 T
323.205 139.853 320.587 137.951 321.823 137.951 T
323.205 139.853 319.587 138.678 320.587 137.951 T
323.205 139.853 319.205 139.853 319.587 138.678 T
323.205 139.853 319.587 141.029 319.205 139.853 T
323.205 139.853 320.587 141.755 319.587 141.029 T
323.205 139.853 321.823 141.755 320.587 141.755 T
323.205 139.853 322.823 141.029 321.823 141.755 T
0 0 0 C
140.634 96.1469 LS
146.839 97.8269 LE
152.611 96.147 LS
148.958 97.827 LE
70.3344 247.481 LS
70.0399 247.616 LE
72.8 242.946 LS
72.8 237.906 LE
506.8 162.304 LS
506.8 157.264 LE
405.64 348.37 LS
401.987 350.05 LE
170.147 348.37 LS
176.352 350.05 LE
445.712 96.147 LS
451.917 97.827 LE
464.737 96.147 LS
461.083 97.827 LE
0 0 1 C
359.372 138.173 357.99 136.271 358.99 136.998 T
359.372 138.173 356.754 136.271 357.99 136.271 T
359.372 138.173 355.754 136.998 356.754 136.271 T
359.372 138.173 355.372 138.173 355.754 136.998 T
359.372 138.173 355.754 139.349 355.372 138.173 T
359.372 138.173 356.754 140.075 355.754 139.349 T
359.372 138.173 357.99 140.075 356.754 140.075 T
359.372 138.173 358.99 139.349 357.99 140.075 T
0 0 0 C
140.634 96.1469 LS
137.712 95.3557 LE
152.611 96.147 LS
156.265 94.4669 LE
70.3344 247.481 LS
72.8 246.347 LE
72.8 242.946 LS
72.8 247.986 LE
506.8 162.304 LS
506.8 167.345 LE
0 0 1 C
121.91 158.477 120.528 156.575 121.528 157.302 T
121.91 158.477 119.292 156.575 120.528 156.575 T
121.91 158.477 118.292 157.302 119.292 156.575 T
121.91 158.477 117.91 158.477 118.292 157.302 T
121.91 158.477 118.292 159.653 117.91 158.477 T
121.91 158.477 119.292 160.38 118.292 159.653 T
121.91 158.477 120.528 160.38 119.292 160.38 T
121.91 158.477 121.528 159.653 120.528 160.38 T
0 0 0 C
405.64 348.37 LS
409.294 346.69 LE
170.147 348.37 LS
163.941 346.69 LE
445.712 96.147 LS
439.506 94.4669 LE
464.737 96.147 LS
467.556 94.8508 LE
0 0 1 C
395.539 136.493 394.157 134.591 395.157 135.318 T
395.539 136.493 392.921 134.591 394.157 134.591 T
395.539 136.493 391.921 135.318 392.921 134.591 T
395.539 136.493 391.539 136.493 391.921 135.318 T
395.539 136.493 391.921 137.669 391.539 136.493 T
395.539 136.493 392.921 138.395 391.921 137.669 T
395.539 136.493 394.157 138.395 392.921 138.395 T
395.539 136.493 395.157 137.669 394.157 138.395 T
0 0 0 C
(0.3) 132.891 94.0505 10 /Helvetica STR
156.265 94.4669 LS
159.918 92.7868 LE
72.8 247.986 LS
72.8 253.026 LE
506.8 167.345 LS
506.8 172.385 LE
0 0 1 C
158.075 156.797 156.693 154.895 157.693 155.621 T
158.075 156.797 155.456 154.895 156.693 154.895 T
158.075 156.797 154.456 155.621 155.456 154.895 T
158.075 156.797 154.075 156.797 154.456 155.621 T
158.075 156.797 154.456 157.972 154.075 156.797 T
158.075 156.797 155.456 158.699 154.456 157.972 T
158.075 156.797 156.693 158.699 155.456 158.699 T
158.075 156.797 157.693 157.972 156.693 158.699 T
0 0 0 C
409.294 346.69 LS
412.948 345.01 LE
163.941 346.69 LS
157.736 345.01 LE
439.506 94.4669 LS
433.301 92.7868 LE
0 0 1 C
431.705 134.813 430.323 132.911 431.323 133.638 T
431.705 134.813 429.087 132.911 430.323 132.911 T
431.705 134.813 428.087 133.638 429.087 132.911 T
431.705 134.813 427.705 134.813 428.087 133.638 T
431.705 134.813 428.087 135.989 427.705 134.813 T
431.705 134.813 429.087 136.715 428.087 135.989 T
431.705 134.813 430.323 136.715 429.087 136.715 T
431.705 134.813 431.323 135.989 430.323 136.715 T
0 0 0 C
159.918 92.7868 LS
163.57 91.1078 LE
72.8 253.026 LS
72.8 258.063 LE
506.8 172.385 LS
506.8 177.422 LE
0 0 1 C
194.241 155.117 192.859 153.215 193.859 153.941 T
194.241 155.117 191.623 153.215 192.859 153.215 T
194.241 155.117 190.623 153.941 191.623 153.215 T
194.241 155.117 190.241 155.117 190.623 153.941 T
194.241 155.117 190.623 156.292 190.241 155.117 T
194.241 155.117 191.623 157.019 190.623 156.292 T
194.241 155.117 192.859 157.019 191.623 157.019 T
194.241 155.117 193.859 156.292 192.859 157.019 T
0 0 0 C
412.948 345.01 LS
416.599 343.331 LE
157.736 345.01 LS
151.534 343.331 LE
433.301 92.7868 LS
427.099 91.1078 LE
(0.4) 472.104 92.7594 10 /Helvetica STL
0 0 1 C
467.87 133.134 466.488 131.232 467.488 131.958 T
467.87 133.134 465.252 131.232 466.488 131.232 T
467.87 133.134 464.252 131.958 465.252 131.232 T
467.87 133.134 463.87 133.134 464.252 131.958 T
467.87 133.134 464.252 134.31 463.87 133.134 T
467.87 133.134 465.252 135.036 464.252 134.31 T
467.87 133.134 466.488 135.036 465.252 135.036 T
467.87 133.134 467.488 134.31 466.488 135.036 T
0 0 0 C
168.78 88.7119 LS
163.57 91.1078 LE
72.8 265.251 LS
72.8 258.063 LE
506.8 184.609 LS
506.8 177.422 LE
0 0 1 C
230.408 153.437 229.026 151.535 230.026 152.261 T
230.408 153.437 227.79 151.535 229.026 151.535 T
230.408 153.437 226.79 152.261 227.79 151.535 T
230.408 153.437 226.408 153.437 226.79 152.261 T
230.408 153.437 226.79 154.612 226.408 153.437 T
230.408 153.437 227.79 155.339 226.79 154.612 T
230.408 153.437 229.026 155.339 227.79 155.339 T
230.408 153.437 230.026 154.612 229.026 155.339 T
0 0 0 C
421.809 340.935 LS
416.599 343.331 LE
142.685 340.935 LS
151.534 343.331 LE
418.25 88.7119 LS
427.099 91.1078 LE
0 0 1 C
266.575 151.757 265.193 149.854 266.193 150.581 T
266.575 151.757 263.956 149.854 265.193 149.854 T
266.575 151.757 262.956 150.581 263.956 149.854 T
266.575 151.757 262.575 151.757 262.956 150.581 T
266.575 151.757 262.956 152.932 262.575 151.757 T
266.575 151.757 263.956 153.659 262.956 152.932 T
266.575 151.757 265.193 153.659 263.956 153.659 T
266.575 151.757 266.193 152.932 265.193 153.659 T
0 0 0 C
168.78 88.7119 LS
172.434 87.0318 LE
72.8 265.251 LS
72.8 270.291 LE
506.8 184.609 LS
506.8 189.65 LE
421.809 340.935 LS
425.463 339.255 LE
142.685 340.935 LS
136.48 339.255 LE
418.25 88.7119 LS
412.045 87.0318 LE
0 0 1 C
302.741 150.077 301.359 148.174 302.359 148.901 T
302.741 150.077 300.123 148.174 301.359 148.174 T
302.741 150.077 299.123 148.901 300.123 148.174 T
302.741 150.077 298.741 150.077 299.123 148.901 T
302.741 150.077 299.123 151.252 298.741 150.077 T
302.741 150.077 300.123 151.979 299.123 151.252 T
302.741 150.077 301.359 151.979 300.123 151.979 T
302.741 150.077 302.359 151.252 301.359 151.979 T
0 0 0 C
172.434 87.0318 LS
179.741 83.6718 LE
72.8 270.291 LS
72.8 280.371 LE
506.8 189.65 LS
506.8 199.73 LE
0 0 1 C
338.908 148.397 337.526 146.494 338.526 147.221 T
338.908 148.397 336.29 146.494 337.526 146.494 T
338.908 148.397 335.29 147.221 336.29 146.494 T
338.908 148.397 334.908 148.397 335.29 147.221 T
338.908 148.397 335.29 149.572 334.908 148.397 T
338.908 148.397 336.29 150.299 335.29 149.572 T
338.908 148.397 337.526 150.299 336.29 150.299 T
338.908 148.397 338.526 149.572 337.526 150.299 T
0 0 0 C
425.463 339.255 LS
432.77 335.895 LE
136.48 339.255 LS
124.069 335.895 LE
412.045 87.0318 LS
399.634 83.6718 LE
413.835 83.6718 LS
408.573 86.0918 LE
0 0 1 C
375.075 146.717 373.693 144.814 374.693 145.541 T
375.075 146.717 372.456 144.814 373.693 144.814 T
375.075 146.717 371.456 145.541 372.456 144.814 T
375.075 146.717 371.075 146.717 371.456 145.541 T
375.075 146.717 371.456 147.892 371.075 146.717 T
375.075 146.717 372.456 148.619 371.456 147.892 T
375.075 146.717 373.693 148.619 372.456 148.619 T
375.075 146.717 374.693 147.892 373.693 148.619 T
0 0 0 C
179.741 83.6718 LS
183.395 81.9917 LE
70.0399 285.449 LS
72.8 284.18 LE
72.8 280.371 LS
72.8 285.411 LE
506.8 199.73 LS
506.8 204.77 LE
0 0 1 C
137.613 167.021 136.231 165.119 137.231 165.845 T
137.613 167.021 134.995 165.119 136.231 165.119 T
137.613 167.021 133.995 165.845 134.995 165.119 T
137.613 167.021 133.613 167.021 133.995 165.845 T
137.613 167.021 133.995 168.196 133.613 167.021 T
137.613 167.021 134.995 168.923 133.995 168.196 T
137.613 167.021 136.231 168.923 134.995 168.923 T
137.613 167.021 137.231 168.196 136.231 168.923 T
0 0 0 C
432.77 335.895 LS
436.424 334.215 LE
124.069 335.895 LS
117.864 334.215 LE
399.634 83.6718 LS
393.429 81.9917 LE
413.835 83.6718 LS
417.489 81.9917 LE
0 0 1 C
411.241 145.037 409.859 143.134 410.859 143.861 T
411.241 145.037 408.623 143.134 409.859 143.134 T
411.241 145.037 407.623 143.861 408.623 143.134 T
411.241 145.037 407.241 145.037 407.623 143.861 T
411.241 145.037 407.623 146.212 407.241 145.037 T
411.241 145.037 408.623 146.939 407.623 146.212 T
411.241 145.037 409.859 146.939 408.623 146.939 T
411.241 145.037 410.859 146.212 409.859 146.939 T
0 0 0 C
183.842 80.3125 LS
185.859 80.8586 LE
183.395 81.9917 LS
187.046 80.3125 LE
72.8 285.411 LS
72.8 290.449 LE
506.8 204.77 LS
506.8 209.808 LE
0 0 1 C
173.777 165.34 172.395 163.438 173.395 164.165 T
173.777 165.34 171.159 163.438 172.395 163.438 T
173.777 165.34 170.159 164.165 171.159 163.438 T
173.777 165.34 169.777 165.34 170.159 164.165 T
173.777 165.34 170.159 166.516 169.777 165.34 T
173.777 165.34 171.159 167.242 170.159 166.516 T
173.777 165.34 172.395 167.242 171.159 167.242 T
173.777 165.34 173.395 166.516 172.395 167.242 T
0 0 0 C
436.424 334.215 LS
440.076 332.535 LE
117.864 334.215 LS
111.662 332.535 LE
393.429 81.9917 LS
387.227 80.3125 LE
417.489 81.9917 LS
418.442 81.5535 LE
0 0 1 C
447.406 143.357 446.024 141.455 447.024 142.182 T
447.406 143.357 444.788 141.455 446.024 141.455 T
447.406 143.357 443.788 142.182 444.788 141.455 T
447.406 143.357 443.406 143.357 443.788 142.182 T
447.406 143.357 443.788 144.533 443.406 143.357 T
447.406 143.357 444.788 145.259 443.788 144.533 T
447.406 143.357 446.024 145.259 444.788 145.259 T
447.406 143.357 447.024 144.533 446.024 145.259 T
0 0 0 C
183.842 80.3125 LS
175.398 78.0264 LE
192.257 77.9167 LS
187.046 80.3125 LE
72.8 297.636 LS
72.8 290.449 LE
506.8 216.995 LS
506.8 209.808 LE
0 0 1 C
209.944 163.66 208.562 161.758 209.562 162.484 T
209.944 163.66 207.326 161.758 208.562 161.758 T
209.944 163.66 206.326 162.484 207.326 161.758 T
209.944 163.66 205.944 163.66 206.326 162.484 T
209.944 163.66 206.326 164.836 205.944 163.66 T
209.944 163.66 207.326 165.562 206.326 164.836 T
209.944 163.66 208.562 165.562 207.326 165.562 T
209.944 163.66 209.562 164.836 208.562 165.562 T
0 0 0 C
445.286 330.139 LS
440.076 332.535 LE
102.813 330.139 LS
111.662 332.535 LE
378.378 77.9167 LS
387.227 80.3125 LE
(0.3) 422.99 79.4622 10 /Helvetica STL
0 0 1 C
246.11 161.98 244.729 160.078 245.729 160.804 T
246.11 161.98 243.492 160.078 244.729 160.078 T
246.11 161.98 242.492 160.804 243.492 160.078 T
246.11 161.98 242.11 161.98 242.492 160.804 T
246.11 161.98 242.492 163.156 242.11 161.98 T
246.11 161.98 243.492 163.882 242.492 163.156 T
246.11 161.98 244.729 163.882 243.492 163.882 T
246.11 161.98 245.729 163.156 244.729 163.882 T
0 0 0 C
(0.2) 170.577 76.7212 10 /Helvetica STR
192.257 77.9167 LS
195.91 76.2366 LE
72.8 297.636 LS
72.8 302.677 LE
506.8 216.995 LS
506.8 222.035 LE
445.286 330.139 LS
448.94 328.459 LE
102.813 330.139 LS
96.6072 328.459 LE
378.378 77.9167 LS
372.172 76.2366 LE
0 0 1 C
282.277 160.3 280.895 158.398 281.895 159.124 T
282.277 160.3 279.659 158.398 280.895 158.398 T
282.277 160.3 278.659 159.124 279.659 158.398 T
282.277 160.3 278.277 160.3 278.659 159.124 T
282.277 160.3 278.659 161.476 278.277 160.3 T
282.277 160.3 279.659 162.202 278.659 161.476 T
282.277 160.3 280.895 162.202 279.659 162.202 T
282.277 160.3 281.895 161.476 280.895 162.202 T
0 0 0 C
195.91 76.2366 LS
199.564 74.5566 LE
72.8 302.677 LS
72.8 307.717 LE
506.8 222.035 LS
506.8 227.075 LE
448.94 328.459 LS
452.593 326.779 LE
96.6072 328.459 LS
90.4021 326.779 LE
372.172 76.2366 LS
365.967 74.5566 LE
0 0 1 C
318.444 158.62 317.062 156.718 318.062 157.444 T
318.444 158.62 315.826 156.718 317.062 156.718 T
318.444 158.62 314.826 157.444 315.826 156.718 T
318.444 158.62 314.444 158.62 314.826 157.444 T
318.444 158.62 314.826 159.796 314.444 158.62 T
318.444 158.62 315.826 160.522 314.826 159.796 T
318.444 158.62 317.062 160.522 315.826 160.522 T
318.444 158.62 318.062 159.796 317.062 160.522 T
0 0 0 C
199.564 74.5566 LS
203.217 72.8767 LE
72.8 307.717 LS
72.8 312.756 LE
506.8 227.075 LS
506.8 232.115 LE
452.593 326.779 LS
456.246 325.099 LE
90.4021 326.779 LS
84.1973 325.099 LE
365.967 74.5566 LS
359.762 72.8767 LE
0 0 1 C
354.61 156.94 353.229 155.038 354.229 155.764 T
354.61 156.94 351.992 155.038 353.229 155.038 T
354.61 156.94 350.992 155.764 351.992 155.038 T
354.61 156.94 350.61 156.94 350.992 155.764 T
354.61 156.94 350.992 158.116 350.61 156.94 T
354.61 156.94 351.992 158.842 350.992 158.116 T
354.61 156.94 353.229 158.842 351.992 158.842 T
354.61 156.94 354.229 158.116 353.229 158.842 T
0 0 0 C
206.871 71.1967 LS
203.217 72.8767 LE
72.8 317.796 LS
72.8 312.756 LE
506.8 237.155 LS
506.8 232.115 LE
459.9 323.419 LS
456.246 325.099 LE
77.9922 323.419 LS
84.1973 325.099 LE
353.557 71.1967 LS
359.762 72.8767 LE
362.934 71.1967 LS
359.459 72.7945 LE
0 0 1 C
390.777 155.26 389.395 153.358 390.395 154.084 T
390.777 155.26 388.159 153.358 389.395 153.358 T
390.777 155.26 387.159 154.084 388.159 153.358 T
390.777 155.26 386.777 155.26 387.159 154.084 T
390.777 155.26 387.159 156.435 386.777 155.26 T
390.777 155.26 388.159 157.162 387.159 156.435 T
390.777 155.26 389.395 157.162 388.159 157.162 T
390.777 155.26 390.395 156.435 389.395 157.162 T
0 0 0 C
206.871 71.1967 LS
210.523 69.5174 LE
72.8 317.796 LS
72.8 322.014 LE
0 0 1 C
153.316 175.564 151.934 173.662 152.934 174.389 T
153.316 175.564 150.697 173.662 151.934 173.662 T
153.316 175.564 149.697 174.389 150.697 173.662 T
153.316 175.564 149.316 175.564 149.697 174.389 T
153.316 175.564 149.697 176.74 149.316 175.564 T
153.316 175.564 150.697 177.466 149.697 176.74 T
153.316 175.564 151.934 177.466 150.697 177.466 T
153.316 175.564 152.934 176.74 151.934 177.466 T
0 0 0 C
73.3948 321.74 LS
72.8 322.014 LE
506.8 237.155 LS
506.8 242.193 LE
459.9 323.419 LS
463.552 321.74 LE
77.9922 323.419 LS
72.8 322.014 LE
70.0399 323.283 LS
72.8 322.014 LE
353.557 71.1967 LS
347.355 69.5174 LE
362.934 71.1967 LS
366.586 69.5174 LE
0 0 1 C
426.942 153.581 425.56 151.679 426.56 152.405 T
426.942 153.581 424.324 151.679 425.56 151.679 T
426.942 153.581 423.324 152.405 424.324 151.679 T
426.942 153.581 422.942 153.581 423.324 152.405 T
426.942 153.581 423.324 154.756 422.942 153.581 T
426.942 153.581 424.324 155.483 423.324 154.756 T
426.942 153.581 425.56 155.483 424.324 155.483 T
426.942 153.581 426.56 154.756 425.56 155.483 T
0 0 0 C
215.733 67.1215 LS
210.523 69.5174 LE
0 0 1 C
189.48 173.883 188.098 171.981 189.098 172.708 T
189.48 173.883 186.862 171.981 188.098 171.981 T
189.48 173.883 185.862 172.708 186.862 171.981 T
189.48 173.883 185.48 173.883 185.862 172.708 T
189.48 173.883 185.862 175.059 185.48 173.883 T
189.48 173.883 186.862 175.786 185.862 175.059 T
189.48 173.883 188.098 175.786 186.862 175.786 T
189.48 173.883 189.098 175.059 188.098 175.786 T
0 0 0 C
78.6051 319.344 LS
73.3948 321.74 LE
506.8 249.38 LS
506.8 242.193 LE
468.762 319.344 LS
463.552 321.74 LE
338.506 67.1215 LS
347.355 69.5174 LE
366.586 69.5174 LS
369.328 68.2563 LE
0 0 1 C
225.646 172.203 224.264 170.301 225.264 171.028 T
225.646 172.203 223.028 170.301 224.264 170.301 T
225.646 172.203 222.028 171.028 223.028 170.301 T
225.646 172.203 221.646 172.203 222.028 171.028 T
225.646 172.203 222.028 173.379 221.646 172.203 T
225.646 172.203 223.028 174.106 222.028 173.379 T
225.646 172.203 224.264 174.106 223.028 174.106 T
225.646 172.203 225.264 173.379 224.264 174.106 T
0 0 0 C
215.733 67.1215 LS
219.387 65.4415 LE
78.6051 319.344 LS
82.2586 317.664 LE
506.8 249.38 LS
506.8 254.42 LE
468.762 319.344 LS
472.416 317.664 LE
338.506 67.1215 LS
332.301 65.4415 LE
(0.2) 373.876 66.1649 10 /Helvetica STL
0 0 1 C
261.813 170.523 260.431 168.621 261.431 169.348 T
261.813 170.523 259.195 168.621 260.431 168.621 T
261.813 170.523 258.195 169.348 259.195 168.621 T
261.813 170.523 257.813 170.523 258.195 169.348 T
261.813 170.523 258.195 171.699 257.813 170.523 T
261.813 170.523 259.195 172.426 258.195 171.699 T
261.813 170.523 260.431 172.426 259.195 172.426 T
261.813 170.523 261.431 171.699 260.431 172.426 T
0 0 0 C
219.387 65.4415 LS
223.04 63.7614 LE
82.2586 317.664 LS
85.9123 315.984 LE
506.8 254.42 LS
506.8 259.461 LE
472.416 317.664 LS
476.069 315.984 LE
332.301 65.4415 LS
326.095 63.7614 LE
0 0 1 C
297.98 168.843 296.598 166.941 297.598 167.668 T
297.98 168.843 295.362 166.941 296.598 166.941 T
297.98 168.843 294.362 167.668 295.362 166.941 T
297.98 168.843 293.98 168.843 294.362 167.668 T
297.98 168.843 294.362 170.019 293.98 168.843 T
297.98 168.843 295.362 170.745 294.362 170.019 T
297.98 168.843 296.598 170.745 295.362 170.745 T
297.98 168.843 297.598 170.019 296.598 170.745 T
0 0 0 C
223.545 63.5293 LS
213.084 60.697 LE
223.04 63.7614 LS
230.347 60.4014 LE
0 0 1 C
334.146 167.163 332.764 165.261 333.764 165.988 T
334.146 167.163 331.528 165.261 332.764 165.261 T
334.146 167.163 330.528 165.988 331.528 165.261 T
334.146 167.163 330.146 167.163 330.528 165.988 T
334.146 167.163 330.528 168.339 330.146 167.163 T
334.146 167.163 331.528 169.065 330.528 168.339 T
334.146 167.163 332.764 169.065 331.528 169.065 T
334.146 167.163 333.764 168.339 332.764 169.065 T
0 0 0 C
85.9123 315.984 LS
93.2194 312.624 LE
506.8 259.461 LS
506.8 269.541 LE
476.069 315.984 LS
483.376 312.624 LE
326.095 63.7614 LS
313.685 60.4014 LE
0 0 1 C
370.313 165.483 368.931 163.581 369.931 164.308 T
370.313 165.483 367.695 163.581 368.931 163.581 T
370.313 165.483 366.695 164.308 367.695 163.581 T
370.313 165.483 366.313 165.483 366.695 164.308 T
370.313 165.483 366.695 166.659 366.313 165.483 T
370.313 165.483 367.695 167.385 366.695 166.659 T
370.313 165.483 368.931 167.385 367.695 167.385 T
370.313 165.483 369.931 166.659 368.931 167.385 T
0 0 0 C
(0.1) 208.263 59.3919 10 /Helvetica STR
233.999 58.7223 LS
230.347 60.4014 LE
96.8709 310.945 LS
93.2194 312.624 LE
506.8 274.578 LS
506.8 269.541 LE
487.028 310.945 LS
483.376 312.624 LE
307.483 58.7223 LS
313.685 60.4014 LE
312.03 58.7223 LS
310.345 59.4972 LE
0 0 1 C
406.478 163.804 405.096 161.902 406.096 162.629 T
406.478 163.804 403.86 161.902 405.096 161.902 T
406.478 163.804 402.86 162.629 403.86 161.902 T
406.478 163.804 402.478 163.804 402.86 162.629 T
406.478 163.804 402.86 164.98 402.478 163.804 T
406.478 163.804 403.86 165.706 402.86 164.98 T
406.478 163.804 405.096 165.706 403.86 165.706 T
406.478 163.804 406.096 164.98 405.096 165.706 T
0 0 0 C
239.209 56.3264 LS
233.999 58.7223 LE
0 0 1 C
169.018 184.108 167.636 182.205 168.636 182.932 T
169.018 184.108 166.4 182.205 167.636 182.205 T
169.018 184.108 165.4 182.932 166.4 182.205 T
169.018 184.108 165.018 184.108 165.4 182.932 T
169.018 184.108 165.4 185.283 165.018 184.108 T
169.018 184.108 166.4 186.01 165.4 185.283 T
169.018 184.108 167.636 186.01 166.4 186.01 T
169.018 184.108 168.636 185.283 167.636 186.01 T
0 0 0 C
102.081 308.549 LS
96.8709 310.945 LE
506.8 281.766 LS
506.8 274.578 LE
492.238 308.549 LS
487.028 310.945 LE
298.634 56.3264 LS
307.483 58.7223 LE
317.241 56.3264 LS
312.03 58.7223 LE
0 0 1 C
205.182 182.427 203.8 180.525 204.8 181.251 T
205.182 182.427 202.564 180.525 203.8 180.525 T
205.182 182.427 201.564 181.251 202.564 180.525 T
205.182 182.427 201.182 182.427 201.564 181.251 T
205.182 182.427 201.564 183.602 201.182 182.427 T
205.182 182.427 202.564 184.329 201.564 183.602 T
205.182 182.427 203.8 184.329 202.564 184.329 T
205.182 182.427 204.8 183.602 203.8 184.329 T
0 0 0 C
239.209 56.3264 LS
242.863 54.6464 LE
102.081 308.549 LS
105.735 306.869 LE
506.8 281.766 LS
506.8 286.806 LE
492.238 308.549 LS
495.892 306.869 LE
298.634 56.3264 LS
292.428 54.6464 LE
317.241 56.3264 LS
320.214 54.959 LE
0 0 1 C
241.349 180.747 239.967 178.845 240.967 179.571 T
241.349 180.747 238.731 178.845 239.967 178.845 T
241.349 180.747 237.731 179.571 238.731 178.845 T
241.349 180.747 237.349 180.747 237.731 179.571 T
241.349 180.747 237.731 181.922 237.349 180.747 T
241.349 180.747 238.731 182.649 237.731 181.922 T
241.349 180.747 239.967 182.649 238.731 182.649 T
241.349 180.747 240.967 181.922 239.967 182.649 T
0 0 0 C
242.863 54.6464 LS
246.517 52.9663 LE
105.735 306.869 LS
109.389 305.189 LE
506.8 286.806 LS
506.8 291.846 LE
495.892 306.869 LS
499.546 305.189 LE
292.428 54.6464 LS
286.223 52.9663 LE
0 0 1 C
277.516 179.067 276.134 177.165 277.134 177.891 T
277.516 179.067 274.898 177.165 276.134 177.165 T
277.516 179.067 273.898 177.891 274.898 177.165 T
277.516 179.067 273.516 179.067 273.898 177.891 T
277.516 179.067 273.898 180.242 273.516 179.067 T
277.516 179.067 274.898 180.969 273.898 180.242 T
277.516 179.067 276.134 180.969 274.898 180.969 T
277.516 179.067 277.134 180.242 276.134 180.969 T
0 0 0 C
246.517 52.9663 LS
250.17 51.2863 LE
109.389 305.189 LS
113.042 303.509 LE
506.8 291.846 LS
506.8 296.886 LE
499.546 305.189 LS
503.199 303.509 LE
286.223 52.9663 LS
280.018 51.2863 LE
(0.1) 324.763 52.8677 10 /Helvetica STL
0 0 1 C
313.682 177.387 312.3 175.485 313.3 176.211 T
313.682 177.387 311.064 175.485 312.3 175.485 T
313.682 177.387 310.064 176.211 311.064 175.485 T
313.682 177.387 309.682 177.387 310.064 176.211 T
313.682 177.387 310.064 178.562 309.682 177.387 T
313.682 177.387 311.064 179.289 310.064 178.562 T
313.682 177.387 312.3 179.289 311.064 179.289 T
313.682 177.387 313.3 178.562 312.3 179.289 T
0 0 0 C
250.17 51.2863 LS
253.824 49.6063 LE
506.8 296.886 LS
506.8 301.853 LE
506.71 301.829 LS
506.8 301.853 LE
113.042 303.509 LS
116.696 301.829 LE
503.199 303.509 LS
506.8 301.853 LE
280.018 51.2863 LS
273.813 49.6063 LE
0 0 1 C
349.849 175.707 348.467 173.805 349.467 174.531 T
349.849 175.707 347.231 173.805 348.467 173.805 T
349.849 175.707 346.231 174.531 347.231 173.805 T
349.849 175.707 345.849 175.707 346.231 174.531 T
349.849 175.707 346.231 176.882 345.849 175.707 T
349.849 175.707 347.231 177.609 346.231 176.882 T
349.849 175.707 348.467 177.609 347.231 177.609 T
349.849 175.707 349.467 176.882 348.467 177.609 T
0 0 0 C
253.824 49.6063 LS
257.475 47.9271 LE
506.71 301.829 LS
500.508 300.15 LE
116.696 301.829 LS
120.347 300.15 LE
273.813 49.6063 LS
267.611 47.9271 LE
0 0 1 C
386.014 174.028 384.632 172.125 385.632 172.852 T
386.014 174.028 383.396 172.125 384.632 172.125 T
386.014 174.028 382.396 172.852 383.396 172.125 T
386.014 174.028 382.014 174.028 382.396 172.852 T
386.014 174.028 382.396 175.203 382.014 174.028 T
386.014 174.028 383.396 175.93 382.396 175.203 T
386.014 174.028 384.632 175.93 383.396 175.93 T
386.014 174.028 385.632 175.203 384.632 175.93 T
0 0 0 C
257.475 47.9271 LS
261.231 46.2 LE
0 0 1 C
184.721 192.651 183.339 190.749 184.339 191.475 T
184.721 192.651 182.103 190.749 183.339 190.749 T
184.721 192.651 181.103 191.475 182.103 190.749 T
184.721 192.651 180.721 192.651 181.103 191.475 T
184.721 192.651 181.103 193.826 180.721 192.651 T
184.721 192.651 182.103 194.553 181.103 193.826 T
184.721 192.651 183.339 194.553 182.103 194.553 T
184.721 192.651 184.339 193.826 183.339 194.553 T
0 0 0 C
261.231 53.2465 LS
261.231 46.2 LE
485.454 296.074 LS
500.508 300.15 LE
129.211 296.074 LS
120.347 300.15 LE
267.611 47.9271 LS
261.231 46.2 LE
252.556 43.8512 LS
261.231 46.2 LE
266.339 43.8512 LS
261.231 46.2 LE
0 0 1 C
220.885 190.97 219.503 189.068 220.503 189.795 T
220.885 190.97 218.267 189.068 219.503 189.068 T
220.885 190.97 217.267 189.795 218.267 189.068 T
220.885 190.97 216.885 190.97 217.267 189.795 T
220.885 190.97 217.267 192.146 216.885 190.97 T
220.885 190.97 218.267 192.872 217.267 192.146 T
220.885 190.97 219.503 192.872 218.267 192.872 T
220.885 190.97 220.503 192.146 219.503 192.872 T
0 0 0 C
261.231 53.2465 LS
261.231 58.2868 LE
252.556 43.8512 LS
250.77 43.3677 LE
266.339 43.8512 LS
269.993 42.171 LE
485.454 296.074 LS
479.248 294.394 LE
129.211 296.074 LS
132.865 294.394 LE
0 0 1 C
257.052 189.29 255.67 187.388 256.67 188.115 T
257.052 189.29 254.434 187.388 255.67 187.388 T
257.052 189.29 253.434 188.115 254.434 187.388 T
257.052 189.29 253.052 189.29 253.434 188.115 T
257.052 189.29 253.434 190.466 253.052 189.29 T
257.052 189.29 254.434 191.192 253.434 190.466 T
257.052 189.29 255.67 191.192 254.434 191.192 T
257.052 189.29 256.67 190.466 255.67 191.192 T
0 0 0 C
261.231 58.2868 LS
261.231 63.3268 LE
(0) 245.95 42.0625 10 /Helvetica STR
269.993 42.171 LS
271.101 41.6618 LE
479.248 294.394 LS
473.043 292.714 LE
132.865 294.394 LS
136.519 292.714 LE
0 0 1 C
293.218 187.61 291.836 185.708 292.836 186.435 T
293.218 187.61 290.6 185.708 291.836 185.708 T
293.218 187.61 289.6 186.435 290.6 185.708 T
293.218 187.61 289.218 187.61 289.6 186.435 T
293.218 187.61 289.6 188.786 289.218 187.61 T
293.218 187.61 290.6 189.512 289.6 188.786 T
293.218 187.61 291.836 189.512 290.6 189.512 T
293.218 187.61 292.836 188.786 291.836 189.512 T
0 0 0 C
261.231 63.3268 LS
261.231 68.3665 LE
(0) 275.649 39.5704 10 /Helvetica STL
473.043 292.714 LS
466.838 291.034 LE
136.519 292.714 LS
140.172 291.034 LE
0 0 1 C
329.385 185.93 328.003 184.028 329.003 184.755 T
329.385 185.93 326.767 184.028 328.003 184.028 T
329.385 185.93 325.767 184.755 326.767 184.028 T
329.385 185.93 325.385 185.93 325.767 184.755 T
329.385 185.93 325.767 187.106 325.385 185.93 T
329.385 185.93 326.767 187.832 325.767 187.106 T
329.385 185.93 328.003 187.832 326.767 187.832 T
329.385 185.93 329.003 187.106 328.003 187.832 T
0 0 0 C
261.231 68.3665 LS
261.231 73.404 LE
466.838 291.034 LS
460.636 289.355 LE
140.172 291.034 LS
143.824 289.355 LE
0 0 1 C
365.55 184.251 364.168 182.349 365.168 183.075 T
365.55 184.251 362.932 182.349 364.168 182.349 T
365.55 184.251 361.932 183.075 362.932 182.349 T
365.55 184.251 361.55 184.251 361.932 183.075 T
365.55 184.251 361.932 185.427 361.55 184.251 T
365.55 184.251 362.932 186.153 361.932 185.427 T
365.55 184.251 364.168 186.153 362.932 186.153 T
365.55 184.251 365.168 185.427 364.168 186.153 T
200.423 201.194 199.041 199.292 200.041 200.019 T
200.423 201.194 197.805 199.292 199.041 199.292 T
200.423 201.194 196.805 200.019 197.805 199.292 T
200.423 201.194 196.423 201.194 196.805 200.019 T
200.423 201.194 196.805 202.37 196.423 201.194 T
200.423 201.194 197.805 203.096 196.805 202.37 T
200.423 201.194 199.041 203.096 197.805 203.096 T
200.423 201.194 200.041 202.37 199.041 203.096 T
0 0 0 C
261.231 90.6719 LS
261.231 73.404 LE
439.376 283.599 LS
460.636 289.355 LE
156.341 283.599 LS
143.824 289.355 LE
0 0 1 C
236.588 199.514 235.206 197.611 236.206 198.338 T
236.588 199.514 233.97 197.611 235.206 197.611 T
236.588 199.514 232.97 198.338 233.97 197.611 T
236.588 199.514 232.588 199.514 232.97 198.338 T
236.588 199.514 232.97 200.689 232.588 199.514 T
236.588 199.514 233.97 201.416 232.97 200.689 T
236.588 199.514 235.206 201.416 233.97 201.416 T
236.588 199.514 236.206 200.689 235.206 201.416 T
0 0 0 C
261.231 90.6719 LS
261.231 95.7122 LE
439.376 283.599 LS
433.171 281.919 LE
156.341 283.599 LS
159.995 281.919 LE
0 0 1 C
272.754 197.834 271.372 195.931 272.372 196.658 T
272.754 197.834 270.136 195.931 271.372 195.931 T
272.754 197.834 269.136 196.658 270.136 195.931 T
272.754 197.834 268.754 197.834 269.136 196.658 T
272.754 197.834 269.136 199.009 268.754 197.834 T
272.754 197.834 270.136 199.736 269.136 199.009 T
272.754 197.834 271.372 199.736 270.136 199.736 T
272.754 197.834 272.372 199.009 271.372 199.736 T
0 0 0 C
261.231 95.7122 LS
261.231 100.752 LE
433.171 281.919 LS
426.966 280.239 LE
159.995 281.919 LS
163.649 280.239 LE
0 0 1 C
308.921 196.154 307.539 194.251 308.539 194.978 T
308.921 196.154 306.303 194.251 307.539 194.251 T
308.921 196.154 305.303 194.978 306.303 194.251 T
308.921 196.154 304.921 196.154 305.303 194.978 T
308.921 196.154 305.303 197.329 304.921 196.154 T
308.921 196.154 306.303 198.056 305.303 197.329 T
308.921 196.154 307.539 198.056 306.303 198.056 T
308.921 196.154 308.539 197.329 307.539 198.056 T
0 0 0 C
261.231 100.752 LS
261.231 105.789 LE
426.966 280.239 LS
420.764 278.56 LE
163.649 280.239 LS
167.3 278.56 LE
0 0 1 C
345.086 194.474 343.704 192.572 344.704 193.299 T
345.086 194.474 342.468 192.572 343.704 192.572 T
345.086 194.474 341.468 193.299 342.468 192.572 T
345.086 194.474 341.086 194.474 341.468 193.299 T
345.086 194.474 341.468 195.65 341.086 194.474 T
345.086 194.474 342.468 196.376 341.468 195.65 T
345.086 194.474 343.704 196.376 342.468 196.376 T
345.086 194.474 344.704 195.65 343.704 196.376 T
216.126 209.738 214.744 207.836 215.744 208.562 T
216.126 209.738 213.508 207.836 214.744 207.836 T
216.126 209.738 212.508 208.562 213.508 207.836 T
216.126 209.738 212.126 209.738 212.508 208.562 T
216.126 209.738 212.508 210.913 212.126 209.738 T
216.126 209.738 213.508 211.64 212.508 210.913 T
216.126 209.738 214.744 211.64 213.508 211.64 T
216.126 209.738 215.744 210.913 214.744 211.64 T
0 0 0 C
261.231 128.098 LS
261.231 105.789 LE
393.299 271.124 LS
420.764 278.56 LE
183.471 271.124 LS
167.3 278.56 LE
0 0 1 C
252.29 208.057 250.908 206.155 251.908 206.881 T
252.29 208.057 249.672 206.155 250.908 206.155 T
252.29 208.057 248.672 206.881 249.672 206.155 T
252.29 208.057 248.29 208.057 248.672 206.881 T
252.29 208.057 248.672 209.233 248.29 208.057 T
252.29 208.057 249.672 209.959 248.672 209.233 T
252.29 208.057 250.908 209.959 249.672 209.959 T
252.29 208.057 251.908 209.233 250.908 209.959 T
0 0 0 C
261.231 128.098 LS
261.231 133.138 LE
393.299 271.124 LS
387.094 269.444 LE
183.471 271.124 LS
187.125 269.444 LE
0 0 1 C
288.457 206.377 287.075 204.475 288.075 205.201 T
288.457 206.377 285.839 204.475 287.075 204.475 T
288.457 206.377 284.839 205.201 285.839 204.475 T
288.457 206.377 284.457 206.377 284.839 205.201 T
288.457 206.377 284.839 207.552 284.457 206.377 T
288.457 206.377 285.839 208.279 284.839 207.552 T
288.457 206.377 287.075 208.279 285.839 208.279 T
288.457 206.377 288.075 207.552 287.075 208.279 T
0 0 0 C
261.231 133.138 LS
261.231 138.175 LE
387.094 269.444 LS
380.892 267.764 LE
187.125 269.444 LS
190.777 267.764 LE
0 0 1 C
324.622 204.698 323.24 202.796 324.24 203.522 T
324.622 204.698 322.004 202.796 323.24 202.796 T
324.622 204.698 321.004 203.522 322.004 202.796 T
324.622 204.698 320.622 204.698 321.004 203.522 T
324.622 204.698 321.004 205.873 320.622 204.698 T
324.622 204.698 322.004 206.6 321.004 205.873 T
324.622 204.698 323.24 206.6 322.004 206.6 T
324.622 204.698 324.24 205.873 323.24 206.6 T
231.829 218.281 230.447 216.379 231.447 217.105 T
231.829 218.281 229.211 216.379 230.447 216.379 T
231.829 218.281 228.211 217.105 229.211 216.379 T
231.829 218.281 227.829 218.281 228.211 217.105 T
231.829 218.281 228.211 219.457 227.829 218.281 T
231.829 218.281 229.211 220.183 228.211 219.457 T
231.829 218.281 230.447 220.183 229.211 220.183 T
231.829 218.281 231.447 219.457 230.447 220.183 T
0 0 0 C
261.231 165.523 LS
261.231 138.175 LE
347.222 258.648 LS
380.892 267.764 LE
210.601 258.648 LS
190.777 267.764 LE
0 0 1 C
267.993 216.6 266.611 214.698 267.611 215.425 T
267.993 216.6 265.375 214.698 266.611 214.698 T
267.993 216.6 264.375 215.425 265.375 214.698 T
267.993 216.6 263.993 216.6 264.375 215.425 T
267.993 216.6 264.375 217.776 263.993 216.6 T
267.993 216.6 265.375 218.502 264.375 217.776 T
267.993 216.6 266.611 218.502 265.375 218.502 T
267.993 216.6 267.611 217.776 266.611 218.502 T
0 0 0 C
261.231 165.523 LS
261.231 170.561 LE
347.222 258.648 LS
341.019 256.969 LE
210.601 258.648 LS
214.253 256.969 LE
0 0 1 C
304.158 214.921 302.776 213.019 303.776 213.746 T
304.158 214.921 301.54 213.019 302.776 213.019 T
304.158 214.921 300.54 213.746 301.54 213.019 T
304.158 214.921 300.158 214.921 300.54 213.746 T
304.158 214.921 300.54 216.097 300.158 214.921 T
304.158 214.921 301.54 216.823 300.54 216.097 T
304.158 214.921 302.776 216.823 301.54 216.823 T
304.158 214.921 303.776 216.097 302.776 216.823 T
247.531 226.824 246.149 224.922 247.149 225.649 T
247.531 226.824 244.913 224.922 246.149 224.922 T
247.531 226.824 243.913 225.649 244.913 224.922 T
247.531 226.824 243.531 226.824 243.913 225.649 T
247.531 226.824 243.913 228 243.531 226.824 T
247.531 226.824 244.913 228.727 243.913 228 T
247.531 226.824 246.149 228.727 244.913 228.727 T
247.531 226.824 247.149 228 246.149 228.727 T
0 0 0 C
261.231 202.946 LS
261.231 170.561 LE
301.147 246.174 LS
341.019 256.969 LE
237.729 246.174 LS
214.253 256.969 LE
0 0 1 C
283.694 225.145 282.312 223.242 283.312 223.969 T
283.694 225.145 281.076 223.242 282.312 223.242 T
283.694 225.145 280.076 223.969 281.076 223.242 T
283.694 225.145 279.694 225.145 280.076 223.969 T
283.694 225.145 280.076 226.32 279.694 225.145 T
283.694 225.145 281.076 227.047 280.076 226.32 T
283.694 225.145 282.312 227.047 281.076 227.047 T
283.694 225.145 283.312 226.32 282.312 227.047 T
0 0 0 C
261.231 235.33 LS
261.231 202.946 LE
261.277 235.38 LS
301.147 246.174 LE
261.204 235.38 LS
237.729 246.174 LE
0 0 1 C
263.232 235.369 261.85 233.467 262.85 234.193 T
263.232 235.369 260.614 233.467 261.85 233.467 T
263.232 235.369 259.614 234.193 260.614 233.467 T
263.232 235.369 259.232 235.369 259.614 234.193 T
263.232 235.369 259.614 236.544 259.232 235.369 T
263.232 235.369 260.614 237.271 259.614 236.544 T
263.232 235.369 261.85 237.271 260.614 237.271 T
263.232 235.369 262.85 236.544 261.85 237.271 T
0 0 0 C
261.231 235.33 LS
261.231 235.367 LE
261.277 235.38 LS
261.231 235.367 LE
261.204 235.38 LS
261.231 235.367 LE
grestore
showpage
cleartomark
%%PageTrailer
%%Trailer
end
%%EOF
