%!PS-Adobe-3.0 EPSF-3.0
%%Title: glps_renderer figure
%%Creator: GL2PS 1.3.8, (C) 1999-2012 C. Geuzaine
%%For: Octave
%%CreationDate: Mon Aug  3 13:37:16 2015
%%LanguageLevel: 3
%%DocumentData: Clean7Bit
%%Pages: 1
%%BoundingBox: 0 0 1301 704
%%EndComments
%%BeginProlog
/gl2psdict 64 dict def gl2psdict begin
0 setlinecap 0 setlinejoin
/tryPS3shading false def % set to false to force subdivision
/rThreshold 0.064 def % red component subdivision threshold
/gThreshold 0.034 def % green component subdivision threshold
/bThreshold 0.1 def % blue component subdivision threshold
/BD { bind def } bind def
/C  { setrgbcolor } BD
/G  { 0.082 mul exch 0.6094 mul add exch 0.3086 mul add neg 1.0 add setgray } BD
/W  { setlinewidth } BD
/FC { findfont exch /SH exch def SH scalefont setfont } BD
/SW { dup stringwidth pop } BD
/S  { FC moveto show } BD
/SBC{ FC moveto SW -2 div 0 rmoveto show } BD
/SBR{ FC moveto SW neg 0 rmoveto show } BD
/SCL{ FC moveto 0 SH -2 div rmoveto show } BD
/SCC{ FC moveto SW -2 div SH -2 div rmoveto show } BD
/SCR{ FC moveto SW neg SH -2 div rmoveto show } BD
/STL{ FC moveto 0 SH neg rmoveto show } BD
/STC{ FC moveto SW -2 div SH neg rmoveto show } BD
/STR{ FC moveto SW neg SH neg rmoveto show } BD
/FCT { FC translate 0 0 } BD
/SR  { gsave FCT moveto rotate show grestore } BD
/SBCR{ gsave FCT moveto rotate SW -2 div 0 rmoveto show grestore } BD
/SBRR{ gsave FCT moveto rotate SW neg 0 rmoveto show grestore } BD
/SCLR{ gsave FCT moveto rotate 0 SH -2 div rmoveto show grestore} BD
/SCCR{ gsave FCT moveto rotate SW -2 div SH -2 div rmoveto show grestore} BD
/SCRR{ gsave FCT moveto rotate SW neg SH -2 div rmoveto show grestore} BD
/STLR{ gsave FCT moveto rotate 0 SH neg rmoveto show grestore } BD
/STCR{ gsave FCT moveto rotate SW -2 div SH neg rmoveto show grestore } BD
/STRR{ gsave FCT moveto rotate SW neg SH neg rmoveto show grestore } BD
/P  { newpath 0.0 360.0 arc closepath fill } BD
/LS { newpath moveto } BD
/L  { lineto } BD
/LE { lineto stroke } BD
/T  { newpath moveto lineto lineto closepath fill } BD
/STshfill {
      /b1 exch def /g1 exch def /r1 exch def /y1 exch def /x1 exch def
      /b2 exch def /g2 exch def /r2 exch def /y2 exch def /x2 exch def
      /b3 exch def /g3 exch def /r3 exch def /y3 exch def /x3 exch def
      gsave << /ShadingType 4 /ColorSpace [/DeviceRGB]
      /DataSource [ 0 x1 y1 r1 g1 b1 0 x2 y2 r2 g2 b2 0 x3 y3 r3 g3 b3 ] >>
      shfill grestore } BD
/Tm { 3 -1 roll 8 -1 roll 13 -1 roll add add 3 div
      3 -1 roll 7 -1 roll 11 -1 roll add add 3 div
      3 -1 roll 6 -1 roll 9 -1 roll add add 3 div C T } BD
/STsplit {
      4 index 15 index add 0.5 mul
      4 index 15 index add 0.5 mul
      4 index 15 index add 0.5 mul
      4 index 15 index add 0.5 mul
      4 index 15 index add 0.5 mul
      5 copy 5 copy 25 15 roll
      9 index 30 index add 0.5 mul
      9 index 30 index add 0.5 mul
      9 index 30 index add 0.5 mul
      9 index 30 index add 0.5 mul
      9 index 30 index add 0.5 mul
      5 copy 5 copy 35 5 roll 25 5 roll 15 5 roll
      4 index 10 index add 0.5 mul
      4 index 10 index add 0.5 mul
      4 index 10 index add 0.5 mul
      4 index 10 index add 0.5 mul
      4 index 10 index add 0.5 mul
      5 copy 5 copy 40 5 roll 25 5 roll 15 5 roll 25 5 roll
      STnoshfill STnoshfill STnoshfill STnoshfill } BD
/STnoshfill {
      2 index 8 index sub abs rThreshold gt
      { STsplit }
      { 1 index 7 index sub abs gThreshold gt
        { STsplit }
        { dup 6 index sub abs bThreshold gt
          { STsplit }
          { 2 index 13 index sub abs rThreshold gt
            { STsplit }
            { 1 index 12 index sub abs gThreshold gt
              { STsplit }
              { dup 11 index sub abs bThreshold gt
                { STsplit }
                { 7 index 13 index sub abs rThreshold gt
                  { STsplit }
                  { 6 index 12 index sub abs gThreshold gt
                    { STsplit }
                    { 5 index 11 index sub abs bThreshold gt
                      { STsplit }
                      { Tm }
                      ifelse }
                    ifelse }
                  ifelse }
                ifelse }
              ifelse }
            ifelse }
          ifelse }
        ifelse }
      ifelse } BD
tryPS3shading
{ /shfill where
  { /ST { STshfill } BD }
  { /ST { STnoshfill } BD }
  ifelse }
{ /ST { STnoshfill } BD }
ifelse
end
%%EndProlog
%%BeginSetup
/DeviceRGB setcolorspace
gl2psdict begin
%%EndSetup
%%Page: 1 1
%%BeginPageSetup
%%EndPageSetup
mark
gsave
1.0 1.0 scale
1 1 1 C
1177.41 77.4398 1177.41 651.2 1177.41 77.4398 T
1177.41 77.4398 1177.41 651.2 1177.41 651.2 T
169.13 651.2 1177.41 651.2 169.13 651.2 T
169.13 651.2 1177.41 651.2 1177.41 651.2 T
169.13 651.2 1177.41 77.4398 169.13 77.4398 T
169.13 651.2 1177.41 651.2 1177.41 77.4398 T
0.5 W
[16 0] 0 setdash
0 0 0 C
169.13 77.4398 LS
1177.41 77.4398 LE
169.13 651.2 LS
1177.41 651.2 LE
169.13 651.2 LS
1177.41 651.2 LE
169.13 77.4398 LS
1177.41 77.4398 LE
169.13 77.4398 LS
169.13 651.2 LE
1177.41 77.4398 LS
1177.41 651.2 LE
1177.41 77.4398 LS
1177.41 651.2 LE
169.13 77.4398 LS
169.13 651.2 L
169.13 651.2 LE
1177.41 651.2 LS
1177.41 651.2 LE
1177.41 77.4398 LS
1177.41 77.4398 LE
169.13 77.4398 LS
169.13 77.4398 LE
181.442 77.4398 LS
181.442 87.5184 LE
181.442 651.2 LS
181.442 641.121 LE
410.724 77.4398 LS
410.724 87.5184 LE
410.724 651.2 LS
410.724 641.121 LE
640.007 77.4398 LS
640.007 87.5184 LE
640.007 651.2 LS
640.007 641.121 LE
869.289 77.4398 LS
869.289 87.5184 LE
869.289 651.2 LS
869.289 641.121 LE
1098.57 77.4398 LS
1098.57 87.5184 LE
1098.57 651.2 LS
1098.57 641.121 LE
(0) 181.442 72.442 10 /Helvetica STC
(0.2) 410.724 72.442 10 /Helvetica STC
(0.4) 640.007 72.442 10 /Helvetica STC
(0.6) 869.289 72.442 10 /Helvetica STC
(0.8) 1098.57 72.442 10 /Helvetica STC
169.13 150.375 LS
179.215 150.375 LE
1177.41 150.375 LS
1167.32 150.375 LE
169.13 313.995 LS
179.215 313.995 LE
1177.41 313.995 LS
1167.32 313.995 LE
169.13 477.615 LS
179.215 477.615 LE
1177.41 477.615 LS
1167.32 477.615 LE
169.13 641.235 LS
179.215 641.235 LE
1177.41 641.235 LS
1167.32 641.235 LE
(2.5) 164.129 150.375 10 /Helvetica SCR
(3) 164.129 313.995 10 /Helvetica SCR
(3.5) 164.129 477.616 10 /Helvetica SCR
(4) 164.129 641.236 10 /Helvetica SCR
2 W
[] 0 setdash
0.59 0.59 0.59 C
996.512 331.242 LS
995.939 329.479 L
994.439 328.389 L
992.585 328.389 L
991.085 329.479 L
990.512 331.242 L
991.085 333.005 L
992.585 334.095 L
994.439 334.095 L
995.939 333.005 L
996.512 331.242 LE
184.442 641.236 LS
183.869 639.472 L
182.369 638.382 L
180.515 638.382 L
179.015 639.472 L
178.442 641.236 L
179.015 642.999 L
180.515 644.089 L
182.369 644.089 L
183.869 642.999 L
184.442 641.236 LE
1098.26 140.236 LS
1097.68 138.473 L
1096.18 137.383 L
1094.33 137.383 L
1092.83 138.473 L
1092.26 140.236 L
1092.83 141.999 L
1094.33 143.089 L
1096.18 143.089 L
1097.68 141.999 L
1098.26 140.236 LE
917.207 486.865 LS
916.634 485.101 L
915.134 484.012 L
913.28 484.012 L
911.78 485.101 L
911.207 486.865 L
911.78 488.628 L
913.28 489.718 L
915.134 489.718 L
916.634 488.628 L
917.207 486.865 LE
1041.23 228.513 LS
1040.66 226.75 L
1039.16 225.66 L
1037.3 225.66 L
1035.8 226.75 L
1035.23 228.513 L
1035.8 230.277 L
1037.3 231.367 L
1039.16 231.367 L
1040.66 230.277 L
1041.23 228.513 LE
1069.88 186.258 LS
1069.3 184.495 L
1067.8 183.405 L
1065.95 183.405 L
1064.45 184.495 L
1063.88 186.258 L
1064.45 188.022 L
1065.95 189.111 L
1067.8 189.111 L
1069.3 188.022 L
1069.88 186.258 LE
936.157 459.334 LS
935.584 457.571 L
934.084 456.481 L
932.23 456.481 L
930.73 457.571 L
930.157 459.334 L
930.73 461.097 L
932.23 462.187 L
934.084 462.187 L
935.584 461.097 L
936.157 459.334 LE
1081.33 183.006 LS
1080.75 181.243 L
1079.25 180.153 L
1077.4 180.153 L
1075.9 181.243 L
1075.33 183.006 L
1075.9 184.77 L
1077.4 185.859 L
1079.25 185.859 L
1080.75 184.77 L
1081.33 183.006 LE
1016.11 279.73 LS
1015.54 277.966 L
1014.04 276.876 L
1012.19 276.876 L
1010.69 277.966 L
1010.11 279.73 L
1010.69 281.493 L
1012.19 282.583 L
1014.04 282.583 L
1015.54 281.493 L
1016.11 279.73 LE
1156.21 92.3266 LS
1155.64 90.5633 L
1154.14 89.4734 L
1152.28 89.4734 L
1150.78 90.5633 L
1150.21 92.3266 L
1150.78 94.09 L
1152.28 95.1798 L
1154.14 95.1798 L
1155.64 94.09 L
1156.21 92.3266 LE
321.202 568.138 LS
320.629 566.375 L
319.129 565.285 L
317.275 565.285 L
315.775 566.375 L
315.202 568.138 L
315.775 569.902 L
317.275 570.992 L
319.129 570.992 L
320.629 569.902 L
321.202 568.138 LE
300.761 582.814 LS
300.189 581.051 L
298.689 579.961 L
296.834 579.961 L
295.334 581.051 L
294.761 582.814 L
295.334 584.578 L
296.834 585.668 L
298.689 585.668 L
300.189 584.578 L
300.761 582.814 LE
1085.34 156.341 LS
1084.77 154.578 L
1083.27 153.488 L
1081.42 153.488 L
1079.92 154.578 L
1079.34 156.341 L
1079.92 158.104 L
1081.42 159.194 L
1083.27 159.194 L
1084.77 158.104 L
1085.34 156.341 LE
937.503 448.826 LS
936.93 447.062 L
935.43 445.972 L
933.576 445.972 L
932.076 447.062 L
931.503 448.826 L
932.076 450.589 L
933.576 451.679 L
935.43 451.679 L
936.93 450.589 L
937.503 448.826 LE
264.352 605.918 LS
263.779 604.155 L
262.279 603.065 L
260.425 603.065 L
258.925 604.155 L
258.352 605.918 L
258.925 607.681 L
260.425 608.771 L
262.279 608.771 L
263.779 607.681 L
264.352 605.918 LE
971.052 376.314 LS
970.479 374.551 L
968.979 373.461 L
967.125 373.461 L
965.625 374.551 L
965.052 376.314 L
965.625 378.078 L
967.125 379.168 L
968.979 379.168 L
970.479 378.078 L
971.052 376.314 LE
957.045 406.057 LS
956.472 404.293 L
954.972 403.203 L
953.118 403.203 L
951.618 404.293 L
951.045 406.057 L
951.618 407.82 L
953.118 408.91 L
954.972 408.91 L
956.472 407.82 L
957.045 406.057 LE
335.16 558.757 LS
334.587 556.994 L
333.087 555.904 L
331.233 555.904 L
329.733 556.994 L
329.16 558.757 L
329.733 560.52 L
331.233 561.61 L
333.087 561.61 L
334.587 560.52 L
335.16 558.757 LE
438.555 506.537 LS
437.982 504.774 L
436.482 503.684 L
434.628 503.684 L
433.128 504.774 L
432.555 506.537 L
433.128 508.301 L
434.628 509.391 L
436.482 509.391 L
437.982 508.301 L
438.555 506.537 LE
960.636 401.453 LS
960.063 399.689 L
958.563 398.6 L
956.709 398.6 L
955.209 399.689 L
954.636 401.453 L
955.209 403.216 L
956.709 404.306 L
958.563 404.306 L
960.063 403.216 L
960.636 401.453 LE
402.77 520.698 LS
402.197 518.935 L
400.697 517.845 L
398.843 517.845 L
397.343 518.935 L
396.77 520.698 L
397.343 522.462 L
398.843 523.552 L
400.697 523.552 L
402.197 522.462 L
402.77 520.698 LE
368.931 538.321 LS
368.358 536.558 L
366.858 535.468 L
365.004 535.468 L
363.504 536.558 L
362.931 538.321 L
363.504 540.084 L
365.004 541.174 L
366.858 541.174 L
368.358 540.084 L
368.931 538.321 LE
976.481 371.528 LS
975.908 369.765 L
974.408 368.675 L
972.553 368.675 L
971.053 369.765 L
970.481 371.528 L
971.053 373.292 L
972.553 374.382 L
974.408 374.382 L
975.908 373.292 L
976.481 371.528 LE
448.962 503.77 LS
448.389 502.006 L
446.889 500.917 L
445.035 500.917 L
443.535 502.006 L
442.962 503.77 L
443.535 505.533 L
445.035 506.623 L
446.889 506.623 L
448.389 505.533 L
448.962 503.77 LE
1102.33 132.33 LS
1101.76 130.566 L
1100.26 129.476 L
1098.4 129.476 L
1096.9 130.566 L
1096.33 132.33 L
1096.9 134.093 L
1098.4 135.183 L
1100.26 135.183 L
1101.76 134.093 L
1102.33 132.33 LE
470.861 501.579 LS
470.288 499.816 L
468.788 498.726 L
466.934 498.726 L
465.434 499.816 L
464.861 501.579 L
465.434 503.343 L
466.934 504.433 L
468.788 504.433 L
470.288 503.343 L
470.861 501.579 LE
945.476 431.492 LS
944.903 429.729 L
943.403 428.639 L
941.549 428.639 L
940.049 429.729 L
939.476 431.492 L
940.049 433.255 L
941.549 434.345 L
943.403 434.345 L
944.903 433.255 L
945.476 431.492 LE
278.164 596.115 LS
277.591 594.351 L
276.091 593.262 L
274.237 593.262 L
272.737 594.351 L
272.164 596.115 L
272.737 597.878 L
274.237 598.968 L
276.091 598.968 L
277.591 597.878 L
278.164 596.115 LE
353.583 548.054 LS
353.01 546.291 L
351.51 545.201 L
349.656 545.201 L
348.156 546.291 L
347.583 548.054 L
348.156 549.817 L
349.656 550.907 L
351.51 550.907 L
353.01 549.817 L
353.583 548.054 LE
1035.92 255.776 LS
1035.35 254.012 L
1033.85 252.922 L
1032 252.922 L
1030.5 254.012 L
1029.92 255.776 L
1030.5 257.539 L
1032 258.629 L
1033.85 258.629 L
1035.35 257.539 L
1035.92 255.776 LE
1008.32 300.33 LS
1007.75 298.566 L
1006.25 297.476 L
1004.39 297.476 L
1002.89 298.566 L
1002.32 300.33 L
1002.89 302.093 L
1004.39 303.183 L
1006.25 303.183 L
1007.75 302.093 L
1008.32 300.33 LE
1010.83 296.277 LS
1010.25 294.513 L
1008.75 293.424 L
1006.9 293.424 L
1005.4 294.513 L
1004.83 296.277 L
1005.4 298.04 L
1006.9 299.13 L
1008.75 299.13 L
1010.25 298.04 L
1010.83 296.277 LE
420.116 513.775 LS
419.543 512.011 L
418.043 510.921 L
416.189 510.921 L
414.689 512.011 L
414.116 513.775 L
414.689 515.538 L
416.189 516.628 L
418.043 516.628 L
419.543 515.538 L
420.116 513.775 LE
242.198 617.585 LS
241.626 615.822 L
240.126 614.732 L
238.271 614.732 L
236.771 615.822 L
236.198 617.585 L
236.771 619.349 L
238.271 620.438 L
240.126 620.438 L
241.626 619.349 L
242.198 617.585 LE
1055.1 203.967 LS
1054.53 202.203 L
1053.03 201.114 L
1051.17 201.114 L
1049.67 202.203 L
1049.1 203.967 L
1049.67 205.73 L
1051.17 206.82 L
1053.03 206.82 L
1054.53 205.73 L
1055.1 203.967 LE
1116.51 117.104 LS
1115.94 115.34 L
1114.44 114.251 L
1112.58 114.251 L
1111.08 115.34 L
1110.51 117.104 L
1111.08 118.867 L
1112.58 119.957 L
1114.44 119.957 L
1115.94 118.867 L
1116.51 117.104 LE
1053.86 212.374 LS
1053.29 210.611 L
1051.79 209.521 L
1049.94 209.521 L
1048.44 210.611 L
1047.86 212.374 L
1048.44 214.138 L
1049.94 215.227 L
1051.79 215.227 L
1053.29 214.138 L
1053.86 212.374 LE
1020.83 274.715 LS
1020.26 272.951 L
1018.76 271.861 L
1016.9 271.861 L
1015.4 272.951 L
1014.83 274.715 L
1015.4 276.478 L
1016.9 277.568 L
1018.76 277.568 L
1020.26 276.478 L
1020.83 274.715 LE
1067.27 186.369 LS
1066.7 184.605 L
1065.2 183.516 L
1063.35 183.516 L
1061.85 184.605 L
1061.27 186.369 L
1061.85 188.132 L
1063.35 189.222 L
1065.2 189.222 L
1066.7 188.132 L
1067.27 186.369 LE
927.59 477.732 LS
927.017 475.969 L
925.517 474.879 L
923.663 474.879 L
922.163 475.969 L
921.59 477.732 L
922.163 479.496 L
923.663 480.586 L
925.517 480.586 L
927.017 479.496 L
927.59 477.732 LE
1023.05 267.333 LS
1022.48 265.57 L
1020.98 264.48 L
1019.12 264.48 L
1017.62 265.57 L
1017.05 267.333 L
1017.62 269.096 L
1019.12 270.186 L
1020.98 270.186 L
1022.48 269.096 L
1023.05 267.333 LE
989.54 349.147 LS
988.967 347.384 L
987.467 346.294 L
985.613 346.294 L
984.113 347.384 L
983.54 349.147 L
984.113 350.91 L
985.613 352 L
987.467 352 L
988.967 350.91 L
989.54 349.147 LE
1129.98 102.727 LS
1129.41 100.964 L
1127.91 99.8737 L
1126.05 99.8737 L
1124.55 100.964 L
1123.98 102.727 L
1124.55 104.49 L
1126.05 105.58 L
1127.91 105.58 L
1129.41 104.49 L
1129.98 102.727 LE
1045.74 223.136 LS
1045.16 221.373 L
1043.66 220.283 L
1041.81 220.283 L
1040.31 221.373 L
1039.74 223.136 L
1040.31 224.899 L
1041.81 225.989 L
1043.66 225.989 L
1045.16 224.899 L
1045.74 223.136 LE
1089.06 154.147 LS
1088.49 152.384 L
1086.99 151.294 L
1085.13 151.294 L
1083.63 152.384 L
1083.06 154.147 L
1083.63 155.911 L
1085.13 157.001 L
1086.99 157.001 L
1088.49 155.911 L
1089.06 154.147 LE
1036.93 241.844 LS
1036.36 240.081 L
1034.86 238.991 L
1033 238.991 L
1031.5 240.081 L
1030.93 241.844 L
1031.5 243.607 L
1033 244.697 L
1034.86 244.697 L
1036.36 243.607 L
1036.93 241.844 LE
223.379 627.698 LS
222.806 625.934 L
221.306 624.844 L
219.452 624.844 L
217.952 625.934 L
217.379 627.698 L
217.952 629.461 L
219.452 630.551 L
221.306 630.551 L
222.806 629.461 L
223.379 627.698 LE
1119.22 112.366 LS
1118.65 110.602 L
1117.15 109.513 L
1115.3 109.513 L
1113.8 110.602 L
1113.22 112.366 L
1113.8 114.129 L
1115.3 115.219 L
1117.15 115.219 L
1118.65 114.129 L
1119.22 112.366 LE
966.368 387.902 LS
965.795 386.138 L
964.295 385.049 L
962.441 385.049 L
960.941 386.138 L
960.368 387.902 L
960.941 389.665 L
962.441 390.755 L
964.295 390.755 L
965.795 389.665 L
966.368 387.902 LE
1145.44 94.4958 LS
1144.87 92.7325 L
1143.37 91.6427 L
1141.51 91.6427 L
1140.01 92.7325 L
1139.44 94.4958 L
1140.01 96.2592 L
1141.51 97.349 L
1143.37 97.349 L
1144.87 96.2592 L
1145.44 94.4958 LE
1109.53 123.015 LS
1108.96 121.252 L
1107.46 120.162 L
1105.6 120.162 L
1104.1 121.252 L
1103.53 123.015 L
1104.1 124.778 L
1105.6 125.868 L
1107.46 125.868 L
1108.96 124.778 L
1109.53 123.015 LE
1000.44 314.09 LS
999.872 312.326 L
998.372 311.237 L
996.518 311.237 L
995.018 312.326 L
994.445 314.09 L
995.018 315.853 L
996.518 316.943 L
998.372 316.943 L
999.872 315.853 L
1000.44 314.09 LE
206.476 636.234 LS
205.903 634.47 L
204.403 633.38 L
202.549 633.38 L
201.049 634.47 L
200.476 636.234 L
201.049 637.997 L
202.549 639.087 L
204.403 639.087 L
205.903 637.997 L
206.476 636.234 LE
385.302 528.691 LS
384.729 526.928 L
383.229 525.838 L
381.375 525.838 L
379.875 526.928 L
379.302 528.691 L
379.875 530.455 L
381.375 531.545 L
383.229 531.545 L
384.729 530.455 L
385.302 528.691 LE
1026.61 258.467 LS
1026.03 256.704 L
1024.53 255.614 L
1022.68 255.614 L
1021.18 256.704 L
1020.61 258.467 L
1021.18 260.23 L
1022.68 261.32 L
1024.53 261.32 L
1026.03 260.23 L
1026.61 258.467 LE
1082.57 163.836 LS
1082 162.073 L
1080.5 160.983 L
1078.65 160.983 L
1077.15 162.073 L
1076.57 163.836 L
1077.15 165.6 L
1078.65 166.69 L
1080.5 166.69 L
1082 165.6 L
1082.57 163.836 LE
982.782 355.435 LS
982.209 353.672 L
980.709 352.582 L
978.855 352.582 L
977.355 353.672 L
976.782 355.435 L
977.355 357.199 L
978.855 358.288 L
980.709 358.288 L
982.209 357.199 L
982.782 355.435 LE
951.017 420.946 LS
950.444 419.183 L
948.944 418.093 L
947.089 418.093 L
945.59 419.183 L
945.017 420.946 L
945.59 422.71 L
947.089 423.799 L
948.944 423.799 L
950.444 422.71 L
951.017 420.946 LE
0.11 0.11 0.11 C
397.703 520.496 LS
397.13 518.733 L
395.63 517.643 L
393.776 517.643 L
392.276 518.733 L
391.703 520.496 L
392.276 522.26 L
393.776 523.349 L
395.63 523.349 L
397.13 522.26 L
397.703 520.496 LE
431.544 507.981 LS
430.971 506.218 L
429.471 505.128 L
427.617 505.128 L
426.117 506.218 L
425.544 507.981 L
426.117 509.745 L
427.617 510.834 L
429.471 510.834 L
430.971 509.745 L
431.544 507.981 LE
934.472 475.694 LS
933.899 473.93 L
932.399 472.84 L
930.545 472.84 L
929.045 473.93 L
928.472 475.694 L
929.045 477.457 L
930.545 478.547 L
932.399 478.547 L
933.899 477.457 L
934.472 475.694 LE
954.17 422.896 LS
953.597 421.133 L
952.097 420.043 L
950.243 420.043 L
948.743 421.133 L
948.17 422.896 L
948.743 424.66 L
950.243 425.75 L
952.097 425.75 L
953.597 424.66 L
954.17 422.896 LE
1010.15 301.671 LS
1009.58 299.908 L
1008.08 298.818 L
1006.22 298.818 L
1004.72 299.908 L
1004.15 301.671 L
1004.72 303.435 L
1006.22 304.524 L
1008.08 304.524 L
1009.58 303.435 L
1010.15 301.671 LE
983.309 349.313 LS
982.736 347.549 L
981.236 346.459 L
979.382 346.459 L
977.882 347.549 L
977.309 349.313 L
977.882 351.076 L
979.382 352.166 L
981.236 352.166 L
982.736 351.076 L
983.309 349.313 LE
318.805 568.621 LS
318.232 566.858 L
316.732 565.768 L
314.878 565.768 L
313.378 566.858 L
312.805 568.621 L
313.378 570.385 L
314.878 571.475 L
316.732 571.475 L
318.232 570.385 L
318.805 568.621 LE
381.643 528.726 LS
381.07 526.963 L
379.57 525.873 L
377.716 525.873 L
376.216 526.963 L
375.643 528.726 L
376.216 530.49 L
377.716 531.579 L
379.57 531.579 L
381.07 530.49 L
381.643 528.726 LE
1039.94 231.085 LS
1039.37 229.321 L
1037.87 228.232 L
1036.01 228.232 L
1034.51 229.321 L
1033.94 231.085 L
1034.51 232.848 L
1036.01 233.938 L
1037.87 233.938 L
1039.37 232.848 L
1039.94 231.085 LE
1064.46 187.003 LS
1063.89 185.24 L
1062.39 184.15 L
1060.53 184.15 L
1059.03 185.24 L
1058.46 187.003 L
1059.03 188.766 L
1060.53 189.856 L
1062.39 189.856 L
1063.89 188.766 L
1064.46 187.003 LE
265.644 605.064 LS
265.071 603.301 L
263.571 602.211 L
261.716 602.211 L
260.216 603.301 L
259.644 605.064 L
260.216 606.828 L
261.716 607.917 L
263.571 607.917 L
265.071 606.828 L
265.644 605.064 LE
452.494 503.025 LS
451.922 501.262 L
450.422 500.172 L
448.567 500.172 L
447.067 501.262 L
446.494 503.025 L
447.067 504.789 L
448.567 505.878 L
450.422 505.878 L
451.922 504.789 L
452.494 503.025 LE
1125.36 120.19 LS
1124.78 118.426 L
1123.28 117.336 L
1121.43 117.336 L
1119.93 118.426 L
1119.36 120.19 L
1119.93 121.953 L
1121.43 123.043 L
1123.28 123.043 L
1124.78 121.953 L
1125.36 120.19 LE
417.822 512.882 LS
417.249 511.119 L
415.749 510.029 L
413.895 510.029 L
412.395 511.119 L
411.822 512.882 L
412.395 514.646 L
413.895 515.735 L
415.749 515.735 L
417.249 514.646 L
417.822 512.882 LE
1033.92 250.199 LS
1033.35 248.436 L
1031.85 247.346 L
1029.99 247.346 L
1028.49 248.436 L
1027.92 250.199 L
1028.49 251.962 L
1029.99 253.052 L
1031.85 253.052 L
1033.35 251.962 L
1033.92 250.199 LE
1061.16 191.386 LS
1060.58 189.622 L
1059.08 188.532 L
1057.23 188.532 L
1055.73 189.622 L
1055.16 191.386 L
1055.73 193.149 L
1057.23 194.239 L
1059.08 194.239 L
1060.58 193.149 L
1061.16 191.386 LE
372.723 534.134 LS
372.15 532.37 L
370.65 531.281 L
368.796 531.281 L
367.296 532.37 L
366.723 534.134 L
367.296 535.897 L
368.796 536.987 L
370.65 536.987 L
372.15 535.897 L
372.723 534.134 LE
1012.61 286.899 LS
1012.04 285.135 L
1010.54 284.045 L
1008.68 284.045 L
1007.18 285.135 L
1006.61 286.899 L
1007.18 288.662 L
1008.68 289.752 L
1010.54 289.752 L
1012.04 288.662 L
1012.61 286.899 LE
1139.6 97.876 LS
1139.03 96.1127 L
1137.53 95.0229 L
1135.67 95.0229 L
1134.17 96.1127 L
1133.6 97.876 L
1134.17 99.6394 L
1135.67 100.729 L
1137.53 100.729 L
1139.03 99.6394 L
1139.6 97.876 LE
1134.17 109.361 LS
1133.59 107.598 L
1132.09 106.508 L
1130.24 106.508 L
1128.74 107.598 L
1128.17 109.361 L
1128.74 111.125 L
1130.24 112.214 L
1132.09 112.214 L
1133.59 111.125 L
1134.17 109.361 LE
1049.56 221.579 LS
1048.98 219.815 L
1047.48 218.726 L
1045.63 218.726 L
1044.13 219.815 L
1043.56 221.579 L
1044.13 223.342 L
1045.63 224.432 L
1047.48 224.432 L
1048.98 223.342 L
1049.56 221.579 LE
300.761 581.635 LS
300.188 579.872 L
298.688 578.782 L
296.834 578.782 L
295.334 579.872 L
294.761 581.635 L
295.334 583.399 L
296.834 584.489 L
298.688 584.489 L
300.188 583.399 L
300.761 581.635 LE
1007.1 301.84 LS
1006.53 300.077 L
1005.03 298.987 L
1003.18 298.987 L
1001.68 300.077 L
1001.1 301.84 L
1001.68 303.604 L
1003.18 304.694 L
1005.03 304.694 L
1006.53 303.604 L
1007.1 301.84 LE
350.421 548.692 LS
349.848 546.929 L
348.348 545.839 L
346.494 545.839 L
344.994 546.929 L
344.421 548.692 L
344.994 550.455 L
346.494 551.545 L
348.348 551.545 L
349.848 550.455 L
350.421 548.692 LE
482.481 501.966 LS
481.908 500.202 L
480.408 499.112 L
478.554 499.112 L
477.054 500.202 L
476.481 501.966 L
477.054 503.729 L
478.554 504.819 L
480.408 504.819 L
481.908 503.729 L
482.481 501.966 LE
993.252 336.407 LS
992.68 334.643 L
991.18 333.554 L
989.325 333.554 L
987.825 334.643 L
987.252 336.407 L
987.825 338.17 L
989.325 339.26 L
991.18 339.26 L
992.68 338.17 L
993.252 336.407 LE
281.979 594.063 LS
281.406 592.299 L
279.906 591.21 L
278.052 591.21 L
276.552 592.299 L
275.979 594.063 L
276.552 595.826 L
278.052 596.916 L
279.906 596.916 L
281.406 595.826 L
281.979 594.063 LE
1017.84 276.963 LS
1017.26 275.2 L
1015.76 274.11 L
1013.91 274.11 L
1012.41 275.2 L
1011.84 276.963 L
1012.41 278.726 L
1013.91 279.816 L
1015.76 279.816 L
1017.26 278.726 L
1017.84 276.963 LE
978.821 360.503 LS
978.248 358.74 L
976.748 357.65 L
974.894 357.65 L
973.394 358.74 L
972.821 360.503 L
973.394 362.267 L
974.894 363.356 L
976.748 363.356 L
978.248 362.267 L
978.821 360.503 LE
1101.42 139.082 LS
1100.85 137.319 L
1099.35 136.229 L
1097.49 136.229 L
1095.99 137.319 L
1095.42 139.082 L
1095.99 140.846 L
1097.49 141.936 L
1099.35 141.936 L
1100.85 140.846 L
1101.42 139.082 LE
333.287 559.26 LS
332.714 557.497 L
331.214 556.407 L
329.36 556.407 L
327.86 557.497 L
327.287 559.26 L
327.86 561.024 L
329.36 562.114 L
331.214 562.114 L
332.714 561.024 L
333.287 559.26 LE
995.557 331.641 LS
994.984 329.878 L
993.484 328.788 L
991.63 328.788 L
990.13 329.878 L
989.557 331.641 L
990.13 333.405 L
991.63 334.494 L
993.484 334.494 L
994.984 333.405 L
995.557 331.641 LE
985.1 347.625 LS
984.527 345.862 L
983.027 344.772 L
981.173 344.772 L
979.673 345.862 L
979.1 347.625 L
979.673 349.389 L
981.173 350.478 L
983.027 350.478 L
984.527 349.389 L
985.1 347.625 LE
968.981 384.554 LS
968.408 382.79 L
966.908 381.7 L
965.053 381.7 L
963.554 382.79 L
962.981 384.554 L
963.554 386.317 L
965.053 387.407 L
966.908 387.407 L
968.408 386.317 L
968.981 384.554 LE
909.681 499.52 LS
909.108 497.756 L
907.608 496.667 L
905.754 496.667 L
904.254 497.756 L
903.681 499.52 L
904.254 501.283 L
905.754 502.373 L
907.608 502.373 L
909.108 501.283 L
909.681 499.52 LE
946.302 450.809 LS
945.729 449.045 L
944.229 447.956 L
942.375 447.956 L
940.875 449.045 L
940.302 450.809 L
940.875 452.572 L
942.375 453.662 L
944.229 453.662 L
945.729 452.572 L
946.302 450.809 LE
954.838 416.091 LS
954.265 414.328 L
952.765 413.238 L
950.911 413.238 L
949.411 414.328 L
948.838 416.091 L
949.411 417.855 L
950.911 418.945 L
952.765 418.945 L
954.265 417.855 L
954.838 416.091 LE
942.823 458.806 LS
942.25 457.043 L
940.75 455.953 L
938.896 455.953 L
937.396 457.043 L
936.823 458.806 L
937.396 460.57 L
938.896 461.659 L
940.75 461.659 L
942.25 460.57 L
942.823 458.806 LE
224.677 626.029 LS
224.104 624.266 L
222.604 623.176 L
220.75 623.176 L
219.25 624.266 L
218.677 626.029 L
219.25 627.793 L
220.75 628.883 L
222.604 628.883 L
224.104 627.793 L
224.677 626.029 LE
1168.19 88.924 LS
1167.62 87.1607 L
1166.12 86.0709 L
1164.27 86.0709 L
1162.77 87.1607 L
1162.19 88.924 L
1162.77 90.6874 L
1164.27 91.7772 L
1166.12 91.7772 L
1167.62 90.6874 L
1168.19 88.924 LE
1035.24 247.818 LS
1034.66 246.054 L
1033.16 244.964 L
1031.31 244.964 L
1029.81 246.054 L
1029.24 247.818 L
1029.81 249.581 L
1031.31 250.671 L
1033.16 250.671 L
1034.66 249.581 L
1035.24 247.818 LE
1000.01 315.044 LS
999.439 313.281 L
997.939 312.191 L
996.085 312.191 L
994.585 313.281 L
994.012 315.044 L
994.585 316.808 L
996.085 317.897 L
997.939 317.897 L
999.439 316.808 L
1000.01 315.044 LE
1088.77 163.524 LS
1088.19 161.76 L
1086.69 160.671 L
1084.84 160.671 L
1083.34 161.76 L
1082.77 163.524 L
1083.34 165.287 L
1084.84 166.377 L
1086.69 166.377 L
1088.19 165.287 L
1088.77 163.524 LE
1056.83 198.969 LS
1056.26 197.206 L
1054.76 196.116 L
1052.91 196.116 L
1051.41 197.206 L
1050.83 198.969 L
1051.41 200.733 L
1052.91 201.823 L
1054.76 201.823 L
1056.26 200.733 L
1056.83 198.969 LE
1043.92 224.472 LS
1043.35 222.708 L
1041.85 221.618 L
1039.99 221.618 L
1038.49 222.708 L
1037.92 224.472 L
1038.49 226.235 L
1039.99 227.325 L
1041.85 227.325 L
1043.35 226.235 L
1043.92 224.472 LE
1127.73 113.485 LS
1127.16 111.721 L
1125.66 110.632 L
1123.8 110.632 L
1122.3 111.721 L
1121.73 113.485 L
1122.3 115.248 L
1123.8 116.338 L
1125.66 116.338 L
1127.16 115.248 L
1127.73 113.485 LE
1140.32 97.3529 LS
1139.75 95.5895 L
1138.25 94.4997 L
1136.4 94.4997 L
1134.9 95.5895 L
1134.32 97.3529 L
1134.9 99.1162 L
1136.4 100.206 L
1138.25 100.206 L
1139.75 99.1162 L
1140.32 97.3529 LE
1114.78 125.604 LS
1114.21 123.84 L
1112.71 122.75 L
1110.85 122.75 L
1109.35 123.84 L
1108.78 125.604 L
1109.35 127.367 L
1110.85 128.457 L
1112.71 128.457 L
1114.21 127.367 L
1114.78 125.604 LE
947.14 436.564 LS
946.567 434.801 L
945.067 433.711 L
943.213 433.711 L
941.713 434.801 L
941.14 436.564 L
941.713 438.327 L
943.213 439.417 L
945.067 439.417 L
946.567 438.327 L
947.14 436.564 LE
1096.46 139.867 LS
1095.88 138.104 L
1094.38 137.014 L
1092.53 137.014 L
1091.03 138.104 L
1090.46 139.867 L
1091.03 141.631 L
1092.53 142.72 L
1094.38 142.72 L
1095.88 141.631 L
1096.46 139.867 LE
1068.75 184.632 LS
1068.18 182.868 L
1066.68 181.779 L
1064.83 181.779 L
1063.33 182.868 L
1062.75 184.632 L
1063.33 186.395 L
1064.83 187.485 L
1066.68 187.485 L
1068.18 186.395 L
1068.75 184.632 LE
244.17 616.217 LS
243.597 614.453 L
242.097 613.363 L
240.242 613.363 L
238.742 614.453 L
238.169 616.217 L
238.742 617.98 L
240.242 619.07 L
242.097 619.07 L
243.597 617.98 L
244.17 616.217 LE
1021.58 275.37 LS
1021 273.607 L
1019.5 272.517 L
1017.65 272.517 L
1016.15 273.607 L
1015.58 275.37 L
1016.15 277.133 L
1017.65 278.223 L
1019.5 278.223 L
1021 277.133 L
1021.58 275.37 LE
1030.9 261.225 LS
1030.33 259.461 L
1028.83 258.372 L
1026.98 258.372 L
1025.48 259.461 L
1024.9 261.225 L
1025.48 262.988 L
1026.98 264.078 L
1028.83 264.078 L
1030.33 262.988 L
1030.9 261.225 LE
203.296 635.229 LS
202.723 633.465 L
201.223 632.376 L
199.369 632.376 L
197.869 633.465 L
197.296 635.229 L
197.869 636.992 L
199.369 638.082 L
201.223 638.082 L
202.723 636.992 L
203.296 635.229 LE
184.442 641.236 LS
183.869 639.472 L
182.369 638.382 L
180.515 638.382 L
179.015 639.472 L
178.442 641.236 L
179.015 642.999 L
180.515 644.089 L
182.369 644.089 L
183.869 642.999 L
184.442 641.236 LE
0.3 0.3 0.3 C
184.442 641.236 LS
183.869 639.472 L
182.369 638.382 L
180.515 638.382 L
179.015 639.472 L
178.442 641.236 L
179.015 642.999 L
180.515 644.089 L
182.369 644.089 L
183.869 642.999 L
184.442 641.236 LE
194.069 638.271 LS
193.496 636.507 L
191.996 635.417 L
190.142 635.417 L
188.642 636.507 L
188.069 638.271 L
188.642 640.034 L
190.142 641.124 L
191.996 641.124 L
193.496 640.034 L
194.069 638.271 LE
202.649 635.264 LS
202.076 633.5 L
200.576 632.411 L
198.722 632.411 L
197.222 633.5 L
196.649 635.264 L
197.222 637.027 L
198.722 638.117 L
200.576 638.117 L
202.076 637.027 L
202.649 635.264 LE
211.945 631.632 LS
211.372 629.868 L
209.872 628.779 L
208.018 628.779 L
206.518 629.868 L
205.945 631.632 L
206.518 633.395 L
208.018 634.485 L
209.872 634.485 L
211.372 633.395 L
211.945 631.632 LE
220.627 627.879 LS
220.054 626.116 L
218.554 625.026 L
216.699 625.026 L
215.199 626.116 L
214.627 627.879 L
215.199 629.643 L
216.699 630.732 L
218.554 630.732 L
220.054 629.643 L
220.627 627.879 LE
229.06 623.946 LS
228.487 622.182 L
226.987 621.093 L
225.133 621.093 L
223.633 622.182 L
223.06 623.946 L
223.633 625.709 L
225.133 626.799 L
226.987 626.799 L
228.487 625.709 L
229.06 623.946 LE
237.21 619.842 LS
236.637 618.079 L
235.137 616.989 L
233.282 616.989 L
231.782 618.079 L
231.21 619.842 L
231.782 621.606 L
233.282 622.695 L
235.137 622.695 L
236.637 621.606 L
237.21 619.842 LE
245.133 615.622 LS
244.56 613.859 L
243.06 612.769 L
241.206 612.769 L
239.706 613.859 L
239.133 615.622 L
239.706 617.385 L
241.206 618.475 L
243.06 618.475 L
244.56 617.385 L
245.133 615.622 LE
252.482 611.509 LS
251.909 609.745 L
250.409 608.656 L
248.555 608.656 L
247.055 609.745 L
246.482 611.509 L
247.055 613.272 L
248.555 614.362 L
250.409 614.362 L
251.909 613.272 L
252.482 611.509 LE
259.137 607.628 LS
258.564 605.865 L
257.064 604.775 L
255.21 604.775 L
253.71 605.865 L
253.137 607.628 L
253.71 609.392 L
255.21 610.482 L
257.064 610.482 L
258.564 609.392 L
259.137 607.628 LE
265.517 603.805 LS
264.944 602.041 L
263.444 600.951 L
261.589 600.951 L
260.089 602.041 L
259.517 603.805 L
260.089 605.568 L
261.589 606.658 L
263.444 606.658 L
264.944 605.568 L
265.517 603.805 LE
272 599.773 LS
271.427 598.009 L
269.927 596.919 L
268.073 596.919 L
266.573 598.009 L
266 599.773 L
266.573 601.536 L
268.073 602.626 L
269.927 602.626 L
271.427 601.536 L
272 599.773 LE
278.345 595.734 LS
277.772 593.97 L
276.272 592.88 L
274.418 592.88 L
272.918 593.97 L
272.345 595.734 L
272.918 597.497 L
274.418 598.587 L
276.272 598.587 L
277.772 597.497 L
278.345 595.734 LE
284.718 591.629 LS
284.145 589.865 L
282.645 588.775 L
280.791 588.775 L
279.291 589.865 L
278.718 591.629 L
279.291 593.392 L
280.791 594.482 L
282.645 594.482 L
284.145 593.392 L
284.718 591.629 LE
291.185 587.334 LS
290.612 585.57 L
289.112 584.48 L
287.258 584.48 L
285.758 585.57 L
285.185 587.334 L
285.758 589.097 L
287.258 590.187 L
289.112 590.187 L
290.612 589.097 L
291.185 587.334 LE
299.195 581.962 LS
298.622 580.199 L
297.122 579.109 L
295.268 579.109 L
293.768 580.199 L
293.195 581.962 L
293.768 583.725 L
295.268 584.815 L
297.122 584.815 L
298.622 583.725 L
299.195 581.962 LE
305.703 577.568 LS
305.13 575.805 L
303.63 574.715 L
301.776 574.715 L
300.276 575.805 L
299.703 577.568 L
300.276 579.331 L
301.776 580.421 L
303.63 580.421 L
305.13 579.331 L
305.703 577.568 LE
312.309 573.054 LS
311.736 571.29 L
310.236 570.201 L
308.382 570.201 L
306.882 571.29 L
306.309 573.054 L
306.882 574.817 L
308.382 575.907 L
310.236 575.907 L
311.736 574.817 L
312.309 573.054 LE
319.653 568.044 LS
319.08 566.281 L
317.58 565.191 L
315.726 565.191 L
314.226 566.281 L
313.653 568.044 L
314.226 569.808 L
315.726 570.898 L
317.58 570.898 L
319.08 569.808 L
319.653 568.044 LE
327.37 562.792 LS
326.797 561.029 L
325.297 559.939 L
323.443 559.939 L
321.943 561.029 L
321.37 562.792 L
321.943 564.556 L
323.443 565.646 L
325.297 565.646 L
326.797 564.556 L
327.37 562.792 LE
335.208 557.522 LS
334.635 555.758 L
333.135 554.669 L
331.281 554.669 L
329.781 555.758 L
329.208 557.522 L
329.781 559.285 L
331.281 560.375 L
333.135 560.375 L
334.635 559.285 L
335.208 557.522 LE
342.792 552.46 LS
342.219 550.697 L
340.719 549.607 L
338.865 549.607 L
337.365 550.697 L
336.792 552.46 L
337.365 554.223 L
338.865 555.313 L
340.719 555.313 L
342.219 554.223 L
342.792 552.46 LE
350.337 547.541 LS
349.764 545.777 L
348.264 544.687 L
346.41 544.687 L
344.91 545.777 L
344.337 547.541 L
344.91 549.304 L
346.41 550.394 L
348.264 550.394 L
349.764 549.304 L
350.337 547.541 LE
358.019 542.653 LS
357.446 540.89 L
355.946 539.8 L
354.092 539.8 L
352.592 540.89 L
352.019 542.653 L
352.592 544.416 L
354.092 545.506 L
355.946 545.506 L
357.446 544.416 L
358.019 542.653 LE
365.636 537.976 LS
365.063 536.212 L
363.563 535.122 L
361.709 535.122 L
360.209 536.212 L
359.636 537.976 L
360.209 539.739 L
361.709 540.829 L
363.563 540.829 L
365.063 539.739 L
365.636 537.976 LE
373.387 533.386 LS
372.814 531.622 L
371.314 530.533 L
369.46 530.533 L
367.96 531.622 L
367.387 533.386 L
367.96 535.149 L
369.46 536.239 L
371.314 536.239 L
372.814 535.149 L
373.387 533.386 LE
381.385 528.878 LS
380.812 527.115 L
379.312 526.025 L
377.458 526.025 L
375.958 527.115 L
375.385 528.878 L
375.958 530.641 L
377.458 531.731 L
379.312 531.731 L
380.812 530.641 L
381.385 528.878 LE
389.509 524.553 LS
388.936 522.789 L
387.436 521.699 L
385.582 521.699 L
384.082 522.789 L
383.509 524.553 L
384.082 526.316 L
385.582 527.406 L
387.436 527.406 L
388.936 526.316 L
389.509 524.553 LE
399.184 519.798 LS
398.611 518.034 L
397.111 516.945 L
395.257 516.945 L
393.757 518.034 L
393.184 519.798 L
393.757 521.561 L
395.257 522.651 L
397.111 522.651 L
398.611 521.561 L
399.184 519.798 LE
409.081 515.418 LS
408.508 513.655 L
407.008 512.565 L
405.154 512.565 L
403.654 513.655 L
403.081 515.418 L
403.654 517.182 L
405.154 518.271 L
407.008 518.271 L
408.508 517.182 L
409.081 515.418 LE
419.868 511.251 LS
419.295 509.488 L
417.795 508.398 L
415.941 508.398 L
414.441 509.488 L
413.868 511.251 L
414.441 513.015 L
415.941 514.104 L
417.795 514.104 L
419.295 513.015 L
419.868 511.251 LE
431.694 507.479 LS
431.121 505.715 L
429.621 504.626 L
427.767 504.626 L
426.267 505.715 L
425.694 507.479 L
426.267 509.242 L
427.767 510.332 L
429.621 510.332 L
431.121 509.242 L
431.694 507.479 LE
443.686 504.557 LS
443.113 502.794 L
441.613 501.704 L
439.759 501.704 L
438.259 502.794 L
437.686 504.557 L
438.259 506.321 L
439.759 507.41 L
441.613 507.41 L
443.113 506.321 L
443.686 504.557 LE
457.084 502.441 LS
456.512 500.678 L
455.012 499.588 L
453.157 499.588 L
451.657 500.678 L
451.084 502.441 L
451.657 504.205 L
453.157 505.294 L
455.012 505.294 L
456.512 504.205 L
457.084 502.441 LE
472.609 501.568 LS
472.036 499.804 L
470.536 498.714 L
468.682 498.714 L
467.182 499.804 L
466.609 501.568 L
467.182 503.331 L
468.682 504.421 L
470.536 504.421 L
472.036 503.331 L
472.609 501.568 LE
910.716 497.645 LS
910.143 495.882 L
908.643 494.792 L
906.789 494.792 L
905.289 495.882 L
904.716 497.645 L
905.289 499.408 L
906.789 500.498 L
908.643 500.498 L
910.143 499.408 L
910.716 497.645 LE
914.239 491.176 LS
913.666 489.412 L
912.166 488.323 L
910.312 488.323 L
908.812 489.412 L
908.239 491.176 L
908.812 492.939 L
910.312 494.029 L
912.166 494.029 L
913.666 492.939 L
914.239 491.176 LE
917.659 484.809 LS
917.086 483.046 L
915.586 481.956 L
913.732 481.956 L
912.232 483.046 L
911.659 484.809 L
912.232 486.572 L
913.732 487.662 L
915.586 487.662 L
917.086 486.572 L
917.659 484.809 LE
921.098 478.365 LS
920.525 476.601 L
919.025 475.511 L
917.17 475.511 L
915.67 476.601 L
915.098 478.365 L
915.67 480.128 L
917.17 481.218 L
919.025 481.218 L
920.525 480.128 L
921.098 478.365 LE
924.535 471.701 LS
923.962 469.938 L
922.462 468.848 L
920.607 468.848 L
919.107 469.938 L
918.534 471.701 L
919.107 473.464 L
920.607 474.554 L
922.462 474.554 L
923.962 473.464 L
924.535 471.701 LE
927.967 465.027 LS
927.395 463.264 L
925.895 462.174 L
924.04 462.174 L
922.54 463.264 L
921.967 465.027 L
922.54 466.791 L
924.04 467.88 L
925.895 467.88 L
927.395 466.791 L
927.967 465.027 LE
931.333 458.408 LS
930.76 456.645 L
929.26 455.555 L
927.406 455.555 L
925.906 456.645 L
925.333 458.408 L
925.906 460.172 L
927.406 461.261 L
929.26 461.261 L
930.76 460.172 L
931.333 458.408 LE
934.787 451.525 LS
934.214 449.762 L
932.714 448.672 L
930.86 448.672 L
929.36 449.762 L
928.787 451.525 L
929.36 453.289 L
930.86 454.378 L
932.714 454.378 L
934.214 453.289 L
934.787 451.525 LE
938.317 444.424 LS
937.744 442.66 L
936.244 441.571 L
934.39 441.571 L
932.89 442.66 L
932.317 444.424 L
932.89 446.187 L
934.39 447.277 L
936.244 447.277 L
937.744 446.187 L
938.317 444.424 LE
941.901 437.228 LS
941.328 435.465 L
939.828 434.375 L
937.974 434.375 L
936.474 435.465 L
935.901 437.228 L
936.474 438.992 L
937.974 440.081 L
939.828 440.081 L
941.328 438.992 L
941.901 437.228 LE
945.381 429.984 LS
944.808 428.221 L
943.308 427.131 L
941.453 427.131 L
939.953 428.221 L
939.381 429.984 L
939.953 431.748 L
941.453 432.838 L
943.308 432.838 L
944.808 431.748 L
945.381 429.984 LE
948.917 422.663 LS
948.344 420.899 L
946.844 419.81 L
944.99 419.81 L
943.49 420.899 L
942.917 422.663 L
943.49 424.426 L
944.99 425.516 L
946.844 425.516 L
948.344 424.426 L
948.917 422.663 LE
952.404 415.38 LS
951.831 413.616 L
950.331 412.526 L
948.477 412.526 L
946.977 413.616 L
946.404 415.38 L
946.977 417.143 L
948.477 418.233 L
950.331 418.233 L
951.831 417.143 L
952.404 415.38 LE
956 407.823 LS
955.427 406.06 L
953.927 404.97 L
952.073 404.97 L
950.573 406.06 L
950 407.823 L
950.573 409.586 L
952.073 410.676 L
953.927 410.676 L
955.427 409.586 L
956 407.823 LE
959.536 400.335 LS
958.963 398.572 L
957.463 397.482 L
955.609 397.482 L
954.109 398.572 L
953.536 400.335 L
954.109 402.099 L
955.609 403.189 L
957.463 403.189 L
958.963 402.099 L
959.536 400.335 LE
963.088 392.832 LS
962.515 391.069 L
961.015 389.979 L
959.161 389.979 L
957.661 391.069 L
957.088 392.832 L
957.661 394.596 L
959.161 395.686 L
961.015 395.686 L
962.515 394.596 L
963.088 392.832 LE
966.563 385.346 LS
965.99 383.583 L
964.49 382.493 L
962.636 382.493 L
961.136 383.583 L
960.563 385.346 L
961.136 387.11 L
962.636 388.199 L
964.49 388.199 L
965.99 387.11 L
966.563 385.346 LE
969.959 378.054 LS
969.386 376.291 L
967.886 375.201 L
966.031 375.201 L
964.531 376.291 L
963.959 378.054 L
964.531 379.818 L
966.031 380.907 L
967.886 380.907 L
969.386 379.818 L
969.959 378.054 LE
973.307 370.849 LS
972.734 369.085 L
971.234 367.996 L
969.38 367.996 L
967.88 369.085 L
967.307 370.849 L
967.88 372.612 L
969.38 373.702 L
971.234 373.702 L
972.734 372.612 L
973.307 370.849 LE
976.642 363.645 LS
976.069 361.882 L
974.569 360.792 L
972.715 360.792 L
971.215 361.882 L
970.642 363.645 L
971.215 365.408 L
972.715 366.498 L
974.569 366.498 L
976.069 365.408 L
976.642 363.645 LE
979.953 356.504 LS
979.38 354.741 L
977.88 353.651 L
976.026 353.651 L
974.526 354.741 L
973.953 356.504 L
974.526 358.267 L
976.026 359.357 L
977.88 359.357 L
979.38 358.267 L
979.953 356.504 LE
983.197 349.466 LS
982.624 347.703 L
981.124 346.613 L
979.27 346.613 L
977.77 347.703 L
977.197 349.466 L
977.77 351.229 L
979.27 352.319 L
981.124 352.319 L
982.624 351.229 L
983.197 349.466 LE
986.514 342.283 LS
985.941 340.52 L
984.441 339.43 L
982.587 339.43 L
981.087 340.52 L
980.514 342.283 L
981.087 344.046 L
982.587 345.136 L
984.441 345.136 L
985.941 344.046 L
986.514 342.283 LE
989.727 335.339 LS
989.154 333.575 L
987.654 332.485 L
985.8 332.485 L
984.3 333.575 L
983.727 335.339 L
984.3 337.102 L
985.8 338.192 L
987.654 338.192 L
989.154 337.102 L
989.727 335.339 LE
992.987 328.285 LS
992.414 326.522 L
990.914 325.432 L
989.06 325.432 L
987.56 326.522 L
986.987 328.285 L
987.56 330.049 L
989.06 331.138 L
990.914 331.138 L
992.414 330.049 L
992.987 328.285 LE
996.174 321.407 LS
995.601 319.643 L
994.101 318.554 L
992.247 318.554 L
990.747 319.643 L
990.174 321.407 L
990.747 323.17 L
992.247 324.26 L
994.101 324.26 L
995.601 323.17 L
996.174 321.407 LE
999.337 314.596 LS
998.764 312.832 L
997.264 311.742 L
995.409 311.742 L
993.909 312.832 L
993.336 314.596 L
993.909 316.359 L
995.409 317.449 L
997.264 317.449 L
998.764 316.359 L
999.337 314.596 LE
1002.52 307.764 LS
1001.95 306.001 L
1000.45 304.911 L
998.592 304.911 L
997.092 306.001 L
996.519 307.764 L
997.092 309.527 L
998.592 310.617 L
1000.45 310.617 L
1001.95 309.527 L
1002.52 307.764 LE
1005.75 300.857 LS
1005.18 299.094 L
1003.68 298.004 L
1001.82 298.004 L
1000.32 299.094 L
999.75 300.857 L
1000.32 302.621 L
1001.82 303.711 L
1003.68 303.711 L
1005.18 302.621 L
1005.75 300.857 LE
1008.95 294.052 LS
1008.37 292.289 L
1006.87 291.199 L
1005.02 291.199 L
1003.52 292.289 L
1002.95 294.052 L
1003.52 295.815 L
1005.02 296.905 L
1006.87 296.905 L
1008.37 295.815 L
1008.95 294.052 LE
1012.12 287.327 LS
1011.55 285.564 L
1010.05 284.474 L
1008.2 284.474 L
1006.7 285.564 L
1006.12 287.327 L
1006.7 289.09 L
1008.2 290.18 L
1010.05 290.18 L
1011.55 289.09 L
1012.12 287.327 LE
1015.33 280.564 LS
1014.76 278.801 L
1013.26 277.711 L
1011.41 277.711 L
1009.91 278.801 L
1009.33 280.564 L
1009.91 282.328 L
1011.41 283.417 L
1013.26 283.417 L
1014.76 282.328 L
1015.33 280.564 LE
1018.66 273.601 LS
1018.09 271.838 L
1016.59 270.748 L
1014.74 270.748 L
1013.24 271.838 L
1012.66 273.601 L
1013.24 275.365 L
1014.74 276.454 L
1016.59 276.454 L
1018.09 275.365 L
1018.66 273.601 LE
1022.05 266.578 LS
1021.47 264.815 L
1019.97 263.725 L
1018.12 263.725 L
1016.62 264.815 L
1016.05 266.578 L
1016.62 268.341 L
1018.12 269.431 L
1019.97 269.431 L
1021.47 268.341 L
1022.05 266.578 LE
1025.45 259.585 LS
1024.87 257.822 L
1023.37 256.732 L
1021.52 256.732 L
1020.02 257.822 L
1019.45 259.585 L
1020.02 261.348 L
1021.52 262.438 L
1023.37 262.438 L
1024.87 261.348 L
1025.45 259.585 LE
1028.9 252.549 LS
1028.33 250.785 L
1026.83 249.695 L
1024.98 249.695 L
1023.48 250.785 L
1022.9 252.549 L
1023.48 254.312 L
1024.98 255.402 L
1026.83 255.402 L
1028.33 254.312 L
1028.9 252.549 LE
1032.39 245.511 LS
1031.82 243.748 L
1030.32 242.658 L
1028.47 242.658 L
1026.97 243.748 L
1026.39 245.511 L
1026.97 247.275 L
1028.47 248.364 L
1030.32 248.364 L
1031.82 247.275 L
1032.39 245.511 LE
1035.86 238.602 LS
1035.29 236.839 L
1033.79 235.749 L
1031.93 235.749 L
1030.43 236.839 L
1029.86 238.602 L
1030.43 240.366 L
1031.93 241.455 L
1033.79 241.455 L
1035.29 240.366 L
1035.86 238.602 LE
1039.38 231.689 LS
1038.81 229.926 L
1037.31 228.836 L
1035.45 228.836 L
1033.95 229.926 L
1033.38 231.689 L
1033.95 233.452 L
1035.45 234.542 L
1037.31 234.542 L
1038.81 233.452 L
1039.38 231.689 LE
1042.91 224.836 LS
1042.34 223.072 L
1040.84 221.982 L
1038.98 221.982 L
1037.48 223.072 L
1036.91 224.836 L
1037.48 226.599 L
1038.98 227.689 L
1040.84 227.689 L
1042.34 226.599 L
1042.91 224.836 LE
1046.57 217.867 LS
1045.99 216.104 L
1044.49 215.014 L
1042.64 215.014 L
1041.14 216.104 L
1040.57 217.867 L
1041.14 219.631 L
1042.64 220.72 L
1044.49 220.72 L
1045.99 219.631 L
1046.57 217.867 LE
1050.25 210.939 LS
1049.67 209.175 L
1048.17 208.085 L
1046.32 208.085 L
1044.82 209.175 L
1044.25 210.939 L
1044.82 212.702 L
1046.32 213.792 L
1048.17 213.792 L
1049.67 212.702 L
1050.25 210.939 LE
1053.99 204.039 LS
1053.42 202.276 L
1051.92 201.186 L
1050.06 201.186 L
1048.56 202.276 L
1047.99 204.039 L
1048.56 205.803 L
1050.06 206.893 L
1051.92 206.893 L
1053.42 205.803 L
1053.99 204.039 LE
1057.74 197.262 LS
1057.17 195.499 L
1055.67 194.409 L
1053.81 194.409 L
1052.31 195.499 L
1051.74 197.262 L
1052.31 199.025 L
1053.81 200.115 L
1055.67 200.115 L
1057.17 199.025 L
1057.74 197.262 LE
1061.54 190.556 LS
1060.97 188.792 L
1059.47 187.702 L
1057.61 187.702 L
1056.11 188.792 L
1055.54 190.556 L
1056.11 192.319 L
1057.61 193.409 L
1059.47 193.409 L
1060.97 192.319 L
1061.54 190.556 LE
1065.44 183.812 LS
1064.86 182.048 L
1063.36 180.959 L
1061.51 180.959 L
1060.01 182.048 L
1059.44 183.812 L
1060.01 185.575 L
1061.51 186.665 L
1063.36 186.665 L
1064.86 185.575 L
1065.44 183.812 LE
1069.34 177.249 LS
1068.76 175.486 L
1067.26 174.396 L
1065.41 174.396 L
1063.91 175.486 L
1063.34 177.249 L
1063.91 179.013 L
1065.41 180.102 L
1067.26 180.102 L
1068.76 179.013 L
1069.34 177.249 LE
1073.23 170.872 LS
1072.66 169.109 L
1071.16 168.019 L
1069.3 168.019 L
1067.8 169.109 L
1067.23 170.872 L
1067.8 172.635 L
1069.3 173.725 L
1071.16 173.725 L
1072.66 172.635 L
1073.23 170.872 LE
1077.19 164.577 LS
1076.62 162.814 L
1075.12 161.724 L
1073.26 161.724 L
1071.76 162.814 L
1071.19 164.577 L
1071.76 166.34 L
1073.26 167.43 L
1075.12 167.43 L
1076.62 166.34 L
1077.19 164.577 LE
1081.23 158.355 LS
1080.66 156.592 L
1079.16 155.502 L
1077.3 155.502 L
1075.8 156.592 L
1075.23 158.355 L
1075.8 160.118 L
1077.3 161.208 L
1079.16 161.208 L
1080.66 160.118 L
1081.23 158.355 LE
1085.32 152.278 LS
1084.75 150.514 L
1083.25 149.424 L
1081.39 149.424 L
1079.89 150.514 L
1079.32 152.278 L
1079.89 154.041 L
1081.39 155.131 L
1083.25 155.131 L
1084.75 154.041 L
1085.32 152.278 LE
1089.34 146.533 LS
1088.77 144.769 L
1087.27 143.679 L
1085.41 143.679 L
1083.91 144.769 L
1083.34 146.533 L
1083.91 148.296 L
1085.41 149.386 L
1087.27 149.386 L
1088.77 148.296 L
1089.34 146.533 LE
1093.49 140.837 LS
1092.91 139.074 L
1091.41 137.984 L
1089.56 137.984 L
1088.06 139.074 L
1087.49 140.837 L
1088.06 142.601 L
1089.56 143.69 L
1091.41 143.69 L
1092.91 142.601 L
1093.49 140.837 LE
1097.73 135.292 LS
1097.15 133.529 L
1095.65 132.439 L
1093.8 132.439 L
1092.3 133.529 L
1091.73 135.292 L
1092.3 137.056 L
1093.8 138.146 L
1095.65 138.146 L
1097.15 137.056 L
1097.73 135.292 LE
1102.13 129.786 LS
1101.56 128.023 L
1100.06 126.933 L
1098.2 126.933 L
1096.7 128.023 L
1096.13 129.786 L
1096.7 131.55 L
1098.2 132.64 L
1100.06 132.64 L
1101.56 131.55 L
1102.13 129.786 LE
1106.66 124.479 LS
1106.09 122.716 L
1104.59 121.626 L
1102.73 121.626 L
1101.23 122.716 L
1100.66 124.479 L
1101.23 126.243 L
1102.73 127.333 L
1104.59 127.333 L
1106.09 126.243 L
1106.66 124.479 LE
1111.39 119.225 LS
1110.82 117.461 L
1109.32 116.371 L
1107.46 116.371 L
1105.96 117.461 L
1105.39 119.225 L
1105.96 120.988 L
1107.46 122.078 L
1109.32 122.078 L
1110.82 120.988 L
1111.39 119.225 LE
1116.4 114.09 LS
1115.83 112.327 L
1114.33 111.237 L
1112.48 111.237 L
1110.98 112.327 L
1110.4 114.09 L
1110.98 115.854 L
1112.48 116.943 L
1114.33 116.943 L
1115.83 115.854 L
1116.4 114.09 LE
1121.71 109.101 LS
1121.14 107.338 L
1119.64 106.248 L
1117.78 106.248 L
1116.28 107.338 L
1115.71 109.101 L
1116.28 110.865 L
1117.78 111.955 L
1119.64 111.955 L
1121.14 110.865 L
1121.71 109.101 LE
1127.34 104.35 LS
1126.76 102.587 L
1125.26 101.497 L
1123.41 101.497 L
1121.91 102.587 L
1121.34 104.35 L
1121.91 106.113 L
1123.41 107.203 L
1125.26 107.203 L
1126.76 106.113 L
1127.34 104.35 LE
1133.58 99.7277 LS
1133.01 97.9643 L
1131.51 96.8745 L
1129.66 96.8745 L
1128.16 97.9643 L
1127.58 99.7277 L
1128.16 101.491 L
1129.66 102.581 L
1131.51 102.581 L
1133.01 101.491 L
1133.58 99.7277 LE
1140.45 95.4582 LS
1139.88 93.6948 L
1138.38 92.605 L
1136.53 92.605 L
1135.03 93.6948 L
1134.45 95.4582 L
1135.03 97.2215 L
1136.53 98.3113 L
1138.38 98.3113 L
1139.88 97.2215 L
1140.45 95.4582 LE
1148.29 91.6553 LS
1147.72 89.892 L
1146.22 88.8022 L
1144.36 88.8022 L
1142.86 89.892 L
1142.29 91.6553 L
1142.86 93.4187 L
1144.36 94.5085 L
1146.22 94.5085 L
1147.72 93.4187 L
1148.29 91.6553 LE
1157.49 88.6653 LS
1156.91 86.902 L
1155.41 85.8122 L
1153.56 85.8122 L
1152.06 86.902 L
1151.49 88.6653 L
1152.06 90.4287 L
1153.56 91.5185 L
1155.41 91.5185 L
1156.91 90.4287 L
1157.49 88.6653 LE
1169.55 87.2196 LS
1168.98 85.4562 L
1167.48 84.3664 L
1165.62 84.3664 L
1164.12 85.4562 L
1163.55 87.2196 L
1164.12 88.9829 L
1165.62 90.0728 L
1167.48 90.0728 L
1168.98 88.9829 L
1169.55 87.2196 LE
1 1 1 C
1174.74 601.522 1174.74 648.53 1174.74 601.522 T
1174.74 601.522 1174.74 648.53 1174.74 648.53 T
1093.71 648.53 1174.74 648.53 1093.71 648.53 T
1093.71 648.53 1174.74 648.53 1174.74 648.53 T
1093.71 648.53 1174.74 601.522 1093.71 601.522 T
1093.71 648.53 1174.74 648.53 1174.74 601.522 T
0.5 W
[16 0] 0 setdash
0 0 0 C
1093.71 601.522 LS
1174.74 601.522 LE
1093.71 648.53 LS
1174.74 648.53 LE
1093.71 648.53 LS
1174.74 648.53 LE
1093.71 601.522 LS
1174.74 601.522 LE
1093.71 601.522 LS
1093.71 648.53 LE
1174.74 601.522 LS
1174.74 648.53 LE
1174.74 601.522 LS
1174.74 648.53 LE
1093.71 601.522 LS
1093.71 648.53 L
1093.71 648.53 LE
1174.74 648.53 LS
1174.74 648.53 LE
1174.74 601.522 LS
1174.74 601.522 LE
1093.71 601.522 LS
1093.71 601.522 LE
(ROULETTE) 1119.07 640.696 10 /Helvetica SCL
(ACF) 1119.07 625.026 10 /Helvetica SCL
(HMOPSO) 1119.07 609.357 10 /Helvetica SCL
[] 0 setdash
0.11 0.11 0.11 C
1109.39 625.026 LS
1108.81 623.263 L
1107.31 622.173 L
1105.46 622.173 L
1103.96 623.263 L
1103.39 625.026 L
1103.96 626.79 L
1105.46 627.879 L
1107.31 627.879 L
1108.81 626.79 L
1109.39 625.026 LE
0.3 0.3 0.3 C
1109.39 609.357 LS
1108.81 607.593 L
1107.31 606.503 L
1105.46 606.503 L
1103.96 607.593 L
1103.39 609.357 L
1103.96 611.12 L
1105.46 612.21 L
1107.31 612.21 L
1108.81 611.12 L
1109.39 609.357 LE
0.59 0.59 0.59 C
1109.39 640.696 LS
1108.81 638.932 L
1107.31 637.843 L
1105.46 637.843 L
1103.96 638.932 L
1103.39 640.696 L
1103.96 642.459 L
1105.46 643.549 L
1107.31 643.549 L
1108.81 642.459 L
1109.39 640.696 LE
grestore
showpage
cleartomark
%%PageTrailer
%%Trailer
end
%%EOF
