%!PS-Adobe-3.0 EPSF-3.0
%%Title: glps_renderer figure
%%Creator: GL2PS 1.3.8, (C) 1999-2012 C. Geuzaine
%%For: Octave
%%CreationDate: Thu May 14 21:44:07 2015
%%LanguageLevel: 3
%%DocumentData: Clean7Bit
%%Pages: 1
%%BoundingBox: 0 0 576 432
%%EndComments
%%BeginProlog
/gl2psdict 64 dict def gl2psdict begin
0 setlinecap 0 setlinejoin
/tryPS3shading false def % set to false to force subdivision
/rThreshold 0.064 def % red component subdivision threshold
/gThreshold 0.034 def % green component subdivision threshold
/bThreshold 0.1 def % blue component subdivision threshold
/BD { bind def } bind def
/C  { setrgbcolor } BD
/G  { 0.082 mul exch 0.6094 mul add exch 0.3086 mul add neg 1.0 add setgray } BD
/W  { setlinewidth } BD
/FC { findfont exch /SH exch def SH scalefont setfont } BD
/SW { dup stringwidth pop } BD
/S  { FC moveto show } BD
/SBC{ FC moveto SW -2 div 0 rmoveto show } BD
/SBR{ FC moveto SW neg 0 rmoveto show } BD
/SCL{ FC moveto 0 SH -2 div rmoveto show } BD
/SCC{ FC moveto SW -2 div SH -2 div rmoveto show } BD
/SCR{ FC moveto SW neg SH -2 div rmoveto show } BD
/STL{ FC moveto 0 SH neg rmoveto show } BD
/STC{ FC moveto SW -2 div SH neg rmoveto show } BD
/STR{ FC moveto SW neg SH neg rmoveto show } BD
/FCT { FC translate 0 0 } BD
/SR  { gsave FCT moveto rotate show grestore } BD
/SBCR{ gsave FCT moveto rotate SW -2 div 0 rmoveto show grestore } BD
/SBRR{ gsave FCT moveto rotate SW neg 0 rmoveto show grestore } BD
/SCLR{ gsave FCT moveto rotate 0 SH -2 div rmoveto show grestore} BD
/SCCR{ gsave FCT moveto rotate SW -2 div SH -2 div rmoveto show grestore} BD
/SCRR{ gsave FCT moveto rotate SW neg SH -2 div rmoveto show grestore} BD
/STLR{ gsave FCT moveto rotate 0 SH neg rmoveto show grestore } BD
/STCR{ gsave FCT moveto rotate SW -2 div SH neg rmoveto show grestore } BD
/STRR{ gsave FCT moveto rotate SW neg SH neg rmoveto show grestore } BD
/P  { newpath 0.0 360.0 arc closepath fill } BD
/LS { newpath moveto } BD
/L  { lineto } BD
/LE { lineto stroke } BD
/T  { newpath moveto lineto lineto closepath fill } BD
/STshfill {
      /b1 exch def /g1 exch def /r1 exch def /y1 exch def /x1 exch def
      /b2 exch def /g2 exch def /r2 exch def /y2 exch def /x2 exch def
      /b3 exch def /g3 exch def /r3 exch def /y3 exch def /x3 exch def
      gsave << /ShadingType 4 /ColorSpace [/DeviceRGB]
      /DataSource [ 0 x1 y1 r1 g1 b1 0 x2 y2 r2 g2 b2 0 x3 y3 r3 g3 b3 ] >>
      shfill grestore } BD
/Tm { 3 -1 roll 8 -1 roll 13 -1 roll add add 3 div
      3 -1 roll 7 -1 roll 11 -1 roll add add 3 div
      3 -1 roll 6 -1 roll 9 -1 roll add add 3 div C T } BD
/STsplit {
      4 index 15 index add 0.5 mul
      4 index 15 index add 0.5 mul
      4 index 15 index add 0.5 mul
      4 index 15 index add 0.5 mul
      4 index 15 index add 0.5 mul
      5 copy 5 copy 25 15 roll
      9 index 30 index add 0.5 mul
      9 index 30 index add 0.5 mul
      9 index 30 index add 0.5 mul
      9 index 30 index add 0.5 mul
      9 index 30 index add 0.5 mul
      5 copy 5 copy 35 5 roll 25 5 roll 15 5 roll
      4 index 10 index add 0.5 mul
      4 index 10 index add 0.5 mul
      4 index 10 index add 0.5 mul
      4 index 10 index add 0.5 mul
      4 index 10 index add 0.5 mul
      5 copy 5 copy 40 5 roll 25 5 roll 15 5 roll 25 5 roll
      STnoshfill STnoshfill STnoshfill STnoshfill } BD
/STnoshfill {
      2 index 8 index sub abs rThreshold gt
      { STsplit }
      { 1 index 7 index sub abs gThreshold gt
        { STsplit }
        { dup 6 index sub abs bThreshold gt
          { STsplit }
          { 2 index 13 index sub abs rThreshold gt
            { STsplit }
            { 1 index 12 index sub abs gThreshold gt
              { STsplit }
              { dup 11 index sub abs bThreshold gt
                { STsplit }
                { 7 index 13 index sub abs rThreshold gt
                  { STsplit }
                  { 6 index 12 index sub abs gThreshold gt
                    { STsplit }
                    { 5 index 11 index sub abs bThreshold gt
                      { STsplit }
                      { Tm }
                      ifelse }
                    ifelse }
                  ifelse }
                ifelse }
              ifelse }
            ifelse }
          ifelse }
        ifelse }
      ifelse } BD
tryPS3shading
{ /shfill where
  { /ST { STshfill } BD }
  { /ST { STnoshfill } BD }
  ifelse }
{ /ST { STnoshfill } BD }
ifelse
end
%%EndProlog
%%BeginSetup
/DeviceRGB setcolorspace
gl2psdict begin
%%EndSetup
%%Page: 1 1
%%BeginPageSetup
%%EndPageSetup
mark
gsave
1.0 1.0 scale
1 1 1 C
521.28 47.52 521.28 399.6 521.28 47.52 T
521.28 47.52 521.28 399.6 521.28 399.6 T
74.88 399.6 521.28 399.6 74.88 399.6 T
74.88 399.6 521.28 399.6 521.28 399.6 T
74.88 399.6 521.28 47.52 74.88 47.52 T
74.88 399.6 521.28 399.6 521.28 47.52 T
0.5 W
[16 0] 0 setdash
0 0 0 C
74.88 47.52 LS
521.28 47.52 LE
74.88 399.6 LS
521.28 399.6 LE
74.88 399.6 LS
521.28 399.6 LE
74.88 47.52 LS
521.28 47.52 LE
74.88 47.52 LS
74.88 399.6 LE
521.28 47.52 LS
521.28 399.6 LE
521.28 47.52 LS
521.28 399.6 LE
74.88 47.52 LS
74.88 399.6 L
74.88 399.6 LE
521.28 399.6 LS
521.28 399.6 LE
521.28 47.52 LS
521.28 47.52 LE
74.88 47.52 LS
74.88 47.52 L
74.88 51.985 LE
74.88 399.6 LS
74.88 395.135 LE
164.16 47.52 LS
164.16 51.985 LE
164.16 399.6 LS
164.16 395.135 LE
253.44 47.52 LS
253.44 51.985 LE
253.44 399.6 LS
253.44 395.135 LE
342.72 47.52 LS
342.72 51.985 LE
342.72 399.6 LS
342.72 395.135 LE
432 47.52 LS
432 51.985 LE
432 399.6 LS
432 395.135 LE
521.28 47.52 LS
521.28 51.985 LE
521.28 399.6 LS
521.28 395.135 LE
(0) 74.88 42.5189 10 /Helvetica STC
(0.5) 164.16 42.5189 10 /Helvetica STC
(1) 253.44 42.5189 10 /Helvetica STC
(1.5) 342.72 42.5189 10 /Helvetica STC
(2) 432 42.5189 10 /Helvetica STC
(2.5) 521.28 42.5189 10 /Helvetica STC
74.88 47.52 LS
79.348 47.52 LE
521.28 47.52 LS
516.812 47.52 LE
74.88 117.936 LS
79.348 117.936 LE
521.28 117.936 LS
516.812 117.936 LE
74.88 188.352 LS
79.348 188.352 LE
521.28 188.352 LS
516.812 188.352 LE
74.88 258.768 LS
79.348 258.768 LE
521.28 258.768 LS
516.812 258.768 LE
74.88 329.184 LS
79.348 329.184 LE
521.28 329.184 LS
516.812 329.184 LE
74.88 399.6 LS
79.348 399.6 LE
521.28 399.6 LS
516.812 399.6 LE
(0) 69.8755 47.52 10 /Helvetica SCR
(1) 69.8755 117.936 10 /Helvetica SCR
(2) 69.8755 188.352 10 /Helvetica SCR
(3) 69.8755 258.768 10 /Helvetica SCR
(4) 69.8755 329.184 10 /Helvetica SCR
(5) 69.8755 399.6 10 /Helvetica SCR
0 0 1 C
476.065 64.407 474.683 62.5049 475.683 63.2314 T
476.065 64.407 473.447 62.5049 474.683 62.5049 T
476.065 64.407 472.447 63.2314 473.447 62.5049 T
476.065 64.407 472.065 64.407 472.447 63.2314 T
476.065 64.407 472.447 65.5826 472.065 64.407 T
476.065 64.407 473.447 66.3091 472.447 65.5826 T
476.065 64.407 474.683 66.3091 473.447 66.3091 T
476.065 64.407 475.683 65.5826 474.683 66.3091 T
476.065 64.407 474.683 62.5049 475.683 63.2314 T
476.065 64.407 473.447 62.5049 474.683 62.5049 T
476.065 64.407 472.447 63.2314 473.447 62.5049 T
476.065 64.407 472.065 64.407 472.447 63.2314 T
476.065 64.407 472.447 65.5826 472.065 64.407 T
476.065 64.407 473.447 66.3091 472.447 65.5826 T
476.065 64.407 474.683 66.3091 473.447 66.3091 T
476.065 64.407 475.683 65.5826 474.683 66.3091 T
476.065 64.407 474.683 62.5049 475.683 63.2314 T
476.065 64.407 473.447 62.5049 474.683 62.5049 T
476.065 64.407 472.447 63.2314 473.447 62.5049 T
476.065 64.407 472.065 64.407 472.447 63.2314 T
476.065 64.407 472.447 65.5826 472.065 64.407 T
476.065 64.407 473.447 66.3091 472.447 65.5826 T
476.065 64.407 474.683 66.3091 473.447 66.3091 T
476.065 64.407 475.683 65.5826 474.683 66.3091 T
476.065 64.407 474.683 62.5049 475.683 63.2314 T
476.065 64.407 473.447 62.5049 474.683 62.5049 T
476.065 64.407 472.447 63.2314 473.447 62.5049 T
476.065 64.407 472.065 64.407 472.447 63.2314 T
476.065 64.407 472.447 65.5826 472.065 64.407 T
476.065 64.407 473.447 66.3091 472.447 65.5826 T
476.065 64.407 474.683 66.3091 473.447 66.3091 T
476.065 64.407 475.683 65.5826 474.683 66.3091 T
476.065 64.407 474.683 62.5049 475.683 63.2314 T
476.065 64.407 473.447 62.5049 474.683 62.5049 T
476.065 64.407 472.447 63.2314 473.447 62.5049 T
476.065 64.407 472.065 64.407 472.447 63.2314 T
476.065 64.407 472.447 65.5826 472.065 64.407 T
476.065 64.407 473.447 66.3091 472.447 65.5826 T
476.065 64.407 474.683 66.3091 473.447 66.3091 T
476.065 64.407 475.683 65.5826 474.683 66.3091 T
476.065 64.407 474.683 62.5049 475.683 63.2314 T
476.065 64.407 473.447 62.5049 474.683 62.5049 T
476.065 64.407 472.447 63.2314 473.447 62.5049 T
476.065 64.407 472.065 64.407 472.447 63.2314 T
476.065 64.407 472.447 65.5826 472.065 64.407 T
476.065 64.407 473.447 66.3091 472.447 65.5826 T
476.065 64.407 474.683 66.3091 473.447 66.3091 T
476.065 64.407 475.683 65.5826 474.683 66.3091 T
476.065 64.407 474.683 62.5049 475.683 63.2314 T
476.065 64.407 473.447 62.5049 474.683 62.5049 T
476.065 64.407 472.447 63.2314 473.447 62.5049 T
476.065 64.407 472.065 64.407 472.447 63.2314 T
476.065 64.407 472.447 65.5826 472.065 64.407 T
476.065 64.407 473.447 66.3091 472.447 65.5826 T
476.065 64.407 474.683 66.3091 473.447 66.3091 T
476.065 64.407 475.683 65.5826 474.683 66.3091 T
476.065 64.407 474.683 62.5049 475.683 63.2314 T
476.065 64.407 473.447 62.5049 474.683 62.5049 T
476.065 64.407 472.447 63.2314 473.447 62.5049 T
476.065 64.407 472.065 64.407 472.447 63.2314 T
476.065 64.407 472.447 65.5826 472.065 64.407 T
476.065 64.407 473.447 66.3091 472.447 65.5826 T
476.065 64.407 474.683 66.3091 473.447 66.3091 T
476.065 64.407 475.683 65.5826 474.683 66.3091 T
476.065 64.407 474.683 62.5049 475.683 63.2314 T
476.065 64.407 473.447 62.5049 474.683 62.5049 T
476.065 64.407 472.447 63.2314 473.447 62.5049 T
476.065 64.407 472.065 64.407 472.447 63.2314 T
476.065 64.407 472.447 65.5826 472.065 64.407 T
476.065 64.407 473.447 66.3091 472.447 65.5826 T
476.065 64.407 474.683 66.3091 473.447 66.3091 T
476.065 64.407 475.683 65.5826 474.683 66.3091 T
476.065 64.407 474.683 62.5049 475.683 63.2314 T
476.065 64.407 473.447 62.5049 474.683 62.5049 T
476.065 64.407 472.447 63.2314 473.447 62.5049 T
476.065 64.407 472.065 64.407 472.447 63.2314 T
476.065 64.407 472.447 65.5826 472.065 64.407 T
476.065 64.407 473.447 66.3091 472.447 65.5826 T
476.065 64.407 474.683 66.3091 473.447 66.3091 T
476.065 64.407 475.683 65.5826 474.683 66.3091 T
462.261 65.1913 460.879 63.2891 461.879 64.0157 T
462.261 65.1913 459.643 63.2891 460.879 63.2891 T
462.261 65.1913 458.643 64.0157 459.643 63.2891 T
462.261 65.1913 458.261 65.1913 458.643 64.0157 T
462.261 65.1913 458.643 66.3668 458.261 65.1913 T
462.261 65.1913 459.643 67.0934 458.643 66.3668 T
462.261 65.1913 460.879 67.0934 459.643 67.0934 T
462.261 65.1913 461.879 66.3668 460.879 67.0934 T
455.331 66.8338 453.949 64.9317 454.949 65.6582 T
455.331 66.8338 452.713 64.9317 453.949 64.9317 T
455.331 66.8338 451.713 65.6582 452.713 64.9317 T
455.331 66.8338 451.331 66.8338 451.713 65.6582 T
455.331 66.8338 451.713 68.0093 451.331 66.8338 T
455.331 66.8338 452.713 68.7359 451.713 68.0093 T
455.331 66.8338 453.949 68.7359 452.713 68.7359 T
455.331 66.8338 454.949 68.0093 453.949 68.7359 T
450.781 68.5836 449.399 66.6815 450.399 67.408 T
450.781 68.5836 448.163 66.6815 449.399 66.6815 T
450.781 68.5836 447.163 67.408 448.163 66.6815 T
450.781 68.5836 446.781 68.5836 447.163 67.408 T
450.781 68.5836 447.163 69.7592 446.781 68.5836 T
450.781 68.5836 448.163 70.4857 447.163 69.7592 T
450.781 68.5836 449.399 70.4857 448.163 70.4857 T
450.781 68.5836 450.399 69.7592 449.399 70.4857 T
447.163 70.3878 445.781 68.4857 446.781 69.2123 T
447.163 70.3878 444.545 68.4857 445.781 68.4857 T
447.163 70.3878 443.545 69.2123 444.545 68.4857 T
447.163 70.3878 443.163 70.3878 443.545 69.2123 T
447.163 70.3878 443.545 71.5634 443.163 70.3878 T
447.163 70.3878 444.545 72.2899 443.545 71.5634 T
447.163 70.3878 445.781 72.2899 444.545 72.2899 T
447.163 70.3878 446.781 71.5634 445.781 72.2899 T
444.042 72.2419 442.66 70.3398 443.66 71.0664 T
444.042 72.2419 441.424 70.3398 442.66 70.3398 T
444.042 72.2419 440.424 71.0664 441.424 70.3398 T
444.042 72.2419 440.042 72.2419 440.424 71.0664 T
444.042 72.2419 440.424 73.4175 440.042 72.2419 T
444.042 72.2419 441.424 74.1441 440.424 73.4175 T
444.042 72.2419 442.66 74.1441 441.424 74.1441 T
444.042 72.2419 443.66 73.4175 442.66 74.1441 T
441.253 74.1264 439.871 72.2242 440.871 72.9508 T
441.253 74.1264 438.635 72.2242 439.871 72.2242 T
441.253 74.1264 437.635 72.9508 438.635 72.2242 T
441.253 74.1264 437.253 74.1264 437.635 72.9508 T
441.253 74.1264 437.635 75.3019 437.253 74.1264 T
441.253 74.1264 438.635 76.0285 437.635 75.3019 T
441.253 74.1264 439.871 76.0285 438.635 76.0285 T
441.253 74.1264 440.871 75.3019 439.871 76.0285 T
438.669 76.0522 437.287 74.1501 438.287 74.8766 T
438.669 76.0522 436.051 74.1501 437.287 74.1501 T
438.669 76.0522 435.051 74.8766 436.051 74.1501 T
438.669 76.0522 434.669 76.0522 435.051 74.8766 T
438.669 76.0522 435.051 77.2278 434.669 76.0522 T
438.669 76.0522 436.051 77.9543 435.051 77.2278 T
438.669 76.0522 437.287 77.9543 436.051 77.9543 T
438.669 76.0522 438.287 77.2278 437.287 77.9543 T
436.227 78.0207 434.845 76.1186 435.845 76.8452 T
436.227 78.0207 433.609 76.1186 434.845 76.1186 T
436.227 78.0207 432.609 76.8452 433.609 76.1186 T
436.227 78.0207 432.227 78.0207 432.609 76.8452 T
436.227 78.0207 432.609 79.1963 432.227 78.0207 T
436.227 78.0207 433.609 79.9229 432.609 79.1963 T
436.227 78.0207 434.845 79.9229 433.609 79.9229 T
436.227 78.0207 435.845 79.1963 434.845 79.9229 T
433.904 80.0146 432.522 78.1125 433.522 78.839 T
433.904 80.0146 431.286 78.1125 432.522 78.1125 T
433.904 80.0146 430.286 78.839 431.286 78.1125 T
433.904 80.0146 429.904 80.0146 430.286 78.839 T
433.904 80.0146 430.286 81.1901 429.904 80.0146 T
433.904 80.0146 431.286 81.9167 430.286 81.1901 T
433.904 80.0146 432.522 81.9167 431.286 81.9167 T
433.904 80.0146 433.522 81.1901 432.522 81.9167 T
431.652 82.0471 430.27 80.145 431.27 80.8715 T
431.652 82.0471 429.034 80.145 430.27 80.145 T
431.652 82.0471 428.034 80.8715 429.034 80.145 T
431.652 82.0471 427.652 82.0471 428.034 80.8715 T
431.652 82.0471 428.034 83.2227 427.652 82.0471 T
431.652 82.0471 429.034 83.9492 428.034 83.2227 T
431.652 82.0471 430.27 83.9492 429.034 83.9492 T
431.652 82.0471 431.27 83.2227 430.27 83.9492 T
429.465 84.1021 428.083 82.2 429.083 82.9265 T
429.465 84.1021 426.847 82.2 428.083 82.2 T
429.465 84.1021 425.847 82.9265 426.847 82.2 T
429.465 84.1021 425.465 84.1021 425.847 82.9265 T
429.465 84.1021 425.847 85.2777 425.465 84.1021 T
429.465 84.1021 426.847 86.0042 425.847 85.2777 T
429.465 84.1021 428.083 86.0042 426.847 86.0042 T
429.465 84.1021 429.083 85.2777 428.083 86.0042 T
427.272 86.2284 425.89 84.3263 426.89 85.0528 T
427.272 86.2284 424.654 84.3263 425.89 84.3263 T
427.272 86.2284 423.654 85.0528 424.654 84.3263 T
427.272 86.2284 423.272 86.2284 423.654 85.0528 T
427.272 86.2284 423.654 87.404 423.272 86.2284 T
427.272 86.2284 424.654 88.1305 423.654 87.404 T
427.272 86.2284 425.89 88.1305 424.654 88.1305 T
427.272 86.2284 426.89 87.404 425.89 88.1305 T
425.14 88.3424 423.758 86.4403 424.758 87.1668 T
425.14 88.3424 422.522 86.4403 423.758 86.4403 T
425.14 88.3424 421.522 87.1668 422.522 86.4403 T
425.14 88.3424 421.14 88.3424 421.522 87.1668 T
425.14 88.3424 421.522 89.518 421.14 88.3424 T
425.14 88.3424 422.522 90.2445 421.522 89.518 T
425.14 88.3424 423.758 90.2445 422.522 90.2445 T
425.14 88.3424 424.758 89.518 423.758 90.2445 T
422.972 90.5261 421.59 88.624 422.59 89.3505 T
422.972 90.5261 420.354 88.624 421.59 88.624 T
422.972 90.5261 419.354 89.3505 420.354 88.624 T
422.972 90.5261 418.972 90.5261 419.354 89.3505 T
422.972 90.5261 419.354 91.7017 418.972 90.5261 T
422.972 90.5261 420.354 92.4282 419.354 91.7017 T
422.972 90.5261 421.59 92.4282 420.354 92.4282 T
422.972 90.5261 422.59 91.7017 421.59 92.4282 T
420.801 92.7312 419.419 90.829 420.419 91.5556 T
420.801 92.7312 418.183 90.829 419.419 90.829 T
420.801 92.7312 417.183 91.5556 418.183 90.829 T
420.801 92.7312 416.801 92.7312 417.183 91.5556 T
420.801 92.7312 417.183 93.9067 416.801 92.7312 T
420.801 92.7312 418.183 94.6333 417.183 93.9067 T
420.801 92.7312 419.419 94.6333 418.183 94.6333 T
420.801 92.7312 420.419 93.9067 419.419 94.6333 T
418.597 94.9695 417.215 93.0674 418.215 93.7939 T
418.597 94.9695 415.979 93.0674 417.215 93.0674 T
418.597 94.9695 414.979 93.7939 415.979 93.0674 T
418.597 94.9695 414.597 94.9695 414.979 93.7939 T
418.597 94.9695 414.979 96.1451 414.597 94.9695 T
418.597 94.9695 415.979 96.8716 414.979 96.1451 T
418.597 94.9695 417.215 96.8716 415.979 96.8716 T
418.597 94.9695 418.215 96.1451 417.215 96.8716 T
416.346 97.2389 414.964 95.3368 415.964 96.0633 T
416.346 97.2389 413.728 95.3368 414.964 95.3368 T
416.346 97.2389 412.728 96.0633 413.728 95.3368 T
416.346 97.2389 412.346 97.2389 412.728 96.0633 T
416.346 97.2389 412.728 98.4145 412.346 97.2389 T
416.346 97.2389 413.728 99.141 412.728 98.4145 T
416.346 97.2389 414.964 99.141 413.728 99.141 T
416.346 97.2389 415.964 98.4145 414.964 99.141 T
414.017 99.5476 412.635 97.6455 413.635 98.3721 T
414.017 99.5476 411.399 97.6455 412.635 97.6455 T
414.017 99.5476 410.399 98.3721 411.399 97.6455 T
414.017 99.5476 410.017 99.5476 410.399 98.3721 T
414.017 99.5476 410.399 100.723 410.017 99.5476 T
414.017 99.5476 411.399 101.45 410.399 100.723 T
414.017 99.5476 412.635 101.45 411.399 101.45 T
414.017 99.5476 413.635 100.723 412.635 101.45 T
411.609 101.877 410.227 99.9745 411.227 100.701 T
411.609 101.877 408.991 99.9745 410.227 99.9745 T
411.609 101.877 407.991 100.701 408.991 99.9745 T
411.609 101.877 407.609 101.877 407.991 100.701 T
411.609 101.877 407.991 103.052 407.609 101.877 T
411.609 101.877 408.991 103.779 407.991 103.052 T
411.609 101.877 410.227 103.779 408.991 103.779 T
411.609 101.877 411.227 103.052 410.227 103.779 T
409.087 104.226 407.705 102.324 408.705 103.051 T
409.087 104.226 406.469 102.324 407.705 102.324 T
409.087 104.226 405.469 103.051 406.469 102.324 T
409.087 104.226 405.087 104.226 405.469 103.051 T
409.087 104.226 405.469 105.402 405.087 104.226 T
409.087 104.226 406.469 106.128 405.469 105.402 T
409.087 104.226 407.705 106.128 406.469 106.128 T
409.087 104.226 408.705 105.402 407.705 106.128 T
406.416 106.591 405.034 104.689 406.034 105.415 T
406.416 106.591 403.798 104.689 405.034 104.689 T
406.416 106.591 402.798 105.415 403.798 104.689 T
406.416 106.591 402.416 106.591 402.798 105.415 T
406.416 106.591 402.798 107.766 402.416 106.591 T
406.416 106.591 403.798 108.493 402.798 107.766 T
406.416 106.591 405.034 108.493 403.798 108.493 T
406.416 106.591 406.034 107.766 405.034 108.493 T
403.556 108.958 402.174 107.056 403.174 107.782 T
403.556 108.958 400.937 107.056 402.174 107.056 T
403.556 108.958 399.937 107.782 400.937 107.056 T
403.556 108.958 399.556 108.958 399.937 107.782 T
403.556 108.958 399.937 110.133 399.556 108.958 T
403.556 108.958 400.937 110.86 399.937 110.133 T
403.556 108.958 402.174 110.86 400.937 110.86 T
403.556 108.958 403.174 110.133 402.174 110.86 T
400.431 111.317 399.049 109.415 400.049 110.141 T
400.431 111.317 397.813 109.415 399.049 109.415 T
400.431 111.317 396.813 110.141 397.813 109.415 T
400.431 111.317 396.431 111.317 396.813 110.141 T
400.431 111.317 396.813 112.492 396.431 111.317 T
400.431 111.317 397.813 113.219 396.813 112.492 T
400.431 111.317 399.049 113.219 397.813 113.219 T
400.431 111.317 400.049 112.492 399.049 113.219 T
396.958 113.634 395.576 111.731 396.576 112.458 T
396.958 113.634 394.34 111.731 395.576 111.731 T
396.958 113.634 393.34 112.458 394.34 111.731 T
396.958 113.634 392.958 113.634 393.34 112.458 T
396.958 113.634 393.34 114.809 392.958 113.634 T
396.958 113.634 394.34 115.536 393.34 114.809 T
396.958 113.634 395.576 115.536 394.34 115.536 T
396.958 113.634 396.576 114.809 395.576 115.536 T
392.958 115.875 391.576 113.972 392.576 114.699 T
392.958 115.875 390.34 113.972 391.576 113.972 T
392.958 115.875 389.34 114.699 390.34 113.972 T
392.958 115.875 388.958 115.875 389.34 114.699 T
392.958 115.875 389.34 117.05 388.958 115.875 T
392.958 115.875 390.34 117.777 389.34 117.05 T
392.958 115.875 391.576 117.777 390.34 117.777 T
392.958 115.875 392.576 117.05 391.576 117.777 T
388.148 117.95 386.766 116.048 387.766 116.774 T
388.148 117.95 385.53 116.048 386.766 116.048 T
388.148 117.95 384.53 116.774 385.53 116.048 T
388.148 117.95 384.148 117.95 384.53 116.774 T
388.148 117.95 384.53 119.126 384.148 117.95 T
388.148 117.95 385.53 119.852 384.53 119.126 T
388.148 117.95 386.766 119.852 385.53 119.852 T
388.148 117.95 387.766 119.126 386.766 119.852 T
381.884 119.688 380.502 117.786 381.502 118.512 T
381.884 119.688 379.266 117.786 380.502 117.786 T
381.884 119.688 378.266 118.512 379.266 117.786 T
381.884 119.688 377.884 119.688 378.266 118.512 T
381.884 119.688 378.266 120.864 377.884 119.688 T
381.884 119.688 379.266 121.59 378.266 120.864 T
381.884 119.688 380.502 121.59 379.266 121.59 T
381.884 119.688 381.502 120.864 380.502 121.59 T
372.658 120.668 371.276 118.766 372.276 119.493 T
372.658 120.668 370.039 118.766 371.276 118.766 T
372.658 120.668 369.039 119.493 370.039 118.766 T
372.658 120.668 368.658 120.668 369.039 119.493 T
372.658 120.668 369.039 121.844 368.658 120.668 T
372.658 120.668 370.039 122.57 369.039 121.844 T
372.658 120.668 371.276 122.57 370.039 122.57 T
372.658 120.668 372.276 121.844 371.276 122.57 T
360.519 120.804 359.137 118.902 360.137 119.628 T
360.519 120.804 357.901 118.902 359.137 118.902 T
360.519 120.804 356.901 119.628 357.901 118.902 T
360.519 120.804 356.519 120.804 356.901 119.628 T
360.519 120.804 356.901 121.98 356.519 120.804 T
360.519 120.804 357.901 122.706 356.901 121.98 T
360.519 120.804 359.137 122.706 357.901 122.706 T
360.519 120.804 360.137 121.98 359.137 122.706 T
351.773 121.693 350.391 119.791 351.391 120.517 T
351.773 121.693 349.155 119.791 350.391 119.791 T
351.773 121.693 348.155 120.517 349.155 119.791 T
351.773 121.693 347.773 121.693 348.155 120.517 T
351.773 121.693 348.155 122.868 347.773 121.693 T
351.773 121.693 349.155 123.595 348.155 122.868 T
351.773 121.693 350.391 123.595 349.155 123.595 T
351.773 121.693 351.391 122.868 350.391 123.595 T
345.874 123.291 344.492 121.389 345.492 122.116 T
345.874 123.291 343.255 121.389 344.492 121.389 T
345.874 123.291 342.255 122.116 343.255 121.389 T
345.874 123.291 341.874 123.291 342.255 122.116 T
345.874 123.291 342.255 124.467 341.874 123.291 T
345.874 123.291 343.255 125.193 342.255 124.467 T
345.874 123.291 344.492 125.193 343.255 125.193 T
345.874 123.291 345.492 124.467 344.492 125.193 T
341.308 125.255 339.926 123.353 340.926 124.079 T
341.308 125.255 338.69 123.353 339.926 123.353 T
341.308 125.255 337.69 124.079 338.69 123.353 T
341.308 125.255 337.308 125.255 337.69 124.079 T
341.308 125.255 337.69 126.431 337.308 125.255 T
341.308 125.255 338.69 127.157 337.69 126.431 T
341.308 125.255 339.926 127.157 338.69 127.157 T
341.308 125.255 340.926 126.431 339.926 127.157 T
337.46 127.446 336.078 125.544 337.078 126.271 T
337.46 127.446 334.842 125.544 336.078 125.544 T
337.46 127.446 333.842 126.271 334.842 125.544 T
337.46 127.446 333.46 127.446 333.842 126.271 T
337.46 127.446 333.842 128.622 333.46 127.446 T
337.46 127.446 334.842 129.348 333.842 128.622 T
337.46 127.446 336.078 129.348 334.842 129.348 T
337.46 127.446 337.078 128.622 336.078 129.348 T
334.051 129.802 332.669 127.9 333.669 128.626 T
334.051 129.802 331.433 127.9 332.669 127.9 T
334.051 129.802 330.433 128.626 331.433 127.9 T
334.051 129.802 330.051 129.802 330.433 128.626 T
334.051 129.802 330.433 130.977 330.051 129.802 T
334.051 129.802 331.433 131.704 330.433 130.977 T
334.051 129.802 332.669 131.704 331.433 131.704 T
334.051 129.802 333.669 130.977 332.669 131.704 T
330.924 132.289 329.543 130.387 330.543 131.113 T
330.924 132.289 328.306 130.387 329.543 130.387 T
330.924 132.289 327.306 131.113 328.306 130.387 T
330.924 132.289 326.924 132.289 327.306 131.113 T
330.924 132.289 327.306 133.464 326.924 132.289 T
330.924 132.289 328.306 134.191 327.306 133.464 T
330.924 132.289 329.543 134.191 328.306 134.191 T
330.924 132.289 330.543 133.464 329.543 134.191 T
327.984 134.895 326.602 132.993 327.602 133.719 T
327.984 134.895 325.366 132.993 326.602 132.993 T
327.984 134.895 324.366 133.719 325.366 132.993 T
327.984 134.895 323.984 134.895 324.366 133.719 T
327.984 134.895 324.366 136.071 323.984 134.895 T
327.984 134.895 325.366 136.797 324.366 136.071 T
327.984 134.895 326.602 136.797 325.366 136.797 T
327.984 134.895 327.602 136.071 326.602 136.797 T
325.169 137.601 323.788 135.699 324.788 136.426 T
325.169 137.601 322.551 135.699 323.788 135.699 T
325.169 137.601 321.551 136.426 322.551 135.699 T
325.169 137.601 321.169 137.601 321.551 136.426 T
325.169 137.601 321.551 138.777 321.169 137.601 T
325.169 137.601 322.551 139.503 321.551 138.777 T
325.169 137.601 323.788 139.503 322.551 139.503 T
325.169 137.601 324.788 138.777 323.788 139.503 T
322.434 140.402 321.052 138.499 322.052 139.226 T
322.434 140.402 319.816 138.499 321.052 138.499 T
322.434 140.402 318.816 139.226 319.816 138.499 T
322.434 140.402 318.434 140.402 318.816 139.226 T
322.434 140.402 318.816 141.577 318.434 140.402 T
322.434 140.402 319.816 142.304 318.816 141.577 T
322.434 140.402 321.052 142.304 319.816 142.304 T
322.434 140.402 322.052 141.577 321.052 142.304 T
319.736 143.292 318.354 141.39 319.354 142.117 T
319.736 143.292 317.118 141.39 318.354 141.39 T
319.736 143.292 316.118 142.117 317.118 141.39 T
319.736 143.292 315.736 143.292 316.118 142.117 T
319.736 143.292 316.118 144.468 315.736 143.292 T
319.736 143.292 317.118 145.194 316.118 144.468 T
319.736 143.292 318.354 145.194 317.118 145.194 T
319.736 143.292 319.354 144.468 318.354 145.194 T
317.047 146.262 315.665 144.359 316.665 145.086 T
317.047 146.262 314.429 144.359 315.665 144.359 T
317.047 146.262 313.429 145.086 314.429 144.359 T
317.047 146.262 313.047 146.262 313.429 145.086 T
317.047 146.262 313.429 147.437 313.047 146.262 T
317.047 146.262 314.429 148.164 313.429 147.437 T
317.047 146.262 315.665 148.164 314.429 148.164 T
317.047 146.262 316.665 147.437 315.665 148.164 T
314.34 149.304 312.958 147.402 313.958 148.129 T
314.34 149.304 311.722 147.402 312.958 147.402 T
314.34 149.304 310.722 148.129 311.722 147.402 T
314.34 149.304 310.34 149.304 310.722 148.129 T
314.34 149.304 310.722 150.48 310.34 149.304 T
314.34 149.304 311.722 151.206 310.722 150.48 T
314.34 149.304 312.958 151.206 311.722 151.206 T
314.34 149.304 313.958 150.48 312.958 151.206 T
311.577 152.414 310.196 150.512 311.196 151.239 T
311.577 152.414 308.959 150.512 310.196 150.512 T
311.577 152.414 307.959 151.239 308.959 150.512 T
311.577 152.414 307.577 152.414 307.959 151.239 T
311.577 152.414 307.959 153.59 307.577 152.414 T
311.577 152.414 308.959 154.317 307.959 153.59 T
311.577 152.414 310.196 154.317 308.959 154.317 T
311.577 152.414 311.196 153.59 310.196 154.317 T
308.735 155.575 307.353 153.673 308.353 154.399 T
308.735 155.575 306.117 153.673 307.353 153.673 T
308.735 155.575 305.117 154.399 306.117 153.673 T
308.735 155.575 304.735 155.575 305.117 154.399 T
308.735 155.575 305.117 156.75 304.735 155.575 T
308.735 155.575 306.117 157.477 305.117 156.75 T
308.735 155.575 307.353 157.477 306.117 157.477 T
308.735 155.575 308.353 156.75 307.353 157.477 T
305.767 158.774 304.385 156.872 305.385 157.599 T
305.767 158.774 303.149 156.872 304.385 156.872 T
305.767 158.774 302.149 157.599 303.149 156.872 T
305.767 158.774 301.767 158.774 302.149 157.599 T
305.767 158.774 302.149 159.95 301.767 158.774 T
305.767 158.774 303.149 160.677 302.149 159.95 T
305.767 158.774 304.385 160.677 303.149 160.677 T
305.767 158.774 305.385 159.95 304.385 160.677 T
302.633 161.983 301.251 160.081 302.251 160.808 T
302.633 161.983 300.015 160.081 301.251 160.081 T
302.633 161.983 299.015 160.808 300.015 160.081 T
302.633 161.983 298.633 161.983 299.015 160.808 T
302.633 161.983 299.015 163.159 298.633 161.983 T
302.633 161.983 300.015 163.885 299.015 163.159 T
302.633 161.983 301.251 163.885 300.015 163.885 T
302.633 161.983 302.251 163.159 301.251 163.885 T
299.271 165.167 297.889 163.265 298.889 163.991 T
299.271 165.167 296.653 163.265 297.889 163.265 T
299.271 165.167 295.653 163.991 296.653 163.265 T
299.271 165.167 295.271 165.167 295.653 163.991 T
299.271 165.167 295.653 166.342 295.271 165.167 T
299.271 165.167 296.653 167.069 295.653 166.342 T
299.271 165.167 297.889 167.069 296.653 167.069 T
299.271 165.167 298.889 166.342 297.889 167.069 T
295.591 168.268 294.209 166.366 295.209 167.092 T
295.591 168.268 292.973 166.366 294.209 166.366 T
295.591 168.268 291.973 167.092 292.973 166.366 T
295.591 168.268 291.591 168.268 291.973 167.092 T
295.591 168.268 291.973 169.444 291.591 168.268 T
295.591 168.268 292.973 170.17 291.973 169.444 T
295.591 168.268 294.209 170.17 292.973 170.17 T
295.591 168.268 295.209 169.444 294.209 170.17 T
291.463 171.198 290.081 169.296 291.081 170.022 T
291.463 171.198 288.845 169.296 290.081 169.296 T
291.463 171.198 287.845 170.022 288.845 169.296 T
291.463 171.198 287.463 171.198 287.845 170.022 T
291.463 171.198 287.845 172.374 287.463 171.198 T
291.463 171.198 288.845 173.1 287.845 172.374 T
291.463 171.198 290.081 173.1 288.845 173.1 T
291.463 171.198 291.081 172.374 290.081 173.1 T
286.686 173.805 285.304 171.903 286.304 172.629 T
286.686 173.805 284.068 171.903 285.304 171.903 T
286.686 173.805 283.068 172.629 284.068 171.903 T
286.686 173.805 282.686 173.805 283.068 172.629 T
286.686 173.805 283.068 174.98 282.686 173.805 T
286.686 173.805 284.068 175.707 283.068 174.98 T
286.686 173.805 285.304 175.707 284.068 175.707 T
286.686 173.805 286.304 174.98 285.304 175.707 T
280.928 175.833 279.546 173.931 280.546 174.657 T
280.928 175.833 278.31 173.931 279.546 173.931 T
280.928 175.833 277.31 174.657 278.31 173.931 T
280.928 175.833 276.928 175.833 277.31 174.657 T
280.928 175.833 277.31 177.008 276.928 175.833 T
280.928 175.833 278.31 177.735 277.31 177.008 T
280.928 175.833 279.546 177.735 278.31 177.735 T
280.928 175.833 280.546 177.008 279.546 177.735 T
273.757 176.919 272.375 175.017 273.375 175.744 T
273.757 176.919 271.139 175.017 272.375 175.017 T
273.757 176.919 270.139 175.744 271.139 175.017 T
273.757 176.919 269.757 176.919 270.139 175.744 T
273.757 176.919 270.139 178.095 269.757 176.919 T
273.757 176.919 271.139 178.821 270.139 178.095 T
273.757 176.919 272.375 178.821 271.139 178.821 T
273.757 176.919 273.375 178.095 272.375 178.821 T
265.377 177.074 263.995 175.172 264.995 175.899 T
265.377 177.074 262.759 175.172 263.995 175.172 T
265.377 177.074 261.759 175.899 262.759 175.172 T
265.377 177.074 261.377 177.074 261.759 175.899 T
265.377 177.074 261.759 178.25 261.377 177.074 T
265.377 177.074 262.759 178.976 261.759 178.25 T
265.377 177.074 263.995 178.976 262.759 178.976 T
265.377 177.074 264.995 178.25 263.995 178.976 T
257.601 177.478 256.219 175.576 257.219 176.303 T
257.601 177.478 254.983 175.576 256.219 175.576 T
257.601 177.478 253.983 176.303 254.983 175.576 T
257.601 177.478 253.601 177.478 253.983 176.303 T
257.601 177.478 253.983 178.654 253.601 177.478 T
257.601 177.478 254.983 179.38 253.983 178.654 T
257.601 177.478 256.219 179.38 254.983 179.38 T
257.601 177.478 257.219 178.654 256.219 179.38 T
251.417 178.92 250.035 177.018 251.035 177.744 T
251.417 178.92 248.798 177.018 250.035 177.018 T
251.417 178.92 247.798 177.744 248.798 177.018 T
251.417 178.92 247.417 178.92 247.798 177.744 T
251.417 178.92 247.798 180.095 247.417 178.92 T
251.417 178.92 248.798 180.822 247.798 180.095 T
251.417 178.92 250.035 180.822 248.798 180.822 T
251.417 178.92 251.035 180.095 250.035 180.822 T
246.421 181.239 245.039 179.336 246.039 180.063 T
246.421 181.239 243.803 179.336 245.039 179.336 T
246.421 181.239 242.803 180.063 243.803 179.336 T
246.421 181.239 242.421 181.239 242.803 180.063 T
246.421 181.239 242.803 182.414 242.421 181.239 T
246.421 181.239 243.803 183.141 242.803 182.414 T
246.421 181.239 245.039 183.141 243.803 183.141 T
246.421 181.239 246.039 182.414 245.039 183.141 T
242.158 184.185 240.776 182.283 241.776 183.009 T
242.158 184.185 239.54 182.283 240.776 182.283 T
242.158 184.185 238.54 183.009 239.54 182.283 T
242.158 184.185 238.158 184.185 238.54 183.009 T
242.158 184.185 238.54 185.36 238.158 184.185 T
242.158 184.185 239.54 186.087 238.54 185.36 T
242.158 184.185 240.776 186.087 239.54 186.087 T
242.158 184.185 241.776 185.36 240.776 186.087 T
238.343 187.603 236.961 185.701 237.961 186.428 T
238.343 187.603 235.724 185.701 236.961 185.701 T
238.343 187.603 234.724 186.428 235.724 185.701 T
238.343 187.603 234.343 187.603 234.724 186.428 T
238.343 187.603 234.724 188.779 234.343 187.603 T
238.343 187.603 235.724 189.506 234.724 188.779 T
238.343 187.603 236.961 189.506 235.724 189.506 T
238.343 187.603 237.961 188.779 236.961 189.506 T
234.801 191.402 233.419 189.5 234.419 190.226 T
234.801 191.402 232.183 189.5 233.419 189.5 T
234.801 191.402 231.183 190.226 232.183 189.5 T
234.801 191.402 230.801 191.402 231.183 190.226 T
234.801 191.402 231.183 192.577 230.801 191.402 T
234.801 191.402 232.183 193.304 231.183 192.577 T
234.801 191.402 233.419 193.304 232.183 193.304 T
234.801 191.402 234.419 192.577 233.419 193.304 T
231.417 195.522 230.035 193.62 231.035 194.346 T
231.417 195.522 228.799 193.62 230.035 193.62 T
231.417 195.522 227.799 194.346 228.799 193.62 T
231.417 195.522 227.417 195.522 227.799 194.346 T
231.417 195.522 227.799 196.697 227.417 195.522 T
231.417 195.522 228.799 197.424 227.799 196.697 T
231.417 195.522 230.035 197.424 228.799 197.424 T
231.417 195.522 231.035 196.697 230.035 197.424 T
228.101 199.92 226.719 198.018 227.719 198.744 T
228.101 199.92 225.483 198.018 226.719 198.018 T
228.101 199.92 224.483 198.744 225.483 198.018 T
228.101 199.92 224.101 199.92 224.483 198.744 T
228.101 199.92 224.483 201.096 224.101 199.92 T
228.101 199.92 225.483 201.822 224.483 201.096 T
228.101 199.92 226.719 201.822 225.483 201.822 T
228.101 199.92 227.719 201.096 226.719 201.822 T
224.783 204.553 223.401 202.65 224.401 203.377 T
224.783 204.553 222.165 202.65 223.401 202.65 T
224.783 204.553 221.165 203.377 222.165 202.65 T
224.783 204.553 220.783 204.553 221.165 203.377 T
224.783 204.553 221.165 205.728 220.783 204.553 T
224.783 204.553 222.165 206.455 221.165 205.728 T
224.783 204.553 223.401 206.455 222.165 206.455 T
224.783 204.553 224.401 205.728 223.401 206.455 T
221.394 209.371 220.012 207.469 221.012 208.196 T
221.394 209.371 218.776 207.469 220.012 207.469 T
221.394 209.371 217.776 208.196 218.776 207.469 T
221.394 209.371 217.394 209.371 217.776 208.196 T
221.394 209.371 217.776 210.547 217.394 209.371 T
221.394 209.371 218.776 211.273 217.776 210.547 T
221.394 209.371 220.012 211.273 218.776 211.273 T
221.394 209.371 221.012 210.547 220.012 211.273 T
217.858 214.304 216.476 212.402 217.476 213.128 T
217.858 214.304 215.24 212.402 216.476 212.402 T
217.858 214.304 214.24 213.128 215.24 212.402 T
217.858 214.304 213.858 214.304 214.24 213.128 T
217.858 214.304 214.24 215.479 213.858 214.304 T
217.858 214.304 215.24 216.206 214.24 215.479 T
217.858 214.304 216.476 216.206 215.24 216.206 T
217.858 214.304 217.476 215.479 216.476 216.206 T
214.081 219.246 212.699 217.343 213.699 218.07 T
214.081 219.246 211.463 217.343 212.699 217.343 T
214.081 219.246 210.463 218.07 211.463 217.343 T
214.081 219.246 210.081 219.246 210.463 218.07 T
214.081 219.246 210.463 220.421 210.081 219.246 T
214.081 219.246 211.463 221.148 210.463 220.421 T
214.081 219.246 212.699 221.148 211.463 221.148 T
214.081 219.246 213.699 220.421 212.699 221.148 T
209.936 224.017 208.554 222.115 209.554 222.841 T
209.936 224.017 207.318 222.115 208.554 222.115 T
209.936 224.017 206.318 222.841 207.318 222.115 T
209.936 224.017 205.936 224.017 206.318 222.841 T
209.936 224.017 206.318 225.193 205.936 224.017 T
209.936 224.017 207.318 225.919 206.318 225.193 T
209.936 224.017 208.554 225.919 207.318 225.919 T
209.936 224.017 209.554 225.193 208.554 225.919 T
205.242 228.306 203.86 226.404 204.86 227.13 T
205.242 228.306 202.624 226.404 203.86 226.404 T
205.242 228.306 201.624 227.13 202.624 226.404 T
205.242 228.306 201.242 228.306 201.624 227.13 T
205.242 228.306 201.624 229.482 201.242 228.306 T
205.242 228.306 202.624 230.208 201.624 229.482 T
205.242 228.306 203.86 230.208 202.624 230.208 T
205.242 228.306 204.86 229.482 203.86 230.208 T
199.72 231.602 198.338 229.7 199.338 230.427 T
199.72 231.602 197.102 229.7 198.338 229.7 T
199.72 231.602 196.102 230.427 197.102 229.7 T
199.72 231.602 195.72 231.602 196.102 230.427 T
199.72 231.602 196.102 232.778 195.72 231.602 T
199.72 231.602 197.102 233.504 196.102 232.778 T
199.72 231.602 198.338 233.504 197.102 233.504 T
199.72 231.602 199.338 232.778 198.338 233.504 T
193.085 233.237 191.703 231.334 192.703 232.061 T
193.085 233.237 190.467 231.334 191.703 231.334 T
193.085 233.237 189.467 232.061 190.467 231.334 T
193.085 233.237 189.085 233.237 189.467 232.061 T
193.085 233.237 189.467 234.412 189.085 233.237 T
193.085 233.237 190.467 235.139 189.467 234.412 T
193.085 233.237 191.703 235.139 190.467 235.139 T
193.085 233.237 192.703 234.412 191.703 235.139 T
185.665 233.42 184.283 231.518 185.283 232.245 T
185.665 233.42 183.047 231.518 184.283 231.518 T
185.665 233.42 182.047 232.245 183.047 231.518 T
185.665 233.42 181.665 233.42 182.047 232.245 T
185.665 233.42 182.047 234.596 181.665 233.42 T
185.665 233.42 183.047 235.322 182.047 234.596 T
185.665 233.42 184.283 235.322 183.047 235.322 T
185.665 233.42 185.283 234.596 184.283 235.322 T
178.863 234.415 177.482 232.513 178.482 233.239 T
178.863 234.415 176.245 232.513 177.482 232.513 T
178.863 234.415 175.245 233.239 176.245 232.513 T
178.863 234.415 174.863 234.415 175.245 233.239 T
178.863 234.415 175.245 235.59 174.863 234.415 T
178.863 234.415 176.245 236.317 175.245 235.59 T
178.863 234.415 177.482 236.317 176.245 236.317 T
178.863 234.415 178.482 235.59 177.482 236.317 T
173.301 237.639 171.919 235.737 172.919 236.463 T
173.301 237.639 170.683 235.737 171.919 235.737 T
173.301 237.639 169.683 236.463 170.683 235.737 T
173.301 237.639 169.301 237.639 169.683 236.463 T
173.301 237.639 169.683 238.815 169.301 237.639 T
173.301 237.639 170.683 239.541 169.683 238.815 T
173.301 237.639 171.919 239.541 170.683 239.541 T
173.301 237.639 172.919 238.815 171.919 239.541 T
168.616 242.872 167.234 240.97 168.234 241.697 T
168.616 242.872 165.998 240.97 167.234 240.97 T
168.616 242.872 164.998 241.697 165.998 240.97 T
168.616 242.872 164.616 242.872 164.998 241.697 T
168.616 242.872 164.998 244.048 164.616 242.872 T
168.616 242.872 165.998 244.774 164.998 244.048 T
168.616 242.872 167.234 244.774 165.998 244.774 T
168.616 242.872 168.234 244.048 167.234 244.774 T
164.404 249.684 163.022 247.782 164.022 248.508 T
164.404 249.684 161.786 247.782 163.022 247.782 T
164.404 249.684 160.786 248.508 161.786 247.782 T
164.404 249.684 160.404 249.684 160.786 248.508 T
164.404 249.684 160.786 250.859 160.404 249.684 T
164.404 249.684 161.786 251.586 160.786 250.859 T
164.404 249.684 163.022 251.586 161.786 251.586 T
164.404 249.684 164.022 250.859 163.022 251.586 T
160.378 257.75 158.996 255.848 159.996 256.575 T
160.378 257.75 157.759 255.848 158.996 255.848 T
160.378 257.75 156.759 256.575 157.759 255.848 T
160.378 257.75 156.378 257.75 156.759 256.575 T
160.378 257.75 156.759 258.926 156.378 257.75 T
160.378 257.75 157.759 259.653 156.759 258.926 T
160.378 257.75 158.996 259.653 157.759 259.653 T
160.378 257.75 159.996 258.926 158.996 259.653 T
156.3 266.754 154.918 264.852 155.918 265.578 T
156.3 266.754 153.682 264.852 154.918 264.852 T
156.3 266.754 152.682 265.578 153.682 264.852 T
156.3 266.754 152.3 266.754 152.682 265.578 T
156.3 266.754 152.682 267.929 152.3 266.754 T
156.3 266.754 153.682 268.656 152.682 267.929 T
156.3 266.754 154.918 268.656 153.682 268.656 T
156.3 266.754 155.918 267.929 154.918 268.656 T
151.91 276.157 150.528 274.254 151.528 274.981 T
151.91 276.157 149.292 274.254 150.528 274.254 T
151.91 276.157 148.292 274.981 149.292 274.254 T
151.91 276.157 147.91 276.157 148.292 274.981 T
151.91 276.157 148.292 277.332 147.91 276.157 T
151.91 276.157 149.292 278.059 148.292 277.332 T
151.91 276.157 150.528 278.059 149.292 278.059 T
151.91 276.157 151.528 277.332 150.528 278.059 T
146.819 284.708 145.437 282.806 146.437 283.532 T
146.819 284.708 144.201 282.806 145.437 282.806 T
146.819 284.708 143.201 283.532 144.201 282.806 T
146.819 284.708 142.819 284.708 143.201 283.532 T
146.819 284.708 143.201 285.883 142.819 284.708 T
146.819 284.708 144.201 286.61 143.201 285.883 T
146.819 284.708 145.437 286.61 144.201 286.61 T
146.819 284.708 146.437 285.883 145.437 286.61 T
140.354 289.49 138.972 287.588 139.972 288.315 T
140.354 289.49 137.736 287.588 138.972 287.588 T
140.354 289.49 136.736 288.315 137.736 287.588 T
140.354 289.49 136.354 289.49 136.736 288.315 T
140.354 289.49 136.736 290.666 136.354 289.49 T
140.354 289.49 137.736 291.393 136.736 290.666 T
140.354 289.49 138.972 291.393 137.736 291.393 T
140.354 289.49 139.972 290.666 138.972 291.393 T
132.906 290.557 131.524 288.654 132.524 289.381 T
132.906 290.557 130.288 288.654 131.524 288.654 T
132.906 290.557 129.288 289.381 130.288 288.654 T
132.906 290.557 128.906 290.557 129.288 289.381 T
132.906 290.557 129.288 291.732 128.906 290.557 T
132.906 290.557 130.288 292.459 129.288 291.732 T
132.906 290.557 131.524 292.459 130.288 292.459 T
132.906 290.557 132.524 291.732 131.524 292.459 T
127.436 301.005 126.054 299.103 127.054 299.829 T
127.436 301.005 124.818 299.103 126.054 299.103 T
127.436 301.005 123.818 299.829 124.818 299.103 T
127.436 301.005 123.436 301.005 123.818 299.829 T
127.436 301.005 123.818 302.181 123.436 301.005 T
127.436 301.005 124.818 302.907 123.818 302.181 T
127.436 301.005 126.054 302.907 124.818 302.907 T
127.436 301.005 127.054 302.181 126.054 302.907 T
123.388 322.634 122.006 320.732 123.006 321.458 T
123.388 322.634 120.77 320.732 122.006 320.732 T
123.388 322.634 119.77 321.458 120.77 320.732 T
123.388 322.634 119.388 322.634 119.77 321.458 T
123.388 322.634 119.77 323.809 119.388 322.634 T
123.388 322.634 120.77 324.536 119.77 323.809 T
123.388 322.634 122.006 324.536 120.77 324.536 T
123.388 322.634 123.006 323.809 122.006 324.536 T
119.704 346.07 118.322 344.168 119.322 344.895 T
119.704 346.07 117.086 344.168 118.322 344.168 T
119.704 346.07 116.086 344.895 117.086 344.168 T
119.704 346.07 115.704 346.07 116.086 344.895 T
119.704 346.07 116.086 347.246 115.704 346.07 T
119.704 346.07 117.086 347.973 116.086 347.246 T
119.704 346.07 118.322 347.973 117.086 347.973 T
119.704 346.07 119.322 347.246 118.322 347.973 T
119.704 346.07 118.322 344.168 119.322 344.895 T
119.704 346.07 117.086 344.168 118.322 344.168 T
119.704 346.07 116.086 344.895 117.086 344.168 T
119.704 346.07 115.704 346.07 116.086 344.895 T
119.704 346.07 116.086 347.246 115.704 346.07 T
119.704 346.07 117.086 347.973 116.086 347.246 T
119.704 346.07 118.322 347.973 117.086 347.973 T
119.704 346.07 119.322 347.246 118.322 347.973 T
119.704 346.07 118.322 344.168 119.322 344.895 T
119.704 346.07 117.086 344.168 118.322 344.168 T
119.704 346.07 116.086 344.895 117.086 344.168 T
119.704 346.07 115.704 346.07 116.086 344.895 T
119.704 346.07 116.086 347.246 115.704 346.07 T
119.704 346.07 117.086 347.973 116.086 347.246 T
119.704 346.07 118.322 347.973 117.086 347.973 T
119.704 346.07 119.322 347.246 118.322 347.973 T
119.704 346.07 118.322 344.168 119.322 344.895 T
119.704 346.07 117.086 344.168 118.322 344.168 T
119.704 346.07 116.086 344.895 117.086 344.168 T
119.704 346.07 115.704 346.07 116.086 344.895 T
119.704 346.07 116.086 347.246 115.704 346.07 T
119.704 346.07 117.086 347.973 116.086 347.246 T
119.704 346.07 118.322 347.973 117.086 347.973 T
119.704 346.07 119.322 347.246 118.322 347.973 T
119.704 346.07 118.322 344.168 119.322 344.895 T
119.704 346.07 117.086 344.168 118.322 344.168 T
119.704 346.07 116.086 344.895 117.086 344.168 T
119.704 346.07 115.704 346.07 116.086 344.895 T
119.704 346.07 116.086 347.246 115.704 346.07 T
119.704 346.07 117.086 347.973 116.086 347.246 T
119.704 346.07 118.322 347.973 117.086 347.973 T
119.704 346.07 119.322 347.246 118.322 347.973 T
119.704 346.07 118.322 344.168 119.322 344.895 T
119.704 346.07 117.086 344.168 118.322 344.168 T
119.704 346.07 116.086 344.895 117.086 344.168 T
119.704 346.07 115.704 346.07 116.086 344.895 T
119.704 346.07 116.086 347.246 115.704 346.07 T
119.704 346.07 117.086 347.973 116.086 347.246 T
119.704 346.07 118.322 347.973 117.086 347.973 T
119.704 346.07 119.322 347.246 118.322 347.973 T
grestore
showpage
cleartomark
%%PageTrailer
%%Trailer
end
%%EOF
