%!PS-Adobe-3.0 EPSF-3.0
%%Title: glps_renderer figure
%%Creator: GL2PS 1.3.8, (C) 1999-2012 C. Geuzaine
%%For: Octave
%%CreationDate: Thu May 14 21:44:07 2015
%%LanguageLevel: 3
%%DocumentData: Clean7Bit
%%Pages: 1
%%BoundingBox: 0 0 560 420
%%EndComments
%%BeginProlog
/gl2psdict 64 dict def gl2psdict begin
0 setlinecap 0 setlinejoin
/tryPS3shading false def % set to false to force subdivision
/rThreshold 0.064 def % red component subdivision threshold
/gThreshold 0.034 def % green component subdivision threshold
/bThreshold 0.1 def % blue component subdivision threshold
/BD { bind def } bind def
/C  { setrgbcolor } BD
/G  { 0.082 mul exch 0.6094 mul add exch 0.3086 mul add neg 1.0 add setgray } BD
/W  { setlinewidth } BD
/FC { findfont exch /SH exch def SH scalefont setfont } BD
/SW { dup stringwidth pop } BD
/S  { FC moveto show } BD
/SBC{ FC moveto SW -2 div 0 rmoveto show } BD
/SBR{ FC moveto SW neg 0 rmoveto show } BD
/SCL{ FC moveto 0 SH -2 div rmoveto show } BD
/SCC{ FC moveto SW -2 div SH -2 div rmoveto show } BD
/SCR{ FC moveto SW neg SH -2 div rmoveto show } BD
/STL{ FC moveto 0 SH neg rmoveto show } BD
/STC{ FC moveto SW -2 div SH neg rmoveto show } BD
/STR{ FC moveto SW neg SH neg rmoveto show } BD
/FCT { FC translate 0 0 } BD
/SR  { gsave FCT moveto rotate show grestore } BD
/SBCR{ gsave FCT moveto rotate SW -2 div 0 rmoveto show grestore } BD
/SBRR{ gsave FCT moveto rotate SW neg 0 rmoveto show grestore } BD
/SCLR{ gsave FCT moveto rotate 0 SH -2 div rmoveto show grestore} BD
/SCCR{ gsave FCT moveto rotate SW -2 div SH -2 div rmoveto show grestore} BD
/SCRR{ gsave FCT moveto rotate SW neg SH -2 div rmoveto show grestore} BD
/STLR{ gsave FCT moveto rotate 0 SH neg rmoveto show grestore } BD
/STCR{ gsave FCT moveto rotate SW -2 div SH neg rmoveto show grestore } BD
/STRR{ gsave FCT moveto rotate SW neg SH neg rmoveto show grestore } BD
/P  { newpath 0.0 360.0 arc closepath fill } BD
/LS { newpath moveto } BD
/L  { lineto } BD
/LE { lineto stroke } BD
/T  { newpath moveto lineto lineto closepath fill } BD
/STshfill {
      /b1 exch def /g1 exch def /r1 exch def /y1 exch def /x1 exch def
      /b2 exch def /g2 exch def /r2 exch def /y2 exch def /x2 exch def
      /b3 exch def /g3 exch def /r3 exch def /y3 exch def /x3 exch def
      gsave << /ShadingType 4 /ColorSpace [/DeviceRGB]
      /DataSource [ 0 x1 y1 r1 g1 b1 0 x2 y2 r2 g2 b2 0 x3 y3 r3 g3 b3 ] >>
      shfill grestore } BD
/Tm { 3 -1 roll 8 -1 roll 13 -1 roll add add 3 div
      3 -1 roll 7 -1 roll 11 -1 roll add add 3 div
      3 -1 roll 6 -1 roll 9 -1 roll add add 3 div C T } BD
/STsplit {
      4 index 15 index add 0.5 mul
      4 index 15 index add 0.5 mul
      4 index 15 index add 0.5 mul
      4 index 15 index add 0.5 mul
      4 index 15 index add 0.5 mul
      5 copy 5 copy 25 15 roll
      9 index 30 index add 0.5 mul
      9 index 30 index add 0.5 mul
      9 index 30 index add 0.5 mul
      9 index 30 index add 0.5 mul
      9 index 30 index add 0.5 mul
      5 copy 5 copy 35 5 roll 25 5 roll 15 5 roll
      4 index 10 index add 0.5 mul
      4 index 10 index add 0.5 mul
      4 index 10 index add 0.5 mul
      4 index 10 index add 0.5 mul
      4 index 10 index add 0.5 mul
      5 copy 5 copy 40 5 roll 25 5 roll 15 5 roll 25 5 roll
      STnoshfill STnoshfill STnoshfill STnoshfill } BD
/STnoshfill {
      2 index 8 index sub abs rThreshold gt
      { STsplit }
      { 1 index 7 index sub abs gThreshold gt
        { STsplit }
        { dup 6 index sub abs bThreshold gt
          { STsplit }
          { 2 index 13 index sub abs rThreshold gt
            { STsplit }
            { 1 index 12 index sub abs gThreshold gt
              { STsplit }
              { dup 11 index sub abs bThreshold gt
                { STsplit }
                { 7 index 13 index sub abs rThreshold gt
                  { STsplit }
                  { 6 index 12 index sub abs gThreshold gt
                    { STsplit }
                    { 5 index 11 index sub abs bThreshold gt
                      { STsplit }
                      { Tm }
                      ifelse }
                    ifelse }
                  ifelse }
                ifelse }
              ifelse }
            ifelse }
          ifelse }
        ifelse }
      ifelse } BD
tryPS3shading
{ /shfill where
  { /ST { STshfill } BD }
  { /ST { STnoshfill } BD }
  ifelse }
{ /ST { STnoshfill } BD }
ifelse
end
%%EndProlog
%%BeginSetup
/DeviceRGB setcolorspace
gl2psdict begin
%%EndSetup
%%Page: 1 1
%%BeginPageSetup
%%EndPageSetup
mark
gsave
1.0 1.0 scale
1 1 1 C
72.8 132.847 506.8 112.686 261.231 46.2 T
72.8 132.847 318.369 199.333 506.8 112.686 T
506.8 112.686 318.369 388.5 506.8 301.853 T
506.8 112.686 318.369 199.333 318.369 388.5 T
0.5 W
[16 0] 0 setdash
0 0 0 C
70.0399 134.116 LS
62.9306 137.385 LE
(0) 58.3825 139.476 10 /Helvetica SBR
70.0399 161.14 LS
62.9306 164.409 LE
(1) 58.3825 166.5 10 /Helvetica SBR
70.0399 188.164 LS
62.9306 191.433 LE
(2) 58.3825 193.524 10 /Helvetica SBR
70.0399 215.187 LS
62.9306 218.456 LE
(3) 58.3825 220.548 10 /Helvetica SBR
70.0399 242.211 LS
62.9306 245.48 LE
(4) 58.3825 247.572 10 /Helvetica SBR
70.0399 269.235 LS
62.9306 272.504 LE
(5) 58.3825 274.596 10 /Helvetica SBR
70.0399 296.259 LS
62.9306 299.528 LE
(6) 58.3825 301.619 10 /Helvetica SBR
70.0399 323.283 LS
62.9306 326.552 LE
(7) 58.3825 328.643 10 /Helvetica SBR
1 1 1 C
72.8 132.847 318.369 388.5 72.8 322.014 T
72.8 132.847 318.369 199.333 318.369 388.5 T
0 0 0 C
79.8572 129.601 LS
72.8 132.847 LE
470.014 129.602 LS
318.369 199.333 LE
72.8 132.847 LS
318.369 199.333 LE
72.8 132.847 LS
62.339 130.014 LE
318.369 388.5 LS
318.369 199.333 LE
70.0399 134.116 LS
72.8 132.847 LE
72.8 142.582 LS
72.8 132.847 LE
332.886 381.824 LS
318.369 388.5 LE
293.712 381.824 LS
318.369 388.5 LE
0 0 1 C
97.8543 133.608 96.4724 131.706 97.4723 132.432 T
97.8543 133.608 95.2363 131.706 96.4724 131.706 T
97.8543 133.608 94.2363 132.432 95.2363 131.706 T
97.8543 133.608 93.8543 133.608 94.2363 132.432 T
97.8543 133.608 94.2363 134.783 93.8543 133.608 T
97.8543 133.608 95.2363 135.51 94.2363 134.783 T
97.8543 133.608 96.4724 135.51 95.2363 135.51 T
97.8543 133.608 97.4723 134.783 96.4724 135.51 T
0 0 0 C
(4) 57.5182 128.709 10 /Helvetica STR
95.6332 122.347 LS
79.8572 129.601 LE
70.0399 161.14 LS
72.8 159.87 LE
72.8 164.345 LS
72.8 142.582 LE
485.79 122.347 LS
470.014 129.602 LE
348.662 374.57 LS
332.886 381.824 LE
266.918 374.57 LS
293.712 381.824 LE
0 0 1 C
109.389 133.455 108.008 131.553 109.008 132.28 T
109.389 133.455 106.771 131.553 108.008 131.553 T
109.389 133.455 105.771 132.28 106.771 131.553 T
109.389 133.455 105.389 133.455 105.771 132.28 T
109.389 133.455 105.771 134.631 105.389 133.455 T
109.389 133.455 106.771 135.358 105.771 134.631 T
109.389 133.455 108.008 135.358 106.771 135.358 T
109.389 133.455 109.008 134.631 108.008 135.358 T
0 0 0 C
106.347 117.421 LS
95.6332 122.347 LE
72.8 179.124 LS
72.8 164.345 LE
496.504 117.421 LS
485.79 122.347 LE
359.376 369.644 LS
348.662 374.57 LE
248.722 369.644 LS
266.918 374.57 LE
0 0 1 C
112.513 141.675 111.132 139.772 112.132 140.499 T
112.513 141.675 109.895 139.772 111.132 139.772 T
112.513 141.675 108.895 140.499 109.895 139.772 T
112.513 141.675 108.513 141.675 108.895 140.499 T
112.513 141.675 108.895 142.85 108.513 141.675 T
112.513 141.675 109.895 143.577 108.895 142.85 T
112.513 141.675 111.132 143.577 109.895 143.577 T
112.513 141.675 112.132 142.85 111.132 143.577 T
0 0 0 C
114.187 109.636 LS
119.908 111.185 LE
123.276 109.636 LS
106.347 117.421 LE
70.0399 188.164 LS
72.8 186.894 LE
72.8 202.478 LS
72.8 179.124 LE
496.504 117.421 LS
506.8 112.686 LE
506.8 121.837 LS
506.8 112.686 LE
376.305 361.859 LS
359.376 369.644 LE
219.969 361.859 LS
248.722 369.644 LE
495.534 109.636 LS
506.8 112.686 LE
513.433 109.636 LS
506.8 112.686 LE
0 0 1 C
160.006 113.621 158.624 111.719 159.624 112.446 T
160.006 113.621 157.388 111.719 158.624 111.719 T
160.006 113.621 156.388 112.446 157.388 111.719 T
160.006 113.621 156.006 113.621 156.388 112.446 T
160.006 113.621 156.388 114.797 156.006 113.621 T
160.006 113.621 157.388 115.524 156.388 114.797 T
160.006 113.621 158.624 115.524 157.388 115.524 T
160.006 113.621 159.624 114.797 158.624 115.524 T
0 0 0 C
114.187 109.636 LS
109.447 108.353 LE
(3) 104.626 107.047 10 /Helvetica STR
123.276 109.636 LS
137.671 103.017 LE
70.0399 215.187 LS
72.8 213.918 LE
72.8 202.478 LS
72.8 222.335 LE
0 0 1 C
123.191 147.15 121.809 145.248 122.809 145.974 T
123.191 147.15 120.573 145.248 121.809 145.248 T
123.191 147.15 119.573 145.974 120.573 145.248 T
123.191 147.15 119.191 147.15 119.573 145.974 T
123.191 147.15 119.573 148.326 119.191 147.15 T
123.191 147.15 120.573 149.052 119.573 148.326 T
123.191 147.15 121.809 149.052 120.573 149.052 T
123.191 147.15 122.809 148.326 121.809 149.052 T
0 0 0 C
506.8 121.837 LS
506.8 141.694 LE
376.305 361.859 LS
390.7 355.24 LE
219.969 361.859 LS
195.521 355.24 LE
495.534 109.636 LS
471.086 103.017 LE
513.433 109.636 LS
516.669 108.148 LE
(2.5) 521.217 106.057 10 /Helvetica STL
0 0 1 C
172.468 111.569 171.086 109.666 172.086 110.393 T
172.468 111.569 169.85 109.666 171.086 109.666 T
172.468 111.569 168.85 110.393 169.85 109.666 T
172.468 111.569 168.468 111.569 168.85 110.393 T
172.468 111.569 168.85 112.744 168.468 111.569 T
172.468 111.569 169.85 113.471 168.85 112.744 T
172.468 111.569 171.086 113.471 169.85 113.471 T
172.468 111.569 172.086 112.744 171.086 113.471 T
0 0 0 C
137.671 103.017 LS
142.155 100.955 LE
72.8 222.335 LS
72.8 228.521 LE
506.8 141.694 LS
506.8 147.88 LE
390.7 355.24 LS
395.184 353.178 LE
195.521 355.24 LS
187.905 353.178 LE
471.086 103.017 LS
463.47 100.955 LE
0 0 1 C
454.851 105.014 453.469 103.112 454.469 103.839 T
454.851 105.014 452.233 103.112 453.469 103.112 T
454.851 105.014 451.233 103.839 452.233 103.112 T
454.851 105.014 450.851 105.014 451.233 103.839 T
454.851 105.014 451.233 106.19 450.851 105.014 T
454.851 105.014 452.233 106.917 451.233 106.19 T
454.851 105.014 453.469 106.917 452.233 106.917 T
454.851 105.014 454.469 106.19 453.469 106.917 T
0 0 0 C
144.422 99.9124 LS
142.155 100.955 LE
72.8 231.649 LS
72.8 228.521 LE
506.8 151.008 LS
506.8 147.88 LE
397.451 352.135 LS
395.184 353.178 LE
184.055 352.135 LS
187.905 353.178 LE
459.619 99.9124 LS
463.47 100.955 LE
0 0 1 C
206.381 103.89 204.999 101.988 205.999 102.714 T
206.381 103.89 203.763 101.988 204.999 101.988 T
206.381 103.89 202.763 102.714 203.763 101.988 T
206.381 103.89 202.381 103.89 202.763 102.714 T
206.381 103.89 202.763 105.065 202.381 103.89 T
206.381 103.89 203.763 105.792 202.763 105.065 T
206.381 103.89 204.999 105.792 203.763 105.792 T
206.381 103.89 205.999 105.065 204.999 105.792 T
0 0 0 C
150.638 97.0543 LS
144.422 99.9124 LE
72.279 241.182 LS
70.0399 242.211 LE
72.8 240.223 LS
72.8 231.649 LE
506.8 159.582 LS
506.8 151.008 LE
403.667 349.277 LS
397.451 352.135 LE
173.498 349.277 LS
184.055 352.135 LE
449.063 97.0543 LS
459.619 99.9124 LE
462.764 97.0543 LS
457.686 99.389 LE
0 0 1 C
443.426 104.445 442.044 102.543 443.044 103.27 T
443.426 104.445 440.808 102.543 442.044 102.543 T
443.426 104.445 439.808 103.27 440.808 102.543 T
443.426 104.445 439.426 104.445 439.808 103.27 T
443.426 104.445 439.808 105.621 439.426 104.445 T
443.426 104.445 440.808 106.348 439.808 105.621 T
443.426 104.445 442.044 106.348 440.808 106.348 T
443.426 104.445 443.044 105.621 442.044 106.348 T
0 0 0 C
150.638 97.0543 LS
154.779 95.1503 LE
72.279 241.182 LS
72.8 240.942 LE
72.8 240.223 LS
72.8 245.935 LE
506.8 159.582 LS
506.8 165.294 LE
0 0 1 C
182.597 114.471 181.215 112.569 182.215 113.295 T
182.597 114.471 179.979 112.569 181.215 112.569 T
182.597 114.471 178.979 113.295 179.979 112.569 T
182.597 114.471 178.597 114.471 178.979 113.295 T
182.597 114.471 178.979 115.646 178.597 114.471 T
182.597 114.471 179.979 116.373 178.979 115.646 T
182.597 114.471 181.215 116.373 179.979 116.373 T
182.597 114.471 182.215 115.646 181.215 116.373 T
0 0 0 C
403.667 349.277 LS
407.808 347.373 LE
173.498 349.277 LS
166.466 347.373 LE
449.063 97.0543 LS
442.031 95.1503 LE
462.764 97.0543 LS
466.904 95.1503 LE
0 0 1 C
426.91 99.2228 425.528 97.3207 426.528 98.0472 T
426.91 99.2228 424.292 97.3207 425.528 97.3207 T
426.91 99.2228 423.292 98.0472 424.292 97.3207 T
426.91 99.2228 422.91 99.2228 423.292 98.0472 T
426.91 99.2228 423.292 100.398 422.91 99.2228 T
426.91 99.2228 424.292 101.125 423.292 100.398 T
426.91 99.2228 425.528 101.125 424.292 101.125 T
426.91 99.2228 426.528 100.398 425.528 101.125 T
0 0 0 C
156.119 94.534 LS
154.779 95.1503 LE
72.8 247.785 LS
72.8 245.935 LE
506.8 167.143 LS
506.8 165.294 LE
0 0 1 C
149.183 142.365 147.802 140.463 148.802 141.189 T
149.183 142.365 146.565 140.463 147.802 140.463 T
149.183 142.365 145.565 141.189 146.565 140.463 T
149.183 142.365 145.183 142.365 145.565 141.189 T
149.183 142.365 145.565 143.541 145.183 142.365 T
149.183 142.365 146.565 144.267 145.565 143.541 T
149.183 142.365 147.802 144.267 146.565 144.267 T
149.183 142.365 148.802 143.541 147.802 144.267 T
0 0 0 C
409.148 346.757 LS
407.808 347.373 LE
164.189 346.757 LS
166.466 347.373 LE
439.754 94.534 LS
442.031 95.1503 LE
466.904 95.1503 LS
467.556 94.8508 LE
0 0 1 C
217.077 101.765 215.695 99.8628 216.695 100.589 T
217.077 101.765 214.459 99.8628 215.695 99.8628 T
217.077 101.765 213.459 100.589 214.459 99.8628 T
217.077 101.765 213.077 101.765 213.459 100.589 T
217.077 101.765 213.459 102.941 213.077 101.765 T
217.077 101.765 214.459 103.667 213.459 102.941 T
217.077 101.765 215.695 103.667 214.459 103.667 T
217.077 101.765 216.695 102.941 215.695 103.667 T
0 0 0 C
156.119 94.534 LS
156.42 94.3954 LE
72.8 247.785 LS
72.8 248.2 LE
506.8 167.143 LS
506.8 167.559 LE
409.148 346.757 LS
409.449 346.618 LE
164.189 346.757 LS
163.677 346.618 LE
439.754 94.534 LS
439.242 94.3954 LE
0 0 1 C
240.507 98.383 239.125 96.4809 240.125 97.2075 T
240.507 98.383 237.889 96.4809 239.125 96.4809 T
240.507 98.383 236.889 97.2075 237.889 96.4809 T
240.507 98.383 236.507 98.383 236.889 97.2075 T
240.507 98.383 236.889 99.5586 236.507 98.383 T
240.507 98.383 237.889 100.285 236.889 99.5586 T
240.507 98.383 239.125 100.285 237.889 100.285 T
240.507 98.383 240.125 99.5586 239.125 100.285 T
0 0 0 C
159.611 92.9284 LS
156.42 94.3954 LE
72.8 252.601 LS
72.8 248.2 LE
506.8 171.96 LS
506.8 167.559 LE
0 0 1 C
437.291 107.56 435.909 105.657 436.909 106.384 T
437.291 107.56 434.673 105.657 435.909 105.657 T
437.291 107.56 433.673 106.384 434.673 105.657 T
437.291 107.56 433.291 107.56 433.673 106.384 T
437.291 107.56 433.673 108.735 433.291 107.56 T
437.291 107.56 434.673 109.462 433.673 108.735 T
437.291 107.56 435.909 109.462 434.673 109.462 T
437.291 107.56 436.909 108.735 435.909 109.462 T
0 0 0 C
412.64 345.151 LS
409.449 346.618 LE
158.259 345.151 LS
163.677 346.618 LE
433.824 92.9284 LS
439.242 94.3954 LE
0 0 1 C
421.176 99.0168 419.794 97.1146 420.794 97.8412 T
421.176 99.0168 418.558 97.1146 419.794 97.1146 T
421.176 99.0168 417.558 97.8412 418.558 97.1146 T
421.176 99.0168 417.176 99.0168 417.558 97.8412 T
421.176 99.0168 417.558 100.192 417.176 99.0168 T
421.176 99.0168 418.558 100.919 417.558 100.192 T
421.176 99.0168 419.794 100.919 418.558 100.919 T
421.176 99.0168 420.794 100.192 419.794 100.919 T
0 0 0 C
159.611 92.9284 LS
162.652 91.5297 LE
72.8 252.601 LS
72.8 256.797 LE
506.8 171.96 LS
506.8 176.156 LE
412.64 345.151 LS
415.681 343.753 LE
158.259 345.151 LS
153.093 343.753 LE
433.824 92.9284 LS
428.658 91.5297 LE
(2) 472.104 92.7594 10 /Helvetica STL
0 0 1 C
398.978 95.5291 397.596 93.627 398.596 94.3535 T
398.978 95.5291 396.36 93.627 397.596 93.627 T
398.978 95.5291 395.36 94.3535 396.36 93.627 T
398.978 95.5291 394.978 95.5291 395.36 94.3535 T
398.978 95.5291 395.36 96.7047 394.978 95.5291 T
398.978 95.5291 396.36 97.4312 395.36 96.7047 T
398.978 95.5291 397.596 97.4312 396.36 97.4312 T
398.978 95.5291 398.596 96.7047 397.596 97.4312 T
0 0 0 C
163.223 91.2673 LS
162.652 91.5297 LE
72.8 257.585 LS
72.8 256.797 LE
506.8 176.943 LS
506.8 176.156 LE
0 0 1 C
188.883 119.548 187.501 117.646 188.501 118.373 T
188.883 119.548 186.265 117.646 187.501 117.646 T
188.883 119.548 185.265 118.373 186.265 117.646 T
188.883 119.548 184.883 119.548 185.265 118.373 T
188.883 119.548 185.265 120.724 184.883 119.548 T
188.883 119.548 186.265 121.45 185.265 120.724 T
188.883 119.548 187.501 121.45 186.265 121.45 T
188.883 119.548 188.501 120.724 187.501 121.45 T
0 0 0 C
416.252 343.49 LS
415.681 343.753 LE
152.123 343.49 LS
153.093 343.753 LE
427.688 91.2673 LS
428.658 91.5297 LE
0 0 1 C
264.845 95.3141 263.463 93.4119 264.463 94.1385 T
264.845 95.3141 262.227 93.4119 263.463 93.4119 T
264.845 95.3141 261.227 94.1385 262.227 93.4119 T
264.845 95.3141 260.845 95.3141 261.227 94.1385 T
264.845 95.3141 261.227 96.4896 260.845 95.3141 T
264.845 95.3141 262.227 97.2162 261.227 96.4896 T
264.845 95.3141 263.463 97.2162 262.227 97.2162 T
264.845 95.3141 264.463 96.4896 263.463 97.2162 T
0 0 0 C
163.223 91.2673 LS
166.018 89.9819 LE
72.8 257.585 LS
72.8 261.441 LE
506.8 176.943 LS
506.8 180.8 LE
0 0 1 C
249.777 96.7753 248.396 94.8732 249.396 95.5998 T
249.777 96.7753 247.159 94.8732 248.396 94.8732 T
249.777 96.7753 246.159 95.5998 247.159 94.8732 T
249.777 96.7753 245.777 96.7753 246.159 95.5998 T
249.777 96.7753 246.159 97.9509 245.777 96.7753 T
249.777 96.7753 247.159 98.6774 246.159 97.9509 T
249.777 96.7753 248.396 98.6774 247.159 98.6774 T
249.777 96.7753 249.396 97.9509 248.396 98.6774 T
0 0 0 C
416.252 343.49 LS
419.048 342.205 LE
152.123 343.49 LS
147.376 342.205 LE
427.688 91.2673 LS
422.941 89.9819 LE
0 0 1 C
288.65 93.9604 287.268 92.0583 288.268 92.7848 T
288.65 93.9604 286.032 92.0583 287.268 92.0583 T
288.65 93.9604 285.032 92.7848 286.032 92.0583 T
288.65 93.9604 284.65 93.9604 285.032 92.7848 T
288.65 93.9604 285.032 95.136 284.65 93.9604 T
288.65 93.9604 286.032 95.8625 285.032 95.136 T
288.65 93.9604 287.268 95.8625 286.032 95.8625 T
288.65 93.9604 288.268 95.136 287.268 95.8625 T
0 0 0 C
165.58 89.1347 LS
167.016 89.5233 LE
166.018 89.9819 LS
167.861 89.1347 LE
72.8 261.441 LS
72.8 263.982 LE
506.8 180.8 LS
506.8 183.341 LE
0 0 1 C
225.348 104.793 223.966 102.891 224.966 103.618 T
225.348 104.793 222.73 102.891 223.966 102.891 T
225.348 104.793 221.73 103.618 222.73 102.891 T
225.348 104.793 221.348 104.793 221.73 103.618 T
225.348 104.793 221.73 105.969 221.348 104.793 T
225.348 104.793 222.73 106.696 221.73 105.969 T
225.348 104.793 223.966 106.696 222.73 106.696 T
225.348 104.793 224.966 105.969 223.966 106.696 T
0 0 0 C
419.048 342.205 LS
420.89 341.357 LE
147.376 342.205 LS
144.247 341.357 LE
422.941 89.9819 LS
419.812 89.1347 LE
0 0 1 C
369.031 93.1344 367.649 91.2322 368.649 91.9588 T
369.031 93.1344 366.413 91.2322 367.649 91.2322 T
369.031 93.1344 365.413 91.9588 366.413 91.2322 T
369.031 93.1344 365.031 93.1344 365.413 91.9588 T
369.031 93.1344 365.413 94.3099 365.031 93.1344 T
369.031 93.1344 366.413 95.0365 365.413 94.3099 T
369.031 93.1344 367.649 95.0365 366.413 95.0365 T
369.031 93.1344 368.649 94.3099 367.649 95.0365 T
0 0 0 C
164.635 88.8787 LS
165.58 89.1347 LE
168.417 88.8787 LS
167.861 89.1347 LE
70.4689 269.038 LS
70.0399 269.235 LE
72.8 264.75 LS
72.8 263.982 LE
506.8 184.109 LS
506.8 183.341 LE
421.447 341.102 LS
420.89 341.357 LE
143.301 341.102 LS
144.247 341.357 LE
418.866 88.8787 LS
419.812 89.1347 LE
0 0 1 C
309.287 92.8598 307.905 90.9576 308.905 91.6842 T
309.287 92.8598 306.669 90.9576 307.905 90.9576 T
309.287 92.8598 305.669 91.6842 306.669 90.9576 T
309.287 92.8598 305.287 92.8598 305.669 91.6842 T
309.287 92.8598 305.669 94.0353 305.287 92.8598 T
309.287 92.8598 306.669 94.7619 305.669 94.0353 T
309.287 92.8598 307.905 94.7619 306.669 94.7619 T
309.287 92.8598 308.905 94.0353 307.905 94.7619 T
0 0 0 C
163.848 88.6657 LS
164.635 88.8787 LE
168.881 88.6656 LS
168.417 88.8787 LE
70.9323 268.825 LS
70.4689 269.038 LE
72.8 265.389 LS
72.8 264.75 LE
506.8 184.748 LS
506.8 184.109 LE
0 0 1 C
425.351 110.312 423.969 108.41 424.969 109.136 T
425.351 110.312 422.733 108.41 423.969 108.41 T
425.351 110.312 421.733 109.136 422.733 108.41 T
425.351 110.312 421.351 110.312 421.733 109.136 T
425.351 110.312 421.733 111.487 421.351 110.312 T
425.351 110.312 422.733 112.214 421.733 111.487 T
425.351 110.312 423.969 112.214 422.733 112.214 T
425.351 110.312 424.969 111.487 423.969 112.214 T
0 0 0 C
421.91 340.888 LS
421.447 341.102 LE
142.514 340.888 LS
143.301 341.102 LE
418.079 88.6656 LS
418.866 88.8787 LE
0 0 1 C
385.336 94.043 383.954 92.1409 384.954 92.8675 T
385.336 94.043 382.718 92.1409 383.954 92.1409 T
385.336 94.043 381.718 92.8675 382.718 92.1409 T
385.336 94.043 381.336 94.043 381.718 92.8675 T
385.336 94.043 381.718 95.2186 381.336 94.043 T
385.336 94.043 382.718 95.9452 381.718 95.2186 T
385.336 94.043 383.954 95.9452 382.718 95.9452 T
385.336 94.043 384.954 95.2186 383.954 95.9452 T
410.468 101.422 409.086 99.52 410.086 100.247 T
410.468 101.422 407.85 99.52 409.086 99.52 T
410.468 101.422 406.85 100.247 407.85 99.52 T
410.468 101.422 406.468 101.422 406.85 100.247 T
410.468 101.422 406.85 102.598 406.468 101.422 T
410.468 101.422 407.85 103.324 406.85 102.598 T
410.468 101.422 409.086 103.324 407.85 103.324 T
410.468 101.422 410.086 102.598 409.086 103.324 T
0 0 0 C
163.848 88.6657 LS
163.047 88.4489 LE
168.881 88.6656 LS
169.352 88.4489 LE
70.9323 268.825 LS
71.4037 268.608 LE
72.8 265.389 LS
72.8 266.04 LE
506.8 184.748 LS
506.8 185.399 LE
421.91 340.888 LS
422.381 340.672 LE
142.514 340.888 LS
141.714 340.672 LE
418.079 88.6656 LS
417.279 88.4489 LE
0 0 1 C
349.523 92.4408 348.141 90.5387 349.141 91.2652 T
349.523 92.4408 346.905 90.5387 348.141 90.5387 T
349.523 92.4408 345.905 91.2652 346.905 90.5387 T
349.523 92.4408 345.523 92.4408 345.905 91.2652 T
349.523 92.4408 345.905 93.6164 345.523 92.4408 T
349.523 92.4408 346.905 94.3429 345.905 93.6164 T
349.523 92.4408 348.141 94.3429 346.905 94.3429 T
349.523 92.4408 349.141 93.6164 348.141 94.3429 T
0 0 0 C
161.415 88.007 LS
163.047 88.4489 LE
170.313 88.007 LS
169.352 88.4489 LE
72.3646 268.166 LS
71.4037 268.608 LE
72.8 267.365 LS
72.8 266.04 LE
506.8 186.724 LS
506.8 185.399 LE
423.342 340.23 LS
422.381 340.672 LE
140.082 340.23 LS
141.714 340.672 LE
415.647 88.007 LS
417.279 88.4489 LE
0 0 1 C
327.716 92.0461 326.335 90.144 327.335 90.8705 T
327.716 92.0461 325.098 90.144 326.335 90.144 T
327.716 92.0461 324.098 90.8705 325.098 90.144 T
327.716 92.0461 323.716 92.0461 324.098 90.8705 T
327.716 92.0461 324.098 93.2217 323.716 92.0461 T
327.716 92.0461 325.098 93.9482 324.098 93.2217 T
327.716 92.0461 326.335 93.9482 325.098 93.9482 T
327.716 92.0461 327.335 93.2217 326.335 93.9482 T
0 0 0 C
161.415 88.007 LS
158.816 87.3032 LE
170.313 88.007 LS
171.844 87.3031 LE
72.3646 268.166 LS
72.8 267.966 LE
72.8 267.365 LS
72.8 269.477 LE
506.8 186.724 LS
506.8 188.836 LE
0 0 1 C
274.744 94.2406 273.362 92.3385 274.362 93.065 T
274.744 94.2406 272.126 92.3385 273.362 92.3385 T
274.744 94.2406 271.126 93.065 272.126 92.3385 T
274.744 94.2406 270.744 94.2406 271.126 93.065 T
274.744 94.2406 271.126 95.4162 270.744 94.2406 T
274.744 94.2406 272.126 96.1427 271.126 95.4162 T
274.744 94.2406 273.362 96.1427 272.126 96.1427 T
274.744 94.2406 274.362 95.4162 273.362 96.1427 T
0 0 0 C
423.342 340.23 LS
424.873 339.526 LE
140.082 340.23 LS
137.482 339.526 LE
415.647 88.007 LS
413.047 87.3031 LE
0 0 1 C
361.554 92.3024 360.172 90.4003 361.172 91.1268 T
361.554 92.3024 358.936 90.4003 360.172 90.4003 T
361.554 92.3024 357.936 91.1268 358.936 90.4003 T
361.554 92.3024 357.554 92.3024 357.936 91.1268 T
361.554 92.3024 357.936 93.478 357.554 92.3024 T
361.554 92.3024 358.936 94.2045 357.936 93.478 T
361.554 92.3024 360.172 94.2045 358.936 94.2045 T
361.554 92.3024 361.172 93.478 360.172 94.2045 T
0 0 0 C
158.816 87.3032 LS
156.555 86.691 LE
173.683 86.4574 LS
171.844 87.3031 LE
72.8 272.014 LS
72.8 269.477 LE
506.8 191.373 LS
506.8 188.836 LE
0 0 1 C
296.264 92.6873 294.882 90.7852 295.882 91.5117 T
296.264 92.6873 293.646 90.7852 294.882 90.7852 T
296.264 92.6873 292.646 91.5117 293.646 90.7852 T
296.264 92.6873 292.264 92.6873 292.646 91.5117 T
296.264 92.6873 292.646 93.8628 292.264 92.6873 T
296.264 92.6873 293.646 94.5894 292.646 93.8628 T
296.264 92.6873 294.882 94.5894 293.646 94.5894 T
296.264 92.6873 295.882 93.8628 294.882 94.5894 T
0 0 0 C
426.712 338.68 LS
424.873 339.526 LE
134.358 338.68 LS
137.482 339.526 LE
409.923 86.4574 LS
413.047 87.3031 LE
0 0 1 C
340.342 91.7035 338.96 89.8014 339.96 90.5279 T
340.342 91.7035 337.724 89.8014 338.96 89.8014 T
340.342 91.7035 336.724 90.5279 337.724 89.8014 T
340.342 91.7035 336.342 91.7035 336.724 90.5279 T
340.342 91.7035 336.724 92.879 336.342 91.7035 T
340.342 91.7035 337.724 93.6056 336.724 92.879 T
340.342 91.7035 338.96 93.6056 337.724 93.6056 T
340.342 91.7035 339.96 92.879 338.96 93.6056 T
0 0 0 C
174.027 86.2994 LS
173.683 86.4574 LE
72.8 272.488 LS
72.8 272.014 LE
506.8 191.847 LS
506.8 191.373 LE
427.056 338.522 LS
426.712 338.68 LE
133.774 338.522 LS
134.358 338.68 LE
409.339 86.2994 LS
409.923 86.4574 LE
0 0 1 C
318.63 91.8208 317.248 89.9187 318.248 90.6452 T
318.63 91.8208 316.012 89.9187 317.248 89.9187 T
318.63 91.8208 315.012 90.6452 316.012 89.9187 T
318.63 91.8208 314.63 91.8208 315.012 90.6452 T
318.63 91.8208 315.012 92.9963 314.63 91.8208 T
318.63 91.8208 316.012 93.7229 315.012 92.9963 T
318.63 91.8208 317.248 93.7229 316.012 93.7229 T
318.63 91.8208 318.248 92.9963 317.248 93.7229 T
0 0 0 C
174.428 86.1151 LS
174.027 86.2994 LE
72.8 273.041 LS
72.8 272.488 LE
506.8 192.4 LS
506.8 191.847 LE
427.457 338.338 LS
427.056 338.522 LE
133.094 338.338 LS
133.774 338.522 LE
408.659 86.1151 LS
409.339 86.2994 LE
0 0 1 C
256.628 99.4625 255.247 97.5604 256.247 98.2869 T
256.628 99.4625 254.01 97.5604 255.247 97.5604 T
256.628 99.4625 253.01 98.2869 254.01 97.5604 T
256.628 99.4625 252.628 99.4625 253.01 98.2869 T
256.628 99.4625 253.01 100.638 252.628 99.4625 T
256.628 99.4625 254.01 101.365 253.01 100.638 T
256.628 99.4625 255.247 101.365 254.01 101.365 T
256.628 99.4625 256.247 100.638 255.247 101.365 T
0 0 0 C
(2) 151.734 85.3858 10 /Helvetica STR
174.428 86.1151 LS
177.084 84.8936 LE
72.8 273.041 LS
72.8 276.706 LE
506.8 192.4 LS
506.8 196.064 LE
0 0 1 C
419.717 115.116 418.335 113.214 419.335 113.94 T
419.717 115.116 417.099 113.214 418.335 113.214 T
419.717 115.116 416.099 113.94 417.099 113.214 T
419.717 115.116 415.717 115.116 416.099 113.94 T
419.717 115.116 416.099 116.291 415.717 115.116 T
419.717 115.116 417.099 117.018 416.099 116.291 T
419.717 115.116 418.335 117.018 417.099 117.018 T
419.717 115.116 419.335 116.291 418.335 117.018 T
0 0 0 C
427.457 338.338 LS
430.113 337.116 LE
133.094 338.338 LS
128.582 337.116 LE
408.659 86.1151 LS
404.147 84.8936 LE
411.178 84.8936 LS
408.573 86.0918 LE
0 0 1 C
375.349 96.4243 373.967 94.5222 374.967 95.2487 T
375.349 96.4243 372.731 94.5222 373.967 94.5222 T
375.349 96.4243 371.731 95.2487 372.731 94.5222 T
375.349 96.4243 371.349 96.4243 371.731 95.2487 T
375.349 96.4243 371.731 97.5998 371.349 96.4243 T
375.349 96.4243 372.731 98.3264 371.731 97.5998 T
375.349 96.4243 373.967 98.3264 372.731 98.3264 T
375.349 96.4243 374.967 97.5998 373.967 98.3264 T
0 0 0 C
177.328 84.7815 LS
177.084 84.8936 LE
72.8 277.042 LS
72.8 276.706 LE
506.8 196.4 LS
506.8 196.064 LE
430.357 337.004 LS
430.113 337.116 LE
128.168 337.004 LS
128.582 337.116 LE
403.733 84.7815 LS
404.147 84.8936 LE
411.422 84.7815 LS
411.178 84.8936 LE
0 0 1 C
234.412 108.234 233.03 106.332 234.03 107.059 T
234.412 108.234 231.794 106.332 233.03 106.332 T
234.412 108.234 230.794 107.059 231.794 106.332 T
234.412 108.234 230.412 108.234 230.794 107.059 T
234.412 108.234 230.794 109.41 230.412 108.234 T
234.412 108.234 231.794 110.136 230.794 109.41 T
234.412 108.234 233.03 110.136 231.794 110.136 T
234.412 108.234 234.03 109.41 233.03 110.136 T
0 0 0 C
177.389 84.7531 LS
177.328 84.7815 LE
72.8 277.127 LS
72.8 277.042 LE
506.8 196.486 LS
506.8 196.4 LE
0 0 1 C
164.258 144.597 162.876 142.695 163.876 143.422 T
164.258 144.597 161.64 142.695 162.876 142.695 T
164.258 144.597 160.64 143.422 161.64 142.695 T
164.258 144.597 160.258 144.597 160.64 143.422 T
164.258 144.597 160.64 145.773 160.258 144.597 T
164.258 144.597 161.64 146.499 160.64 145.773 T
164.258 144.597 162.876 146.499 161.64 146.499 T
164.258 144.597 163.876 145.773 162.876 146.499 T
0 0 0 C
430.419 336.976 LS
430.357 337.004 LE
128.063 336.976 LS
128.168 337.004 LE
403.628 84.7531 LS
403.733 84.7815 LE
411.484 84.7531 LS
411.422 84.7815 LE
0 0 1 C
200.076 123.689 198.694 121.787 199.694 122.514 T
200.076 123.689 197.458 121.787 198.694 121.787 T
200.076 123.689 196.458 122.514 197.458 121.787 T
200.076 123.689 196.076 123.689 196.458 122.514 T
200.076 123.689 196.458 124.865 196.076 123.689 T
200.076 123.689 197.458 125.591 196.458 124.865 T
200.076 123.689 198.694 125.591 197.458 125.591 T
200.076 123.689 199.694 124.865 198.694 125.591 T
0 0 0 C
177.389 84.7531 LS
177.732 84.5955 LE
72.8 277.127 LS
72.8 277.6 LE
506.8 196.486 LS
506.8 196.959 LE
430.419 336.976 LS
430.761 336.818 LE
128.063 336.976 LS
127.481 336.818 LE
403.628 84.7531 LS
403.046 84.5955 LE
411.484 84.7531 LS
411.827 84.5955 LE
0 0 1 C
398.657 104.076 397.275 102.174 398.275 102.9 T
398.657 104.076 396.039 102.174 397.275 102.174 T
398.657 104.076 395.039 102.9 396.039 102.174 T
398.657 104.076 394.657 104.076 395.039 102.9 T
398.657 104.076 395.039 105.252 394.657 104.076 T
398.657 104.076 396.039 105.978 395.039 105.252 T
398.657 104.076 397.275 105.978 396.039 105.978 T
398.657 104.076 398.275 105.252 397.275 105.978 T
0 0 0 C
177.732 84.5955 LS
178.515 84.2354 LE
72.8 277.6 LS
72.8 278.68 LE
506.8 196.959 LS
506.8 198.039 LE
430.761 336.818 LS
431.544 336.458 LE
127.481 336.818 LS
126.151 336.458 LE
403.046 84.5955 LS
401.716 84.2354 LE
411.827 84.5955 LS
412.61 84.2354 LE
0 0 1 C
281.879 96.7207 280.497 94.8186 281.497 95.5452 T
281.879 96.7207 279.261 94.8186 280.497 94.8186 T
281.879 96.7207 278.261 95.5452 279.261 94.8186 T
281.879 96.7207 277.879 96.7207 278.261 95.5452 T
281.879 96.7207 278.261 97.8963 277.879 96.7207 T
281.879 96.7207 279.261 98.6228 278.261 97.8963 T
281.879 96.7207 280.497 98.6228 279.261 98.6228 T
281.879 96.7207 281.497 97.8963 280.497 98.6228 T
0 0 0 C
178.515 84.2354 LS
179.958 83.5718 LE
72.8 278.68 LS
72.8 280.671 LE
506.8 198.039 LS
506.8 200.03 LE
431.544 336.458 LS
432.988 335.795 LE
126.151 336.458 LS
123.7 335.795 LE
401.716 84.2354 LS
399.265 83.5718 LE
412.61 84.2354 LS
414.053 83.5718 LE
0 0 1 C
351.708 94.8602 350.326 92.9581 351.326 93.6847 T
351.708 94.8602 349.09 92.9581 350.326 92.9581 T
351.708 94.8602 348.09 93.6847 349.09 92.9581 T
351.708 94.8602 347.708 94.8602 348.09 93.6847 T
351.708 94.8602 348.09 96.0358 347.708 94.8602 T
351.708 94.8602 349.09 96.7624 348.09 96.0358 T
351.708 94.8602 350.326 96.7624 349.09 96.7624 T
351.708 94.8602 351.326 96.0358 350.326 96.7624 T
0 0 0 C
181.318 82.9468 LS
179.958 83.5718 LE
72.8 282.546 LS
72.8 280.671 LE
506.8 201.905 LS
506.8 200.03 LE
0 0 1 C
306.445 95.2316 305.063 93.3295 306.063 94.0561 T
306.445 95.2316 303.827 93.3295 305.063 93.3295 T
306.445 95.2316 302.827 94.0561 303.827 93.3295 T
306.445 95.2316 302.445 95.2316 302.827 94.0561 T
306.445 95.2316 302.827 96.4072 302.445 95.2316 T
306.445 95.2316 303.827 97.1337 302.827 96.4072 T
306.445 95.2316 305.063 97.1337 303.827 97.1337 T
306.445 95.2316 306.063 96.4072 305.063 97.1337 T
0 0 0 C
434.347 335.17 LS
432.988 335.795 LE
121.392 335.17 LS
123.7 335.795 LE
396.957 82.9468 LS
399.265 83.5718 LE
415.412 82.9468 LS
414.053 83.5718 LE
0 0 1 C
329.2 94.6296 327.818 92.7274 328.818 93.454 T
329.2 94.6296 326.582 92.7274 327.818 92.7274 T
329.2 94.6296 325.582 93.454 326.582 92.7274 T
329.2 94.6296 325.2 94.6296 325.582 93.454 T
329.2 94.6296 325.582 95.8051 325.2 94.6296 T
329.2 94.6296 326.582 96.5317 325.582 95.8051 T
329.2 94.6296 327.818 96.5317 326.582 96.5317 T
329.2 94.6296 328.818 95.8051 327.818 96.5317 T
0 0 0 C
184.691 81.3957 LS
181.318 82.9468 LE
72.8 287.199 LS
72.8 282.546 LE
506.8 206.558 LS
506.8 201.905 LE
0 0 1 C
264.968 103.15 263.586 101.248 264.586 101.974 T
264.968 103.15 262.35 101.248 263.586 101.248 T
264.968 103.15 261.35 101.974 262.35 101.248 T
264.968 103.15 260.968 103.15 261.35 101.974 T
264.968 103.15 261.35 104.325 260.968 103.15 T
264.968 103.15 262.35 105.052 261.35 104.325 T
264.968 103.15 263.586 105.052 262.35 105.052 T
264.968 103.15 264.586 104.325 263.586 105.052 T
0 0 0 C
437.72 333.618 LS
434.347 335.17 LE
115.662 333.618 LS
121.392 335.17 LE
391.227 81.3957 LS
396.957 82.9468 LE
415.412 82.9468 LS
418.442 81.5535 LE
0 0 1 C
366.099 100.171 364.717 98.2691 365.717 98.9957 T
366.099 100.171 363.481 98.2691 364.717 98.2691 T
366.099 100.171 362.481 98.9957 363.481 98.2691 T
366.099 100.171 362.099 100.171 362.481 98.9957 T
366.099 100.171 362.481 101.347 362.099 100.171 T
366.099 100.171 363.481 102.073 362.481 101.347 T
366.099 100.171 364.717 102.073 363.481 102.073 T
366.099 100.171 365.717 101.347 364.717 102.073 T
0 0 0 C
186.419 80.6012 LS
184.691 81.3957 LE
72.8 289.583 LS
72.8 287.199 LE
506.8 208.942 LS
506.8 206.558 LE
0 0 1 C
413.839 121.028 412.457 119.126 413.457 119.852 T
413.839 121.028 411.221 119.126 412.457 119.126 T
413.839 121.028 410.221 119.852 411.221 119.126 T
413.839 121.028 409.839 121.028 410.221 119.852 T
413.839 121.028 410.221 122.204 409.839 121.028 T
413.839 121.028 411.221 122.93 410.221 122.204 T
413.839 121.028 412.457 122.93 411.221 122.93 T
413.839 121.028 413.457 122.204 412.457 122.93 T
0 0 0 C
439.448 332.824 LS
437.72 333.618 LE
112.728 332.824 LS
115.662 333.618 LE
388.293 80.6012 LS
391.227 81.3957 LE
0 0 1 C
292.934 100.096 291.552 98.1938 292.552 98.9204 T
292.934 100.096 290.316 98.1938 291.552 98.1938 T
292.934 100.096 289.316 98.9204 290.316 98.1938 T
292.934 100.096 288.934 100.096 289.316 98.9204 T
292.934 100.096 289.316 101.271 288.934 100.096 T
292.934 100.096 290.316 101.998 289.316 101.271 T
292.934 100.096 291.552 101.998 290.316 101.998 T
292.934 100.096 292.552 101.271 291.552 101.998 T
0 0 0 C
186.419 80.6012 LS
187.446 80.1286 LE
72.8 289.583 LS
72.8 291.001 LE
506.8 208.942 LS
506.8 210.359 LE
0 0 1 C
390.481 109.343 389.099 107.441 390.099 108.168 T
390.481 109.343 387.863 107.441 389.099 107.441 T
390.481 109.343 386.863 108.168 387.863 107.441 T
390.481 109.343 386.481 109.343 386.863 108.168 T
390.481 109.343 386.863 110.519 386.481 109.343 T
390.481 109.343 387.863 111.246 386.863 110.519 T
390.481 109.343 389.099 111.246 387.863 111.246 T
390.481 109.343 390.099 110.519 389.099 111.246 T
0 0 0 C
439.448 332.824 LS
440.475 332.351 LE
112.728 332.824 LS
110.983 332.351 LE
388.293 80.6012 LS
386.548 80.1286 LE
0 0 1 C
340.895 99.0658 339.513 97.1637 340.513 97.8903 T
340.895 99.0658 338.277 97.1637 339.513 97.1637 T
340.895 99.0658 337.277 97.8903 338.277 97.1637 T
340.895 99.0658 336.895 99.0658 337.277 97.8903 T
340.895 99.0658 337.277 100.241 336.895 99.0658 T
340.895 99.0658 338.277 100.968 337.277 100.241 T
340.895 99.0658 339.513 100.968 338.277 100.968 T
340.895 99.0658 340.513 100.241 339.513 100.968 T
0 0 0 C
187.62 80.0486 LS
187.446 80.1286 LE
70.0821 296.24 LS
70.0399 296.259 LE
72.8 291.241 LS
72.8 291.001 LE
506.8 210.599 LS
506.8 210.359 LE
440.649 332.271 LS
440.475 332.351 LE
110.687 332.271 LS
110.983 332.351 LE
386.252 80.0486 LS
386.548 80.1286 LE
0 0 1 C
316.241 98.9183 314.859 97.0162 315.859 97.7428 T
316.241 98.9183 313.623 97.0162 314.859 97.0162 T
316.241 98.9183 312.623 97.7428 313.623 97.0162 T
316.241 98.9183 312.241 98.9183 312.623 97.7428 T
316.241 98.9183 312.623 100.094 312.241 98.9183 T
316.241 98.9183 313.623 100.82 312.623 100.094 T
316.241 98.9183 314.859 100.82 313.623 100.82 T
316.241 98.9183 315.859 100.094 314.859 100.82 T
0 0 0 C
187.62 80.0486 LS
192.659 77.7315 LE
70.0821 296.24 LS
72.8 294.99 LE
72.8 291.241 LS
72.8 298.192 LE
506.8 210.599 LS
506.8 217.55 LE
0 0 1 C
243.252 112.698 241.87 110.796 242.87 111.522 T
243.252 112.698 240.634 110.796 241.87 110.796 T
243.252 112.698 239.634 111.522 240.634 110.796 T
243.252 112.698 239.252 112.698 239.634 111.522 T
243.252 112.698 239.634 113.873 239.252 112.698 T
243.252 112.698 240.634 114.6 239.634 113.873 T
243.252 112.698 241.87 114.6 240.634 114.6 T
243.252 112.698 242.87 113.873 241.87 114.6 T
0 0 0 C
440.649 332.271 LS
445.688 329.954 LE
110.687 332.271 LS
102.129 329.954 LE
386.252 80.0486 LS
377.694 77.7315 LE
(1.5) 422.99 79.4622 10 /Helvetica STL
0 0 1 C
357.041 104.834 355.659 102.932 356.659 103.659 T
357.041 104.834 354.423 102.932 355.659 102.932 T
357.041 104.834 353.423 103.659 354.423 102.932 T
357.041 104.834 353.041 104.834 353.423 103.659 T
357.041 104.834 353.423 106.01 353.041 104.834 T
357.041 104.834 354.423 106.736 353.423 106.01 T
357.041 104.834 355.659 106.736 354.423 106.736 T
357.041 104.834 356.659 106.01 355.659 106.736 T
0 0 0 C
194.56 76.8577 LS
192.659 77.7315 LE
72.8 300.813 LS
72.8 298.192 LE
506.8 220.172 LS
506.8 217.55 LE
0 0 1 C
276.443 107.139 275.061 105.237 276.061 105.963 T
276.443 107.139 273.825 105.237 275.061 105.237 T
276.443 107.139 272.825 105.963 273.825 105.237 T
276.443 107.139 272.443 107.139 272.825 105.963 T
276.443 107.139 272.825 108.314 272.443 107.139 T
276.443 107.139 273.825 109.041 272.825 108.314 T
276.443 107.139 275.061 109.041 273.825 109.041 T
276.443 107.139 276.061 108.314 275.061 109.041 T
0 0 0 C
447.589 329.08 LS
445.688 329.954 LE
98.9013 329.08 LS
102.129 329.954 LE
374.466 76.8577 LS
377.694 77.7315 LE
0 0 1 C
330.757 103.814 329.375 101.912 330.375 102.638 T
330.757 103.814 328.139 101.912 329.375 101.912 T
330.757 103.814 327.139 102.638 328.139 101.912 T
330.757 103.814 326.757 103.814 327.139 102.638 T
330.757 103.814 327.139 104.99 326.757 103.814 T
330.757 103.814 328.139 105.716 327.139 104.99 T
330.757 103.814 329.375 105.716 328.139 105.716 T
330.757 103.814 330.375 104.99 329.375 105.716 T
0 0 0 C
194.735 76.777 LS
194.56 76.8577 LE
72.8 301.056 LS
72.8 300.813 LE
506.8 220.414 LS
506.8 220.172 LE
447.764 329 LS
447.589 329.08 LE
98.6031 329 LS
98.9013 329.08 LE
374.168 76.777 LS
374.466 76.8577 LE
0 0 1 C
303.266 104.768 301.884 102.866 302.884 103.593 T
303.266 104.768 300.648 102.866 301.884 102.866 T
303.266 104.768 299.648 103.593 300.648 102.866 T
303.266 104.768 299.266 104.768 299.648 103.593 T
303.266 104.768 299.648 105.944 299.266 104.768 T
303.266 104.768 300.648 106.67 299.648 105.944 T
303.266 104.768 301.884 106.67 300.648 106.67 T
303.266 104.768 302.884 105.944 301.884 106.67 T
0 0 0 C
197.25 75.6204 LS
194.735 76.777 LE
72.8 304.525 LS
72.8 301.056 LE
506.8 223.884 LS
506.8 220.414 LE
0 0 1 C
172.504 154.603 171.122 152.701 172.122 153.427 T
172.504 154.603 169.886 152.701 171.122 152.701 T
172.504 154.603 168.886 153.427 169.886 152.701 T
172.504 154.603 168.504 154.603 168.886 153.427 T
172.504 154.603 168.886 155.778 168.504 154.603 T
172.504 154.603 169.886 156.505 168.886 155.778 T
172.504 154.603 171.122 156.505 169.886 156.505 T
172.504 154.603 172.122 155.778 171.122 156.505 T
0 0 0 C
450.28 327.843 LS
447.764 329 LE
94.3315 327.843 LS
98.6031 329 LE
369.896 75.6204 LS
374.168 76.777 LE
0 0 1 C
379.764 114.056 378.382 112.154 379.382 112.881 T
379.764 114.056 377.146 112.154 378.382 112.154 T
379.764 114.056 376.146 112.881 377.146 112.154 T
379.764 114.056 375.764 114.056 376.146 112.881 T
379.764 114.056 376.146 115.232 375.764 114.056 T
379.764 114.056 377.146 115.958 376.146 115.232 T
379.764 114.056 378.382 115.958 377.146 115.958 T
379.764 114.056 379.382 115.232 378.382 115.958 T
0 0 0 C
200.668 74.0489 LS
197.25 75.6204 LE
72.8 309.24 LS
72.8 304.525 LE
506.8 228.598 LS
506.8 223.884 LE
0 0 1 C
214.891 122.763 213.509 120.861 214.509 121.588 T
214.891 122.763 212.273 120.861 213.509 120.861 T
214.891 122.763 211.273 121.588 212.273 120.861 T
214.891 122.763 210.891 122.763 211.273 121.588 T
214.891 122.763 211.273 123.939 210.891 122.763 T
214.891 122.763 212.273 124.665 211.273 123.939 T
214.891 122.763 213.509 124.665 212.273 124.665 T
214.891 122.763 214.509 123.939 213.509 124.665 T
0 0 0 C
453.697 326.272 LS
450.28 327.843 LE
88.5269 326.272 LS
94.3315 327.843 LE
364.092 74.0489 LS
369.896 75.6204 LE
0 0 1 C
254.053 116.891 252.671 114.989 253.671 115.715 T
254.053 116.891 251.435 114.989 252.671 114.989 T
254.053 116.891 250.435 115.715 251.435 114.989 T
254.053 116.891 250.053 116.891 250.435 115.715 T
254.053 116.891 250.435 118.066 250.053 116.891 T
254.053 116.891 251.435 118.793 250.435 118.066 T
254.053 116.891 252.671 118.793 251.435 118.793 T
254.053 116.891 253.671 118.066 252.671 118.793 T
0 0 0 C
200.668 74.0489 LS
202.173 73.3571 LE
72.8 309.24 LS
72.8 311.315 LE
506.8 228.598 LS
506.8 230.674 LE
453.697 326.272 LS
455.202 325.58 LE
88.5269 326.272 LS
85.9716 325.58 LE
364.092 74.0489 LS
361.537 73.3571 LE
0 0 1 C
345.349 110.359 343.967 108.457 344.967 109.183 T
345.349 110.359 342.731 108.457 343.967 108.457 T
345.349 110.359 341.731 109.183 342.731 108.457 T
345.349 110.359 341.349 110.359 341.731 109.183 T
345.349 110.359 341.731 111.534 341.349 110.359 T
345.349 110.359 342.731 112.261 341.731 111.534 T
345.349 110.359 343.967 112.261 342.731 112.261 T
345.349 110.359 344.967 111.534 343.967 112.261 T
0 0 0 C
203.804 72.607 LS
202.173 73.3571 LE
72.8 313.565 LS
72.8 311.315 LE
506.8 232.924 LS
506.8 230.674 LE
0 0 1 C
286.823 112.404 285.441 110.502 286.441 111.229 T
286.823 112.404 284.205 110.502 285.441 110.502 T
286.823 112.404 283.205 111.229 284.205 110.502 T
286.823 112.404 282.823 112.404 283.205 111.229 T
286.823 112.404 283.205 113.58 282.823 112.404 T
286.823 112.404 284.205 114.306 283.205 113.58 T
286.823 112.404 285.441 114.306 284.205 114.306 T
286.823 112.404 286.441 113.58 285.441 114.306 T
0 0 0 C
456.833 324.83 LS
455.202 325.58 LE
83.2013 324.83 LS
85.9716 325.58 LE
358.766 72.607 LS
361.537 73.3571 LE
359.867 72.607 LS
359.459 72.7945 LE
0 0 1 C
315.437 110.228 314.055 108.326 315.055 109.053 T
315.437 110.228 312.819 108.326 314.055 108.326 T
315.437 110.228 311.819 109.053 312.819 108.326 T
315.437 110.228 311.437 110.228 311.819 109.053 T
315.437 110.228 311.819 111.404 311.437 110.228 T
315.437 110.228 312.819 112.13 311.819 111.404 T
315.437 110.228 314.055 112.13 312.819 112.13 T
315.437 110.228 315.055 111.404 314.055 112.13 T
0 0 0 C
213.55 68.1253 LS
203.804 72.607 LE
72.8 313.565 LS
72.8 322.014 LE
0 0 1 C
390.621 121.293 389.239 119.391 390.239 120.117 T
390.621 121.293 388.003 119.391 389.239 119.391 T
390.621 121.293 387.003 120.117 388.003 119.391 T
390.621 121.293 386.621 121.293 387.003 120.117 T
390.621 121.293 387.003 122.468 386.621 121.293 T
390.621 121.293 388.003 123.195 387.003 122.468 T
390.621 121.293 389.239 123.195 388.003 123.195 T
390.621 121.293 390.239 122.468 389.239 123.195 T
0 0 0 C
76.4222 320.348 LS
72.8 322.014 LE
506.8 246.369 LS
506.8 232.924 LE
466.579 320.348 LS
456.833 324.83 LE
83.2013 324.83 LS
72.8 322.014 LE
70.0399 323.283 LS
72.8 322.014 LE
342.213 68.1253 LS
358.766 72.607 LE
359.867 72.607 LS
369.328 68.2563 LE
0 0 1 C
360.199 115.362 358.817 113.46 359.817 114.186 T
360.199 115.362 357.581 113.46 358.817 113.46 T
360.199 115.362 356.581 114.186 357.581 113.46 T
360.199 115.362 356.199 115.362 356.581 114.186 T
360.199 115.362 356.581 116.537 356.199 115.362 T
360.199 115.362 357.581 117.264 356.581 116.537 T
360.199 115.362 358.817 117.264 357.581 117.264 T
360.199 115.362 359.817 116.537 358.817 117.264 T
0 0 0 C
211.126 67.0501 LS
214.124 67.8616 LE
215.888 67.0501 LS
213.55 68.1253 LE
0 0 1 C
227.474 123.935 226.092 122.032 227.092 122.759 T
227.474 123.935 224.856 122.032 226.092 122.032 T
227.474 123.935 223.856 122.759 224.856 122.032 T
227.474 123.935 223.474 123.935 223.856 122.759 T
227.474 123.935 223.856 125.11 223.474 123.935 T
227.474 123.935 224.856 125.837 223.856 125.11 T
227.474 123.935 226.092 125.837 224.856 125.837 T
227.474 123.935 227.092 125.11 226.092 125.837 T
0 0 0 C
78.7604 319.273 LS
76.4222 320.348 LE
506.8 249.595 LS
506.8 246.369 LE
468.918 319.273 LS
466.579 320.348 LE
338.242 67.0501 LS
342.213 68.1253 LE
0 0 1 C
328.34 114.187 326.958 112.285 327.958 113.011 T
328.34 114.187 325.722 112.285 326.958 112.285 T
328.34 114.187 324.722 113.011 325.722 112.285 T
328.34 114.187 324.34 114.187 324.722 113.011 T
328.34 114.187 324.722 115.362 324.34 114.187 T
328.34 114.187 325.722 116.089 324.722 115.362 T
328.34 114.187 326.958 116.089 325.722 116.089 T
328.34 114.187 327.958 115.362 326.958 116.089 T
0 0 0 C
207.48 66.0629 LS
211.126 67.0501 LE
218.035 66.063 LS
215.888 67.0501 LE
80.9072 318.286 LS
78.7604 319.273 LE
506.8 252.556 LS
506.8 249.595 LE
471.064 318.286 LS
468.918 319.273 LE
334.596 66.063 LS
338.242 67.0501 LE
(1) 373.876 66.1649 10 /Helvetica STL
0 0 1 C
296.936 113.287 295.554 111.384 296.554 112.111 T
296.936 113.287 294.318 111.384 295.554 111.384 T
296.936 113.287 293.318 112.111 294.318 111.384 T
296.936 113.287 292.936 113.287 293.318 112.111 T
296.936 113.287 293.318 114.462 292.936 113.287 T
296.936 113.287 294.318 115.189 293.318 114.462 T
296.936 113.287 295.554 115.189 294.318 115.189 T
296.936 113.287 296.554 114.462 295.554 115.189 T
0 0 0 C
206.192 65.7143 LS
207.48 66.0629 LE
218.793 65.7143 LS
218.035 66.063 LE
81.6654 317.937 LS
80.9072 318.286 LE
506.8 253.602 LS
506.8 252.556 LE
471.822 317.937 LS
471.064 318.286 LE
333.308 65.7143 LS
334.596 66.063 LE
0 0 1 C
264.924 114.867 263.542 112.965 264.542 113.692 T
264.924 114.867 262.306 112.965 263.542 112.965 T
264.924 114.867 261.306 113.692 262.306 112.965 T
264.924 114.867 260.924 114.867 261.306 113.692 T
264.924 114.867 261.306 116.043 260.924 114.867 T
264.924 114.867 262.306 116.769 261.306 116.043 T
264.924 114.867 263.542 116.769 262.306 116.769 T
264.924 114.867 264.542 116.043 263.542 116.769 T
0 0 0 C
205.188 65.4425 LS
206.192 65.7143 LE
219.385 65.4425 LS
218.793 65.7143 LE
82.2566 317.665 LS
81.6654 317.937 LE
506.8 254.418 LS
506.8 253.602 LE
472.414 317.665 LS
471.822 317.937 LE
332.304 65.4425 LS
333.308 65.7143 LE
0 0 1 C
377.965 128.058 376.583 126.156 377.583 126.883 T
377.965 128.058 375.347 126.156 376.583 126.156 T
377.965 128.058 374.347 126.883 375.347 126.156 T
377.965 128.058 373.965 128.058 374.347 126.883 T
377.965 128.058 374.347 129.234 373.965 128.058 T
377.965 128.058 375.347 129.961 374.347 129.234 T
377.965 128.058 376.583 129.961 375.347 129.961 T
377.965 128.058 377.583 129.234 376.583 129.961 T
189.55 155.833 188.168 153.931 189.168 154.657 T
189.55 155.833 186.932 153.931 188.168 153.931 T
189.55 155.833 185.932 154.657 186.932 153.931 T
189.55 155.833 185.55 155.833 185.932 154.657 T
189.55 155.833 185.932 157.008 185.55 155.833 T
189.55 155.833 186.932 157.735 185.932 157.008 T
189.55 155.833 188.168 157.735 186.932 157.735 T
189.55 155.833 189.168 157.008 188.168 157.735 T
0 0 0 C
205.188 65.4425 LS
203.663 65.0294 LE
(1) 198.842 63.7242 10 /Helvetica STR
219.385 65.4425 LS
229.039 61.0032 LE
82.2566 317.665 LS
91.9106 313.226 LE
506.8 254.418 LS
506.8 267.735 LE
472.414 317.665 LS
482.068 313.226 LE
332.304 65.4425 LS
315.908 61.0032 LE
0 0 1 C
341.851 118.686 340.469 116.784 341.469 117.511 T
341.851 118.686 339.233 116.784 340.469 116.784 T
341.851 118.686 338.233 117.511 339.233 116.784 T
341.851 118.686 337.851 118.686 338.233 117.511 T
341.851 118.686 338.233 119.862 337.851 118.686 T
341.851 118.686 339.233 120.589 338.233 119.862 T
341.851 118.686 340.469 120.589 339.233 120.589 T
341.851 118.686 341.469 119.862 340.469 120.589 T
0 0 0 C
231.724 59.7685 LS
229.039 61.0032 LE
0 0 1 C
238.414 130.31 237.032 128.408 238.032 129.135 T
238.414 130.31 235.796 128.408 237.032 128.408 T
238.414 130.31 234.796 129.135 235.796 128.408 T
238.414 130.31 234.414 130.31 234.796 129.135 T
238.414 130.31 234.796 131.486 234.414 130.31 T
238.414 130.31 235.796 132.212 234.796 131.486 T
238.414 130.31 237.032 132.212 235.796 132.212 T
238.414 130.31 238.032 131.486 237.032 132.212 T
0 0 0 C
94.5959 311.991 LS
91.9106 313.226 LE
506.8 271.44 LS
506.8 267.735 LE
484.753 311.991 LS
482.068 313.226 LE
311.347 59.7685 LS
315.908 61.0032 LE
0 0 1 C
308.372 116.663 306.99 114.761 307.99 115.488 T
308.372 116.663 305.754 114.761 306.99 114.761 T
308.372 116.663 304.754 115.488 305.754 114.761 T
308.372 116.663 304.372 116.663 304.754 115.488 T
308.372 116.663 304.754 117.839 304.372 116.663 T
308.372 116.663 305.754 118.566 304.754 117.839 T
308.372 116.663 306.99 118.566 305.754 118.566 T
308.372 116.663 307.99 117.839 306.99 118.566 T
0 0 0 C
232.464 59.4282 LS
231.724 59.7685 LE
95.3359 311.651 LS
94.5959 311.991 LE
506.8 272.461 LS
506.8 271.44 LE
485.493 311.651 LS
484.753 311.991 LE
310.09 59.4282 LS
311.347 59.7685 LE
310.495 59.4282 LS
310.345 59.4972 LE
0 0 1 C
276.323 119.988 274.941 118.086 275.941 118.812 T
276.323 119.988 273.705 118.086 274.941 118.086 T
276.323 119.988 272.705 118.812 273.705 118.086 T
276.323 119.988 272.323 119.988 272.705 118.812 T
276.323 119.988 272.705 121.163 272.323 119.988 T
276.323 119.988 273.705 121.89 272.705 121.163 T
276.323 119.988 274.941 121.89 273.705 121.89 T
276.323 119.988 275.941 121.163 274.941 121.89 T
0 0 0 C
243.181 54.5003 LS
232.464 59.4282 LE
0 0 1 C
367.776 138.999 366.394 137.097 367.394 137.824 T
367.776 138.999 365.158 137.097 366.394 137.097 T
367.776 138.999 364.158 137.824 365.158 137.097 T
367.776 138.999 363.776 138.999 364.158 137.824 T
367.776 138.999 364.158 140.175 363.776 138.999 T
367.776 138.999 365.158 140.901 364.158 140.175 T
367.776 138.999 366.394 140.901 365.158 140.901 T
367.776 138.999 367.394 140.175 366.394 140.901 T
0 0 0 C
106.053 306.723 LS
95.3359 311.651 LE
506.8 287.244 LS
506.8 272.461 LE
496.21 306.723 LS
485.493 311.651 LE
291.889 54.5003 LS
310.09 59.4282 LE
310.495 59.4282 LS
320.214 54.959 LE
0 0 1 C
207.887 154.904 206.505 153.002 207.505 153.728 T
207.887 154.904 205.269 153.002 206.505 153.002 T
207.887 154.904 204.269 153.728 205.269 153.002 T
207.887 154.904 203.887 154.904 204.269 153.728 T
207.887 154.904 204.269 156.08 203.887 154.904 T
207.887 154.904 205.269 156.806 204.269 156.08 T
207.887 154.904 206.505 156.806 205.269 156.806 T
207.887 154.904 207.505 156.08 206.505 156.806 T
0 0 0 C
243.181 54.5003 LS
244.639 53.8297 LE
106.053 306.723 LS
107.511 306.053 LE
506.8 287.244 LS
506.8 289.256 LE
496.21 306.723 LS
497.668 306.053 LE
291.889 54.5003 LS
289.412 53.8297 LE
0 0 1 C
327.181 128.382 325.799 126.479 326.799 127.206 T
327.181 128.382 324.563 126.479 325.799 126.479 T
327.181 128.382 323.563 127.206 324.563 126.479 T
327.181 128.382 323.181 128.382 323.563 127.206 T
327.181 128.382 323.563 129.557 323.181 128.382 T
327.181 128.382 324.563 130.284 323.563 129.557 T
327.181 128.382 325.799 130.284 324.563 130.284 T
327.181 128.382 326.799 129.557 325.799 130.284 T
0 0 0 C
247.288 52.6117 LS
244.639 53.8297 LE
110.16 304.834 LS
107.511 306.053 LE
506.8 292.91 LS
506.8 289.256 LE
500.317 304.834 LS
497.668 306.053 LE
284.913 52.6117 LS
289.412 53.8297 LE
(0.5) 324.763 52.8677 10 /Helvetica STL
0 0 1 C
290.044 128.904 288.662 127.002 289.662 127.728 T
290.044 128.904 287.426 127.002 288.662 127.002 T
290.044 128.904 286.426 127.728 287.426 127.002 T
290.044 128.904 286.044 128.904 286.426 127.728 T
290.044 128.904 286.426 130.079 286.044 128.904 T
290.044 128.904 287.426 130.806 286.426 130.079 T
290.044 128.904 288.662 130.806 287.426 130.806 T
290.044 128.904 289.662 130.079 288.662 130.806 T
0 0 0 C
256.804 48.2361 LS
247.288 52.6117 LE
506.8 292.91 LS
506.8 301.853 LE
0 0 1 C
250.249 137.988 248.867 136.086 249.867 136.813 T
250.249 137.988 247.631 136.086 248.867 136.086 T
250.249 137.988 246.631 136.813 247.631 136.086 T
250.249 137.988 246.249 137.988 246.631 136.813 T
250.249 137.988 246.631 139.164 246.249 137.988 T
250.249 137.988 247.631 139.891 246.631 139.164 T
250.249 137.988 248.867 139.891 247.631 139.891 T
250.249 137.988 249.867 139.164 248.867 139.891 T
0 0 0 C
501.649 300.459 LS
506.8 301.853 LE
119.676 300.459 LS
110.16 304.834 LE
500.317 304.834 LS
506.8 301.853 LE
268.752 48.2361 LS
284.913 52.6117 LE
0 0 1 C
340.907 139.542 339.525 137.64 340.525 138.366 T
340.907 139.542 338.289 137.64 339.525 137.64 T
340.907 139.542 337.289 138.366 338.289 137.64 T
340.907 139.542 336.907 139.542 337.289 138.366 T
340.907 139.542 337.289 140.718 336.907 139.542 T
340.907 139.542 338.289 141.444 337.289 140.718 T
340.907 139.542 339.525 141.444 338.289 141.444 T
340.907 139.542 340.525 140.718 339.525 141.444 T
0 0 0 C
256.804 48.2361 LS
261.231 46.2 LE
0 0 1 C
304.809 134.928 303.427 133.026 304.427 133.752 T
304.809 134.928 302.191 133.026 303.427 133.026 T
304.809 134.928 301.191 133.752 302.191 133.026 T
304.809 134.928 300.809 134.928 301.191 133.752 T
304.809 134.928 301.191 136.103 300.809 134.928 T
304.809 134.928 302.191 136.83 301.191 136.103 T
304.809 134.928 303.427 136.83 302.191 136.83 T
304.809 134.928 304.427 136.103 303.427 136.83 T
0 0 0 C
261.231 55.9237 LS
261.231 46.2 LE
482.157 295.182 LS
501.649 300.459 LE
131.152 295.182 LS
119.676 300.459 LE
268.752 48.2361 LS
261.231 46.2 L
250.77 43.3677 LE
268.28 42.9587 LS
261.231 46.2 LE
0 0 1 C
264.505 137.045 263.123 135.143 264.123 135.869 T
264.505 137.045 261.887 135.143 263.123 135.143 T
264.505 137.045 260.887 135.869 261.887 135.143 T
264.505 137.045 260.505 137.045 260.887 135.869 T
264.505 137.045 260.887 138.221 260.505 137.045 T
264.505 137.045 261.887 138.947 260.887 138.221 T
264.505 137.045 263.123 138.947 261.887 138.947 T
264.505 137.045 264.123 138.221 263.123 138.947 T
220.73 166.284 219.348 164.382 220.348 165.108 T
220.73 166.284 218.112 164.382 219.348 164.382 T
220.73 166.284 217.112 165.108 218.112 164.382 T
220.73 166.284 216.73 166.284 217.112 165.108 T
220.73 166.284 217.112 167.46 216.73 166.284 T
220.73 166.284 218.112 168.186 217.112 167.46 T
220.73 166.284 219.348 168.186 218.112 168.186 T
220.73 166.284 220.348 167.46 219.348 168.186 T
0 0 0 C
261.231 75.0839 LS
261.231 55.9237 LE
(0) 245.95 42.0625 10 /Helvetica STR
268.28 42.9587 LS
271.101 41.6618 LE
(0) 275.649 39.5704 10 /Helvetica STL
458.568 288.795 LS
482.157 295.182 LE
145.042 288.795 LS
131.152 295.182 LE
0 0 1 C
321.978 154.049 320.596 152.146 321.596 152.873 T
321.978 154.049 319.36 152.146 320.596 152.146 T
321.978 154.049 318.36 152.873 319.36 152.146 T
321.978 154.049 317.978 154.049 318.36 152.873 T
321.978 154.049 318.36 155.224 317.978 154.049 T
321.978 154.049 319.36 155.951 318.36 155.224 T
321.978 154.049 320.596 155.951 319.36 155.951 T
321.978 154.049 321.596 155.224 320.596 155.951 T
0 0 0 C
261.231 87.7008 LS
261.231 75.0839 LE
443.034 284.589 LS
458.568 288.795 LE
154.188 284.589 LS
145.042 288.795 LE
0 0 1 C
280.175 151.494 278.793 149.592 279.793 150.318 T
280.175 151.494 277.556 149.592 278.793 149.592 T
280.175 151.494 276.556 150.318 277.556 149.592 T
280.175 151.494 276.175 151.494 276.556 150.318 T
280.175 151.494 276.556 152.669 276.175 151.494 T
280.175 151.494 277.556 153.396 276.556 152.669 T
280.175 151.494 278.793 153.396 277.556 153.396 T
280.175 151.494 279.793 152.669 278.793 153.396 T
0 0 0 C
261.231 89.9003 LS
261.231 87.7008 LE
440.326 283.856 LS
443.034 284.589 LE
155.782 283.856 LS
154.188 284.589 LE
0 0 1 C
238.838 166.578 237.456 164.676 238.456 165.402 T
238.838 166.578 236.22 164.676 237.456 164.676 T
238.838 166.578 235.22 165.402 236.22 164.676 T
238.838 166.578 234.838 166.578 235.22 165.402 T
238.838 166.578 235.22 167.753 234.838 166.578 T
238.838 166.578 236.22 168.48 235.22 167.753 T
238.838 166.578 237.456 168.48 236.22 168.48 T
238.838 166.578 238.456 167.753 237.456 168.48 T
0 0 0 C
261.231 117.835 LS
261.231 89.9003 LE
405.934 274.545 LS
440.326 283.856 LE
176.032 274.545 LS
155.782 283.856 LE
0 0 1 C
293.689 166.121 292.307 164.219 293.307 164.945 T
293.689 166.121 291.071 164.219 292.307 164.219 T
293.689 166.121 290.071 164.945 291.071 164.219 T
293.689 166.121 289.689 166.121 290.071 164.945 T
293.689 166.121 290.071 167.297 289.689 166.121 T
293.689 166.121 291.071 168.023 290.071 167.297 T
293.689 166.121 292.307 168.023 291.071 168.023 T
293.689 166.121 293.307 167.297 292.307 168.023 T
0 0 0 C
261.231 137.466 LS
261.231 117.835 LE
381.764 268.001 LS
405.934 274.545 LE
190.263 268.001 LS
176.032 274.545 LE
0 0 1 C
253.906 186.443 252.524 184.541 253.524 185.268 T
253.906 186.443 251.288 184.541 252.524 184.541 T
253.906 186.443 250.288 185.268 251.288 184.541 T
253.906 186.443 249.906 186.443 250.288 185.268 T
253.906 186.443 250.288 187.619 249.906 186.443 T
253.906 186.443 251.288 188.345 250.288 187.619 T
253.906 186.443 252.524 188.345 251.288 188.345 T
253.906 186.443 253.524 187.619 252.524 188.345 T
268.889 216.675 267.507 214.773 268.507 215.5 T
268.889 216.675 266.271 214.773 267.507 214.773 T
268.889 216.675 265.271 215.5 266.271 214.773 T
268.889 216.675 264.889 216.675 265.271 215.5 T
268.889 216.675 265.271 217.851 264.889 216.675 T
268.889 216.675 266.271 218.578 265.271 217.851 T
268.889 216.675 267.507 218.578 266.271 218.578 T
268.889 216.675 268.507 217.851 267.507 218.578 T
0 0 0 C
261.231 137.466 LS
261.231 235.367 LE
381.764 268.001 LS
261.231 235.367 LE
190.263 268.001 LS
261.231 235.367 LE
grestore
showpage
cleartomark
%%PageTrailer
%%Trailer
end
%%EOF
