%!PS-Adobe-3.0 EPSF-3.0
%%Title: glps_renderer figure
%%Creator: GL2PS 1.3.8, (C) 1999-2012 C. Geuzaine
%%For: Octave
%%CreationDate: Mon Jun 15 14:12:31 2015
%%LanguageLevel: 3
%%DocumentData: Clean7Bit
%%Pages: 1
%%BoundingBox: 0 0 576 432
%%EndComments
%%BeginProlog
/gl2psdict 64 dict def gl2psdict begin
0 setlinecap 0 setlinejoin
/tryPS3shading false def % set to false to force subdivision
/rThreshold 0.064 def % red component subdivision threshold
/gThreshold 0.034 def % green component subdivision threshold
/bThreshold 0.1 def % blue component subdivision threshold
/BD { bind def } bind def
/C  { setrgbcolor } BD
/G  { 0.082 mul exch 0.6094 mul add exch 0.3086 mul add neg 1.0 add setgray } BD
/W  { setlinewidth } BD
/FC { findfont exch /SH exch def SH scalefont setfont } BD
/SW { dup stringwidth pop } BD
/S  { FC moveto show } BD
/SBC{ FC moveto SW -2 div 0 rmoveto show } BD
/SBR{ FC moveto SW neg 0 rmoveto show } BD
/SCL{ FC moveto 0 SH -2 div rmoveto show } BD
/SCC{ FC moveto SW -2 div SH -2 div rmoveto show } BD
/SCR{ FC moveto SW neg SH -2 div rmoveto show } BD
/STL{ FC moveto 0 SH neg rmoveto show } BD
/STC{ FC moveto SW -2 div SH neg rmoveto show } BD
/STR{ FC moveto SW neg SH neg rmoveto show } BD
/FCT { FC translate 0 0 } BD
/SR  { gsave FCT moveto rotate show grestore } BD
/SBCR{ gsave FCT moveto rotate SW -2 div 0 rmoveto show grestore } BD
/SBRR{ gsave FCT moveto rotate SW neg 0 rmoveto show grestore } BD
/SCLR{ gsave FCT moveto rotate 0 SH -2 div rmoveto show grestore} BD
/SCCR{ gsave FCT moveto rotate SW -2 div SH -2 div rmoveto show grestore} BD
/SCRR{ gsave FCT moveto rotate SW neg SH -2 div rmoveto show grestore} BD
/STLR{ gsave FCT moveto rotate 0 SH neg rmoveto show grestore } BD
/STCR{ gsave FCT moveto rotate SW -2 div SH neg rmoveto show grestore } BD
/STRR{ gsave FCT moveto rotate SW neg SH neg rmoveto show grestore } BD
/P  { newpath 0.0 360.0 arc closepath fill } BD
/LS { newpath moveto } BD
/L  { lineto } BD
/LE { lineto stroke } BD
/T  { newpath moveto lineto lineto closepath fill } BD
/STshfill {
      /b1 exch def /g1 exch def /r1 exch def /y1 exch def /x1 exch def
      /b2 exch def /g2 exch def /r2 exch def /y2 exch def /x2 exch def
      /b3 exch def /g3 exch def /r3 exch def /y3 exch def /x3 exch def
      gsave << /ShadingType 4 /ColorSpace [/DeviceRGB]
      /DataSource [ 0 x1 y1 r1 g1 b1 0 x2 y2 r2 g2 b2 0 x3 y3 r3 g3 b3 ] >>
      shfill grestore } BD
/Tm { 3 -1 roll 8 -1 roll 13 -1 roll add add 3 div
      3 -1 roll 7 -1 roll 11 -1 roll add add 3 div
      3 -1 roll 6 -1 roll 9 -1 roll add add 3 div C T } BD
/STsplit {
      4 index 15 index add 0.5 mul
      4 index 15 index add 0.5 mul
      4 index 15 index add 0.5 mul
      4 index 15 index add 0.5 mul
      4 index 15 index add 0.5 mul
      5 copy 5 copy 25 15 roll
      9 index 30 index add 0.5 mul
      9 index 30 index add 0.5 mul
      9 index 30 index add 0.5 mul
      9 index 30 index add 0.5 mul
      9 index 30 index add 0.5 mul
      5 copy 5 copy 35 5 roll 25 5 roll 15 5 roll
      4 index 10 index add 0.5 mul
      4 index 10 index add 0.5 mul
      4 index 10 index add 0.5 mul
      4 index 10 index add 0.5 mul
      4 index 10 index add 0.5 mul
      5 copy 5 copy 40 5 roll 25 5 roll 15 5 roll 25 5 roll
      STnoshfill STnoshfill STnoshfill STnoshfill } BD
/STnoshfill {
      2 index 8 index sub abs rThreshold gt
      { STsplit }
      { 1 index 7 index sub abs gThreshold gt
        { STsplit }
        { dup 6 index sub abs bThreshold gt
          { STsplit }
          { 2 index 13 index sub abs rThreshold gt
            { STsplit }
            { 1 index 12 index sub abs gThreshold gt
              { STsplit }
              { dup 11 index sub abs bThreshold gt
                { STsplit }
                { 7 index 13 index sub abs rThreshold gt
                  { STsplit }
                  { 6 index 12 index sub abs gThreshold gt
                    { STsplit }
                    { 5 index 11 index sub abs bThreshold gt
                      { STsplit }
                      { Tm }
                      ifelse }
                    ifelse }
                  ifelse }
                ifelse }
              ifelse }
            ifelse }
          ifelse }
        ifelse }
      ifelse } BD
tryPS3shading
{ /shfill where
  { /ST { STshfill } BD }
  { /ST { STnoshfill } BD }
  ifelse }
{ /ST { STnoshfill } BD }
ifelse
end
%%EndProlog
%%BeginSetup
/DeviceRGB setcolorspace
gl2psdict begin
%%EndSetup
%%Page: 1 1
%%BeginPageSetup
%%EndPageSetup
mark
gsave
1.0 1.0 scale
1 1 1 C
521.28 47.52 521.28 399.6 521.28 47.52 T
521.28 47.52 521.28 399.6 521.28 399.6 T
74.88 399.6 521.28 399.6 74.88 399.6 T
74.88 399.6 521.28 399.6 521.28 399.6 T
74.88 399.6 521.28 47.52 74.88 47.52 T
74.88 399.6 521.28 399.6 521.28 47.52 T
0.5 W
[16 0] 0 setdash
0 0 0 C
74.88 47.52 LS
521.28 47.52 LE
74.88 399.6 LS
521.28 399.6 LE
74.88 399.6 LS
521.28 399.6 LE
74.88 47.52 LS
521.28 47.52 LE
74.88 47.52 LS
74.88 399.6 LE
521.28 47.52 LS
521.28 399.6 LE
521.28 47.52 LS
521.28 399.6 LE
74.88 47.52 LS
74.88 399.6 L
74.88 399.6 LE
521.28 399.6 LS
521.28 399.6 LE
521.28 47.52 LS
521.28 47.52 LE
74.88 47.52 LS
74.88 47.52 L
74.88 51.985 LE
74.88 399.6 LS
74.88 395.135 LE
186.48 47.52 LS
186.48 51.985 LE
186.48 399.6 LS
186.48 395.135 LE
298.08 47.52 LS
298.08 51.985 LE
298.08 399.6 LS
298.08 395.135 LE
409.68 47.52 LS
409.68 51.985 LE
409.68 399.6 LS
409.68 395.135 LE
521.28 47.52 LS
521.28 51.985 LE
521.28 399.6 LS
521.28 395.135 LE
(0) 74.88 42.5189 10 /Helvetica STC
(0.5) 186.48 42.5189 10 /Helvetica STC
(1) 298.08 42.5189 10 /Helvetica STC
(1.5) 409.68 42.5189 10 /Helvetica STC
(2) 521.28 42.5189 10 /Helvetica STC
74.88 47.52 LS
79.348 47.52 LE
521.28 47.52 LS
516.812 47.52 LE
74.88 135.54 LS
79.348 135.54 LE
521.28 135.54 LS
516.812 135.54 LE
74.88 223.56 LS
79.348 223.56 LE
521.28 223.56 LS
516.812 223.56 LE
74.88 311.58 LS
79.348 311.58 LE
521.28 311.58 LS
516.812 311.58 LE
74.88 399.6 LS
79.348 399.6 LE
521.28 399.6 LS
516.812 399.6 LE
(0) 69.8755 47.52 10 /Helvetica SCR
(1) 69.8755 135.54 10 /Helvetica SCR
(2) 69.8755 223.56 10 /Helvetica SCR
(3) 69.8755 311.58 10 /Helvetica SCR
(4) 69.8755 399.6 10 /Helvetica SCR
0 0 1 C
522.247 48.2281 520.865 46.326 521.865 47.0525 T
522.247 48.2281 519.629 46.326 520.865 46.326 T
522.247 48.2281 518.629 47.0525 519.629 46.326 T
522.247 48.2281 518.247 48.2281 518.629 47.0525 T
522.247 48.2281 518.629 49.4037 518.247 48.2281 T
522.247 48.2281 519.629 50.1302 518.629 49.4037 T
522.247 48.2281 520.865 50.1302 519.629 50.1302 T
522.247 48.2281 521.865 49.4037 520.865 50.1302 T
520.854 49.7743 519.472 47.8722 520.472 48.5988 T
520.854 49.7743 518.236 47.8722 519.472 47.8722 T
520.854 49.7743 517.236 48.5988 518.236 47.8722 T
520.854 49.7743 516.854 49.7743 517.236 48.5988 T
520.854 49.7743 517.236 50.9499 516.854 49.7743 T
520.854 49.7743 518.236 51.6764 517.236 50.9499 T
520.854 49.7743 519.472 51.6764 518.236 51.6764 T
520.854 49.7743 520.472 50.9499 519.472 51.6764 T
519.901 51.2214 518.519 49.3193 519.519 50.0458 T
519.901 51.2214 517.283 49.3193 518.519 49.3193 T
519.901 51.2214 516.283 50.0458 517.283 49.3193 T
519.901 51.2214 515.901 51.2214 516.283 50.0458 T
519.901 51.2214 516.283 52.397 515.901 51.2214 T
519.901 51.2214 517.283 53.1235 516.283 52.397 T
519.901 51.2214 518.519 53.1235 517.283 53.1235 T
519.901 51.2214 519.519 52.397 518.519 53.1235 T
519.026 52.8235 517.644 50.9214 518.644 51.6479 T
519.026 52.8235 516.408 50.9214 517.644 50.9214 T
519.026 52.8235 515.408 51.6479 516.408 50.9214 T
519.026 52.8235 515.026 52.8235 515.408 51.6479 T
519.026 52.8235 515.408 53.9991 515.026 52.8235 T
519.026 52.8235 516.408 54.7256 515.408 53.9991 T
519.026 52.8235 517.644 54.7256 516.408 54.7256 T
519.026 52.8235 518.644 53.9991 517.644 54.7256 T
517.977 55.0914 516.595 53.1893 517.595 53.9159 T
517.977 55.0914 515.359 53.1893 516.595 53.1893 T
517.977 55.0914 514.359 53.9159 515.359 53.1893 T
517.977 55.0914 513.977 55.0914 514.359 53.9159 T
517.977 55.0914 514.359 56.267 513.977 55.0914 T
517.977 55.0914 515.359 56.9935 514.359 56.267 T
517.977 55.0914 516.595 56.9935 515.359 56.9935 T
517.977 55.0914 517.595 56.267 516.595 56.9935 T
517.204 56.9982 515.823 55.0961 516.823 55.8226 T
517.204 56.9982 514.586 55.0961 515.823 55.0961 T
517.204 56.9982 513.586 55.8226 514.586 55.0961 T
517.204 56.9982 513.204 56.9982 513.586 55.8226 T
517.204 56.9982 513.586 58.1737 513.204 56.9982 T
517.204 56.9982 514.586 58.9003 513.586 58.1737 T
517.204 56.9982 515.823 58.9003 514.586 58.9003 T
517.204 56.9982 516.823 58.1737 515.823 58.9003 T
516.426 59.1189 515.044 57.2168 516.044 57.9433 T
516.426 59.1189 513.807 57.2168 515.044 57.2168 T
516.426 59.1189 512.807 57.9433 513.807 57.2168 T
516.426 59.1189 512.426 59.1189 512.807 57.9433 T
516.426 59.1189 512.807 60.2945 512.426 59.1189 T
516.426 59.1189 513.807 61.021 512.807 60.2945 T
516.426 59.1189 515.044 61.021 513.807 61.021 T
516.426 59.1189 516.044 60.2945 515.044 61.021 T
515.747 61.1289 514.365 59.2268 515.365 59.9534 T
515.747 61.1289 513.129 59.2268 514.365 59.2268 T
515.747 61.1289 512.129 59.9534 513.129 59.2268 T
515.747 61.1289 511.747 61.1289 512.129 59.9534 T
515.747 61.1289 512.129 62.3045 511.747 61.1289 T
515.747 61.1289 513.129 63.031 512.129 62.3045 T
515.747 61.1289 514.365 63.031 513.129 63.031 T
515.747 61.1289 515.365 62.3045 514.365 63.031 T
515.004 63.5008 513.622 61.5987 514.622 62.3252 T
515.004 63.5008 512.386 61.5987 513.622 61.5987 T
515.004 63.5008 511.386 62.3252 512.386 61.5987 T
515.004 63.5008 511.004 63.5008 511.386 62.3252 T
515.004 63.5008 511.386 64.6764 511.004 63.5008 T
515.004 63.5008 512.386 65.4029 511.386 64.6764 T
515.004 63.5008 513.622 65.4029 512.386 65.4029 T
515.004 63.5008 514.622 64.6764 513.622 65.4029 T
514.553 65.022 513.171 63.1199 514.171 63.8465 T
514.553 65.022 511.935 63.1199 513.171 63.1199 T
514.553 65.022 510.935 63.8465 511.935 63.1199 T
514.553 65.022 510.553 65.022 510.935 63.8465 T
514.553 65.022 510.935 66.1976 510.553 65.022 T
514.553 65.022 511.935 66.9242 510.935 66.1976 T
514.553 65.022 513.171 66.9242 511.935 66.9242 T
514.553 65.022 514.171 66.1976 513.171 66.9242 T
513.83 67.5998 512.448 65.6977 513.448 66.4243 T
513.83 67.5998 511.212 65.6977 512.448 65.6977 T
513.83 67.5998 510.212 66.4243 511.212 65.6977 T
513.83 67.5998 509.83 67.5998 510.212 66.4243 T
513.83 67.5998 510.212 68.7754 509.83 67.5998 T
513.83 67.5998 511.212 69.5019 510.212 68.7754 T
513.83 67.5998 512.448 69.5019 511.212 69.5019 T
513.83 67.5998 513.448 68.7754 512.448 69.5019 T
513.247 69.8017 511.865 67.8995 512.865 68.6261 T
513.247 69.8017 510.629 67.8995 511.865 67.8995 T
513.247 69.8017 509.629 68.6261 510.629 67.8995 T
513.247 69.8017 509.247 69.8017 509.629 68.6261 T
513.247 69.8017 509.629 70.9772 509.247 69.8017 T
513.247 69.8017 510.629 71.7038 509.629 70.9772 T
513.247 69.8017 511.865 71.7038 510.629 71.7038 T
513.247 69.8017 512.865 70.9772 511.865 71.7038 T
512.665 72.096 511.283 70.1939 512.283 70.9204 T
512.665 72.096 510.047 70.1939 511.283 70.1939 T
512.665 72.096 509.047 70.9204 510.047 70.1939 T
512.665 72.096 508.665 72.096 509.047 70.9204 T
512.665 72.096 509.047 73.2715 508.665 72.096 T
512.665 72.096 510.047 73.9981 509.047 73.2715 T
512.665 72.096 511.283 73.9981 510.047 73.9981 T
512.665 72.096 512.283 73.2715 511.283 73.9981 T
512.087 74.4741 510.705 72.572 511.705 73.2985 T
512.087 74.4741 509.469 72.572 510.705 72.572 T
512.087 74.4741 508.469 73.2985 509.469 72.572 T
512.087 74.4741 508.087 74.4741 508.469 73.2985 T
512.087 74.4741 508.469 75.6497 508.087 74.4741 T
512.087 74.4741 509.469 76.3762 508.469 75.6497 T
512.087 74.4741 510.705 76.3762 509.469 76.3762 T
512.087 74.4741 511.705 75.6497 510.705 76.3762 T
511.555 76.7549 510.173 74.8528 511.173 75.5793 T
511.555 76.7549 508.937 74.8528 510.173 74.8528 T
511.555 76.7549 507.937 75.5793 508.937 74.8528 T
511.555 76.7549 507.555 76.7549 507.937 75.5793 T
511.555 76.7549 507.937 77.9305 507.555 76.7549 T
511.555 76.7549 508.937 78.657 507.937 77.9305 T
511.555 76.7549 510.173 78.657 508.937 78.657 T
511.555 76.7549 511.173 77.9305 510.173 78.657 T
511.008 79.1736 509.626 77.2715 510.626 77.998 T
511.008 79.1736 508.39 77.2715 509.626 77.2715 T
511.008 79.1736 507.39 77.998 508.39 77.2715 T
511.008 79.1736 507.008 79.1736 507.39 77.998 T
511.008 79.1736 507.39 80.3492 507.008 79.1736 T
511.008 79.1736 508.39 81.0757 507.39 80.3492 T
511.008 79.1736 509.626 81.0757 508.39 81.0757 T
511.008 79.1736 510.626 80.3492 509.626 81.0757 T
510.45 81.7467 509.068 79.8447 510.068 80.5712 T
510.45 81.7467 507.832 79.8447 509.068 79.8447 T
510.45 81.7467 506.832 80.5712 507.832 79.8447 T
510.45 81.7467 506.45 81.7467 506.832 80.5712 T
510.45 81.7467 506.832 82.9223 506.45 81.7467 T
510.45 81.7467 507.832 83.6489 506.832 82.9223 T
510.45 81.7467 509.068 83.6489 507.832 83.6489 T
510.45 81.7467 510.068 82.9223 509.068 83.6489 T
509.917 84.2722 508.535 82.3701 509.535 83.0966 T
509.917 84.2722 507.299 82.3701 508.535 82.3701 T
509.917 84.2722 506.299 83.0966 507.299 82.3701 T
509.917 84.2722 505.917 84.2722 506.299 83.0966 T
509.917 84.2722 506.299 85.4478 505.917 84.2722 T
509.917 84.2722 507.299 86.1743 506.299 85.4478 T
509.917 84.2722 508.535 86.1743 507.299 86.1743 T
509.917 84.2722 509.535 85.4478 508.535 86.1743 T
509.408 86.7583 508.026 84.8562 509.026 85.5827 T
509.408 86.7583 506.79 84.8562 508.026 84.8562 T
509.408 86.7583 505.79 85.5827 506.79 84.8562 T
509.408 86.7583 505.408 86.7583 505.79 85.5827 T
509.408 86.7583 505.79 87.9338 505.408 86.7583 T
509.408 86.7583 506.79 88.6604 505.79 87.9338 T
509.408 86.7583 508.026 88.6604 506.79 88.6604 T
509.408 86.7583 509.026 87.9338 508.026 88.6604 T
508.841 89.6212 507.459 87.7191 508.459 88.4456 T
508.841 89.6212 506.223 87.7191 507.459 87.7191 T
508.841 89.6212 505.223 88.4456 506.223 87.7191 T
508.841 89.6212 504.841 89.6212 505.223 88.4456 T
508.841 89.6212 505.223 90.7968 504.841 89.6212 T
508.841 89.6212 506.223 91.5233 505.223 90.7968 T
508.841 89.6212 507.459 91.5233 506.223 91.5233 T
508.841 89.6212 508.459 90.7968 507.459 91.5233 T
508.308 92.3834 506.926 90.4813 507.926 91.2079 T
508.308 92.3834 505.69 90.4813 506.926 90.4813 T
508.308 92.3834 504.69 91.2079 505.69 90.4813 T
508.308 92.3834 504.308 92.3834 504.69 91.2079 T
508.308 92.3834 504.69 93.559 504.308 92.3834 T
508.308 92.3834 505.69 94.2855 504.69 93.559 T
508.308 92.3834 506.926 94.2855 505.69 94.2855 T
508.308 92.3834 507.926 93.559 506.926 94.2855 T
507.821 94.9653 506.439 93.0632 507.439 93.7898 T
507.821 94.9653 505.203 93.0632 506.439 93.0632 T
507.821 94.9653 504.203 93.7898 505.203 93.0632 T
507.821 94.9653 503.821 94.9653 504.203 93.7898 T
507.821 94.9653 504.203 96.1409 503.821 94.9653 T
507.821 94.9653 505.203 96.8674 504.203 96.1409 T
507.821 94.9653 506.439 96.8674 505.203 96.8674 T
507.821 94.9653 507.439 96.1409 506.439 96.8674 T
507.272 97.9591 505.89 96.057 506.89 96.7835 T
507.272 97.9591 504.654 96.057 505.89 96.057 T
507.272 97.9591 503.654 96.7835 504.654 96.057 T
507.272 97.9591 503.272 97.9591 503.654 96.7835 T
507.272 97.9591 503.654 99.1346 503.272 97.9591 T
507.272 97.9591 504.654 99.8612 503.654 99.1346 T
507.272 97.9591 505.89 99.8612 504.654 99.8612 T
507.272 97.9591 506.89 99.1346 505.89 99.8612 T
506.741 100.918 505.359 99.0155 506.359 99.742 T
506.741 100.918 504.123 99.0155 505.359 99.0155 T
506.741 100.918 503.123 99.742 504.123 99.0155 T
506.741 100.918 502.741 100.918 503.123 99.742 T
506.741 100.918 503.123 102.093 502.741 100.918 T
506.741 100.918 504.123 102.82 503.123 102.093 T
506.741 100.918 505.359 102.82 504.123 102.82 T
506.741 100.918 506.359 102.093 505.359 102.82 T
506.205 103.97 504.823 102.068 505.823 102.795 T
506.205 103.97 503.587 102.068 504.823 102.068 T
506.205 103.97 502.587 102.795 503.587 102.068 T
506.205 103.97 502.205 103.97 502.587 102.795 T
506.205 103.97 502.587 105.146 502.205 103.97 T
506.205 103.97 503.587 105.872 502.587 105.146 T
506.205 103.97 504.823 105.872 503.587 105.872 T
506.205 103.97 505.823 105.146 504.823 105.872 T
505.669 107.087 504.288 105.185 505.288 105.911 T
505.669 107.087 503.051 105.185 504.288 105.185 T
505.669 107.087 502.051 105.911 503.051 105.185 T
505.669 107.087 501.67 107.087 502.051 105.911 T
505.669 107.087 502.051 108.262 501.67 107.087 T
505.669 107.087 503.051 108.989 502.051 108.262 T
505.669 107.087 504.288 108.989 503.051 108.989 T
505.669 107.087 505.288 108.262 504.288 108.989 T
505.145 110.21 503.763 108.308 504.763 109.034 T
505.145 110.21 502.527 108.308 503.763 108.308 T
505.145 110.21 501.527 109.034 502.527 108.308 T
505.145 110.21 501.145 110.21 501.527 109.034 T
505.145 110.21 501.527 111.385 501.145 110.21 T
505.145 110.21 502.527 112.112 501.527 111.385 T
505.145 110.21 503.763 112.112 502.527 112.112 T
505.145 110.21 504.763 111.385 503.763 112.112 T
504.605 113.496 503.223 111.594 504.223 112.321 T
504.605 113.496 501.987 111.594 503.223 111.594 T
504.605 113.496 500.987 112.321 501.987 111.594 T
504.605 113.496 500.605 113.496 500.987 112.321 T
504.605 113.496 500.987 114.672 500.605 113.496 T
504.605 113.496 501.987 115.399 500.987 114.672 T
504.605 113.496 503.223 115.399 501.987 115.399 T
504.605 113.496 504.223 114.672 503.223 115.399 T
504.049 116.932 502.667 115.029 503.667 115.756 T
504.049 116.932 501.431 115.029 502.667 115.029 T
504.049 116.932 500.431 115.756 501.431 115.029 T
504.049 116.932 500.049 116.932 500.431 115.756 T
504.049 116.932 500.431 118.107 500.049 116.932 T
504.049 116.932 501.431 118.834 500.431 118.107 T
504.049 116.932 502.667 118.834 501.431 118.834 T
504.049 116.932 503.667 118.107 502.667 118.834 T
503.987 117.318 502.605 115.416 503.605 116.143 T
503.987 117.318 501.369 115.416 502.605 115.416 T
503.987 117.318 500.369 116.143 501.369 115.416 T
503.987 117.318 499.987 117.318 500.369 116.143 T
503.987 117.318 500.369 118.494 499.987 117.318 T
503.987 117.318 501.369 119.22 500.369 118.494 T
503.987 117.318 502.605 119.22 501.369 119.22 T
503.987 117.318 503.605 118.494 502.605 119.22 T
503.987 117.318 502.605 115.416 503.605 116.143 T
503.987 117.318 501.369 115.416 502.605 115.416 T
503.987 117.318 500.369 116.143 501.369 115.416 T
503.987 117.318 499.987 117.318 500.369 116.143 T
503.987 117.318 500.369 118.494 499.987 117.318 T
503.987 117.318 501.369 119.22 500.369 118.494 T
503.987 117.318 502.605 119.22 501.369 119.22 T
503.987 117.318 503.605 118.494 502.605 119.22 T
503.987 117.318 502.605 115.416 503.605 116.143 T
503.987 117.318 501.369 115.416 502.605 115.416 T
503.987 117.318 500.369 116.143 501.369 115.416 T
503.987 117.318 499.987 117.318 500.369 116.143 T
503.987 117.318 500.369 118.494 499.987 117.318 T
503.987 117.318 501.369 119.22 500.369 118.494 T
503.987 117.318 502.605 119.22 501.369 119.22 T
503.987 117.318 503.605 118.494 502.605 119.22 T
387.008 117.491 385.626 115.589 386.626 116.316 T
387.008 117.491 384.389 115.589 385.626 115.589 T
387.008 117.491 383.389 116.316 384.389 115.589 T
387.008 117.491 383.008 117.491 383.389 116.316 T
387.008 117.491 383.389 118.667 383.008 117.491 T
387.008 117.491 384.389 119.393 383.389 118.667 T
387.008 117.491 385.626 119.393 384.389 119.393 T
387.008 117.491 386.626 118.667 385.626 119.393 T
387.008 117.491 385.626 115.589 386.626 116.316 T
387.008 117.491 384.389 115.589 385.626 115.589 T
387.008 117.491 383.389 116.316 384.389 115.589 T
387.008 117.491 383.008 117.491 383.389 116.316 T
387.008 117.491 383.389 118.667 383.008 117.491 T
387.008 117.491 384.389 119.393 383.389 118.667 T
387.008 117.491 385.626 119.393 384.389 119.393 T
387.008 117.491 386.626 118.667 385.626 119.393 T
387.008 117.491 385.626 115.589 386.626 116.316 T
387.008 117.491 384.389 115.589 385.626 115.589 T
387.008 117.491 383.389 116.316 384.389 115.589 T
387.008 117.491 383.008 117.491 383.389 116.316 T
387.008 117.491 383.389 118.667 383.008 117.491 T
387.008 117.491 384.389 119.393 383.389 118.667 T
387.008 117.491 385.626 119.393 384.389 119.393 T
387.008 117.491 386.626 118.667 385.626 119.393 T
386.391 117.553 385.009 115.651 386.01 116.378 T
386.391 117.553 383.773 115.651 385.009 115.651 T
386.391 117.553 382.773 116.378 383.773 115.651 T
386.391 117.553 382.391 117.553 382.773 116.378 T
386.391 117.553 382.773 118.729 382.391 117.553 T
386.391 117.553 383.773 119.455 382.773 118.729 T
386.391 117.553 385.009 119.455 383.773 119.455 T
386.391 117.553 386.01 118.729 385.009 119.455 T
383.043 119.965 381.661 118.063 382.661 118.789 T
383.043 119.965 380.425 118.063 381.661 118.063 T
383.043 119.965 379.425 118.789 380.425 118.063 T
383.043 119.965 379.043 119.965 379.425 118.789 T
383.043 119.965 379.425 121.14 379.043 119.965 T
383.043 119.965 380.425 121.867 379.425 121.14 T
383.043 119.965 381.661 121.867 380.425 121.867 T
383.043 119.965 382.661 121.14 381.661 121.867 T
381.2 122.773 379.818 120.871 380.818 121.597 T
381.2 122.773 378.582 120.871 379.818 120.871 T
381.2 122.773 377.582 121.597 378.582 120.871 T
381.2 122.773 377.2 122.773 377.582 121.597 T
381.2 122.773 377.582 123.948 377.2 122.773 T
381.2 122.773 378.582 124.675 377.582 123.948 T
381.2 122.773 379.818 124.675 378.582 124.675 T
381.2 122.773 380.818 123.948 379.818 124.675 T
379.722 125.767 378.34 123.865 379.34 124.592 T
379.722 125.767 377.104 123.865 378.34 123.865 T
379.722 125.767 376.104 124.592 377.104 123.865 T
379.722 125.767 375.722 125.767 376.104 124.592 T
379.722 125.767 376.104 126.943 375.722 125.767 T
379.722 125.767 377.104 127.67 376.104 126.943 T
379.722 125.767 378.34 127.67 377.104 127.67 T
379.722 125.767 379.34 126.943 378.34 127.67 T
378.443 128.882 377.061 126.979 378.061 127.706 T
378.443 128.882 375.825 126.979 377.061 126.979 T
378.443 128.882 374.825 127.706 375.825 126.979 T
378.443 128.882 374.443 128.882 374.825 127.706 T
378.443 128.882 374.825 130.057 374.443 128.882 T
378.443 128.882 375.825 130.784 374.825 130.057 T
378.443 128.882 377.061 130.784 375.825 130.784 T
378.443 128.882 378.061 130.057 377.061 130.784 T
377.278 132.132 375.896 130.23 376.896 130.956 T
377.278 132.132 374.66 130.23 375.896 130.23 T
377.278 132.132 373.66 130.956 374.66 130.23 T
377.278 132.132 373.278 132.132 373.66 130.956 T
377.278 132.132 373.66 133.307 373.278 132.132 T
377.278 132.132 374.66 134.034 373.66 133.307 T
377.278 132.132 375.896 134.034 374.66 134.034 T
377.278 132.132 376.896 133.307 375.896 134.034 T
376.191 135.515 374.809 133.613 375.809 134.339 T
376.191 135.515 373.573 133.613 374.809 133.613 T
376.191 135.515 372.573 134.339 373.573 133.613 T
376.191 135.515 372.191 135.515 372.573 134.339 T
376.191 135.515 372.573 136.69 372.191 135.515 T
376.191 135.515 373.573 137.417 372.573 136.69 T
376.191 135.515 374.809 137.417 373.573 137.417 T
376.191 135.515 375.809 136.69 374.809 137.417 T
375.164 139.001 373.783 137.099 374.783 137.825 T
375.164 139.001 372.546 137.099 373.783 137.099 T
375.164 139.001 371.546 137.825 372.546 137.099 T
375.164 139.001 371.164 139.001 371.546 137.825 T
375.164 139.001 371.546 140.177 371.164 139.001 T
375.164 139.001 372.546 140.903 371.546 140.177 T
375.164 139.001 373.783 140.903 372.546 140.903 T
375.164 139.001 374.783 140.177 373.783 140.903 T
374.171 142.649 372.789 140.747 373.789 141.474 T
374.171 142.649 371.553 140.747 372.789 140.747 T
374.171 142.649 370.553 141.474 371.553 140.747 T
374.171 142.649 370.171 142.649 370.553 141.474 T
374.171 142.649 370.553 143.825 370.171 142.649 T
374.171 142.649 371.553 144.552 370.553 143.825 T
374.171 142.649 372.789 144.552 371.553 144.552 T
374.171 142.649 373.789 143.825 372.789 144.552 T
373.214 146.402 371.832 144.5 372.832 145.226 T
373.214 146.402 370.596 144.5 371.832 144.5 T
373.214 146.402 369.596 145.226 370.596 144.5 T
373.214 146.402 369.214 146.402 369.596 145.226 T
373.214 146.402 369.596 147.577 369.214 146.402 T
373.214 146.402 370.596 148.304 369.596 147.577 T
373.214 146.402 371.832 148.304 370.596 148.304 T
373.214 146.402 372.832 147.577 371.832 148.304 T
372.276 150.303 370.894 148.401 371.894 149.127 T
372.276 150.303 369.658 148.401 370.894 148.401 T
372.276 150.303 368.658 149.127 369.658 148.401 T
372.276 150.303 368.276 150.303 368.658 149.127 T
372.276 150.303 368.658 151.478 368.276 150.303 T
372.276 150.303 369.658 152.205 368.658 151.478 T
372.276 150.303 370.894 152.205 369.658 152.205 T
372.276 150.303 371.894 151.478 370.894 152.205 T
371.354 154.347 369.973 152.445 370.973 153.172 T
371.354 154.347 368.736 152.445 369.973 152.445 T
371.354 154.347 367.736 153.172 368.736 152.445 T
371.354 154.347 367.354 154.347 367.736 153.172 T
371.354 154.347 367.736 155.523 367.354 154.347 T
371.354 154.347 368.736 156.249 367.736 155.523 T
371.354 154.347 369.973 156.249 368.736 156.249 T
371.354 154.347 370.973 155.523 369.973 156.249 T
370.437 158.564 369.055 156.662 370.055 157.389 T
370.437 158.564 367.819 156.662 369.055 156.662 T
370.437 158.564 366.819 157.389 367.819 156.662 T
370.437 158.564 366.437 158.564 366.819 157.389 T
370.437 158.564 366.819 159.74 366.437 158.564 T
370.437 158.564 367.819 160.466 366.819 159.74 T
370.437 158.564 369.055 160.466 367.819 160.466 T
370.437 158.564 370.055 159.74 369.055 160.466 T
369.526 162.947 368.145 161.045 369.145 161.771 T
369.526 162.947 366.908 161.045 368.145 161.045 T
369.526 162.947 365.908 161.771 366.908 161.045 T
369.526 162.947 365.526 162.947 365.908 161.771 T
369.526 162.947 365.908 164.122 365.526 162.947 T
369.526 162.947 366.908 164.849 365.908 164.122 T
369.526 162.947 368.145 164.849 366.908 164.849 T
369.526 162.947 369.145 164.122 368.145 164.849 T
368.62 167.475 367.238 165.573 368.238 166.3 T
368.62 167.475 366.002 165.573 367.238 165.573 T
368.62 167.475 365.002 166.3 366.002 165.573 T
368.62 167.475 364.62 167.475 365.002 166.3 T
368.62 167.475 365.002 168.651 364.62 167.475 T
368.62 167.475 366.002 169.378 365.002 168.651 T
368.62 167.475 367.238 169.378 366.002 169.378 T
368.62 167.475 368.238 168.651 367.238 169.378 T
367.712 172.186 366.33 170.284 367.33 171.011 T
367.712 172.186 365.094 170.284 366.33 170.284 T
367.712 172.186 364.094 171.011 365.094 170.284 T
367.712 172.186 363.712 172.186 364.094 171.011 T
367.712 172.186 364.094 173.362 363.712 172.186 T
367.712 172.186 365.094 174.088 364.094 173.362 T
367.712 172.186 366.33 174.088 365.094 174.088 T
367.712 172.186 367.33 173.362 366.33 174.088 T
366.797 177.097 365.415 175.195 366.415 175.921 T
366.797 177.097 364.179 175.195 365.415 175.195 T
366.797 177.097 363.179 175.921 364.179 175.195 T
366.797 177.097 362.797 177.097 363.179 175.921 T
366.797 177.097 363.179 178.272 362.797 177.097 T
366.797 177.097 364.179 178.999 363.179 178.272 T
366.797 177.097 365.415 178.999 364.179 178.999 T
366.797 177.097 366.415 178.272 365.415 178.999 T
365.873 182.207 364.491 180.305 365.491 181.032 T
365.873 182.207 363.255 180.305 364.491 180.305 T
365.873 182.207 362.255 181.032 363.255 180.305 T
365.873 182.207 361.873 182.207 362.255 181.032 T
365.873 182.207 362.255 183.383 361.873 182.207 T
365.873 182.207 363.255 184.109 362.255 183.383 T
365.873 182.207 364.491 184.109 363.255 184.109 T
365.873 182.207 365.491 183.383 364.491 184.109 T
364.937 187.53 363.556 185.628 364.556 186.354 T
364.937 187.53 362.319 185.628 363.556 185.628 T
364.937 187.53 361.319 186.354 362.319 185.628 T
364.937 187.53 360.937 187.53 361.319 186.354 T
364.937 187.53 361.319 188.705 360.937 187.53 T
364.937 187.53 362.319 189.432 361.319 188.705 T
364.937 187.53 363.556 189.432 362.319 189.432 T
364.937 187.53 364.556 188.705 363.556 189.432 T
364.9 187.746 363.518 185.844 364.518 186.571 T
364.9 187.746 362.281 185.844 363.518 185.844 T
364.9 187.746 361.281 186.571 362.281 185.844 T
364.9 187.746 360.9 187.746 361.281 186.571 T
364.9 187.746 361.281 188.922 360.9 187.746 T
364.9 187.746 362.281 189.649 361.281 188.922 T
364.9 187.746 363.518 189.649 362.281 189.649 T
364.9 187.746 364.518 188.922 363.518 189.649 T
364.9 187.746 363.518 185.844 364.518 186.571 T
364.9 187.746 362.281 185.844 363.518 185.844 T
364.9 187.746 361.281 186.571 362.281 185.844 T
364.9 187.746 360.9 187.746 361.281 186.571 T
364.9 187.746 361.281 188.922 360.9 187.746 T
364.9 187.746 362.281 189.649 361.281 188.922 T
364.9 187.746 363.518 189.649 362.281 189.649 T
364.9 187.746 364.518 188.922 363.518 189.649 T
364.9 187.746 363.518 185.844 364.518 186.571 T
364.9 187.746 362.281 185.844 363.518 185.844 T
364.9 187.746 361.281 186.571 362.281 185.844 T
364.9 187.746 360.9 187.746 361.281 186.571 T
364.9 187.746 361.281 188.922 360.9 187.746 T
364.9 187.746 362.281 189.649 361.281 188.922 T
364.9 187.746 363.518 189.649 362.281 189.649 T
364.9 187.746 364.518 188.922 363.518 189.649 T
364.9 187.746 363.518 185.844 364.518 186.571 T
364.9 187.746 362.281 185.844 363.518 185.844 T
364.9 187.746 361.281 186.571 362.281 185.844 T
364.9 187.746 360.9 187.746 361.281 186.571 T
364.9 187.746 361.281 188.922 360.9 187.746 T
364.9 187.746 362.281 189.649 361.281 188.922 T
364.9 187.746 363.518 189.649 362.281 189.649 T
364.9 187.746 364.518 188.922 363.518 189.649 T
262.734 187.76 261.352 185.858 262.352 186.585 T
262.734 187.76 260.116 185.858 261.352 185.858 T
262.734 187.76 259.116 186.585 260.116 185.858 T
262.734 187.76 258.734 187.76 259.116 186.585 T
262.734 187.76 259.116 188.936 258.734 187.76 T
262.734 187.76 260.116 189.663 259.116 188.936 T
262.734 187.76 261.352 189.663 260.116 189.663 T
262.734 187.76 262.352 188.936 261.352 189.663 T
262.734 187.76 261.352 185.858 262.352 186.585 T
262.734 187.76 260.116 185.858 261.352 185.858 T
262.734 187.76 259.116 186.585 260.116 185.858 T
262.734 187.76 258.734 187.76 259.116 186.585 T
262.734 187.76 259.116 188.936 258.734 187.76 T
262.734 187.76 260.116 189.663 259.116 188.936 T
262.734 187.76 261.352 189.663 260.116 189.663 T
262.734 187.76 262.352 188.936 261.352 189.663 T
262.734 187.76 261.352 185.858 262.352 186.585 T
262.734 187.76 260.116 185.858 261.352 185.858 T
262.734 187.76 259.116 186.585 260.116 185.858 T
262.734 187.76 258.734 187.76 259.116 186.585 T
262.734 187.76 259.116 188.936 258.734 187.76 T
262.734 187.76 260.116 189.663 259.116 188.936 T
262.734 187.76 261.352 189.663 260.116 189.663 T
262.734 187.76 262.352 188.936 261.352 189.663 T
262.734 187.76 261.352 185.858 262.352 186.585 T
262.734 187.76 260.116 185.858 261.352 185.858 T
262.734 187.76 259.116 186.585 260.116 185.858 T
262.734 187.76 258.734 187.76 259.116 186.585 T
262.734 187.76 259.116 188.936 258.734 187.76 T
262.734 187.76 260.116 189.663 259.116 188.936 T
262.734 187.76 261.352 189.663 260.116 189.663 T
262.734 187.76 262.352 188.936 261.352 189.663 T
262.734 187.76 261.352 185.858 262.352 186.585 T
262.734 187.76 260.116 185.858 261.352 185.858 T
262.734 187.76 259.116 186.585 260.116 185.858 T
262.734 187.76 258.734 187.76 259.116 186.585 T
262.734 187.76 259.116 188.936 258.734 187.76 T
262.734 187.76 260.116 189.663 259.116 188.936 T
262.734 187.76 261.352 189.663 260.116 189.663 T
262.734 187.76 262.352 188.936 261.352 189.663 T
262.734 187.76 261.352 185.858 262.352 186.585 T
262.734 187.76 260.116 185.858 261.352 185.858 T
262.734 187.76 259.116 186.585 260.116 185.858 T
262.734 187.76 258.734 187.76 259.116 186.585 T
262.734 187.76 259.116 188.936 258.734 187.76 T
262.734 187.76 260.116 189.663 259.116 188.936 T
262.734 187.76 261.352 189.663 260.116 189.663 T
262.734 187.76 262.352 188.936 261.352 189.663 T
258.499 190.766 257.117 188.863 258.117 189.59 T
258.499 190.766 255.881 188.863 257.117 188.863 T
258.499 190.766 254.881 189.59 255.881 188.863 T
258.499 190.766 254.499 190.766 254.881 189.59 T
258.499 190.766 254.881 191.941 254.499 190.766 T
258.499 190.766 255.881 192.668 254.881 191.941 T
258.499 190.766 257.117 192.668 255.881 192.668 T
258.499 190.766 258.117 191.941 257.117 192.668 T
255.871 195.524 254.489 193.622 255.489 194.348 T
255.871 195.524 253.253 193.622 254.489 193.622 T
255.871 195.524 252.253 194.348 253.253 193.622 T
255.871 195.524 251.871 195.524 252.253 194.348 T
255.871 195.524 252.253 196.699 251.871 195.524 T
255.871 195.524 253.253 197.426 252.253 196.699 T
255.871 195.524 254.489 197.426 253.253 197.426 T
255.871 195.524 255.489 196.699 254.489 197.426 T
253.735 200.96 252.353 199.058 253.353 199.784 T
253.735 200.96 251.117 199.058 252.353 199.058 T
253.735 200.96 250.117 199.784 251.117 199.058 T
253.735 200.96 249.735 200.96 250.117 199.784 T
253.735 200.96 250.117 202.136 249.735 200.96 T
253.735 200.96 251.117 202.862 250.117 202.136 T
253.735 200.96 252.353 202.862 251.117 202.862 T
253.735 200.96 253.353 202.136 252.353 202.862 T
251.836 206.918 250.454 205.016 251.454 205.742 T
251.836 206.918 249.218 205.016 250.454 205.016 T
251.836 206.918 248.218 205.742 249.218 205.016 T
251.836 206.918 247.836 206.918 248.218 205.742 T
251.836 206.918 248.218 208.094 247.836 206.918 T
251.836 206.918 249.218 208.82 248.218 208.094 T
251.836 206.918 250.454 208.82 249.218 208.82 T
251.836 206.918 251.454 208.094 250.454 208.82 T
250.062 213.386 248.68 211.484 249.68 212.21 T
250.062 213.386 247.444 211.484 248.68 211.484 T
250.062 213.386 246.444 212.21 247.444 211.484 T
250.062 213.386 246.062 213.386 246.444 212.21 T
250.062 213.386 246.444 214.561 246.062 213.386 T
250.062 213.386 247.444 215.288 246.444 214.561 T
250.062 213.386 248.68 215.288 247.444 215.288 T
250.062 213.386 249.68 214.561 248.68 215.288 T
248.363 220.339 246.981 218.437 247.981 219.164 T
248.363 220.339 245.745 218.437 246.981 218.437 T
248.363 220.339 244.745 219.164 245.745 218.437 T
248.363 220.339 244.363 220.339 244.745 219.164 T
248.363 220.339 244.745 221.515 244.363 220.339 T
248.363 220.339 245.745 222.241 244.745 221.515 T
248.363 220.339 246.981 222.241 245.745 222.241 T
248.363 220.339 247.981 221.515 246.981 222.241 T
246.697 227.821 245.316 225.919 246.316 226.645 T
246.697 227.821 244.079 225.919 245.316 225.919 T
246.697 227.821 243.079 226.645 244.079 225.919 T
246.697 227.821 242.697 227.821 243.079 226.645 T
246.697 227.821 243.079 228.997 242.697 227.821 T
246.697 227.821 244.079 229.723 243.079 228.997 T
246.697 227.821 245.316 229.723 244.079 229.723 T
246.697 227.821 246.316 228.997 245.316 229.723 T
245.04 235.858 243.658 233.956 244.658 234.683 T
245.04 235.858 242.422 233.956 243.658 233.956 T
245.04 235.858 241.422 234.683 242.422 233.956 T
245.04 235.858 241.04 235.858 241.422 234.683 T
245.04 235.858 241.422 237.034 241.04 235.858 T
245.04 235.858 242.422 237.76 241.422 237.034 T
245.04 235.858 243.658 237.76 242.422 237.76 T
245.04 235.858 244.658 237.034 243.658 237.76 T
243.368 244.486 241.986 242.584 242.986 243.31 T
243.368 244.486 240.75 242.584 241.986 242.584 T
243.368 244.486 239.75 243.31 240.75 242.584 T
243.368 244.486 239.368 244.486 239.75 243.31 T
243.368 244.486 239.75 245.661 239.368 244.486 T
243.368 244.486 240.75 246.388 239.75 245.661 T
243.368 244.486 241.986 246.388 240.75 246.388 T
243.368 244.486 242.986 245.661 241.986 246.388 T
241.662 253.769 240.28 251.867 241.28 252.594 T
241.662 253.769 239.044 251.867 240.28 251.867 T
241.662 253.769 238.044 252.594 239.044 251.867 T
241.662 253.769 237.662 253.769 238.044 252.594 T
241.662 253.769 238.044 254.945 237.662 253.769 T
241.662 253.769 239.044 255.671 238.044 254.945 T
241.662 253.769 240.28 255.671 239.044 255.671 T
241.662 253.769 241.28 254.945 240.28 255.671 T
240.929 257.882 239.547 255.98 240.547 256.706 T
240.929 257.882 238.311 255.98 239.547 255.98 T
240.929 257.882 237.311 256.706 238.311 255.98 T
240.929 257.882 236.929 257.882 237.311 256.706 T
240.929 257.882 237.311 259.057 236.929 257.882 T
240.929 257.882 238.311 259.784 237.311 259.057 T
240.929 257.882 239.547 259.784 238.311 259.784 T
240.929 257.882 240.547 259.057 239.547 259.784 T
240.929 257.882 239.547 255.98 240.547 256.706 T
240.929 257.882 238.311 255.98 239.547 255.98 T
240.929 257.882 237.311 256.706 238.311 255.98 T
240.929 257.882 236.929 257.882 237.311 256.706 T
240.929 257.882 237.311 259.057 236.929 257.882 T
240.929 257.882 238.311 259.784 237.311 259.057 T
240.929 257.882 239.547 259.784 238.311 259.784 T
240.929 257.882 240.547 259.057 239.547 259.784 T
240.929 257.882 239.547 255.98 240.547 256.706 T
240.929 257.882 238.311 255.98 239.547 255.98 T
240.929 257.882 237.311 256.706 238.311 255.98 T
240.929 257.882 236.929 257.882 237.311 256.706 T
240.929 257.882 237.311 259.057 236.929 257.882 T
240.929 257.882 238.311 259.784 237.311 259.057 T
240.929 257.882 239.547 259.784 238.311 259.784 T
240.929 257.882 240.547 259.057 239.547 259.784 T
240.929 257.882 239.547 255.98 240.547 256.706 T
240.929 257.882 238.311 255.98 239.547 255.98 T
240.929 257.882 237.311 256.706 238.311 255.98 T
240.929 257.882 236.929 257.882 237.311 256.706 T
240.929 257.882 237.311 259.057 236.929 257.882 T
240.929 257.882 238.311 259.784 237.311 259.057 T
240.929 257.882 239.547 259.784 238.311 259.784 T
240.929 257.882 240.547 259.057 239.547 259.784 T
164.171 257.885 162.789 255.983 163.789 256.71 T
164.171 257.885 161.553 255.983 162.789 255.983 T
164.171 257.885 160.553 256.71 161.553 255.983 T
164.171 257.885 160.171 257.885 160.553 256.71 T
164.171 257.885 160.553 259.061 160.171 257.885 T
164.171 257.885 161.553 259.787 160.553 259.061 T
164.171 257.885 162.789 259.787 161.553 259.787 T
164.171 257.885 163.789 259.061 162.789 259.787 T
164.171 257.885 162.789 255.983 163.789 256.71 T
164.171 257.885 161.553 255.983 162.789 255.983 T
164.171 257.885 160.553 256.71 161.553 255.983 T
164.171 257.885 160.171 257.885 160.553 256.71 T
164.171 257.885 160.553 259.061 160.171 257.885 T
164.171 257.885 161.553 259.787 160.553 259.061 T
164.171 257.885 162.789 259.787 161.553 259.787 T
164.171 257.885 163.789 259.061 162.789 259.787 T
164.171 257.885 162.789 255.983 163.789 256.71 T
164.171 257.885 161.553 255.983 162.789 255.983 T
164.171 257.885 160.553 256.71 161.553 255.983 T
164.171 257.885 160.171 257.885 160.553 256.71 T
164.171 257.885 160.553 259.061 160.171 257.885 T
164.171 257.885 161.553 259.787 160.553 259.061 T
164.171 257.885 162.789 259.787 161.553 259.787 T
164.171 257.885 163.789 259.061 162.789 259.787 T
164.171 257.885 162.789 255.983 163.789 256.71 T
164.171 257.885 161.553 255.983 162.789 255.983 T
164.171 257.885 160.553 256.71 161.553 255.983 T
164.171 257.885 160.171 257.885 160.553 256.71 T
164.171 257.885 160.553 259.061 160.171 257.885 T
164.171 257.885 161.553 259.787 160.553 259.061 T
164.171 257.885 162.789 259.787 161.553 259.787 T
164.171 257.885 163.789 259.061 162.789 259.787 T
164.171 257.885 162.789 255.983 163.789 256.71 T
164.171 257.885 161.553 255.983 162.789 255.983 T
164.171 257.885 160.553 256.71 161.553 255.983 T
164.171 257.885 160.171 257.885 160.553 256.71 T
164.171 257.885 160.553 259.061 160.171 257.885 T
164.171 257.885 161.553 259.787 160.553 259.061 T
164.171 257.885 162.789 259.787 161.553 259.787 T
164.171 257.885 163.789 259.061 162.789 259.787 T
161.181 259.771 159.799 257.869 160.799 258.596 T
161.181 259.771 158.563 257.869 159.799 257.869 T
161.181 259.771 157.563 258.596 158.563 257.869 T
161.181 259.771 157.181 259.771 157.563 258.596 T
161.181 259.771 157.563 260.947 157.181 259.771 T
161.181 259.771 158.563 261.674 157.563 260.947 T
161.181 259.771 159.799 261.674 158.563 261.674 T
161.181 259.771 160.799 260.947 159.799 261.674 T
156.968 268.608 155.586 266.706 156.586 267.432 T
156.968 268.608 154.35 266.706 155.586 266.706 T
156.968 268.608 153.35 267.432 154.35 266.706 T
156.968 268.608 152.968 268.608 153.35 267.432 T
156.968 268.608 153.35 269.783 152.968 268.608 T
156.968 268.608 154.35 270.51 153.35 269.783 T
156.968 268.608 155.586 270.51 154.35 270.51 T
156.968 268.608 156.586 269.783 155.586 270.51 T
153.484 280.957 152.102 279.055 153.102 279.781 T
153.484 280.957 150.866 279.055 152.102 279.055 T
153.484 280.957 149.866 279.781 150.866 279.055 T
153.484 280.957 149.484 280.957 149.866 279.781 T
153.484 280.957 149.866 282.133 149.484 280.957 T
153.484 280.957 150.866 282.859 149.866 282.133 T
153.484 280.957 152.102 282.859 150.866 282.859 T
153.484 280.957 153.102 282.133 152.102 282.859 T
150.185 296.133 148.803 294.23 149.803 294.957 T
150.185 296.133 147.567 294.23 148.803 294.23 T
150.185 296.133 146.567 294.957 147.567 294.23 T
150.185 296.133 146.185 296.133 146.567 294.957 T
150.185 296.133 146.567 297.308 146.185 296.133 T
150.185 296.133 147.567 298.035 146.567 297.308 T
150.185 296.133 148.803 298.035 147.567 298.035 T
150.185 296.133 149.803 297.308 148.803 298.035 T
146.817 314.135 145.435 312.233 146.435 312.96 T
146.817 314.135 144.199 312.233 145.435 312.233 T
146.817 314.135 143.199 312.96 144.199 312.233 T
146.817 314.135 142.817 314.135 143.199 312.96 T
146.817 314.135 143.199 315.311 142.817 314.135 T
146.817 314.135 144.199 316.037 143.199 315.311 T
146.817 314.135 145.435 316.037 144.199 316.037 T
146.817 314.135 146.435 315.311 145.435 316.037 T
144.482 327.462 143.1 325.56 144.1 326.287 T
144.482 327.462 141.864 325.56 143.1 325.56 T
144.482 327.462 140.864 326.287 141.864 325.56 T
144.482 327.462 140.482 327.462 140.864 326.287 T
144.482 327.462 140.864 328.638 140.482 327.462 T
144.482 327.462 141.864 329.364 140.864 328.638 T
144.482 327.462 143.1 329.364 141.864 329.364 T
144.482 327.462 144.1 328.638 143.1 329.364 T
144.482 327.462 143.1 325.56 144.1 326.287 T
144.482 327.462 141.864 325.56 143.1 325.56 T
144.482 327.462 140.864 326.287 141.864 325.56 T
144.482 327.462 140.482 327.462 140.864 326.287 T
144.482 327.462 140.864 328.638 140.482 327.462 T
144.482 327.462 141.864 329.364 140.864 328.638 T
144.482 327.462 143.1 329.364 141.864 329.364 T
144.482 327.462 144.1 328.638 143.1 329.364 T
144.482 327.462 143.1 325.56 144.1 326.287 T
144.482 327.462 141.864 325.56 143.1 325.56 T
144.482 327.462 140.864 326.287 141.864 325.56 T
144.482 327.462 140.482 327.462 140.864 326.287 T
144.482 327.462 140.864 328.638 140.482 327.462 T
144.482 327.462 141.864 329.364 140.864 328.638 T
144.482 327.462 143.1 329.364 141.864 329.364 T
144.482 327.462 144.1 328.638 143.1 329.364 T
100.824 327.469 99.4425 325.567 100.442 326.294 T
100.824 327.469 98.2064 325.567 99.4425 325.567 T
100.824 327.469 97.2064 326.294 98.2064 325.567 T
100.824 327.469 96.8245 327.469 97.2064 326.294 T
100.824 327.469 97.2064 328.645 96.8245 327.469 T
100.824 327.469 98.2064 329.371 97.2064 328.645 T
100.824 327.469 99.4425 329.371 98.2064 329.371 T
100.824 327.469 100.442 328.645 99.4425 329.371 T
100.824 327.469 99.4425 325.567 100.442 326.294 T
100.824 327.469 98.2064 325.567 99.4425 325.567 T
100.824 327.469 97.2064 326.294 98.2064 325.567 T
100.824 327.469 96.8245 327.469 97.2064 326.294 T
100.824 327.469 97.2064 328.645 96.8245 327.469 T
100.824 327.469 98.2064 329.371 97.2064 328.645 T
100.824 327.469 99.4425 329.371 98.2064 329.371 T
100.824 327.469 100.442 328.645 99.4425 329.371 T
99.8142 327.876 98.4323 325.974 99.4323 326.7 T
99.8142 327.876 97.1962 325.974 98.4323 325.974 T
99.8142 327.876 96.1962 326.7 97.1962 325.974 T
99.8142 327.876 95.8143 327.876 96.1962 326.7 T
99.8142 327.876 96.1962 329.052 95.8143 327.876 T
99.8142 327.876 97.1962 329.778 96.1962 329.052 T
99.8142 327.876 98.4323 329.778 97.1962 329.778 T
99.8142 327.876 99.4323 329.052 98.4323 329.778 T
93.1721 349.486 91.7902 347.584 92.7902 348.31 T
93.1721 349.486 90.5541 347.584 91.7902 347.584 T
93.1721 349.486 89.5541 348.31 90.5541 347.584 T
93.1721 349.486 89.1721 349.486 89.5541 348.31 T
93.1721 349.486 89.5541 350.661 89.1721 349.486 T
93.1721 349.486 90.5541 351.388 89.5541 350.661 T
93.1721 349.486 91.7902 351.388 90.5541 351.388 T
93.1721 349.486 92.7902 350.661 91.7902 351.388 T
86.1118 390.364 84.7298 388.462 85.7298 389.188 T
86.1118 390.364 83.4938 388.462 84.7298 388.462 T
86.1118 390.364 82.4938 389.188 83.4938 388.462 T
86.1118 390.364 82.1118 390.364 82.4938 389.188 T
86.1118 390.364 82.4938 391.54 82.1118 390.364 T
86.1118 390.364 83.4938 392.266 82.4938 391.54 T
86.1118 390.364 84.7298 392.266 83.4938 392.266 T
86.1118 390.364 85.7298 391.54 84.7298 392.266 T
76.882 398.926 75.5001 397.024 76.5 397.75 T
76.882 398.926 74.264 397.024 75.5001 397.024 T
76.882 398.926 73.264 397.75 74.264 397.024 T
76.882 398.926 72.882 398.926 73.264 397.75 T
76.882 398.926 73.264 400.101 72.882 398.926 T
76.882 398.926 74.264 400.828 73.264 400.101 T
76.882 398.926 75.5001 400.828 74.264 400.828 T
76.882 398.926 76.5 400.101 75.5001 400.828 T
grestore
showpage
cleartomark
%%PageTrailer
%%Trailer
end
%%EOF
