%!PS-Adobe-3.0 EPSF-3.0
%%Title: glps_renderer figure
%%Creator: GL2PS 1.3.8, (C) 1999-2012 C. Geuzaine
%%For: Octave
%%CreationDate: Thu May 14 21:58:16 2015
%%LanguageLevel: 3
%%DocumentData: Clean7Bit
%%Pages: 1
%%BoundingBox: 0 0 560 420
%%EndComments
%%BeginProlog
/gl2psdict 64 dict def gl2psdict begin
0 setlinecap 0 setlinejoin
/tryPS3shading false def % set to false to force subdivision
/rThreshold 0.064 def % red component subdivision threshold
/gThreshold 0.034 def % green component subdivision threshold
/bThreshold 0.1 def % blue component subdivision threshold
/BD { bind def } bind def
/C  { setrgbcolor } BD
/G  { 0.082 mul exch 0.6094 mul add exch 0.3086 mul add neg 1.0 add setgray } BD
/W  { setlinewidth } BD
/FC { findfont exch /SH exch def SH scalefont setfont } BD
/SW { dup stringwidth pop } BD
/S  { FC moveto show } BD
/SBC{ FC moveto SW -2 div 0 rmoveto show } BD
/SBR{ FC moveto SW neg 0 rmoveto show } BD
/SCL{ FC moveto 0 SH -2 div rmoveto show } BD
/SCC{ FC moveto SW -2 div SH -2 div rmoveto show } BD
/SCR{ FC moveto SW neg SH -2 div rmoveto show } BD
/STL{ FC moveto 0 SH neg rmoveto show } BD
/STC{ FC moveto SW -2 div SH neg rmoveto show } BD
/STR{ FC moveto SW neg SH neg rmoveto show } BD
/FCT { FC translate 0 0 } BD
/SR  { gsave FCT moveto rotate show grestore } BD
/SBCR{ gsave FCT moveto rotate SW -2 div 0 rmoveto show grestore } BD
/SBRR{ gsave FCT moveto rotate SW neg 0 rmoveto show grestore } BD
/SCLR{ gsave FCT moveto rotate 0 SH -2 div rmoveto show grestore} BD
/SCCR{ gsave FCT moveto rotate SW -2 div SH -2 div rmoveto show grestore} BD
/SCRR{ gsave FCT moveto rotate SW neg SH -2 div rmoveto show grestore} BD
/STLR{ gsave FCT moveto rotate 0 SH neg rmoveto show grestore } BD
/STCR{ gsave FCT moveto rotate SW -2 div SH neg rmoveto show grestore } BD
/STRR{ gsave FCT moveto rotate SW neg SH neg rmoveto show grestore } BD
/P  { newpath 0.0 360.0 arc closepath fill } BD
/LS { newpath moveto } BD
/L  { lineto } BD
/LE { lineto stroke } BD
/T  { newpath moveto lineto lineto closepath fill } BD
/STshfill {
      /b1 exch def /g1 exch def /r1 exch def /y1 exch def /x1 exch def
      /b2 exch def /g2 exch def /r2 exch def /y2 exch def /x2 exch def
      /b3 exch def /g3 exch def /r3 exch def /y3 exch def /x3 exch def
      gsave << /ShadingType 4 /ColorSpace [/DeviceRGB]
      /DataSource [ 0 x1 y1 r1 g1 b1 0 x2 y2 r2 g2 b2 0 x3 y3 r3 g3 b3 ] >>
      shfill grestore } BD
/Tm { 3 -1 roll 8 -1 roll 13 -1 roll add add 3 div
      3 -1 roll 7 -1 roll 11 -1 roll add add 3 div
      3 -1 roll 6 -1 roll 9 -1 roll add add 3 div C T } BD
/STsplit {
      4 index 15 index add 0.5 mul
      4 index 15 index add 0.5 mul
      4 index 15 index add 0.5 mul
      4 index 15 index add 0.5 mul
      4 index 15 index add 0.5 mul
      5 copy 5 copy 25 15 roll
      9 index 30 index add 0.5 mul
      9 index 30 index add 0.5 mul
      9 index 30 index add 0.5 mul
      9 index 30 index add 0.5 mul
      9 index 30 index add 0.5 mul
      5 copy 5 copy 35 5 roll 25 5 roll 15 5 roll
      4 index 10 index add 0.5 mul
      4 index 10 index add 0.5 mul
      4 index 10 index add 0.5 mul
      4 index 10 index add 0.5 mul
      4 index 10 index add 0.5 mul
      5 copy 5 copy 40 5 roll 25 5 roll 15 5 roll 25 5 roll
      STnoshfill STnoshfill STnoshfill STnoshfill } BD
/STnoshfill {
      2 index 8 index sub abs rThreshold gt
      { STsplit }
      { 1 index 7 index sub abs gThreshold gt
        { STsplit }
        { dup 6 index sub abs bThreshold gt
          { STsplit }
          { 2 index 13 index sub abs rThreshold gt
            { STsplit }
            { 1 index 12 index sub abs gThreshold gt
              { STsplit }
              { dup 11 index sub abs bThreshold gt
                { STsplit }
                { 7 index 13 index sub abs rThreshold gt
                  { STsplit }
                  { 6 index 12 index sub abs gThreshold gt
                    { STsplit }
                    { 5 index 11 index sub abs bThreshold gt
                      { STsplit }
                      { Tm }
                      ifelse }
                    ifelse }
                  ifelse }
                ifelse }
              ifelse }
            ifelse }
          ifelse }
        ifelse }
      ifelse } BD
tryPS3shading
{ /shfill where
  { /ST { STshfill } BD }
  { /ST { STnoshfill } BD }
  ifelse }
{ /ST { STnoshfill } BD }
ifelse
end
%%EndProlog
%%BeginSetup
/DeviceRGB setcolorspace
gl2psdict begin
%%EndSetup
%%Page: 1 1
%%BeginPageSetup
%%EndPageSetup
mark
gsave
1.0 1.0 scale
1 1 1 C
72.8 132.847 506.8 112.686 261.231 46.2 T
72.8 132.847 318.369 199.333 506.8 112.686 T
506.8 112.686 318.369 388.5 506.8 301.853 T
506.8 112.686 318.369 199.333 318.369 388.5 T
0.5 W
[16 0] 0 setdash
0 0 0 C
70.0399 134.116 LS
62.9306 137.385 LE
(0) 58.3825 139.476 10 /Helvetica SBR
70.0399 165.644 LS
62.9306 168.913 LE
(1) 58.3825 171.004 10 /Helvetica SBR
70.0399 197.171 LS
62.9306 200.441 LE
(2) 58.3825 202.532 10 /Helvetica SBR
70.0399 228.699 LS
62.9306 231.968 LE
(3) 58.3825 234.06 10 /Helvetica SBR
70.0399 260.227 LS
62.9306 263.496 LE
(4) 58.3825 265.588 10 /Helvetica SBR
70.0399 291.755 LS
62.9306 295.024 LE
(5) 58.3825 297.115 10 /Helvetica SBR
70.0399 323.283 LS
62.9306 326.552 LE
(6) 58.3825 328.643 10 /Helvetica SBR
1 1 1 C
72.8 132.847 318.369 388.5 72.8 322.014 T
72.8 132.847 318.369 199.333 318.369 388.5 T
0 0 0 C
99.8075 120.428 LS
72.8 132.847 LE
489.965 120.428 LS
318.369 199.333 LE
72.8 132.847 LS
318.369 199.333 LE
72.8 132.847 LS
62.339 130.014 LE
(4) 57.5182 128.709 10 /Helvetica STR
318.369 388.5 LS
318.369 199.333 LE
70.0399 134.116 LS
72.8 132.847 LE
70.0399 165.644 LS
72.8 164.374 LE
72.8 170.103 LS
72.8 132.847 LE
352.837 372.651 LS
318.369 388.5 LE
259.828 372.651 LS
318.369 388.5 LE
0 0 1 C
95.2801 134.984 93.8981 133.082 94.8981 133.809 T
95.2801 134.984 92.662 133.082 93.8981 133.082 T
95.2801 134.984 91.662 133.809 92.662 133.082 T
95.2801 134.984 91.2801 134.984 91.662 133.809 T
95.2801 134.984 91.662 136.16 91.2801 134.984 T
95.2801 134.984 92.662 136.886 91.662 136.16 T
95.2801 134.984 93.8981 136.886 92.662 136.886 T
95.2801 134.984 94.8981 136.16 93.8981 136.886 T
0 0 0 C
112.083 114.783 LS
99.8075 120.428 LE
72.8 187.037 LS
72.8 170.103 LE
502.24 114.783 LS
489.965 120.428 LE
365.112 367.006 LS
352.837 372.651 LE
238.979 367.006 LS
259.828 372.651 LE
0 0 1 C
99.0552 145.502 97.6732 143.6 98.6732 144.326 T
99.0552 145.502 96.4371 143.6 97.6732 143.6 T
99.0552 145.502 95.4372 144.326 96.4371 143.6 T
99.0552 145.502 95.0552 145.502 95.4372 144.326 T
99.0552 145.502 95.4372 146.677 95.0552 145.502 T
99.0552 145.502 96.4371 147.404 95.4372 146.677 T
99.0552 145.502 97.6732 147.404 96.4371 147.404 T
99.0552 145.502 98.6732 146.677 97.6732 147.404 T
0 0 0 C
119.908 111.185 LS
109.447 108.353 LE
(3) 104.626 107.047 10 /Helvetica STR
112.083 114.783 LS
131.714 105.756 LE
70.0399 197.171 LS
72.8 195.902 LE
72.8 187.037 LS
72.8 214.118 LE
0 0 1 C
107.027 154.149 105.645 152.247 106.645 152.974 T
107.027 154.149 104.409 152.247 105.645 152.247 T
107.027 154.149 103.409 152.974 104.409 152.247 T
107.027 154.149 103.027 154.149 103.409 152.974 T
107.027 154.149 103.409 155.325 103.027 154.149 T
107.027 154.149 104.409 156.051 103.409 155.325 T
107.027 154.149 105.645 156.051 104.409 156.051 T
107.027 154.149 106.645 155.325 105.645 156.051 T
0 0 0 C
502.24 114.783 LS
506.8 112.686 LE
506.8 133.476 LS
506.8 112.686 LE
365.112 367.006 LS
384.743 357.979 LE
238.979 367.006 LS
205.639 357.979 LE
481.204 105.756 LS
506.8 112.686 L
516.669 108.148 LE
(2) 521.217 106.057 10 /Helvetica STL
0 0 1 C
156.368 108.459 154.986 106.557 155.986 107.283 T
156.368 108.459 153.75 106.557 154.986 106.557 T
156.368 108.459 152.75 107.283 153.75 106.557 T
156.368 108.459 152.368 108.459 152.75 107.283 T
156.368 108.459 152.75 109.634 152.368 108.459 T
156.368 108.459 153.75 110.361 152.75 109.634 T
156.368 108.459 154.986 110.361 153.75 110.361 T
156.368 108.459 155.986 109.634 154.986 110.361 T
0 0 0 C
139.443 102.202 LS
131.714 105.756 LE
70.8795 228.313 LS
70.0399 228.699 LE
72.8 224.781 LS
72.8 214.118 LE
506.8 144.139 LS
506.8 133.476 LE
392.473 354.425 LS
384.743 357.979 LE
192.511 354.425 LS
205.639 357.979 LE
468.076 102.202 LS
481.204 105.756 LE
0 0 1 C
177.573 102.754 176.191 100.852 177.191 101.578 T
177.573 102.754 174.955 100.852 176.191 100.852 T
177.573 102.754 173.955 101.578 174.955 100.852 T
177.573 102.754 173.573 102.754 173.955 101.578 T
177.573 102.754 173.955 103.929 173.573 102.754 T
177.573 102.754 174.955 104.656 173.955 103.929 T
177.573 102.754 176.191 104.656 174.955 104.656 T
177.573 102.754 177.191 103.929 176.191 104.656 T
0 0 0 C
139.443 102.202 LS
142.611 100.745 LE
70.8795 228.313 LS
72.8 227.43 LE
72.8 224.781 LS
72.8 229.15 LE
506.8 144.139 LS
506.8 148.509 LE
0 0 1 C
493.696 129.404 492.314 127.502 493.314 128.229 T
493.696 129.404 491.078 127.502 492.314 127.502 T
493.696 129.404 490.078 128.229 491.078 127.502 T
493.696 129.404 489.696 129.404 490.078 128.229 T
493.696 129.404 490.078 130.58 489.696 129.404 T
493.696 129.404 491.078 131.306 490.078 130.58 T
493.696 129.404 492.314 131.306 491.078 131.306 T
493.696 129.404 493.314 130.58 492.314 131.306 T
0 0 0 C
392.473 354.425 LS
395.64 352.968 LE
192.511 354.425 LS
187.131 352.968 LE
468.076 102.202 LS
462.696 100.745 LE
0 0 1 C
474.534 115.059 473.152 113.157 474.152 113.883 T
474.534 115.059 471.915 113.157 473.152 113.157 T
474.534 115.059 470.915 113.883 471.915 113.157 T
474.534 115.059 470.534 115.059 470.915 113.883 T
474.534 115.059 470.915 116.235 470.534 115.059 T
474.534 115.059 471.915 116.961 470.915 116.235 T
474.534 115.059 473.152 116.961 471.915 116.961 T
474.534 115.059 474.152 116.235 473.152 116.961 T
0 0 0 C
142.611 100.745 LS
146.081 99.1496 LE
72.8 229.15 LS
72.8 233.938 LE
506.8 148.509 LS
506.8 153.296 LE
395.64 352.968 LS
399.11 351.372 LE
187.131 352.968 LS
181.237 351.372 LE
462.696 100.745 LS
456.802 99.1496 LE
0 0 1 C
450.456 102.664 449.074 100.762 450.074 101.489 T
450.456 102.664 447.838 100.762 449.074 100.762 T
450.456 102.664 446.838 101.489 447.838 100.762 T
450.456 102.664 446.456 102.664 446.838 101.489 T
450.456 102.664 446.838 103.84 446.456 102.664 T
450.456 102.664 447.838 104.566 446.838 103.84 T
450.456 102.664 449.074 104.566 447.838 104.566 T
450.456 102.664 450.074 103.84 449.074 104.566 T
0 0 0 C
149.801 97.4394 LS
146.081 99.1496 LE
72.8 239.068 LS
72.8 233.938 LE
506.8 158.427 LS
506.8 153.296 LE
402.83 349.662 LS
399.11 351.372 LE
174.92 349.662 LS
181.237 351.372 LE
450.485 97.4394 LS
456.802 99.1496 LE
0 0 1 C
443.572 103.063 442.19 101.16 443.19 101.887 T
443.572 103.063 440.954 101.16 442.19 101.16 T
443.572 103.063 439.954 101.887 440.954 101.16 T
443.572 103.063 439.572 103.063 439.954 101.887 T
443.572 103.063 439.954 104.238 439.572 103.063 T
443.572 103.063 440.954 104.965 439.954 104.238 T
443.572 103.063 442.19 104.965 440.954 104.965 T
443.572 103.063 443.19 104.238 442.19 104.965 T
0 0 0 C
150.876 96.9448 LS
149.801 97.4394 LE
72.8 240.552 LS
72.8 239.068 LE
506.8 159.911 LS
506.8 158.427 LE
403.905 349.168 LS
402.83 349.662 LE
173.094 349.168 LS
174.92 349.662 LE
448.659 96.9449 LS
450.485 97.4394 LE
0 0 1 C
192.943 105.716 191.561 103.814 192.561 104.541 T
192.943 105.716 190.325 103.814 191.561 103.814 T
192.943 105.716 189.325 104.541 190.325 103.814 T
192.943 105.716 188.943 105.716 189.325 104.541 T
192.943 105.716 189.325 106.892 188.943 105.716 T
192.943 105.716 190.325 107.618 189.325 106.892 T
192.943 105.716 191.561 107.618 190.325 107.618 T
192.943 105.716 192.561 106.892 191.561 107.618 T
0 0 0 C
150.876 96.9448 LS
157.777 93.7714 LE
72.8 240.552 LS
72.8 250.072 LE
506.8 159.911 LS
506.8 169.431 LE
0 0 1 C
230.626 95.3814 229.244 93.4792 230.244 94.2058 T
230.626 95.3814 228.008 93.4792 229.244 93.4792 T
230.626 95.3814 227.008 94.2058 228.008 93.4792 T
230.626 95.3814 226.626 95.3814 227.008 94.2058 T
230.626 95.3814 227.008 96.5569 226.626 95.3814 T
230.626 95.3814 228.008 97.2835 227.008 96.5569 T
230.626 95.3814 229.244 97.2835 228.008 97.2835 T
230.626 95.3814 230.244 96.5569 229.244 97.2835 T
0 0 0 C
403.905 349.168 LS
410.806 345.994 LE
173.094 349.168 LS
161.373 345.994 LE
448.659 96.9449 LS
436.938 93.7714 LE
450.395 93.7714 LS
445.408 96.0647 LE
0 0 1 C
402.311 94.3951 400.929 92.493 401.929 93.2195 T
402.311 94.3951 399.693 92.493 400.929 92.493 T
402.311 94.3951 398.693 93.2195 399.693 92.493 T
402.311 94.3951 398.311 94.3951 398.693 93.2195 T
402.311 94.3951 398.693 95.5707 398.311 94.3951 T
402.311 94.3951 399.693 96.2972 398.693 95.5707 T
402.311 94.3951 400.929 96.2972 399.693 96.2972 T
402.311 94.3951 401.929 95.5707 400.929 96.2972 T
0 0 0 C
158.198 93.578 LS
157.777 93.7714 LE
72.8 250.652 LS
72.8 250.072 LE
506.8 170.011 LS
506.8 169.431 LE
411.227 345.801 LS
410.806 345.994 LE
160.658 345.801 LS
161.373 345.994 LE
436.223 93.578 LS
436.938 93.7714 LE
450.816 93.578 LS
450.395 93.7714 LE
0 0 1 C
429.416 105.602 428.034 103.7 429.034 104.427 T
429.416 105.602 426.798 103.7 428.034 103.7 T
429.416 105.602 425.798 104.427 426.798 103.7 T
429.416 105.602 425.416 105.602 425.798 104.427 T
429.416 105.602 425.798 106.778 425.416 105.602 T
429.416 105.602 426.798 107.504 425.798 106.778 T
429.416 105.602 428.034 107.504 426.798 107.504 T
429.416 105.602 429.034 106.778 428.034 107.504 T
0 0 0 C
159.272 93.0843 LS
158.198 93.578 LE
72.8 252.134 LS
72.8 250.652 LE
506.8 171.492 LS
506.8 170.011 LE
0 0 1 C
465.508 128.461 464.126 126.559 465.126 127.286 T
465.508 128.461 462.89 126.559 464.126 126.559 T
465.508 128.461 461.89 127.286 462.89 126.559 T
465.508 128.461 461.508 128.461 461.89 127.286 T
465.508 128.461 461.89 129.637 461.508 128.461 T
465.508 128.461 462.89 130.364 461.89 129.637 T
465.508 128.461 464.126 130.364 462.89 130.364 T
465.508 128.461 465.126 129.637 464.126 130.364 T
0 0 0 C
412.301 345.307 LS
411.227 345.801 LE
158.835 345.307 LS
160.658 345.801 LE
434.4 93.0843 LS
436.223 93.578 LE
451.889 93.0843 LS
450.816 93.578 LE
0 0 1 C
198.951 112.005 197.569 110.103 198.569 110.83 T
198.951 112.005 196.333 110.103 197.569 110.103 T
198.951 112.005 195.333 110.83 196.333 110.103 T
198.951 112.005 194.951 112.005 195.333 110.83 T
198.951 112.005 195.333 113.181 194.951 112.005 T
198.951 112.005 196.333 113.907 195.333 113.181 T
198.951 112.005 197.569 113.907 196.333 113.907 T
198.951 112.005 198.569 113.181 197.569 113.907 T
0 0 0 C
159.272 93.0843 LS
160.39 92.5702 LE
72.8 252.134 LS
72.8 253.676 LE
506.8 171.492 LS
506.8 173.035 LE
412.301 345.307 LS
413.419 344.793 LE
158.835 345.307 LS
156.936 344.793 LE
434.4 93.0843 LS
432.501 92.5702 LE
451.889 93.0843 LS
453.007 92.5702 LE
0 0 1 C
245.025 94.7226 243.644 92.8205 244.644 93.5471 T
245.025 94.7226 242.407 92.8205 243.644 92.8205 T
245.025 94.7226 241.407 93.5471 242.407 92.8205 T
245.025 94.7226 241.025 94.7226 241.407 93.5471 T
245.025 94.7226 241.407 95.8982 241.025 94.7226 T
245.025 94.7226 242.407 96.6248 241.407 95.8982 T
245.025 94.7226 243.644 96.6248 242.407 96.6248 T
245.025 94.7226 244.644 95.8982 243.644 96.6248 T
0 0 0 C
160.39 92.5702 LS
162.922 91.4058 LE
71.5032 259.554 LS
70.0399 260.227 LE
72.8 253.676 LS
72.8 257.169 LE
506.8 173.035 LS
506.8 176.528 LE
0 0 1 C
398.012 96.4379 396.63 94.5358 397.63 95.2624 T
398.012 96.4379 395.394 94.5358 396.63 94.5358 T
398.012 96.4379 394.394 95.2624 395.394 94.5358 T
398.012 96.4379 394.012 96.4379 394.394 95.2624 T
398.012 96.4379 394.394 97.6135 394.012 96.4379 T
398.012 96.4379 395.394 98.3401 394.394 97.6135 T
398.012 96.4379 396.63 98.3401 395.394 98.3401 T
398.012 96.4379 397.63 97.6135 396.63 98.3401 T
0 0 0 C
413.419 344.793 LS
415.951 343.629 LE
156.936 344.793 LS
152.635 343.629 LE
432.501 92.5702 LS
428.2 91.4058 LE
453.007 92.5702 LS
455.277 91.5265 LE
0 0 1 C
379.512 93.3839 378.13 91.4818 379.13 92.2084 T
379.512 93.3839 376.894 91.4818 378.13 91.4818 T
379.512 93.3839 375.894 92.2084 376.894 91.4818 T
379.512 93.3839 375.512 93.3839 375.894 92.2084 T
379.512 93.3839 375.894 94.5595 375.512 93.3839 T
379.512 93.3839 376.894 95.286 375.894 94.5595 T
379.512 93.3839 378.13 95.286 376.894 95.286 T
379.512 93.3839 379.13 94.5595 378.13 95.286 T
0 0 0 C
164.331 90.7577 LS
162.922 91.4058 LE
71.5032 259.554 LS
72.8 258.958 LE
72.8 259.113 LS
72.8 257.169 LE
506.8 178.472 LS
506.8 176.528 LE
0 0 1 C
240.723 99.7905 239.341 97.8884 240.341 98.615 T
240.723 99.7905 238.105 97.8884 239.341 97.8884 T
240.723 99.7905 237.105 98.615 238.105 97.8884 T
240.723 99.7905 236.723 99.7905 237.105 98.615 T
240.723 99.7905 237.105 100.966 236.723 99.7905 T
240.723 99.7905 238.105 101.693 237.105 100.966 T
240.723 99.7905 239.341 101.693 238.105 101.693 T
240.723 99.7905 240.341 100.966 239.341 101.693 T
0 0 0 C
417.36 342.981 LS
415.951 343.629 LE
150.241 342.98 LS
152.635 343.629 LE
425.806 90.7577 LS
428.2 91.4058 LE
0 0 1 C
378.474 94.5461 377.092 92.6439 378.092 93.3705 T
378.474 94.5461 375.856 92.6439 377.092 92.6439 T
378.474 94.5461 374.856 93.3705 375.856 92.6439 T
378.474 94.5461 374.474 94.5461 374.856 93.3705 T
378.474 94.5461 374.856 95.7216 374.474 94.5461 T
378.474 94.5461 375.856 96.4482 374.856 95.7216 T
378.474 94.5461 377.092 96.4482 375.856 96.4482 T
378.474 94.5461 378.092 95.7216 377.092 96.4482 T
0 0 0 C
164.331 90.7577 LS
165.083 90.4121 LE
72.8 259.113 LS
72.8 260.15 LE
506.8 178.472 LS
506.8 179.509 LE
417.36 342.981 LS
418.112 342.635 LE
150.241 342.98 LS
148.965 342.635 LE
425.806 90.7577 LS
424.53 90.4121 LE
0 0 1 C
360.253 92.0261 358.871 90.124 359.871 90.8506 T
360.253 92.0261 357.635 90.124 358.871 90.124 T
360.253 92.0261 356.635 90.8506 357.635 90.124 T
360.253 92.0261 356.253 92.0261 356.635 90.8506 T
360.253 92.0261 356.635 93.2017 356.253 92.0261 T
360.253 92.0261 357.635 93.9282 356.635 93.2017 T
360.253 92.0261 358.871 93.9282 357.635 93.9282 T
360.253 92.0261 359.871 93.2017 358.871 93.9282 T
0 0 0 C
165.325 90.3007 LS
165.083 90.4121 LE
72.8 260.484 LS
72.8 260.15 LE
506.8 179.843 LS
506.8 179.509 LE
0 0 1 C
466.32 138.211 464.939 136.309 465.939 137.036 T
466.32 138.211 463.702 136.309 464.939 136.309 T
466.32 138.211 462.702 137.036 463.702 136.309 T
466.32 138.211 462.32 138.211 462.702 137.036 T
466.32 138.211 462.702 139.387 462.32 138.211 T
466.32 138.211 463.702 140.113 462.702 139.387 T
466.32 138.211 464.939 140.113 463.702 140.113 T
466.32 138.211 465.939 139.387 464.939 140.113 T
0 0 0 C
418.354 342.524 LS
418.112 342.635 LE
148.553 342.524 LS
148.965 342.635 LE
424.118 90.3007 LS
424.53 90.4121 LE
0 0 1 C
420.725 110.11 419.343 108.208 420.343 108.934 T
420.725 110.11 418.107 108.208 419.343 108.208 T
420.725 110.11 417.107 108.934 418.107 108.208 T
420.725 110.11 416.725 110.11 417.107 108.934 T
420.725 110.11 417.107 111.286 416.725 110.11 T
420.725 110.11 418.107 112.012 417.107 111.286 T
420.725 110.11 419.343 112.012 418.107 112.012 T
420.725 110.11 420.343 111.286 419.343 112.012 T
0 0 0 C
165.325 90.3007 LS
165.366 90.2817 LE
72.8 260.484 LS
72.8 260.541 LE
506.8 179.843 LS
506.8 179.9 LE
418.354 342.524 LS
418.395 342.505 LE
148.553 342.524 LS
148.483 342.505 LE
424.118 90.3007 LS
424.048 90.2817 LE
0 0 1 C
280.039 92.2436 278.657 90.3415 279.657 91.068 T
280.039 92.2436 277.421 90.3415 278.657 90.3415 T
280.039 92.2436 276.421 91.068 277.421 90.3415 T
280.039 92.2436 276.039 92.2436 276.421 91.068 T
280.039 92.2436 276.421 93.4192 276.039 92.2436 T
280.039 92.2436 277.421 94.1457 276.421 93.4192 T
280.039 92.2436 278.657 94.1457 277.421 94.1457 T
280.039 92.2436 279.657 93.4192 278.657 94.1457 T
0 0 0 C
165.47 90.2341 LS
165.366 90.2817 LE
72.8 260.684 LS
72.8 260.541 LE
506.8 180.043 LS
506.8 179.9 LE
418.499 342.457 LS
418.395 342.505 LE
148.307 342.457 LS
148.483 342.505 LE
423.872 90.2341 LS
424.048 90.2817 LE
0 0 1 C
388.908 98.4244 387.526 96.5223 388.526 97.2489 T
388.908 98.4244 386.29 96.5223 387.526 96.5223 T
388.908 98.4244 385.29 97.2489 386.29 96.5223 T
388.908 98.4244 384.908 98.4244 385.29 97.2489 T
388.908 98.4244 385.29 99.6 384.908 98.4244 T
388.908 98.4244 386.29 100.327 385.29 99.6 T
388.908 98.4244 387.526 100.327 386.29 100.327 T
388.908 98.4244 388.526 99.6 387.526 100.327 T
0 0 0 C
165.731 89.1754 LS
167.016 89.5233 LE
165.47 90.2341 LS
167.772 89.1754 LE
72.8 260.684 LS
72.8 263.86 LE
506.8 180.043 LS
506.8 183.219 LE
0 0 1 C
203.431 119.498 202.049 117.596 203.049 118.322 T
203.431 119.498 200.813 117.596 202.049 117.596 T
203.431 119.498 199.813 118.322 200.813 117.596 T
203.431 119.498 199.431 119.498 199.813 118.322 T
203.431 119.498 199.813 120.673 199.431 119.498 T
203.431 119.498 200.813 121.4 199.813 120.673 T
203.431 119.498 202.049 121.4 200.813 121.4 T
203.431 119.498 203.049 120.673 202.049 121.4 T
0 0 0 C
418.499 342.457 LS
420.801 341.398 LE
148.307 342.457 LS
144.397 341.398 LE
423.872 90.2341 LS
419.962 89.1754 LE
(1.5) 459.825 89.4351 10 /Helvetica STL
0 0 1 C
320.871 91.6893 319.489 89.7872 320.489 90.5137 T
320.871 91.6893 318.253 89.7872 319.489 89.7872 T
320.871 91.6893 317.253 90.5137 318.253 89.7872 T
320.871 91.6893 316.871 91.6893 317.253 90.5137 T
320.871 91.6893 317.253 92.8649 316.871 91.6893 T
320.871 91.6893 318.253 93.5914 317.253 92.8649 T
320.871 91.6893 319.489 93.5914 318.253 93.5914 T
320.871 91.6893 320.489 92.8649 319.489 93.5914 T
0 0 0 C
165.03 88.9857 LS
165.731 89.1754 LE
168.185 88.9857 LS
167.772 89.1754 LE
72.8 264.429 LS
72.8 263.86 LE
506.8 183.788 LS
506.8 183.219 LE
0 0 1 C
266.853 96.9484 265.471 95.0463 266.471 95.7728 T
266.853 96.9484 264.235 95.0463 265.471 95.0463 T
266.853 96.9484 263.235 95.7728 264.235 95.0463 T
266.853 96.9484 262.853 96.9484 263.235 95.7728 T
266.853 96.9484 263.235 98.1239 262.853 96.9484 T
266.853 96.9484 264.235 98.8505 263.235 98.1239 T
266.853 96.9484 265.471 98.8505 264.235 98.8505 T
266.853 96.9484 266.471 98.1239 265.471 98.8505 T
0 0 0 C
421.214 341.209 LS
420.801 341.398 LE
143.697 341.209 LS
144.397 341.398 LE
419.262 88.9857 LS
419.962 89.1754 LE
0 0 1 C
304.957 92.4677 303.575 90.5656 304.575 91.2922 T
304.957 92.4677 302.339 90.5656 303.575 90.5656 T
304.957 92.4677 301.339 91.2922 302.339 90.5656 T
304.957 92.4677 300.957 92.4677 301.339 91.2922 T
304.957 92.4677 301.339 93.6433 300.957 92.4677 T
304.957 92.4677 302.339 94.3698 301.339 93.6433 T
304.957 92.4677 303.575 94.3698 302.339 94.3698 T
304.957 92.4677 304.575 93.6433 303.575 94.3698 T
0 0 0 C
163.899 88.6794 LS
165.03 88.9857 LE
168.851 88.6794 LS
168.185 88.9857 LE
72.8 265.348 LS
72.8 264.429 LE
506.8 184.707 LS
506.8 183.788 LE
421.88 340.902 LS
421.214 341.209 LE
142.565 340.902 LS
143.697 341.209 LE
418.13 88.6794 LS
419.262 88.9857 LE
0 0 1 C
287.931 94.5916 286.549 92.6895 287.549 93.416 T
287.931 94.5916 285.313 92.6895 286.549 92.6895 T
287.931 94.5916 284.313 93.416 285.313 92.6895 T
287.931 94.5916 283.931 94.5916 284.313 93.416 T
287.931 94.5916 284.313 95.7672 283.931 94.5916 T
287.931 94.5916 285.313 96.4937 284.313 95.7672 T
287.931 94.5916 286.549 96.4937 285.313 96.4937 T
287.931 94.5916 287.549 95.7672 286.549 96.4937 T
0 0 0 C
163.899 88.6794 LS
163.57 88.5904 LE
168.851 88.6794 LS
169.044 88.5904 LE
72.8 265.348 LS
72.8 265.615 LE
506.8 184.707 LS
506.8 184.974 LE
0 0 1 C
239.032 105.771 237.65 103.869 238.65 104.596 T
239.032 105.771 236.414 103.869 237.65 103.869 T
239.032 105.771 235.414 104.596 236.414 103.869 T
239.032 105.771 235.032 105.771 235.414 104.596 T
239.032 105.771 235.414 106.947 235.032 105.771 T
239.032 105.771 236.414 107.673 235.414 106.947 T
239.032 105.771 237.65 107.673 236.414 107.673 T
239.032 105.771 238.65 106.947 237.65 107.673 T
0 0 0 C
421.88 340.902 LS
422.074 340.813 LE
142.565 340.902 LS
142.236 340.813 LE
418.13 88.6794 LS
417.801 88.5904 LE
0 0 1 C
338.547 93.566 337.165 91.6638 338.165 92.3904 T
338.547 93.566 335.929 91.6638 337.165 91.6638 T
338.547 93.566 334.929 92.3904 335.929 91.6638 T
338.547 93.566 334.547 93.566 334.929 92.3904 T
338.547 93.566 334.929 94.7415 334.547 93.566 T
338.547 93.566 335.929 95.4681 334.929 94.7415 T
338.547 93.566 337.165 95.4681 335.929 95.4681 T
338.547 93.566 338.165 94.7415 337.165 95.4681 T
0 0 0 C
162.339 88.2571 LS
163.57 88.5904 LE
169.769 88.2571 LS
169.044 88.5904 LE
72.8 266.615 LS
72.8 265.615 LE
506.8 185.974 LS
506.8 184.974 LE
0 0 1 C
313.591 93.685 312.209 91.7828 313.209 92.5094 T
313.591 93.685 310.973 91.7828 312.209 91.7828 T
313.591 93.685 309.973 92.5094 310.973 91.7828 T
313.591 93.685 309.591 93.685 309.973 92.5094 T
313.591 93.685 309.973 94.8605 309.591 93.685 T
313.591 93.685 310.973 95.5871 309.973 94.8605 T
313.591 93.685 312.209 95.5871 310.973 95.5871 T
313.591 93.685 313.209 94.8605 312.209 95.5871 T
0 0 0 C
422.798 340.48 LS
422.074 340.813 LE
141.005 340.48 LS
142.236 340.813 LE
416.57 88.2571 LS
417.801 88.5904 LE
0 0 1 C
359.653 96.7497 358.271 94.8475 359.271 95.5741 T
359.653 96.7497 357.035 94.8475 358.271 94.8475 T
359.653 96.7497 356.035 95.5741 357.035 94.8475 T
359.653 96.7497 355.653 96.7497 356.035 95.5741 T
359.653 96.7497 356.035 97.9252 355.653 96.7497 T
359.653 96.7497 357.035 98.6518 356.035 97.9252 T
359.653 96.7497 358.271 98.6518 357.035 98.6518 T
359.653 96.7497 359.271 97.9252 358.271 98.6518 T
0 0 0 C
159.21 87.4099 LS
162.339 88.2571 LE
171.612 87.41 LS
169.769 88.2571 LE
72.8 269.157 LS
72.8 266.615 LE
506.8 188.515 LS
506.8 185.974 LE
0 0 1 C
144.743 140.961 143.362 139.059 144.362 139.786 T
144.743 140.961 142.125 139.059 143.362 139.059 T
144.743 140.961 141.125 139.786 142.125 139.059 T
144.743 140.961 140.743 140.961 141.125 139.786 T
144.743 140.961 141.125 142.137 140.743 140.961 T
144.743 140.961 142.125 142.863 141.125 142.137 T
144.743 140.961 143.362 142.863 142.125 142.863 T
144.743 140.961 144.362 142.137 143.362 142.863 T
0 0 0 C
424.641 339.633 LS
422.798 340.48 LE
137.876 339.633 LS
141.005 340.48 LE
413.441 87.41 LS
416.57 88.2571 LE
0 0 1 C
365.25 99.8054 363.868 97.9033 364.868 98.6298 T
365.25 99.8054 362.632 97.9033 363.868 97.9033 T
365.25 99.8054 361.632 98.6298 362.632 97.9033 T
365.25 99.8054 361.25 99.8054 361.632 98.6298 T
365.25 99.8054 361.632 100.981 361.25 99.8054 T
365.25 99.8054 362.632 101.708 361.632 100.981 T
365.25 99.8054 363.868 101.708 362.632 101.708 T
365.25 99.8054 364.868 100.981 363.868 101.708 T
0 0 0 C
157.439 86.9306 LS
159.21 87.4099 LE
172.654 86.9306 LS
171.612 87.41 LE
72.8 270.595 LS
72.8 269.157 LE
506.8 189.953 LS
506.8 188.515 LE
0 0 1 C
418.363 117.392 416.981 115.49 417.981 116.216 T
418.363 117.392 415.745 115.49 416.981 115.49 T
418.363 117.392 414.745 116.216 415.745 115.49 T
418.363 117.392 414.363 117.392 414.745 116.216 T
418.363 117.392 414.745 118.567 414.363 117.392 T
418.363 117.392 415.745 119.294 414.745 118.567 T
418.363 117.392 416.981 119.294 415.745 119.294 T
418.363 117.392 417.981 118.567 416.981 119.294 T
0 0 0 C
425.683 339.153 LS
424.641 339.633 LE
136.106 339.153 LS
137.876 339.633 LE
411.671 86.9306 LS
413.441 87.41 LE
0 0 1 C
347.988 98.3676 346.606 96.4655 347.606 97.1921 T
347.988 98.3676 345.37 96.4655 346.606 96.4655 T
347.988 98.3676 344.37 97.1921 345.37 96.4655 T
347.988 98.3676 343.988 98.3676 344.37 97.1921 T
347.988 98.3676 344.37 99.5432 343.988 98.3676 T
347.988 98.3676 345.37 100.27 344.37 99.5432 T
347.988 98.3676 346.606 100.27 345.37 100.27 T
347.988 98.3676 347.606 99.5432 346.606 100.27 T
0 0 0 C
157.439 86.9306 LS
156.555 86.691 LE
172.654 86.9306 LS
173.367 86.6026 LE
72.8 270.595 LS
72.8 271.579 LE
506.8 189.953 LS
506.8 190.937 LE
0 0 1 C
392.007 108.162 390.625 106.26 391.625 106.986 T
392.007 108.162 389.389 106.26 390.625 106.26 T
392.007 108.162 388.389 106.986 389.389 106.26 T
392.007 108.162 388.007 108.162 388.389 106.986 T
392.007 108.162 388.389 109.337 388.007 108.162 T
392.007 108.162 389.389 110.064 388.389 109.337 T
392.007 108.162 390.625 110.064 389.389 110.064 T
392.007 108.162 391.625 109.337 390.625 110.064 T
0 0 0 C
425.683 339.153 LS
426.397 338.825 LE
136.106 339.153 LS
134.894 338.825 LE
411.671 86.9306 LS
410.459 86.6026 LE
0 0 1 C
268.984 102.629 267.602 100.727 268.602 101.453 T
268.984 102.629 266.366 100.727 267.602 100.727 T
268.984 102.629 265.366 101.453 266.366 100.727 T
268.984 102.629 264.984 102.629 265.366 101.453 T
268.984 102.629 265.366 103.805 264.984 102.629 T
268.984 102.629 266.366 104.531 265.366 103.805 T
268.984 102.629 267.602 104.531 266.366 104.531 T
268.984 102.629 268.602 103.805 267.602 104.531 T
0 0 0 C
173.367 86.6026 LS
173.57 86.5094 LE
72.8 271.579 LS
72.8 271.858 LE
506.8 190.937 LS
506.8 191.217 LE
426.397 338.825 LS
426.599 338.732 LE
134.894 338.825 LS
134.55 338.732 LE
410.459 86.6026 LS
410.115 86.5094 LE
0 0 1 C
320.965 97.7547 319.583 95.8526 320.583 96.5792 T
320.965 97.7547 318.347 95.8526 319.583 95.8526 T
320.965 97.7547 317.347 96.5792 318.347 95.8526 T
320.965 97.7547 316.965 97.7547 317.347 96.5792 T
320.965 97.7547 317.347 98.9303 316.965 97.7547 T
320.965 97.7547 318.347 99.6568 317.347 98.9303 T
320.965 97.7547 319.583 99.6568 318.347 99.6568 T
320.965 97.7547 320.583 98.9303 319.583 99.6568 T
0 0 0 C
(2) 151.734 85.3858 10 /Helvetica STR
176.128 85.333 LS
173.57 86.5094 LE
72.8 275.388 LS
72.8 271.858 LE
506.8 194.746 LS
506.8 191.217 LE
0 0 1 C
248.159 109.156 246.777 107.253 247.777 107.98 T
248.159 109.156 245.541 107.253 246.777 107.253 T
248.159 109.156 244.541 107.98 245.541 107.253 T
248.159 109.156 244.159 109.156 244.541 107.98 T
248.159 109.156 244.541 110.331 244.159 109.156 T
248.159 109.156 245.541 111.058 244.541 110.331 T
248.159 109.156 246.777 111.058 245.541 111.058 T
248.159 109.156 247.777 110.331 246.777 111.058 T
0 0 0 C
429.158 337.556 LS
426.599 338.732 LE
130.205 337.556 LS
134.55 338.732 LE
405.77 85.333 LS
410.115 86.5094 LE
0 0 1 C
293.545 101.978 292.163 100.076 293.163 100.802 T
293.545 101.978 290.927 100.076 292.163 100.076 T
293.545 101.978 289.927 100.802 290.927 100.076 T
293.545 101.978 289.545 101.978 289.927 100.802 T
293.545 101.978 289.927 103.153 289.545 101.978 T
293.545 101.978 290.927 103.88 289.927 103.153 T
293.545 101.978 292.163 103.88 290.927 103.88 T
293.545 101.978 293.163 103.153 292.163 103.88 T
0 0 0 C
177.481 84.711 LS
176.128 85.333 LE
72.8 277.253 LS
72.8 275.388 LE
506.8 196.612 LS
506.8 194.746 LE
0 0 1 C
204.156 130.373 202.774 128.471 203.774 129.198 T
204.156 130.373 201.538 128.471 202.774 128.471 T
204.156 130.373 200.538 129.198 201.538 128.471 T
204.156 130.373 200.156 130.373 200.538 129.198 T
204.156 130.373 200.538 131.549 200.156 130.373 T
204.156 130.373 201.538 132.275 200.538 131.549 T
204.156 130.373 202.774 132.275 201.538 132.275 T
204.156 130.373 203.774 131.549 202.774 132.275 T
0 0 0 C
430.51 336.934 LS
429.158 337.556 LE
127.908 336.934 LS
130.205 337.556 LE
403.473 84.711 LS
405.77 85.333 LE
0 0 1 C
357.308 105.271 355.926 103.369 356.926 104.096 T
357.308 105.271 354.69 103.369 355.926 103.369 T
357.308 105.271 353.69 104.096 354.69 103.369 T
357.308 105.271 353.308 105.271 353.69 104.096 T
357.308 105.271 353.69 106.447 353.308 105.271 T
357.308 105.271 354.69 107.174 353.69 106.447 T
357.308 105.271 355.926 107.174 354.69 107.174 T
357.308 105.271 356.926 106.447 355.926 107.174 T
0 0 0 C
179.38 83.838 LS
177.481 84.711 LE
72.8 279.872 LS
72.8 277.253 LE
506.8 199.231 LS
506.8 196.612 LE
0 0 1 C
274.056 108.3 272.674 106.398 273.674 107.124 T
274.056 108.3 271.438 106.398 272.674 106.398 T
274.056 108.3 270.438 107.124 271.438 106.398 T
274.056 108.3 270.056 108.3 270.438 107.124 T
274.056 108.3 270.438 109.475 270.056 108.3 T
274.056 108.3 271.438 110.202 270.438 109.475 T
274.056 108.3 272.674 110.202 271.438 110.202 T
274.056 108.3 273.674 109.475 272.674 110.202 T
0 0 0 C
432.409 336.061 LS
430.51 336.934 LE
124.683 336.061 LS
127.908 336.934 LE
400.248 83.838 LS
403.473 84.711 LE
0 0 1 C
331.746 104.763 330.364 102.861 331.364 103.587 T
331.746 104.763 329.128 102.861 330.364 102.861 T
331.746 104.763 328.128 103.587 329.128 102.861 T
331.746 104.763 327.746 104.763 328.128 103.587 T
331.746 104.763 328.128 105.939 327.746 104.763 T
331.746 104.763 329.128 106.665 328.128 105.939 T
331.746 104.763 330.364 106.665 329.128 106.665 T
331.746 104.763 331.364 105.939 330.364 106.665 T
0 0 0 C
180.747 83.2091 LS
179.38 83.838 LE
72.8 281.759 LS
72.8 279.872 LE
506.8 201.118 LS
506.8 199.231 LE
433.776 335.432 LS
432.409 336.061 LE
122.36 335.432 LS
124.683 336.061 LE
397.925 83.2091 LS
400.248 83.838 LE
0 0 1 C
309.191 106.22 307.809 104.317 308.809 105.044 T
309.191 106.22 306.573 104.317 307.809 104.317 T
309.191 106.22 305.573 105.044 306.573 104.317 T
309.191 106.22 305.191 106.22 305.573 105.044 T
309.191 106.22 305.573 107.395 305.191 106.22 T
309.191 106.22 306.573 108.122 305.573 107.395 T
309.191 106.22 307.809 108.122 306.573 108.122 T
309.191 106.22 308.809 107.395 307.809 108.122 T
0 0 0 C
181.252 82.977 LS
180.747 83.2091 LE
72.8 282.455 LS
72.8 281.759 LE
506.8 201.814 LS
506.8 201.118 LE
434.281 335.2 LS
433.776 335.432 LE
121.503 335.2 LS
122.36 335.432 LE
397.068 82.977 LS
397.925 83.2091 LE
0 0 1 C
377.179 113.994 375.797 112.092 376.797 112.819 T
377.179 113.994 374.561 112.092 375.797 112.092 T
377.179 113.994 373.561 112.819 374.561 112.092 T
377.179 113.994 373.179 113.994 373.561 112.819 T
377.179 113.994 373.561 115.17 373.179 113.994 T
377.179 113.994 374.561 115.897 373.561 115.17 T
377.179 113.994 375.797 115.897 374.561 115.897 T
377.179 113.994 376.797 115.17 375.797 115.897 T
0 0 0 C
184.228 81.6084 LS
181.252 82.977 LE
72.8 286.561 LS
72.8 282.455 LE
506.8 205.92 LS
506.8 201.814 LE
0 0 1 C
408.835 128.054 407.453 126.152 408.453 126.878 T
408.835 128.054 406.217 126.152 407.453 126.152 T
408.835 128.054 405.217 126.878 406.217 126.152 T
408.835 128.054 404.835 128.054 405.217 126.878 T
408.835 128.054 405.217 129.229 404.835 128.054 T
408.835 128.054 406.217 129.956 405.217 129.229 T
408.835 128.054 407.453 129.956 406.217 129.956 T
408.835 128.054 408.453 129.229 407.453 129.956 T
0 0 0 C
437.257 333.831 LS
434.281 335.2 LE
116.448 333.831 LS
121.503 335.2 LE
392.013 81.6084 LS
397.068 82.977 LE
0 0 1 C
345.852 111.758 344.47 109.856 345.47 110.582 T
345.852 111.758 343.234 109.856 344.47 109.856 T
345.852 111.758 342.234 110.582 343.234 109.856 T
345.852 111.758 341.852 111.758 342.234 110.582 T
345.852 111.758 342.234 112.933 341.852 111.758 T
345.852 111.758 343.234 113.66 342.234 112.933 T
345.852 111.758 344.47 113.66 343.234 113.66 T
345.852 111.758 345.47 112.933 344.47 113.66 T
0 0 0 C
185.166 81.1774 LS
184.228 81.6084 LE
70.8923 291.363 LS
70.0399 291.755 LE
72.8 287.854 LS
72.8 286.561 LE
506.8 207.213 LS
506.8 205.92 LE
0 0 1 C
145.794 156.9 144.412 154.997 145.412 155.724 T
145.794 156.9 143.176 154.997 144.412 154.997 T
145.794 156.9 142.176 155.724 143.176 154.997 T
145.794 156.9 141.794 156.9 142.176 155.724 T
145.794 156.9 142.176 158.075 141.794 156.9 T
145.794 156.9 143.176 158.802 142.176 158.075 T
145.794 156.9 144.412 158.802 143.176 158.802 T
145.794 156.9 145.412 158.075 144.412 158.802 T
0 0 0 C
438.195 333.4 LS
437.257 333.831 LE
114.856 333.4 LS
116.448 333.831 LE
390.421 81.1774 LS
392.013 81.6084 LE
0 0 1 C
257.669 119.258 256.287 117.356 257.287 118.083 T
257.669 119.258 255.051 117.356 256.287 117.356 T
257.669 119.258 254.051 118.083 255.051 117.356 T
257.669 119.258 253.669 119.258 254.051 118.083 T
257.669 119.258 254.051 120.434 253.669 119.258 T
257.669 119.258 255.051 121.16 254.051 120.434 T
257.669 119.258 256.287 121.16 255.051 121.16 T
257.669 119.258 257.287 120.434 256.287 121.16 T
0 0 0 C
185.166 81.1774 LS
186.384 80.6169 LE
70.8923 291.363 LS
72.1112 290.803 LE
72.8 287.854 LS
72.8 289.536 LE
506.8 207.213 LS
506.8 208.894 LE
438.195 333.4 LS
439.414 332.84 LE
114.856 333.4 LS
112.786 332.84 LE
390.421 81.1774 LS
388.351 80.6169 LE
0 0 1 C
291.441 114.315 290.059 112.413 291.059 113.14 T
291.441 114.315 288.823 112.413 290.059 112.413 T
291.441 114.315 287.823 113.14 288.823 112.413 T
291.441 114.315 287.441 114.315 287.823 113.14 T
291.441 114.315 287.823 115.491 287.441 114.315 T
291.441 114.315 288.823 116.217 287.823 115.491 T
291.441 114.315 290.059 116.217 288.823 116.217 T
291.441 114.315 291.059 115.491 290.059 116.217 T
0 0 0 C
186.384 80.6169 LS
186.739 80.4541 LE
72.1112 290.803 LS
72.4654 290.64 LE
72.8 289.536 LS
72.8 290.024 LE
506.8 208.894 LS
506.8 209.383 LE
439.414 332.84 LS
439.768 332.677 LE
112.786 332.84 LS
112.185 332.677 LE
388.351 80.6169 LS
387.75 80.4541 LE
0 0 1 C
318.477 113.185 317.095 111.283 318.095 112.009 T
318.477 113.185 315.859 111.283 317.095 111.283 T
318.477 113.185 314.859 112.009 315.859 111.283 T
318.477 113.185 314.477 113.185 314.859 112.009 T
318.477 113.185 314.859 114.36 314.477 113.185 T
318.477 113.185 315.859 115.087 314.859 114.36 T
318.477 113.185 317.095 115.087 315.859 115.087 T
318.477 113.185 318.095 114.36 317.095 115.087 T
0 0 0 C
187.421 80.1402 LS
186.739 80.4541 LE
72.4654 290.64 LS
72.8 290.486 LE
72.8 290.966 LS
72.8 290.024 LE
506.8 210.325 LS
506.8 209.383 LE
440.45 332.363 LS
439.768 332.677 LE
111.025 332.363 LS
112.185 332.677 LE
386.59 80.1402 LS
387.75 80.4541 LE
0 0 1 C
374.511 120.922 373.129 119.02 374.129 119.747 T
374.511 120.922 371.892 119.02 373.129 119.02 T
374.511 120.922 370.892 119.747 371.892 119.02 T
374.511 120.922 370.511 120.922 370.892 119.747 T
374.511 120.922 370.892 122.098 370.511 120.922 T
374.511 120.922 371.892 122.824 370.892 122.098 T
374.511 120.922 373.129 122.824 371.892 122.824 T
374.511 120.922 374.129 122.098 373.129 122.824 T
0 0 0 C
191.707 78.1694 LS
187.421 80.1402 LE
72.8 296.878 LS
72.8 290.966 LE
506.8 216.237 LS
506.8 210.325 LE
0 0 1 C
222.114 138.732 220.732 136.83 221.732 137.556 T
222.114 138.732 219.496 136.83 220.732 136.83 T
222.114 138.732 218.496 137.556 219.496 136.83 T
222.114 138.732 218.114 138.732 218.496 137.556 T
222.114 138.732 218.496 139.908 218.114 138.732 T
222.114 138.732 219.496 140.634 218.496 139.908 T
222.114 138.732 220.732 140.634 219.496 140.634 T
222.114 138.732 221.732 139.908 220.732 140.634 T
0 0 0 C
444.736 330.392 LS
440.45 332.363 LE
103.746 330.392 LS
111.025 332.363 LE
379.311 78.1694 LS
386.59 80.1402 LE
386.786 78.1694 LS
384.016 79.4431 LE
0 0 1 C
338.907 120.152 337.525 118.25 338.525 118.977 T
338.907 120.152 336.289 118.25 337.525 118.25 T
338.907 120.152 335.289 118.977 336.289 118.25 T
338.907 120.152 334.907 120.152 335.289 118.977 T
338.907 120.152 335.289 121.328 334.907 120.152 T
338.907 120.152 336.289 122.055 335.289 121.328 T
338.907 120.152 337.525 122.055 336.289 122.055 T
338.907 120.152 338.525 121.328 337.525 122.055 T
0 0 0 C
194.096 77.071 LS
191.707 78.1694 LE
72.8 300.173 LS
72.8 296.878 LE
506.8 219.532 LS
506.8 216.237 LE
447.125 329.294 LS
444.736 330.392 LE
99.6891 329.294 LS
103.746 330.392 LE
375.254 77.071 LS
379.311 78.1694 LE
389.174 77.071 LS
386.786 78.1694 LE
0 0 1 C
270.849 127.009 269.467 125.107 270.467 125.834 T
270.849 127.009 268.231 125.107 269.467 125.107 T
270.849 127.009 267.231 125.834 268.231 125.107 T
270.849 127.009 266.849 127.009 267.231 125.834 T
270.849 127.009 267.231 128.185 266.849 127.009 T
270.849 127.009 268.231 128.912 267.231 128.185 T
270.849 127.009 269.467 128.912 268.231 128.912 T
270.849 127.009 270.467 128.185 269.467 128.912 T
0 0 0 C
194.096 77.071 LS
194.599 76.8394 LE
72.8 300.173 LS
72.8 300.868 LE
506.8 219.532 LS
506.8 220.227 LE
0 0 1 C
409.553 141.791 408.171 139.889 409.171 140.616 T
409.553 141.791 406.935 139.889 408.171 139.889 T
409.553 141.791 405.935 140.616 406.935 139.889 T
409.553 141.791 405.553 141.791 405.935 140.616 T
409.553 141.791 405.935 142.967 405.553 141.791 T
409.553 141.791 406.935 143.694 405.935 142.967 T
409.553 141.791 408.171 143.694 406.935 143.694 T
409.553 141.791 409.171 142.967 408.171 143.694 T
0 0 0 C
447.125 329.294 LS
447.629 329.062 LE
99.6891 329.294 LS
98.8339 329.062 LE
375.254 77.071 LS
374.399 76.8394 LE
389.174 77.071 LS
389.678 76.8394 LE
0 0 1 C
303.048 123.243 301.666 121.341 302.666 122.067 T
303.048 123.243 300.43 121.341 301.666 121.341 T
303.048 123.243 299.43 122.067 300.43 121.341 T
303.048 123.243 299.048 123.243 299.43 122.067 T
303.048 123.243 299.43 124.418 299.048 123.243 T
303.048 123.243 300.43 125.145 299.43 124.418 T
303.048 123.243 301.666 125.145 300.43 125.145 T
303.048 123.243 302.666 124.418 301.666 125.145 T
0 0 0 C
201.164 73.8211 LS
194.599 76.8394 LE
72.8 309.923 LS
72.8 300.868 LE
506.8 229.282 LS
506.8 220.227 LE
0 0 1 C
417.288 127.664 415.906 125.762 416.906 126.488 T
417.288 127.664 414.67 125.762 415.906 125.762 T
417.288 127.664 413.67 126.488 414.67 125.762 T
417.288 127.664 413.288 127.664 413.67 126.488 T
417.288 127.664 413.67 128.84 413.288 127.664 T
417.288 127.664 414.67 129.566 413.67 128.84 T
417.288 127.664 415.906 129.566 414.67 129.566 T
417.288 127.664 416.906 128.84 415.906 129.566 T
0 0 0 C
454.193 326.044 LS
447.629 329.062 LE
87.6854 326.044 LS
98.8339 329.062 LE
363.25 73.8211 LS
374.399 76.8394 LE
389.678 76.8394 LS
393.885 74.9049 LE
0 0 1 C
361.061 135.049 359.679 133.147 360.679 133.873 T
361.061 135.049 358.443 133.147 359.679 133.147 T
361.061 135.049 357.443 133.873 358.443 133.147 T
361.061 135.049 357.061 135.049 357.443 133.873 T
361.061 135.049 357.443 136.224 357.061 135.049 T
361.061 135.049 358.443 136.951 357.443 136.224 T
361.061 135.049 359.679 136.951 358.443 136.951 T
361.061 135.049 360.679 136.224 359.679 136.951 T
0 0 0 C
205.32 71.9099 LS
201.164 73.8211 LE
72.8 315.657 LS
72.8 309.923 LE
506.8 235.015 LS
506.8 229.282 LE
458.349 324.133 LS
454.193 326.044 LE
80.6266 324.133 LS
87.6854 326.044 LE
356.192 71.9099 LS
363.25 73.8211 LE
(1) 398.433 72.8136 10 /Helvetica STL
0 0 1 C
157.308 167.436 155.926 165.534 156.926 166.26 T
157.308 167.436 154.69 165.534 155.926 165.534 T
157.308 167.436 153.69 166.26 154.69 165.534 T
157.308 167.436 153.308 167.436 153.69 166.26 T
157.308 167.436 153.69 168.611 153.308 167.436 T
157.308 167.436 154.69 169.338 153.69 168.611 T
157.308 167.436 155.926 169.338 154.69 169.338 T
157.308 167.436 156.926 168.611 155.926 169.338 T
0 0 0 C
213.786 68.017 LS
205.32 71.9099 LE
72.8 315.657 LS
72.8 322.014 LE
0 0 1 C
422.808 147.01 421.426 145.108 422.426 145.834 T
422.808 147.01 420.19 145.108 421.426 145.108 T
422.808 147.01 419.19 145.834 420.19 145.108 T
422.808 147.01 418.808 147.01 419.19 145.834 T
422.808 147.01 419.19 148.185 418.808 147.01 T
422.808 147.01 420.19 148.912 419.19 148.185 T
422.808 147.01 421.426 148.912 420.19 148.912 T
422.808 147.01 422.426 148.185 421.426 148.912 T
0 0 0 C
76.6578 320.24 LS
72.8 322.014 LE
506.8 246.694 LS
506.8 235.015 LE
466.815 320.24 LS
458.349 324.133 LE
80.6266 324.133 LS
72.8 322.014 LE
70.0399 323.283 LS
72.8 322.014 LE
341.813 68.017 LS
356.192 71.9099 LE
0 0 1 C
479.759 215.607 478.377 213.705 479.377 214.432 T
479.759 215.607 477.141 213.705 478.377 213.705 T
479.759 215.607 476.141 214.432 477.141 213.705 T
479.759 215.607 475.759 215.607 476.141 214.432 T
479.759 215.607 476.141 216.783 475.759 215.607 T
479.759 215.607 477.141 217.509 476.141 216.783 T
479.759 215.607 478.377 217.509 477.141 217.509 T
479.759 215.607 479.377 216.783 478.377 217.509 T
0 0 0 C
211.345 67.1093 LS
214.124 67.8616 LE
213.786 68.017 LS
215.76 67.1093 LE
76.6578 320.24 LS
78.6318 319.332 LE
506.8 246.694 LS
506.8 249.417 LE
466.815 320.24 LS
468.789 319.332 LE
341.813 68.017 LS
338.46 67.1093 LE
0 0 1 C
121.719 244.206 120.337 242.304 121.337 243.031 T
121.719 244.206 119.101 242.304 120.337 242.304 T
121.719 244.206 118.101 243.031 119.101 242.304 T
121.719 244.206 117.719 244.206 118.101 243.031 T
121.719 244.206 118.101 245.382 117.719 244.206 T
121.719 244.206 119.101 246.108 118.101 245.382 T
121.719 244.206 120.337 246.108 119.101 246.108 T
121.719 244.206 121.337 245.382 120.337 246.108 T
0 0 0 C
211.345 67.1093 LS
206.776 65.8723 LE
215.76 67.1093 LS
218.45 65.8723 LE
78.6318 319.332 LS
81.3217 318.095 LE
506.8 249.417 LS
506.8 253.128 LE
468.789 319.332 LS
471.479 318.095 LE
338.46 67.1093 LS
333.892 65.8723 LE
0 0 1 C
234.814 129.309 233.432 127.407 234.432 128.134 T
234.814 129.309 232.195 127.407 233.432 127.407 T
234.814 129.309 231.195 128.134 232.195 127.407 T
234.814 129.309 230.814 129.309 231.195 128.134 T
234.814 129.309 231.195 130.485 230.814 129.309 T
234.814 129.309 232.195 131.211 231.195 130.485 T
234.814 129.309 233.432 131.211 232.195 131.211 T
234.814 129.309 234.432 130.485 233.432 131.211 T
0 0 0 C
206.776 65.8723 LS
203.663 65.0294 LE
218.45 65.8723 LS
220.789 64.7965 LE
81.3217 318.095 LS
83.6613 317.019 LE
506.8 253.128 LS
506.8 256.356 LE
471.479 318.095 LS
473.818 317.019 LE
333.892 65.8723 LS
329.918 64.7965 LE
0 0 1 C
274.92 116.718 273.538 114.816 274.538 115.542 T
274.92 116.718 272.302 114.816 273.538 114.816 T
274.92 116.718 271.302 115.542 272.302 114.816 T
274.92 116.718 270.92 116.718 271.302 115.542 T
274.92 116.718 271.302 117.893 270.92 116.718 T
274.92 116.718 272.302 118.62 271.302 117.893 T
274.92 116.718 273.538 118.62 272.302 118.62 T
274.92 116.718 274.538 117.893 273.538 118.62 T
0 0 0 C
220.789 64.7965 LS
222.002 64.2388 LE
83.6613 317.019 LS
84.8741 316.462 LE
506.8 256.356 LS
506.8 258.029 LE
473.818 317.019 LS
475.031 316.462 LE
329.918 64.7965 LS
327.858 64.2388 LE
0 0 1 C
303.834 114.391 302.452 112.489 303.452 113.215 T
303.834 114.391 301.216 112.489 302.452 112.489 T
303.834 114.391 300.216 113.215 301.216 112.489 T
303.834 114.391 299.834 114.391 300.216 113.215 T
303.834 114.391 300.216 115.566 299.834 114.391 T
303.834 114.391 301.216 116.293 300.216 115.566 T
303.834 114.391 302.452 116.293 301.216 116.293 T
303.834 114.391 303.452 115.566 302.452 116.293 T
0 0 0 C
(1) 198.842 63.7242 10 /Helvetica STR
224.648 63.0222 LS
222.002 64.2388 LE
87.52 315.245 LS
84.8741 316.462 LE
506.8 261.679 LS
506.8 258.029 LE
477.677 315.245 LS
475.031 316.462 LE
323.365 63.0222 LS
327.858 64.2388 LE
0 0 1 C
354.74 123.671 353.358 121.769 354.358 122.496 T
354.74 123.671 352.121 121.769 353.358 121.769 T
354.74 123.671 351.121 122.496 352.121 121.769 T
354.74 123.671 350.739 123.671 351.121 122.496 T
354.74 123.671 351.121 124.847 350.739 123.671 T
354.74 123.671 352.121 125.573 351.121 124.847 T
354.74 123.671 353.358 125.573 352.121 125.573 T
354.74 123.671 354.358 124.847 353.358 125.573 T
0 0 0 C
229.802 60.6523 LS
224.648 63.0222 LE
92.6737 312.875 LS
87.52 315.245 LE
506.8 268.788 LS
506.8 261.679 LE
482.831 312.875 LS
477.677 315.245 LE
314.611 60.6523 LS
323.365 63.0222 LE
327.341 60.6523 LS
322.624 62.8215 LE
0 0 1 C
319.994 122.085 318.612 120.182 319.612 120.909 T
319.994 122.085 317.376 120.182 318.612 120.182 T
319.994 122.085 316.376 120.909 317.376 120.182 T
319.994 122.085 315.994 122.085 316.376 120.909 T
319.994 122.085 316.376 123.26 315.994 122.085 T
319.994 122.085 317.376 123.987 316.376 123.26 T
319.994 122.085 318.612 123.987 317.376 123.987 T
319.994 122.085 319.612 123.26 318.612 123.987 T
0 0 0 C
230.429 60.3639 LS
229.802 60.6523 LE
93.301 312.587 LS
92.6737 312.875 LE
506.8 269.653 LS
506.8 268.788 LE
483.458 312.587 LS
482.831 312.875 LE
313.546 60.3639 LS
314.611 60.6523 LE
327.968 60.3639 LS
327.341 60.6523 LE
0 0 1 C
289.712 132.057 288.33 130.155 289.33 130.881 T
289.712 132.057 287.094 130.155 288.33 130.155 T
289.712 132.057 286.094 130.881 287.094 130.155 T
289.712 132.057 285.712 132.057 286.094 130.881 T
289.712 132.057 286.094 133.233 285.712 132.057 T
289.712 132.057 287.094 133.959 286.094 133.233 T
289.712 132.057 288.33 133.959 287.094 133.959 T
289.712 132.057 289.33 133.233 288.33 133.959 T
0 0 0 C
238.058 56.8557 LS
230.429 60.3639 LE
0 0 1 C
246.074 135.798 244.692 133.895 245.692 134.622 T
246.074 135.798 243.456 133.895 244.692 133.895 T
246.074 135.798 242.456 134.622 243.456 133.895 T
246.074 135.798 242.074 135.798 242.456 134.622 T
246.074 135.798 242.456 136.973 242.074 135.798 T
246.074 135.798 243.456 137.7 242.456 136.973 T
246.074 135.798 244.692 137.7 243.456 137.7 T
246.074 135.798 245.692 136.973 244.692 137.7 T
0 0 0 C
100.93 309.078 LS
93.301 312.587 LE
506.8 280.178 LS
506.8 269.653 LE
491.088 309.078 LS
483.458 312.587 LE
300.588 56.8557 LS
313.546 60.3639 LE
327.968 60.3639 LS
332.493 58.2833 LE
0 0 1 C
354.075 151.817 352.693 149.915 353.693 150.642 T
354.075 151.817 351.457 149.915 352.693 149.915 T
354.075 151.817 350.457 150.642 351.457 149.915 T
354.075 151.817 350.075 151.817 350.457 150.642 T
354.075 151.817 350.457 152.993 350.075 151.817 T
354.075 151.817 351.457 153.72 350.457 152.993 T
354.075 151.817 352.693 153.72 351.457 153.72 T
354.075 151.817 353.693 152.993 352.693 153.72 T
0 0 0 C
246.665 52.8979 LS
238.058 56.8557 LE
109.537 305.121 LS
100.93 309.078 LE
506.8 292.051 LS
506.8 280.178 LE
499.694 305.121 LS
491.088 309.078 LE
285.97 52.8979 LS
300.588 56.8557 LE
(0.5) 337.041 56.192 10 /Helvetica STL
0 0 1 C
302.8 140.758 301.418 138.855 302.418 139.582 T
302.8 140.758 300.182 138.855 301.418 138.855 T
302.8 140.758 299.182 139.582 300.182 138.855 T
302.8 140.758 298.8 140.758 299.182 139.582 T
302.8 140.758 299.182 141.933 298.8 140.758 T
302.8 140.758 300.182 142.66 299.182 141.933 T
302.8 140.758 301.418 142.66 300.182 142.66 T
302.8 140.758 302.418 141.933 301.418 142.66 T
0 0 0 C
258.142 47.6205 LS
246.665 52.8979 LE
506.8 292.051 LS
506.8 301.853 LE
0 0 1 C
258.217 152.395 256.835 150.493 257.835 151.219 T
258.217 152.395 255.599 150.493 256.835 150.493 T
258.217 152.395 254.599 151.219 255.599 150.493 T
258.217 152.395 254.217 152.395 254.599 151.219 T
258.217 152.395 254.599 153.57 254.217 152.395 T
258.217 152.395 255.599 154.297 254.599 153.57 T
258.217 152.395 256.835 154.297 255.599 154.297 T
258.217 152.395 257.835 153.57 256.835 154.297 T
0 0 0 C
499.376 299.843 LS
506.8 301.853 LE
121.014 299.843 LS
109.537 305.121 LE
499.694 305.121 LS
506.8 301.853 LE
266.478 47.6205 LS
285.97 52.8979 LE
0 0 1 C
367.53 154.977 366.148 153.075 367.148 153.802 T
367.53 154.977 364.912 153.075 366.148 153.075 T
367.53 154.977 363.912 153.802 364.912 153.075 T
367.53 154.977 363.53 154.977 363.912 153.802 T
367.53 154.977 363.912 156.153 363.53 154.977 T
367.53 154.977 364.912 156.879 363.912 156.153 T
367.53 154.977 366.148 156.879 364.912 156.879 T
367.53 154.977 367.148 156.153 366.148 156.879 T
0 0 0 C
258.142 47.6205 LS
259.057 47.2 LE
499.376 299.843 LS
497.823 299.423 LE
121.014 299.843 LS
121.929 299.423 LE
266.478 47.6205 LS
264.925 47.2 LE
0 0 1 C
196.192 167.355 194.81 165.453 195.81 166.179 T
196.192 167.355 193.574 165.453 194.81 165.453 T
196.192 167.355 192.574 166.179 193.574 165.453 T
196.192 167.355 192.192 167.355 192.574 166.179 T
196.192 167.355 192.574 168.53 192.192 167.355 T
196.192 167.355 193.574 169.257 192.574 168.53 T
196.192 167.355 194.81 169.257 193.574 169.257 T
196.192 167.355 195.81 168.53 194.81 169.257 T
0 0 0 C
259.057 47.2 LS
261.231 46.2 LE
0 0 1 C
355.084 218.003 353.702 216.101 354.702 216.828 T
355.084 218.003 352.466 216.101 353.702 216.101 T
355.084 218.003 351.466 216.828 352.466 216.101 T
355.084 218.003 351.084 218.003 351.466 216.828 T
355.084 218.003 351.466 219.179 351.084 218.003 T
355.084 218.003 352.466 219.906 351.466 219.179 T
355.084 218.003 353.702 219.906 352.466 219.906 T
355.084 218.003 354.702 219.179 353.702 219.906 T
0 0 0 C
261.231 65.7316 LS
261.231 46.2 LE
470.082 291.912 LS
497.823 299.423 LE
138.262 291.912 LS
121.929 299.423 LE
264.925 47.2 LS
261.231 46.2 L
250.77 43.3677 LE
(0) 245.95 42.0625 10 /Helvetica STR
261.231 46.2 LS
271.101 41.6618 LE
0 0 1 C
273.521 178.161 272.139 176.259 273.139 176.985 T
273.521 178.161 270.903 176.259 272.139 176.259 T
273.521 178.161 269.903 176.985 270.903 176.259 T
273.521 178.161 269.521 178.161 269.903 176.985 T
273.521 178.161 269.903 179.337 269.521 178.161 T
273.521 178.161 270.903 180.063 269.903 179.337 T
273.521 178.161 272.139 180.063 270.903 180.063 T
273.521 178.161 273.139 179.337 272.139 180.063 T
0 0 0 C
261.231 86.5015 LS
261.231 65.7316 LE
(0) 275.649 39.5704 10 /Helvetica STL
444.511 284.989 LS
470.082 291.912 LE
153.318 284.989 LS
138.262 291.912 LE
0 0 1 C
198.953 204.977 197.571 203.075 198.571 203.802 T
198.953 204.977 196.335 203.075 197.571 203.075 T
198.953 204.977 195.335 203.802 196.335 203.075 T
198.953 204.977 194.953 204.977 195.335 203.802 T
198.953 204.977 195.335 206.153 194.953 204.977 T
198.953 204.977 196.335 206.879 195.335 206.153 T
198.953 204.977 197.571 206.879 196.335 206.879 T
198.953 204.977 198.571 206.153 197.571 206.879 T
0 0 0 C
261.231 87.6476 LS
261.231 86.5015 LE
443.1 284.607 LS
444.511 284.989 LE
154.149 284.607 LS
153.318 284.989 LE
0 0 1 C
350.901 182.709 349.52 180.807 350.52 181.533 T
350.901 182.709 348.283 180.807 349.52 180.807 T
350.901 182.709 347.283 181.533 348.283 180.807 T
350.901 182.709 346.901 182.709 347.283 181.533 T
350.901 182.709 347.283 183.884 346.901 182.709 T
350.901 182.709 348.283 184.611 347.283 183.884 T
350.901 182.709 349.52 184.611 348.283 184.611 T
350.901 182.709 350.52 183.884 349.52 184.611 T
0 0 0 C
261.231 92.0496 LS
261.231 87.6476 LE
437.68 283.14 LS
443.1 284.607 LE
157.34 283.14 LS
154.149 284.607 LE
0 0 1 C
286.343 159.042 284.961 157.14 285.961 157.866 T
286.343 159.042 283.725 157.14 284.961 157.14 T
286.343 159.042 282.725 157.866 283.725 157.14 T
286.343 159.042 282.343 159.042 282.725 157.866 T
286.343 159.042 282.725 160.217 282.343 159.042 T
286.343 159.042 283.725 160.944 282.725 160.217 T
286.343 159.042 284.961 160.944 283.725 160.944 T
286.343 159.042 285.961 160.217 284.961 160.944 T
305.242 176.335 303.86 174.433 304.86 175.16 T
305.242 176.335 302.624 174.433 303.86 174.433 T
305.242 176.335 301.624 175.16 302.624 174.433 T
305.242 176.335 301.242 176.335 301.624 175.16 T
305.242 176.335 301.624 177.511 301.242 176.335 T
305.242 176.335 302.624 178.238 301.624 177.511 T
305.242 176.335 303.86 178.238 302.624 178.238 T
305.242 176.335 304.86 177.511 303.86 178.238 T
0 0 0 C
261.231 155.616 LS
261.231 92.0496 LE
359.419 261.951 LS
437.68 283.14 LE
203.419 261.951 LS
157.34 283.14 LE
0 0 1 C
207.671 257.969 206.289 256.067 207.289 256.793 T
207.671 257.969 205.053 256.067 206.289 256.067 T
207.671 257.969 204.053 256.793 205.053 256.067 T
207.671 257.969 203.671 257.969 204.053 256.793 T
207.671 257.969 204.053 259.145 203.671 257.969 T
207.671 257.969 205.053 259.871 204.053 259.145 T
207.671 257.969 206.289 259.871 205.053 259.871 T
207.671 257.969 207.289 259.145 206.289 259.871 T
0 0 0 C
261.231 184.299 LS
261.231 155.616 LE
324.105 252.39 LS
359.419 261.951 LE
224.212 252.39 LS
203.419 261.951 LE
0 0 1 C
240.342 226.97 238.96 225.067 239.96 225.794 T
240.342 226.97 237.724 225.067 238.96 225.067 T
240.342 226.97 236.724 225.794 237.724 225.067 T
240.342 226.97 236.342 226.97 236.724 225.794 T
240.342 226.97 236.724 228.145 236.342 226.97 T
240.342 226.97 237.724 228.872 236.724 228.145 T
240.342 226.97 238.96 228.872 237.724 228.872 T
240.342 226.97 239.96 228.145 238.96 228.872 T
0 0 0 C
261.231 233.965 LS
261.231 184.299 LE
262.958 235.835 LS
324.105 252.39 LE
260.215 235.835 LS
224.212 252.39 LE
0 0 1 C
263.235 234.009 261.853 232.107 262.853 232.834 T
263.235 234.009 260.617 232.107 261.853 232.107 T
263.235 234.009 259.617 232.834 260.617 232.107 T
263.235 234.009 259.235 234.009 259.617 232.834 T
263.235 234.009 259.617 235.185 259.235 234.009 T
263.235 234.009 260.617 235.911 259.617 235.185 T
263.235 234.009 261.853 235.911 260.617 235.911 T
263.235 234.009 262.853 235.185 261.853 235.911 T
0 0 0 C
261.231 233.965 LS
261.231 235.367 LE
262.958 235.835 LS
261.231 235.367 LE
260.215 235.835 LS
261.231 235.367 LE
grestore
showpage
cleartomark
%%PageTrailer
%%Trailer
end
%%EOF
