%!PS-Adobe-3.0 EPSF-3.0
%%Title: glps_renderer figure
%%Creator: GL2PS 1.3.8, (C) 1999-2012 C. Geuzaine
%%For: Octave
%%CreationDate: Mon Jun 15 14:29:35 2015
%%LanguageLevel: 3
%%DocumentData: Clean7Bit
%%Pages: 1
%%BoundingBox: 0 0 576 432
%%EndComments
%%BeginProlog
/gl2psdict 64 dict def gl2psdict begin
0 setlinecap 0 setlinejoin
/tryPS3shading false def % set to false to force subdivision
/rThreshold 0.064 def % red component subdivision threshold
/gThreshold 0.034 def % green component subdivision threshold
/bThreshold 0.1 def % blue component subdivision threshold
/BD { bind def } bind def
/C  { setrgbcolor } BD
/G  { 0.082 mul exch 0.6094 mul add exch 0.3086 mul add neg 1.0 add setgray } BD
/W  { setlinewidth } BD
/FC { findfont exch /SH exch def SH scalefont setfont } BD
/SW { dup stringwidth pop } BD
/S  { FC moveto show } BD
/SBC{ FC moveto SW -2 div 0 rmoveto show } BD
/SBR{ FC moveto SW neg 0 rmoveto show } BD
/SCL{ FC moveto 0 SH -2 div rmoveto show } BD
/SCC{ FC moveto SW -2 div SH -2 div rmoveto show } BD
/SCR{ FC moveto SW neg SH -2 div rmoveto show } BD
/STL{ FC moveto 0 SH neg rmoveto show } BD
/STC{ FC moveto SW -2 div SH neg rmoveto show } BD
/STR{ FC moveto SW neg SH neg rmoveto show } BD
/FCT { FC translate 0 0 } BD
/SR  { gsave FCT moveto rotate show grestore } BD
/SBCR{ gsave FCT moveto rotate SW -2 div 0 rmoveto show grestore } BD
/SBRR{ gsave FCT moveto rotate SW neg 0 rmoveto show grestore } BD
/SCLR{ gsave FCT moveto rotate 0 SH -2 div rmoveto show grestore} BD
/SCCR{ gsave FCT moveto rotate SW -2 div SH -2 div rmoveto show grestore} BD
/SCRR{ gsave FCT moveto rotate SW neg SH -2 div rmoveto show grestore} BD
/STLR{ gsave FCT moveto rotate 0 SH neg rmoveto show grestore } BD
/STCR{ gsave FCT moveto rotate SW -2 div SH neg rmoveto show grestore } BD
/STRR{ gsave FCT moveto rotate SW neg SH neg rmoveto show grestore } BD
/P  { newpath 0.0 360.0 arc closepath fill } BD
/LS { newpath moveto } BD
/L  { lineto } BD
/LE { lineto stroke } BD
/T  { newpath moveto lineto lineto closepath fill } BD
/STshfill {
      /b1 exch def /g1 exch def /r1 exch def /y1 exch def /x1 exch def
      /b2 exch def /g2 exch def /r2 exch def /y2 exch def /x2 exch def
      /b3 exch def /g3 exch def /r3 exch def /y3 exch def /x3 exch def
      gsave << /ShadingType 4 /ColorSpace [/DeviceRGB]
      /DataSource [ 0 x1 y1 r1 g1 b1 0 x2 y2 r2 g2 b2 0 x3 y3 r3 g3 b3 ] >>
      shfill grestore } BD
/Tm { 3 -1 roll 8 -1 roll 13 -1 roll add add 3 div
      3 -1 roll 7 -1 roll 11 -1 roll add add 3 div
      3 -1 roll 6 -1 roll 9 -1 roll add add 3 div C T } BD
/STsplit {
      4 index 15 index add 0.5 mul
      4 index 15 index add 0.5 mul
      4 index 15 index add 0.5 mul
      4 index 15 index add 0.5 mul
      4 index 15 index add 0.5 mul
      5 copy 5 copy 25 15 roll
      9 index 30 index add 0.5 mul
      9 index 30 index add 0.5 mul
      9 index 30 index add 0.5 mul
      9 index 30 index add 0.5 mul
      9 index 30 index add 0.5 mul
      5 copy 5 copy 35 5 roll 25 5 roll 15 5 roll
      4 index 10 index add 0.5 mul
      4 index 10 index add 0.5 mul
      4 index 10 index add 0.5 mul
      4 index 10 index add 0.5 mul
      4 index 10 index add 0.5 mul
      5 copy 5 copy 40 5 roll 25 5 roll 15 5 roll 25 5 roll
      STnoshfill STnoshfill STnoshfill STnoshfill } BD
/STnoshfill {
      2 index 8 index sub abs rThreshold gt
      { STsplit }
      { 1 index 7 index sub abs gThreshold gt
        { STsplit }
        { dup 6 index sub abs bThreshold gt
          { STsplit }
          { 2 index 13 index sub abs rThreshold gt
            { STsplit }
            { 1 index 12 index sub abs gThreshold gt
              { STsplit }
              { dup 11 index sub abs bThreshold gt
                { STsplit }
                { 7 index 13 index sub abs rThreshold gt
                  { STsplit }
                  { 6 index 12 index sub abs gThreshold gt
                    { STsplit }
                    { 5 index 11 index sub abs bThreshold gt
                      { STsplit }
                      { Tm }
                      ifelse }
                    ifelse }
                  ifelse }
                ifelse }
              ifelse }
            ifelse }
          ifelse }
        ifelse }
      ifelse } BD
tryPS3shading
{ /shfill where
  { /ST { STshfill } BD }
  { /ST { STnoshfill } BD }
  ifelse }
{ /ST { STnoshfill } BD }
ifelse
end
%%EndProlog
%%BeginSetup
/DeviceRGB setcolorspace
gl2psdict begin
%%EndSetup
%%Page: 1 1
%%BeginPageSetup
%%EndPageSetup
mark
gsave
1.0 1.0 scale
1 1 1 C
521.28 47.52 521.28 399.6 521.28 47.52 T
521.28 47.52 521.28 399.6 521.28 399.6 T
74.88 399.6 521.28 399.6 74.88 399.6 T
74.88 399.6 521.28 399.6 521.28 399.6 T
74.88 399.6 521.28 47.52 74.88 47.52 T
74.88 399.6 521.28 399.6 521.28 47.52 T
0.5 W
[16 0] 0 setdash
0 0 0 C
74.88 47.52 LS
521.28 47.52 LE
74.88 399.6 LS
521.28 399.6 LE
74.88 399.6 LS
521.28 399.6 LE
74.88 47.52 LS
521.28 47.52 LE
74.88 47.52 LS
74.88 399.6 LE
521.28 47.52 LS
521.28 399.6 LE
521.28 47.52 LS
521.28 399.6 LE
74.88 47.52 LS
74.88 399.6 L
74.88 399.6 LE
521.28 399.6 LS
521.28 399.6 LE
521.28 47.52 LS
521.28 47.52 LE
74.88 47.52 LS
74.88 47.52 L
74.88 51.985 LE
74.88 399.6 LS
74.88 395.135 LE
186.48 47.52 LS
186.48 51.985 LE
186.48 399.6 LS
186.48 395.135 LE
298.08 47.52 LS
298.08 51.985 LE
298.08 399.6 LS
298.08 395.135 LE
409.68 47.52 LS
409.68 51.985 LE
409.68 399.6 LS
409.68 395.135 LE
521.28 47.52 LS
521.28 51.985 LE
521.28 399.6 LS
521.28 395.135 LE
(0) 74.88 42.5189 10 /Helvetica STC
(0.5) 186.48 42.5189 10 /Helvetica STC
(1) 298.08 42.5189 10 /Helvetica STC
(1.5) 409.68 42.5189 10 /Helvetica STC
(2) 521.28 42.5189 10 /Helvetica STC
74.88 47.52 LS
79.348 47.52 LE
521.28 47.52 LS
516.812 47.52 LE
74.88 135.54 LS
79.348 135.54 LE
521.28 135.54 LS
516.812 135.54 LE
74.88 223.56 LS
79.348 223.56 LE
521.28 223.56 LS
516.812 223.56 LE
74.88 311.58 LS
79.348 311.58 LE
521.28 311.58 LS
516.812 311.58 LE
74.88 399.6 LS
79.348 399.6 LE
521.28 399.6 LS
516.812 399.6 LE
(0) 69.8755 47.52 10 /Helvetica SCR
(1) 69.8755 135.54 10 /Helvetica SCR
(2) 69.8755 223.56 10 /Helvetica SCR
(3) 69.8755 311.58 10 /Helvetica SCR
(4) 69.8755 399.6 10 /Helvetica SCR
0 0 1 C
522.622 48.0394 521.24 46.1373 522.24 46.8638 T
522.622 48.0394 520.004 46.1373 521.24 46.1373 T
522.622 48.0394 519.004 46.8638 520.004 46.1373 T
522.622 48.0394 518.622 48.0394 519.004 46.8638 T
522.622 48.0394 519.004 49.2149 518.622 48.0394 T
522.622 48.0394 520.004 49.9415 519.004 49.2149 T
522.622 48.0394 521.24 49.9415 520.004 49.9415 T
522.622 48.0394 522.24 49.2149 521.24 49.9415 T
520.981 49.3335 519.599 47.4314 520.599 48.1579 T
520.981 49.3335 518.363 47.4314 519.599 47.4314 T
520.981 49.3335 517.363 48.1579 518.363 47.4314 T
520.981 49.3335 516.981 49.3335 517.363 48.1579 T
520.981 49.3335 517.363 50.5091 516.981 49.3335 T
520.981 49.3335 518.363 51.2356 517.363 50.5091 T
520.981 49.3335 519.599 51.2356 518.363 51.2356 T
520.981 49.3335 520.599 50.5091 519.599 51.2356 T
518.483 51.3027 517.102 49.4006 518.102 50.1271 T
518.483 51.3027 515.865 49.4006 517.102 49.4006 T
518.483 51.3027 514.865 50.1271 515.865 49.4006 T
518.483 51.3027 514.483 51.3027 514.865 50.1271 T
518.483 51.3027 514.865 52.4783 514.483 51.3027 T
518.483 51.3027 515.865 53.2048 514.865 52.4783 T
518.483 51.3027 517.102 53.2048 515.865 53.2048 T
518.483 51.3027 518.102 52.4783 517.102 53.2048 T
516.2 53.104 514.818 51.202 515.818 51.9285 T
516.2 53.104 513.582 51.202 514.818 51.202 T
516.2 53.104 512.582 51.9285 513.582 51.202 T
516.2 53.104 512.2 53.104 512.582 51.9285 T
516.2 53.104 512.582 54.2796 512.2 53.104 T
516.2 53.104 513.582 55.0062 512.582 54.2796 T
516.2 53.104 514.818 55.0062 513.582 55.0062 T
516.2 53.104 515.818 54.2796 514.818 55.0062 T
513.796 55.0003 512.414 53.0982 513.414 53.8247 T
513.796 55.0003 511.178 53.0982 512.414 53.0982 T
513.796 55.0003 510.178 53.8247 511.178 53.0982 T
513.796 55.0003 509.796 55.0003 510.178 53.8247 T
513.796 55.0003 510.178 56.1758 509.796 55.0003 T
513.796 55.0003 511.178 56.9024 510.178 56.1758 T
513.796 55.0003 512.414 56.9024 511.178 56.9024 T
513.796 55.0003 513.414 56.1758 512.414 56.9024 T
511.345 56.9331 509.964 55.031 510.964 55.7576 T
511.345 56.9331 508.727 55.031 509.964 55.031 T
511.345 56.9331 507.727 55.7576 508.727 55.031 T
511.345 56.9331 507.346 56.9331 507.727 55.7576 T
511.345 56.9331 507.727 58.1087 507.346 56.9331 T
511.345 56.9331 508.727 58.8353 507.727 58.1087 T
511.345 56.9331 509.964 58.8353 508.727 58.8353 T
511.345 56.9331 510.964 58.1087 509.964 58.8353 T
508.877 58.8791 507.495 56.977 508.495 57.7036 T
508.877 58.8791 506.259 56.977 507.495 56.977 T
508.877 58.8791 505.259 57.7036 506.259 56.977 T
508.877 58.8791 504.877 58.8791 505.259 57.7036 T
508.877 58.8791 505.259 60.0547 504.877 58.8791 T
508.877 58.8791 506.259 60.7812 505.259 60.0547 T
508.877 58.8791 507.495 60.7812 506.259 60.7812 T
508.877 58.8791 508.495 60.0547 507.495 60.7812 T
506.377 60.852 504.995 58.9499 505.995 59.6764 T
506.377 60.852 503.759 58.9499 504.995 58.9499 T
506.377 60.852 502.759 59.6764 503.759 58.9499 T
506.377 60.852 502.377 60.852 502.759 59.6764 T
506.377 60.852 502.759 62.0275 502.377 60.852 T
506.377 60.852 503.759 62.7541 502.759 62.0275 T
506.377 60.852 504.995 62.7541 503.759 62.7541 T
506.377 60.852 505.995 62.0275 504.995 62.7541 T
503.877 62.8232 502.495 60.9211 503.495 61.6477 T
503.877 62.8232 501.259 60.9211 502.495 60.9211 T
503.877 62.8232 500.259 61.6477 501.259 60.9211 T
503.877 62.8232 499.877 62.8232 500.259 61.6477 T
503.877 62.8232 500.259 63.9988 499.877 62.8232 T
503.877 62.8232 501.259 64.7254 500.259 63.9988 T
503.877 62.8232 502.495 64.7254 501.259 64.7254 T
503.877 62.8232 503.495 63.9988 502.495 64.7254 T
501.326 64.8359 499.944 62.9338 500.944 63.6603 T
501.326 64.8359 498.708 62.9338 499.944 62.9338 T
501.326 64.8359 497.708 63.6603 498.708 62.9338 T
501.326 64.8359 497.326 64.8359 497.708 63.6603 T
501.326 64.8359 497.708 66.0115 497.326 64.8359 T
501.326 64.8359 498.708 66.738 497.708 66.0115 T
501.326 64.8359 499.944 66.738 498.708 66.738 T
501.326 64.8359 500.944 66.0115 499.944 66.738 T
498.764 66.8569 497.382 64.9548 498.382 65.6814 T
498.764 66.8569 496.146 64.9548 497.382 64.9548 T
498.764 66.8569 495.146 65.6814 496.146 64.9548 T
498.764 66.8569 494.764 66.8569 495.146 65.6814 T
498.764 66.8569 495.146 68.0325 494.764 66.8569 T
498.764 66.8569 496.146 68.759 495.146 68.0325 T
498.764 66.8569 497.382 68.759 496.146 68.759 T
498.764 66.8569 498.382 68.0325 497.382 68.759 T
496.152 68.9165 494.77 67.0144 495.77 67.7409 T
496.152 68.9165 493.534 67.0144 494.77 67.0144 T
496.152 68.9165 492.534 67.7409 493.534 67.0144 T
496.152 68.9165 492.152 68.9165 492.534 67.7409 T
496.152 68.9165 492.534 70.0921 492.152 68.9165 T
496.152 68.9165 493.534 70.8186 492.534 70.0921 T
496.152 68.9165 494.77 70.8186 493.534 70.8186 T
496.152 68.9165 495.77 70.0921 494.77 70.8186 T
493.516 70.9948 492.134 69.0927 493.134 69.8192 T
493.516 70.9948 490.898 69.0927 492.134 69.0927 T
493.516 70.9948 489.898 69.8192 490.898 69.0927 T
493.516 70.9948 489.516 70.9948 489.898 69.8192 T
493.516 70.9948 489.898 72.1703 489.516 70.9948 T
493.516 70.9948 490.898 72.8969 489.898 72.1703 T
493.516 70.9948 492.134 72.8969 490.898 72.8969 T
493.516 70.9948 493.134 72.1703 492.134 72.8969 T
490.858 73.0907 489.476 71.1886 490.476 71.9151 T
490.858 73.0907 488.24 71.1886 489.476 71.1886 T
490.858 73.0907 487.24 71.9151 488.24 71.1886 T
490.858 73.0907 486.858 73.0907 487.24 71.9151 T
490.858 73.0907 487.24 74.2663 486.858 73.0907 T
490.858 73.0907 488.24 74.9928 487.24 74.2663 T
490.858 73.0907 489.476 74.9928 488.24 74.9928 T
490.858 73.0907 490.476 74.2663 489.476 74.9928 T
488.168 75.2128 486.786 73.3107 487.786 74.0372 T
488.168 75.2128 485.55 73.3107 486.786 73.3107 T
488.168 75.2128 484.55 74.0372 485.55 73.3107 T
488.168 75.2128 484.168 75.2128 484.55 74.0372 T
488.168 75.2128 484.55 76.3883 484.168 75.2128 T
488.168 75.2128 485.55 77.1149 484.55 76.3883 T
488.168 75.2128 486.786 77.1149 485.55 77.1149 T
488.168 75.2128 487.786 76.3883 486.786 77.1149 T
485.45 77.3561 484.068 75.454 485.068 76.1806 T
485.45 77.3561 482.832 75.454 484.068 75.454 T
485.45 77.3561 481.832 76.1806 482.832 75.454 T
485.45 77.3561 481.45 77.3561 481.832 76.1806 T
485.45 77.3561 481.832 78.5317 481.45 77.3561 T
485.45 77.3561 482.832 79.2582 481.832 78.5317 T
485.45 77.3561 484.068 79.2582 482.832 79.2582 T
485.45 77.3561 485.068 78.5317 484.068 79.2582 T
482.698 79.5269 481.316 77.6248 482.316 78.3513 T
482.698 79.5269 480.08 77.6248 481.316 77.6248 T
482.698 79.5269 479.08 78.3513 480.08 77.6248 T
482.698 79.5269 478.698 79.5269 479.08 78.3513 T
482.698 79.5269 479.08 80.7025 478.698 79.5269 T
482.698 79.5269 480.08 81.429 479.08 80.7025 T
482.698 79.5269 481.316 81.429 480.08 81.429 T
482.698 79.5269 482.316 80.7025 481.316 81.429 T
479.914 81.7224 478.533 79.8203 479.533 80.5468 T
479.914 81.7224 477.296 79.8203 478.533 79.8203 T
479.914 81.7224 476.296 80.5468 477.296 79.8203 T
479.914 81.7224 475.914 81.7224 476.296 80.5468 T
479.914 81.7224 476.296 82.8979 475.914 81.7224 T
479.914 81.7224 477.296 83.6245 476.296 82.8979 T
479.914 81.7224 478.533 83.6245 477.296 83.6245 T
479.914 81.7224 479.533 82.8979 478.533 83.6245 T
477.102 83.9416 475.72 82.0395 476.72 82.7661 T
477.102 83.9416 474.484 82.0395 475.72 82.0395 T
477.102 83.9416 473.484 82.7661 474.484 82.0395 T
477.102 83.9416 473.102 83.9416 473.484 82.7661 T
477.102 83.9416 473.484 85.1172 473.102 83.9416 T
477.102 83.9416 474.484 85.8437 473.484 85.1172 T
477.102 83.9416 475.72 85.8437 474.484 85.8437 T
477.102 83.9416 476.72 85.1172 475.72 85.8437 T
474.252 86.1883 472.87 84.2862 473.87 85.0127 T
474.252 86.1883 471.634 84.2862 472.87 84.2862 T
474.252 86.1883 470.634 85.0127 471.634 84.2862 T
474.252 86.1883 470.252 86.1883 470.634 85.0127 T
474.252 86.1883 470.634 87.3639 470.252 86.1883 T
474.252 86.1883 471.634 88.0904 470.634 87.3639 T
474.252 86.1883 472.87 88.0904 471.634 88.0904 T
474.252 86.1883 473.87 87.3639 472.87 88.0904 T
471.375 88.4576 469.993 86.5555 470.993 87.282 T
471.375 88.4576 468.757 86.5555 469.993 86.5555 T
471.375 88.4576 467.757 87.282 468.757 86.5555 T
471.375 88.4576 467.375 88.4576 467.757 87.282 T
471.375 88.4576 467.757 89.6332 467.375 88.4576 T
471.375 88.4576 468.757 90.3597 467.757 89.6332 T
471.375 88.4576 469.993 90.3597 468.757 90.3597 T
471.375 88.4576 470.993 89.6332 469.993 90.3597 T
468.458 90.7587 467.076 88.8566 468.076 89.5832 T
468.458 90.7587 465.84 88.8566 467.076 88.8566 T
468.458 90.7587 464.84 89.5832 465.84 88.8566 T
468.458 90.7587 464.458 90.7587 464.84 89.5832 T
468.458 90.7587 464.84 91.9343 464.458 90.7587 T
468.458 90.7587 465.84 92.6609 464.84 91.9343 T
468.458 90.7587 467.076 92.6609 465.84 92.6609 T
468.458 90.7587 468.076 91.9343 467.076 92.6609 T
465.509 93.0847 464.127 91.1826 465.127 91.9091 T
465.509 93.0847 462.891 91.1826 464.127 91.1826 T
465.509 93.0847 461.891 91.9091 462.891 91.1826 T
465.509 93.0847 461.509 93.0847 461.891 91.9091 T
465.509 93.0847 461.891 94.2603 461.509 93.0847 T
465.509 93.0847 462.891 94.9868 461.891 94.2603 T
465.509 93.0847 464.127 94.9868 462.891 94.9868 T
465.509 93.0847 465.127 94.2603 464.127 94.9868 T
462.529 95.434 461.147 93.5318 462.147 94.2584 T
462.529 95.434 459.911 93.5318 461.147 93.5318 T
462.529 95.434 458.911 94.2584 459.911 93.5318 T
462.529 95.434 458.529 95.434 458.911 94.2584 T
462.529 95.434 458.911 96.6095 458.529 95.434 T
462.529 95.434 459.911 97.3361 458.911 96.6095 T
462.529 95.434 461.147 97.3361 459.911 97.3361 T
462.529 95.434 462.147 96.6095 461.147 97.3361 T
459.505 97.8192 458.123 95.9171 459.123 96.6436 T
459.505 97.8192 456.887 95.9171 458.123 95.9171 T
459.505 97.8192 455.887 96.6436 456.887 95.9171 T
459.505 97.8192 455.505 97.8192 455.887 96.6436 T
459.505 97.8192 455.887 98.9948 455.505 97.8192 T
459.505 97.8192 456.887 99.7213 455.887 98.9948 T
459.505 97.8192 458.123 99.7213 456.887 99.7213 T
459.505 97.8192 459.123 98.9948 458.123 99.7213 T
456.454 100.227 455.072 98.3247 456.072 99.0512 T
456.454 100.227 453.836 98.3247 455.072 98.3247 T
456.454 100.227 452.836 99.0512 453.836 98.3247 T
456.454 100.227 452.454 100.227 452.836 99.0512 T
456.454 100.227 452.836 101.402 452.454 100.227 T
456.454 100.227 453.836 102.129 452.836 101.402 T
456.454 100.227 455.072 102.129 453.836 102.129 T
456.454 100.227 456.072 101.402 455.072 102.129 T
453.36 102.667 451.978 100.765 452.978 101.492 T
453.36 102.667 450.742 100.765 451.978 100.765 T
453.36 102.667 449.742 101.492 450.742 100.765 T
453.36 102.667 449.36 102.667 449.742 101.492 T
453.36 102.667 449.742 103.843 449.36 102.667 T
453.36 102.667 450.742 104.569 449.742 103.843 T
453.36 102.667 451.978 104.569 450.742 104.569 T
453.36 102.667 452.978 103.843 451.978 104.569 T
450.233 105.133 448.851 103.23 449.851 103.957 T
450.233 105.133 447.615 103.23 448.851 103.23 T
450.233 105.133 446.615 103.957 447.615 103.23 T
450.233 105.133 446.233 105.133 446.615 103.957 T
450.233 105.133 446.615 106.308 446.233 105.133 T
450.233 105.133 447.615 107.035 446.615 106.308 T
450.233 105.133 448.851 107.035 447.615 107.035 T
450.233 105.133 449.851 106.308 448.851 107.035 T
447.066 107.63 445.684 105.728 446.684 106.455 T
447.066 107.63 444.448 105.728 445.684 105.728 T
447.066 107.63 443.448 106.455 444.448 105.728 T
447.066 107.63 443.066 107.63 443.448 106.455 T
447.066 107.63 443.448 108.806 443.066 107.63 T
447.066 107.63 444.448 109.532 443.448 108.806 T
447.066 107.63 445.684 109.532 444.448 109.532 T
447.066 107.63 446.684 108.806 445.684 109.532 T
443.859 110.16 442.477 108.258 443.477 108.985 T
443.859 110.16 441.241 108.258 442.477 108.258 T
443.859 110.16 440.241 108.985 441.241 108.258 T
443.859 110.16 439.859 110.16 440.241 108.985 T
443.859 110.16 440.241 111.336 439.859 110.16 T
443.859 110.16 441.241 112.062 440.241 111.336 T
443.859 110.16 442.477 112.062 441.241 112.062 T
443.859 110.16 443.477 111.336 442.477 112.062 T
440.611 112.721 439.229 110.819 440.229 111.545 T
440.611 112.721 437.993 110.819 439.229 110.819 T
440.611 112.721 436.993 111.545 437.993 110.819 T
440.611 112.721 436.611 112.721 436.993 111.545 T
440.611 112.721 436.993 113.897 436.611 112.721 T
440.611 112.721 437.993 114.623 436.993 113.897 T
440.611 112.721 439.229 114.623 437.993 114.623 T
440.611 112.721 440.229 113.897 439.229 114.623 T
437.326 115.313 435.944 113.41 436.944 114.137 T
437.326 115.313 434.708 113.41 435.944 113.41 T
437.326 115.313 433.708 114.137 434.708 113.41 T
437.326 115.313 433.326 115.313 433.708 114.137 T
437.326 115.313 433.708 116.488 433.326 115.313 T
437.326 115.313 434.708 117.215 433.708 116.488 T
437.326 115.313 435.944 117.215 434.708 117.215 T
437.326 115.313 436.944 116.488 435.944 117.215 T
433.998 117.938 432.616 116.036 433.616 116.762 T
433.998 117.938 431.38 116.036 432.616 116.036 T
433.998 117.938 430.38 116.762 431.38 116.036 T
433.998 117.938 429.998 117.938 430.38 116.762 T
433.998 117.938 430.38 119.113 429.998 117.938 T
433.998 117.938 431.38 119.84 430.38 119.113 T
433.998 117.938 432.616 119.84 431.38 119.84 T
433.998 117.938 433.616 119.113 432.616 119.84 T
430.632 120.593 429.25 118.691 430.25 119.417 T
430.632 120.593 428.014 118.691 429.25 118.691 T
430.632 120.593 427.014 119.417 428.014 118.691 T
430.632 120.593 426.632 120.593 427.014 119.417 T
430.632 120.593 427.014 121.768 426.632 120.593 T
430.632 120.593 428.014 122.495 427.014 121.768 T
430.632 120.593 429.25 122.495 428.014 122.495 T
430.632 120.593 430.25 121.768 429.25 122.495 T
427.219 123.284 425.837 121.382 426.837 122.109 T
427.219 123.284 424.601 121.382 425.837 121.382 T
427.219 123.284 423.601 122.109 424.601 121.382 T
427.219 123.284 423.219 123.284 423.601 122.109 T
427.219 123.284 423.601 124.46 423.219 123.284 T
427.219 123.284 424.601 125.186 423.601 124.46 T
427.219 123.284 425.837 125.186 424.601 125.186 T
427.219 123.284 426.837 124.46 425.837 125.186 T
423.764 126.009 422.382 124.107 423.382 124.834 T
423.764 126.009 421.146 124.107 422.382 124.107 T
423.764 126.009 420.146 124.834 421.146 124.107 T
423.764 126.009 419.764 126.009 420.146 124.834 T
423.764 126.009 420.146 127.185 419.764 126.009 T
423.764 126.009 421.146 127.911 420.146 127.185 T
423.764 126.009 422.382 127.911 421.146 127.911 T
423.764 126.009 423.382 127.185 422.382 127.911 T
420.264 128.77 418.882 126.868 419.882 127.595 T
420.264 128.77 417.646 126.868 418.882 126.868 T
420.264 128.77 416.646 127.595 417.646 126.868 T
420.264 128.77 416.264 128.77 416.646 127.595 T
420.264 128.77 416.646 129.946 416.264 128.77 T
420.264 128.77 417.646 130.672 416.646 129.946 T
420.264 128.77 418.882 130.672 417.646 130.672 T
420.264 128.77 419.882 129.946 418.882 130.672 T
416.72 131.564 415.338 129.662 416.338 130.389 T
416.72 131.564 414.102 129.662 415.338 129.662 T
416.72 131.564 413.102 130.389 414.102 129.662 T
416.72 131.564 412.72 131.564 413.102 130.389 T
416.72 131.564 413.102 132.74 412.72 131.564 T
416.72 131.564 414.102 133.466 413.102 132.74 T
416.72 131.564 415.338 133.466 414.102 133.466 T
416.72 131.564 416.338 132.74 415.338 133.466 T
413.131 134.397 411.749 132.494 412.749 133.221 T
413.131 134.397 410.513 132.494 411.749 132.494 T
413.131 134.397 409.513 133.221 410.513 132.494 T
413.131 134.397 409.131 134.397 409.513 133.221 T
413.131 134.397 409.513 135.572 409.131 134.397 T
413.131 134.397 410.513 136.299 409.513 135.572 T
413.131 134.397 411.749 136.299 410.513 136.299 T
413.131 134.397 412.749 135.572 411.749 136.299 T
409.493 137.265 408.111 135.363 409.111 136.09 T
409.493 137.265 406.875 135.363 408.111 135.363 T
409.493 137.265 405.875 136.09 406.875 135.363 T
409.493 137.265 405.493 137.265 405.875 136.09 T
409.493 137.265 405.875 138.441 405.493 137.265 T
409.493 137.265 406.875 139.167 405.875 138.441 T
409.493 137.265 408.111 139.167 406.875 139.167 T
409.493 137.265 409.111 138.441 408.111 139.167 T
405.803 140.175 404.421 138.273 405.421 139 T
405.803 140.175 403.185 138.273 404.421 138.273 T
405.803 140.175 402.185 139 403.185 138.273 T
405.803 140.175 401.803 140.175 402.185 139 T
405.803 140.175 402.185 141.351 401.803 140.175 T
405.803 140.175 403.185 142.077 402.185 141.351 T
405.803 140.175 404.421 142.077 403.185 142.077 T
405.803 140.175 405.421 141.351 404.421 142.077 T
402.071 143.118 400.689 141.216 401.689 141.942 T
402.071 143.118 399.453 141.216 400.689 141.216 T
402.071 143.118 398.453 141.942 399.453 141.216 T
402.071 143.118 398.071 143.118 398.453 141.942 T
402.071 143.118 398.453 144.293 398.071 143.118 T
402.071 143.118 399.453 145.02 398.453 144.293 T
402.071 143.118 400.689 145.02 399.453 145.02 T
402.071 143.118 401.689 144.293 400.689 145.02 T
398.288 146.102 396.906 144.199 397.906 144.926 T
398.288 146.102 395.67 144.199 396.906 144.199 T
398.288 146.102 394.67 144.926 395.67 144.199 T
398.288 146.102 394.288 146.102 394.67 144.926 T
398.288 146.102 394.67 147.277 394.288 146.102 T
398.288 146.102 395.67 148.004 394.67 147.277 T
398.288 146.102 396.906 148.004 395.67 148.004 T
398.288 146.102 397.906 147.277 396.906 148.004 T
394.453 149.126 393.071 147.224 394.071 147.95 T
394.453 149.126 391.835 147.224 393.071 147.224 T
394.453 149.126 390.835 147.95 391.835 147.224 T
394.453 149.126 390.453 149.126 390.835 147.95 T
394.453 149.126 390.835 150.301 390.453 149.126 T
394.453 149.126 391.835 151.028 390.835 150.301 T
394.453 149.126 393.071 151.028 391.835 151.028 T
394.453 149.126 394.071 150.301 393.071 151.028 T
390.568 152.192 389.186 150.289 390.186 151.016 T
390.568 152.192 387.949 150.289 389.186 150.289 T
390.568 152.192 386.949 151.016 387.949 150.289 T
390.568 152.192 386.568 152.192 386.949 151.016 T
390.568 152.192 386.949 153.367 386.568 152.192 T
390.568 152.192 387.949 154.094 386.949 153.367 T
390.568 152.192 389.186 154.094 387.949 154.094 T
390.568 152.192 390.186 153.367 389.186 154.094 T
386.628 155.298 385.246 153.396 386.246 154.122 T
386.628 155.298 384.01 153.396 385.246 153.396 T
386.628 155.298 383.01 154.122 384.01 153.396 T
386.628 155.298 382.628 155.298 383.01 154.122 T
386.628 155.298 383.01 156.473 382.628 155.298 T
386.628 155.298 384.01 157.2 383.01 156.473 T
386.628 155.298 385.246 157.2 384.01 157.2 T
386.628 155.298 386.246 156.473 385.246 157.2 T
382.631 158.451 381.249 156.549 382.249 157.275 T
382.631 158.451 380.013 156.549 381.249 156.549 T
382.631 158.451 379.013 157.275 380.013 156.549 T
382.631 158.451 378.631 158.451 379.013 157.275 T
382.631 158.451 379.013 159.626 378.631 158.451 T
382.631 158.451 380.013 160.353 379.013 159.626 T
382.631 158.451 381.249 160.353 380.013 160.353 T
382.631 158.451 382.249 159.626 381.249 160.353 T
378.584 161.643 377.202 159.741 378.202 160.468 T
378.584 161.643 375.966 159.741 377.202 159.741 T
378.584 161.643 374.966 160.468 375.966 159.741 T
378.584 161.643 374.584 161.643 374.966 160.468 T
378.584 161.643 374.966 162.819 374.584 161.643 T
378.584 161.643 375.966 163.545 374.966 162.819 T
378.584 161.643 377.202 163.545 375.966 163.545 T
378.584 161.643 378.202 162.819 377.202 163.545 T
374.479 164.881 373.097 162.979 374.097 163.706 T
374.479 164.881 371.861 162.979 373.097 162.979 T
374.479 164.881 370.861 163.706 371.861 162.979 T
374.479 164.881 370.479 164.881 370.861 163.706 T
374.479 164.881 370.861 166.057 370.479 164.881 T
374.479 164.881 371.861 166.784 370.861 166.057 T
374.479 164.881 373.097 166.784 371.861 166.784 T
374.479 164.881 374.097 166.057 373.097 166.784 T
370.317 168.163 368.935 166.261 369.935 166.987 T
370.317 168.163 367.699 166.261 368.935 166.261 T
370.317 168.163 366.699 166.987 367.699 166.261 T
370.317 168.163 366.317 168.163 366.699 166.987 T
370.317 168.163 366.699 169.338 366.317 168.163 T
370.317 168.163 367.699 170.065 366.699 169.338 T
370.317 168.163 368.935 170.065 367.699 170.065 T
370.317 168.163 369.935 169.338 368.935 170.065 T
366.096 171.492 364.714 169.59 365.714 170.316 T
366.096 171.492 363.478 169.59 364.714 169.59 T
366.096 171.492 362.478 170.316 363.478 169.59 T
366.096 171.492 362.096 171.492 362.478 170.316 T
366.096 171.492 362.478 172.667 362.096 171.492 T
366.096 171.492 363.478 173.394 362.478 172.667 T
366.096 171.492 364.714 173.394 363.478 173.394 T
366.096 171.492 365.714 172.667 364.714 173.394 T
361.817 174.866 360.435 172.964 361.435 173.691 T
361.817 174.866 359.199 172.964 360.435 172.964 T
361.817 174.866 358.199 173.691 359.199 172.964 T
361.817 174.866 357.817 174.866 358.199 173.691 T
361.817 174.866 358.199 176.042 357.817 174.866 T
361.817 174.866 359.199 176.769 358.199 176.042 T
361.817 174.866 360.435 176.769 359.199 176.769 T
361.817 174.866 361.435 176.042 360.435 176.769 T
357.476 178.29 356.094 176.388 357.094 177.115 T
357.476 178.29 354.858 176.388 356.094 176.388 T
357.476 178.29 353.858 177.115 354.858 176.388 T
357.476 178.29 353.476 178.29 353.858 177.115 T
357.476 178.29 353.858 179.466 353.476 178.29 T
357.476 178.29 354.858 180.193 353.858 179.466 T
357.476 178.29 356.094 180.193 354.858 180.193 T
357.476 178.29 357.094 179.466 356.094 180.193 T
353.07 181.765 351.688 179.863 352.688 180.59 T
353.07 181.765 350.452 179.863 351.688 179.863 T
353.07 181.765 349.452 180.59 350.452 179.863 T
353.07 181.765 349.07 181.765 349.452 180.59 T
353.07 181.765 349.452 182.941 349.07 181.765 T
353.07 181.765 350.452 183.668 349.452 182.941 T
353.07 181.765 351.688 183.668 350.452 183.668 T
353.07 181.765 352.688 182.941 351.688 183.668 T
348.601 185.29 347.219 183.388 348.219 184.114 T
348.601 185.29 345.983 183.388 347.219 183.388 T
348.601 185.29 344.983 184.114 345.983 183.388 T
348.601 185.29 344.601 185.29 344.983 184.114 T
348.601 185.29 344.983 186.465 344.601 185.29 T
348.601 185.29 345.983 187.192 344.983 186.465 T
348.601 185.29 347.219 187.192 345.983 187.192 T
348.601 185.29 348.219 186.465 347.219 187.192 T
344.07 188.864 342.689 186.962 343.689 187.689 T
344.07 188.864 341.452 186.962 342.689 186.962 T
344.07 188.864 340.452 187.689 341.452 186.962 T
344.07 188.864 340.07 188.864 340.452 187.689 T
344.07 188.864 340.452 190.04 340.07 188.864 T
344.07 188.864 341.452 190.766 340.452 190.04 T
344.07 188.864 342.689 190.766 341.452 190.766 T
344.07 188.864 343.689 190.04 342.689 190.766 T
339.468 192.494 338.086 190.592 339.086 191.319 T
339.468 192.494 336.85 190.592 338.086 190.592 T
339.468 192.494 335.85 191.319 336.85 190.592 T
339.468 192.494 335.468 192.494 335.85 191.319 T
339.468 192.494 335.85 193.67 335.468 192.494 T
339.468 192.494 336.85 194.396 335.85 193.67 T
339.468 192.494 338.086 194.396 336.85 194.396 T
339.468 192.494 339.086 193.67 338.086 194.396 T
334.799 196.176 333.417 194.274 334.417 195.001 T
334.799 196.176 332.181 194.274 333.417 194.274 T
334.799 196.176 331.181 195.001 332.181 194.274 T
334.799 196.176 330.799 196.176 331.181 195.001 T
334.799 196.176 331.181 197.352 330.799 196.176 T
334.799 196.176 332.181 198.078 331.181 197.352 T
334.799 196.176 333.417 198.078 332.181 198.078 T
334.799 196.176 334.417 197.352 333.417 198.078 T
330.062 199.913 328.681 198.01 329.681 198.737 T
330.062 199.913 327.444 198.01 328.681 198.01 T
330.062 199.913 326.444 198.737 327.444 198.01 T
330.062 199.913 326.062 199.913 326.444 198.737 T
330.062 199.913 326.444 201.088 326.062 199.913 T
330.062 199.913 327.444 201.815 326.444 201.088 T
330.062 199.913 328.681 201.815 327.444 201.815 T
330.062 199.913 329.681 201.088 328.681 201.815 T
325.253 203.706 323.871 201.804 324.871 202.531 T
325.253 203.706 322.634 201.804 323.871 201.804 T
325.253 203.706 321.634 202.531 322.634 201.804 T
325.253 203.706 321.253 203.706 321.634 202.531 T
325.253 203.706 321.634 204.882 321.253 203.706 T
325.253 203.706 322.634 205.608 321.634 204.882 T
325.253 203.706 323.871 205.608 322.634 205.608 T
325.253 203.706 324.871 204.882 323.871 205.608 T
320.371 207.555 318.989 205.653 319.989 206.38 T
320.371 207.555 317.753 205.653 318.989 205.653 T
320.371 207.555 316.753 206.38 317.753 205.653 T
320.371 207.555 316.371 207.555 316.753 206.38 T
320.371 207.555 316.753 208.731 316.371 207.555 T
320.371 207.555 317.753 209.457 316.753 208.731 T
320.371 207.555 318.989 209.457 317.753 209.457 T
320.371 207.555 319.989 208.731 318.989 209.457 T
315.414 211.465 314.032 209.563 315.032 210.29 T
315.414 211.465 312.796 209.563 314.032 209.563 T
315.414 211.465 311.796 210.29 312.796 209.563 T
315.414 211.465 311.414 211.465 311.796 210.29 T
315.414 211.465 311.796 212.641 311.414 211.465 T
315.414 211.465 312.796 213.367 311.796 212.641 T
315.414 211.465 314.032 213.367 312.796 213.367 T
315.414 211.465 315.032 212.641 314.032 213.367 T
310.381 215.435 308.999 213.533 309.999 214.259 T
310.381 215.435 307.763 213.533 308.999 213.533 T
310.381 215.435 306.763 214.259 307.763 213.533 T
310.381 215.435 306.381 215.435 306.763 214.259 T
310.381 215.435 306.763 216.61 306.381 215.435 T
310.381 215.435 307.763 217.337 306.763 216.61 T
310.381 215.435 308.999 217.337 307.763 217.337 T
310.381 215.435 309.999 216.61 308.999 217.337 T
305.269 219.467 303.887 217.565 304.887 218.291 T
305.269 219.467 302.651 217.565 303.887 217.565 T
305.269 219.467 301.651 218.291 302.651 217.565 T
305.269 219.467 301.269 219.467 301.651 218.291 T
305.269 219.467 301.651 220.643 301.269 219.467 T
305.269 219.467 302.651 221.369 301.651 220.643 T
305.269 219.467 303.887 221.369 302.651 221.369 T
305.269 219.467 304.887 220.643 303.887 221.369 T
300.08 223.56 298.698 221.658 299.698 222.384 T
300.08 223.56 297.462 221.658 298.698 221.658 T
300.08 223.56 296.462 222.384 297.462 221.658 T
300.08 223.56 296.08 223.56 296.462 222.384 T
300.08 223.56 296.462 224.736 296.08 223.56 T
300.08 223.56 297.462 225.462 296.462 224.736 T
300.08 223.56 298.698 225.462 297.462 225.462 T
300.08 223.56 299.698 224.736 298.698 225.462 T
294.807 227.719 293.425 225.817 294.425 226.543 T
294.807 227.719 292.189 225.817 293.425 225.817 T
294.807 227.719 291.189 226.543 292.189 225.817 T
294.807 227.719 290.807 227.719 291.189 226.543 T
294.807 227.719 291.189 228.895 290.807 227.719 T
294.807 227.719 292.189 229.621 291.189 228.895 T
294.807 227.719 293.425 229.621 292.189 229.621 T
294.807 227.719 294.425 228.895 293.425 229.621 T
289.452 231.943 288.07 230.041 289.07 230.767 T
289.452 231.943 286.834 230.041 288.07 230.041 T
289.452 231.943 285.834 230.767 286.834 230.041 T
289.452 231.943 285.452 231.943 285.834 230.767 T
289.452 231.943 285.834 233.119 285.452 231.943 T
289.452 231.943 286.834 233.845 285.834 233.119 T
289.452 231.943 288.07 233.845 286.834 233.845 T
289.452 231.943 289.07 233.119 288.07 233.845 T
284.009 236.235 282.627 234.333 283.627 235.059 T
284.009 236.235 281.391 234.333 282.627 234.333 T
284.009 236.235 280.391 235.059 281.391 234.333 T
284.009 236.235 280.009 236.235 280.391 235.059 T
284.009 236.235 280.391 237.41 280.009 236.235 T
284.009 236.235 281.391 238.137 280.391 237.41 T
284.009 236.235 282.627 238.137 281.391 238.137 T
284.009 236.235 283.627 237.41 282.627 238.137 T
278.479 240.596 277.097 238.694 278.097 239.421 T
278.479 240.596 275.861 238.694 277.097 238.694 T
278.479 240.596 274.861 239.421 275.861 238.694 T
278.479 240.596 274.479 240.596 274.861 239.421 T
278.479 240.596 274.861 241.772 274.479 240.596 T
278.479 240.596 275.861 242.498 274.861 241.772 T
278.479 240.596 277.097 242.498 275.861 242.498 T
278.479 240.596 278.097 241.772 277.097 242.498 T
272.86 245.028 271.478 243.126 272.478 243.853 T
272.86 245.028 270.242 243.126 271.478 243.126 T
272.86 245.028 269.242 243.853 270.242 243.126 T
272.86 245.028 268.86 245.028 269.242 243.853 T
272.86 245.028 269.242 246.204 268.86 245.028 T
272.86 245.028 270.242 246.93 269.242 246.204 T
272.86 245.028 271.478 246.93 270.242 246.93 T
272.86 245.028 272.478 246.204 271.478 246.93 T
267.149 249.533 265.767 247.631 266.767 248.357 T
267.149 249.533 264.531 247.631 265.767 247.631 T
267.149 249.533 263.531 248.357 264.531 247.631 T
267.149 249.533 263.149 249.533 263.531 248.357 T
267.149 249.533 263.531 250.709 263.149 249.533 T
267.149 249.533 264.531 251.435 263.531 250.709 T
267.149 249.533 265.767 251.435 264.531 251.435 T
267.149 249.533 266.767 250.709 265.767 251.435 T
261.342 254.113 259.96 252.211 260.96 252.937 T
261.342 254.113 258.724 252.211 259.96 252.211 T
261.342 254.113 257.724 252.937 258.724 252.211 T
261.342 254.113 257.342 254.113 257.724 252.937 T
261.342 254.113 257.724 255.288 257.342 254.113 T
261.342 254.113 258.724 256.015 257.724 255.288 T
261.342 254.113 259.96 256.015 258.724 256.015 T
261.342 254.113 260.96 255.288 259.96 256.015 T
255.44 258.768 254.058 256.866 255.058 257.592 T
255.44 258.768 252.822 256.866 254.058 256.866 T
255.44 258.768 251.822 257.592 252.822 256.866 T
255.44 258.768 251.44 258.768 251.822 257.592 T
255.44 258.768 251.822 259.944 251.44 258.768 T
255.44 258.768 252.822 260.67 251.822 259.944 T
255.44 258.768 254.058 260.67 252.822 260.67 T
255.44 258.768 255.058 259.944 254.058 260.67 T
249.437 263.503 248.055 261.6 249.055 262.327 T
249.437 263.503 246.819 261.6 248.055 261.6 T
249.437 263.503 245.819 262.327 246.819 261.6 T
249.437 263.503 245.437 263.503 245.819 262.327 T
249.437 263.503 245.819 264.678 245.437 263.503 T
249.437 263.503 246.819 265.405 245.819 264.678 T
249.437 263.503 248.055 265.405 246.819 265.405 T
249.437 263.503 249.055 264.678 248.055 265.405 T
243.335 268.316 241.953 266.413 242.953 267.14 T
243.335 268.316 240.717 266.413 241.953 266.413 T
243.335 268.316 239.717 267.14 240.717 266.413 T
243.335 268.316 239.335 268.316 239.717 267.14 T
243.335 268.316 239.717 269.491 239.335 268.316 T
243.335 268.316 240.717 270.218 239.717 269.491 T
243.335 268.316 241.953 270.218 240.717 270.218 T
243.335 268.316 242.953 269.491 241.953 270.218 T
237.126 273.213 235.744 271.311 236.744 272.037 T
237.126 273.213 234.508 271.311 235.744 271.311 T
237.126 273.213 233.508 272.037 234.508 271.311 T
237.126 273.213 233.126 273.213 233.508 272.037 T
237.126 273.213 233.508 274.389 233.126 273.213 T
237.126 273.213 234.508 275.115 233.508 274.389 T
237.126 273.213 235.744 275.115 234.508 275.115 T
237.126 273.213 236.744 274.389 235.744 275.115 T
230.812 278.192 229.43 276.29 230.43 277.017 T
230.812 278.192 228.194 276.29 229.43 276.29 T
230.812 278.192 227.194 277.017 228.194 276.29 T
230.812 278.192 226.812 278.192 227.194 277.017 T
230.812 278.192 227.194 279.368 226.812 278.192 T
230.812 278.192 228.194 280.094 227.194 279.368 T
230.812 278.192 229.43 280.094 228.194 280.094 T
230.812 278.192 230.43 279.368 229.43 280.094 T
224.385 283.261 223.003 281.359 224.003 282.086 T
224.385 283.261 221.767 281.359 223.003 281.359 T
224.385 283.261 220.767 282.086 221.767 281.359 T
224.385 283.261 220.385 283.261 220.767 282.086 T
224.385 283.261 220.767 284.437 220.385 283.261 T
224.385 283.261 221.767 285.163 220.767 284.437 T
224.385 283.261 223.003 285.163 221.767 285.163 T
224.385 283.261 224.003 284.437 223.003 285.163 T
217.848 288.417 216.466 286.515 217.466 287.241 T
217.848 288.417 215.23 286.515 216.466 286.515 T
217.848 288.417 214.23 287.241 215.23 286.515 T
217.848 288.417 213.848 288.417 214.23 287.241 T
217.848 288.417 214.23 289.592 213.848 288.417 T
217.848 288.417 215.23 290.319 214.23 289.592 T
217.848 288.417 216.466 290.319 215.23 290.319 T
217.848 288.417 217.466 289.592 216.466 290.319 T
211.195 293.664 209.813 291.762 210.813 292.489 T
211.195 293.664 208.577 291.762 209.813 291.762 T
211.195 293.664 207.577 292.489 208.577 291.762 T
211.195 293.664 207.195 293.664 207.577 292.489 T
211.195 293.664 207.577 294.84 207.195 293.664 T
211.195 293.664 208.577 295.567 207.577 294.84 T
211.195 293.664 209.813 295.567 208.577 295.567 T
211.195 293.664 210.813 294.84 209.813 295.567 T
204.422 299.006 203.04 297.104 204.04 297.831 T
204.422 299.006 201.804 297.104 203.04 297.104 T
204.422 299.006 200.804 297.831 201.804 297.104 T
204.422 299.006 200.422 299.006 200.804 297.831 T
204.422 299.006 200.804 300.182 200.422 299.006 T
204.422 299.006 201.804 300.908 200.804 300.182 T
204.422 299.006 203.04 300.908 201.804 300.908 T
204.422 299.006 204.04 300.182 203.04 300.908 T
197.528 304.443 196.146 302.541 197.146 303.268 T
197.528 304.443 194.91 302.541 196.146 302.541 T
197.528 304.443 193.91 303.268 194.91 302.541 T
197.528 304.443 193.528 304.443 193.91 303.268 T
197.528 304.443 193.91 305.619 193.528 304.443 T
197.528 304.443 194.91 306.345 193.91 305.619 T
197.528 304.443 196.146 306.345 194.91 306.345 T
197.528 304.443 197.146 305.619 196.146 306.345 T
190.51 309.979 189.128 308.077 190.128 308.803 T
190.51 309.979 187.892 308.077 189.128 308.077 T
190.51 309.979 186.892 308.803 187.892 308.077 T
190.51 309.979 186.51 309.979 186.892 308.803 T
190.51 309.979 186.892 311.154 186.51 309.979 T
190.51 309.979 187.892 311.881 186.892 311.154 T
190.51 309.979 189.128 311.881 187.892 311.881 T
190.51 309.979 190.128 311.154 189.128 311.881 T
183.363 315.616 181.981 313.714 182.981 314.44 T
183.363 315.616 180.745 313.714 181.981 313.714 T
183.363 315.616 179.745 314.44 180.745 313.714 T
183.363 315.616 179.363 315.616 179.745 314.44 T
183.363 315.616 179.745 316.791 179.363 315.616 T
183.363 315.616 180.745 317.518 179.745 316.791 T
183.363 315.616 181.981 317.518 180.745 317.518 T
183.363 315.616 182.981 316.791 181.981 317.518 T
176.08 321.36 174.698 319.458 175.698 320.184 T
176.08 321.36 173.462 319.458 174.698 319.458 T
176.08 321.36 172.462 320.184 173.462 319.458 T
176.08 321.36 172.08 321.36 172.462 320.184 T
176.08 321.36 172.462 322.535 172.08 321.36 T
176.08 321.36 173.462 323.262 172.462 322.535 T
176.08 321.36 174.698 323.262 173.462 323.262 T
176.08 321.36 175.698 322.535 174.698 323.262 T
168.663 327.21 167.281 325.308 168.281 326.034 T
168.663 327.21 166.045 325.308 167.281 325.308 T
168.663 327.21 165.045 326.034 166.045 325.308 T
168.663 327.21 164.663 327.21 165.045 326.034 T
168.663 327.21 165.045 328.385 164.663 327.21 T
168.663 327.21 166.045 329.112 165.045 328.385 T
168.663 327.21 167.281 329.112 166.045 329.112 T
168.663 327.21 168.281 328.385 167.281 329.112 T
161.106 333.17 159.724 331.267 160.724 331.994 T
161.106 333.17 158.488 331.267 159.724 331.267 T
161.106 333.17 157.488 331.994 158.488 331.267 T
161.106 333.17 157.106 333.17 157.488 331.994 T
161.106 333.17 157.488 334.345 157.106 333.17 T
161.106 333.17 158.488 335.072 157.488 334.345 T
161.106 333.17 159.724 335.072 158.488 335.072 T
161.106 333.17 160.724 334.345 159.724 335.072 T
153.404 339.245 152.022 337.343 153.022 338.069 T
153.404 339.245 150.786 337.343 152.022 337.343 T
153.404 339.245 149.786 338.069 150.786 337.343 T
153.404 339.245 149.404 339.245 149.786 338.069 T
153.404 339.245 149.786 340.42 149.404 339.245 T
153.404 339.245 150.786 341.147 149.786 340.42 T
153.404 339.245 152.022 341.147 150.786 341.147 T
153.404 339.245 153.022 340.42 152.022 341.147 T
145.558 345.433 144.176 343.531 145.176 344.258 T
145.558 345.433 142.94 343.531 144.176 343.531 T
145.558 345.433 141.94 344.258 142.94 343.531 T
145.558 345.433 141.558 345.433 141.94 344.258 T
145.558 345.433 141.94 346.609 141.558 345.433 T
145.558 345.433 142.94 347.335 141.94 346.609 T
145.558 345.433 144.176 347.335 142.94 347.335 T
145.558 345.433 145.176 346.609 144.176 347.335 T
137.555 351.745 136.173 349.843 137.173 350.57 T
137.555 351.745 134.937 349.843 136.173 349.843 T
137.555 351.745 133.937 350.57 134.937 349.843 T
137.555 351.745 133.555 351.745 133.937 350.57 T
137.555 351.745 133.937 352.921 133.555 351.745 T
137.555 351.745 134.937 353.647 133.937 352.921 T
137.555 351.745 136.173 353.647 134.937 353.647 T
137.555 351.745 137.173 352.921 136.173 353.647 T
129.397 358.179 128.015 356.277 129.015 357.003 T
129.397 358.179 126.779 356.277 128.015 356.277 T
129.397 358.179 125.779 357.003 126.779 356.277 T
129.397 358.179 125.397 358.179 125.779 357.003 T
129.397 358.179 125.779 359.354 125.397 358.179 T
129.397 358.179 126.779 360.081 125.779 359.354 T
129.397 358.179 128.015 360.081 126.779 360.081 T
129.397 358.179 129.015 359.354 128.015 360.081 T
121.077 364.741 119.695 362.839 120.695 363.566 T
121.077 364.741 118.459 362.839 119.695 362.839 T
121.077 364.741 117.459 363.566 118.459 362.839 T
121.077 364.741 117.077 364.741 117.459 363.566 T
121.077 364.741 117.459 365.917 117.077 364.741 T
121.077 364.741 118.459 366.644 117.459 365.917 T
121.077 364.741 119.695 366.644 118.459 366.644 T
121.077 364.741 120.695 365.917 119.695 366.644 T
112.59 371.435 111.208 369.533 112.208 370.26 T
112.59 371.435 109.972 369.533 111.208 369.533 T
112.59 371.435 108.972 370.26 109.972 369.533 T
112.59 371.435 108.59 371.435 108.972 370.26 T
112.59 371.435 108.972 372.611 108.59 371.435 T
112.59 371.435 109.972 373.337 108.972 372.611 T
112.59 371.435 111.208 373.337 109.972 373.337 T
112.59 371.435 112.208 372.611 111.208 373.337 T
103.929 378.267 102.547 376.365 103.547 377.091 T
103.929 378.267 101.311 376.365 102.547 376.365 T
103.929 378.267 100.311 377.091 101.311 376.365 T
103.929 378.267 99.9287 378.267 100.311 377.091 T
103.929 378.267 100.311 379.442 99.9287 378.267 T
103.929 378.267 101.311 380.169 100.311 379.442 T
103.929 378.267 102.547 380.169 101.311 380.169 T
103.929 378.267 103.547 379.442 102.547 380.169 T
95.1017 385.228 93.7198 383.326 94.7198 384.053 T
95.1017 385.228 92.4837 383.326 93.7198 383.326 T
95.1017 385.228 91.4837 384.053 92.4837 383.326 T
95.1017 385.228 91.1018 385.228 91.4837 384.053 T
95.1017 385.228 91.4837 386.404 91.1018 385.228 T
95.1017 385.228 92.4837 387.13 91.4837 386.404 T
95.1017 385.228 93.7198 387.13 92.4837 387.13 T
95.1017 385.228 94.7198 386.404 93.7198 387.13 T
86.0728 392.35 84.6908 390.448 85.6908 391.174 T
86.0728 392.35 83.4547 390.448 84.6908 390.448 T
86.0728 392.35 82.4547 391.174 83.4547 390.448 T
86.0728 392.35 82.0728 392.35 82.4547 391.174 T
86.0728 392.35 82.4547 393.525 82.0728 392.35 T
86.0728 392.35 83.4547 394.252 82.4547 393.525 T
86.0728 392.35 84.6908 394.252 83.4547 394.252 T
86.0728 392.35 85.6908 393.525 84.6908 394.252 T
77.7356 398.925 76.3536 397.023 77.3536 397.749 T
77.7356 398.925 75.1176 397.023 76.3536 397.023 T
77.7356 398.925 74.1176 397.749 75.1176 397.023 T
77.7356 398.925 73.7356 398.925 74.1176 397.749 T
77.7356 398.925 74.1176 400.1 73.7356 398.925 T
77.7356 398.925 75.1176 400.827 74.1176 400.1 T
77.7356 398.925 76.3536 400.827 75.1176 400.827 T
77.7356 398.925 77.3536 400.1 76.3536 400.827 T
grestore
showpage
cleartomark
%%PageTrailer
%%Trailer
end
%%EOF
