%!PS-Adobe-3.0 EPSF-3.0
%%Title: glps_renderer figure
%%Creator: GL2PS 1.3.8, (C) 1999-2012 C. Geuzaine
%%For: Octave
%%CreationDate: Thu May 14 21:58:17 2015
%%LanguageLevel: 3
%%DocumentData: Clean7Bit
%%Pages: 1
%%BoundingBox: 0 0 560 420
%%EndComments
%%BeginProlog
/gl2psdict 64 dict def gl2psdict begin
0 setlinecap 0 setlinejoin
/tryPS3shading false def % set to false to force subdivision
/rThreshold 0.064 def % red component subdivision threshold
/gThreshold 0.034 def % green component subdivision threshold
/bThreshold 0.1 def % blue component subdivision threshold
/BD { bind def } bind def
/C  { setrgbcolor } BD
/G  { 0.082 mul exch 0.6094 mul add exch 0.3086 mul add neg 1.0 add setgray } BD
/W  { setlinewidth } BD
/FC { findfont exch /SH exch def SH scalefont setfont } BD
/SW { dup stringwidth pop } BD
/S  { FC moveto show } BD
/SBC{ FC moveto SW -2 div 0 rmoveto show } BD
/SBR{ FC moveto SW neg 0 rmoveto show } BD
/SCL{ FC moveto 0 SH -2 div rmoveto show } BD
/SCC{ FC moveto SW -2 div SH -2 div rmoveto show } BD
/SCR{ FC moveto SW neg SH -2 div rmoveto show } BD
/STL{ FC moveto 0 SH neg rmoveto show } BD
/STC{ FC moveto SW -2 div SH neg rmoveto show } BD
/STR{ FC moveto SW neg SH neg rmoveto show } BD
/FCT { FC translate 0 0 } BD
/SR  { gsave FCT moveto rotate show grestore } BD
/SBCR{ gsave FCT moveto rotate SW -2 div 0 rmoveto show grestore } BD
/SBRR{ gsave FCT moveto rotate SW neg 0 rmoveto show grestore } BD
/SCLR{ gsave FCT moveto rotate 0 SH -2 div rmoveto show grestore} BD
/SCCR{ gsave FCT moveto rotate SW -2 div SH -2 div rmoveto show grestore} BD
/SCRR{ gsave FCT moveto rotate SW neg SH -2 div rmoveto show grestore} BD
/STLR{ gsave FCT moveto rotate 0 SH neg rmoveto show grestore } BD
/STCR{ gsave FCT moveto rotate SW -2 div SH neg rmoveto show grestore } BD
/STRR{ gsave FCT moveto rotate SW neg SH neg rmoveto show grestore } BD
/P  { newpath 0.0 360.0 arc closepath fill } BD
/LS { newpath moveto } BD
/L  { lineto } BD
/LE { lineto stroke } BD
/T  { newpath moveto lineto lineto closepath fill } BD
/STshfill {
      /b1 exch def /g1 exch def /r1 exch def /y1 exch def /x1 exch def
      /b2 exch def /g2 exch def /r2 exch def /y2 exch def /x2 exch def
      /b3 exch def /g3 exch def /r3 exch def /y3 exch def /x3 exch def
      gsave << /ShadingType 4 /ColorSpace [/DeviceRGB]
      /DataSource [ 0 x1 y1 r1 g1 b1 0 x2 y2 r2 g2 b2 0 x3 y3 r3 g3 b3 ] >>
      shfill grestore } BD
/Tm { 3 -1 roll 8 -1 roll 13 -1 roll add add 3 div
      3 -1 roll 7 -1 roll 11 -1 roll add add 3 div
      3 -1 roll 6 -1 roll 9 -1 roll add add 3 div C T } BD
/STsplit {
      4 index 15 index add 0.5 mul
      4 index 15 index add 0.5 mul
      4 index 15 index add 0.5 mul
      4 index 15 index add 0.5 mul
      4 index 15 index add 0.5 mul
      5 copy 5 copy 25 15 roll
      9 index 30 index add 0.5 mul
      9 index 30 index add 0.5 mul
      9 index 30 index add 0.5 mul
      9 index 30 index add 0.5 mul
      9 index 30 index add 0.5 mul
      5 copy 5 copy 35 5 roll 25 5 roll 15 5 roll
      4 index 10 index add 0.5 mul
      4 index 10 index add 0.5 mul
      4 index 10 index add 0.5 mul
      4 index 10 index add 0.5 mul
      4 index 10 index add 0.5 mul
      5 copy 5 copy 40 5 roll 25 5 roll 15 5 roll 25 5 roll
      STnoshfill STnoshfill STnoshfill STnoshfill } BD
/STnoshfill {
      2 index 8 index sub abs rThreshold gt
      { STsplit }
      { 1 index 7 index sub abs gThreshold gt
        { STsplit }
        { dup 6 index sub abs bThreshold gt
          { STsplit }
          { 2 index 13 index sub abs rThreshold gt
            { STsplit }
            { 1 index 12 index sub abs gThreshold gt
              { STsplit }
              { dup 11 index sub abs bThreshold gt
                { STsplit }
                { 7 index 13 index sub abs rThreshold gt
                  { STsplit }
                  { 6 index 12 index sub abs gThreshold gt
                    { STsplit }
                    { 5 index 11 index sub abs bThreshold gt
                      { STsplit }
                      { Tm }
                      ifelse }
                    ifelse }
                  ifelse }
                ifelse }
              ifelse }
            ifelse }
          ifelse }
        ifelse }
      ifelse } BD
tryPS3shading
{ /shfill where
  { /ST { STshfill } BD }
  { /ST { STnoshfill } BD }
  ifelse }
{ /ST { STnoshfill } BD }
ifelse
end
%%EndProlog
%%BeginSetup
/DeviceRGB setcolorspace
gl2psdict begin
%%EndSetup
%%Page: 1 1
%%BeginPageSetup
%%EndPageSetup
mark
gsave
1.0 1.0 scale
1 1 1 C
72.8 132.847 506.8 112.686 261.231 46.2 T
72.8 132.847 318.369 199.333 506.8 112.686 T
506.8 112.686 318.369 388.5 506.8 301.853 T
506.8 112.686 318.369 199.333 318.369 388.5 T
228.638 175.039 318.369 199.333 318.369 272.215 T
0 0 1 C
320.287 199.385 318.905 197.482 319.905 198.209 T
320.287 199.385 317.669 197.482 318.905 197.482 T
320.287 199.385 316.669 198.209 317.669 197.482 T
320.287 199.385 316.287 199.385 316.669 198.209 T
320.287 199.385 316.669 200.56 316.287 199.385 T
320.287 199.385 317.669 201.287 316.669 200.56 T
320.287 199.385 318.905 201.287 317.669 201.287 T
320.287 199.385 319.905 200.56 318.905 201.287 T
0.5 W
[16 0] 0 setdash
0 0 0 C
318.369 201.219 LS
318.369 200.233 LE
0 0 1 C
320.2 199.439 318.818 197.537 319.818 198.264 T
320.2 199.439 317.582 197.537 318.818 197.537 T
320.2 199.439 316.582 198.264 317.582 197.537 T
320.2 199.439 316.2 199.439 316.582 198.264 T
320.2 199.439 316.582 200.615 316.2 199.439 T
320.2 199.439 317.582 201.341 316.582 200.615 T
320.2 199.439 318.818 201.341 317.582 201.341 T
320.2 199.439 319.818 200.615 318.818 201.341 T
0 0 0 C
319.736 198.704 LS
319.979 198.593 LE
316.046 198.704 LS
315.634 198.593 LE
318.369 201.219 LS
318.369 201.554 LE
0 0 1 C
320.17 199.458 318.788 197.556 319.788 198.283 T
320.17 199.458 317.552 197.556 318.788 197.556 T
320.17 199.458 316.552 198.283 317.552 197.556 T
320.17 199.458 316.17 199.458 316.552 198.283 T
320.17 199.458 316.552 200.634 316.17 199.458 T
320.17 199.458 317.552 201.36 316.552 200.634 T
320.17 199.458 318.788 201.36 317.552 201.36 T
320.17 199.458 319.788 200.634 318.788 201.36 T
0 0 0 C
322.779 197.305 LS
319.979 198.593 LE
310.878 197.305 LS
315.634 198.593 LE
318.369 205.417 LS
318.369 201.554 LE
0 0 1 C
319.829 199.673 318.447 197.771 319.447 198.497 T
319.829 199.673 317.211 197.771 318.447 197.771 T
319.829 199.673 316.211 198.497 317.211 197.771 T
319.829 199.673 315.829 199.673 316.211 198.497 T
319.829 199.673 316.211 200.848 315.829 199.673 T
319.829 199.673 317.211 201.575 316.211 200.848 T
319.829 199.673 318.447 201.575 317.211 201.575 T
319.829 199.673 319.447 200.848 318.447 201.575 T
0 0 0 C
322.779 197.305 LS
324.807 196.372 LE
310.878 197.305 LS
307.434 196.372 LE
318.369 205.417 LS
318.369 208.214 LE
0 0 1 C
319.583 199.828 318.202 197.926 319.202 198.652 T
319.583 199.828 316.965 197.926 318.202 197.926 T
319.583 199.828 315.965 198.652 316.965 197.926 T
319.583 199.828 315.583 199.828 315.965 198.652 T
319.583 199.828 315.965 201.004 315.583 199.828 T
319.583 199.828 316.965 201.73 315.965 201.004 T
319.583 199.828 318.202 201.73 316.965 201.73 T
319.583 199.828 319.202 201.004 318.202 201.73 T
0 0 0 C
326.902 195.409 LS
324.807 196.372 LE
303.876 195.409 LS
307.434 196.372 LE
318.369 211.104 LS
318.369 208.214 LE
0 0 1 C
319.328 199.989 317.947 198.087 318.947 198.813 T
319.328 199.989 316.71 198.087 317.947 198.087 T
319.328 199.989 315.71 198.813 316.71 198.087 T
319.328 199.989 315.328 199.989 315.71 198.813 T
319.328 199.989 315.71 201.164 315.328 199.989 T
319.328 199.989 316.71 201.891 315.71 201.164 T
319.328 199.989 317.947 201.891 316.71 201.891 T
319.328 199.989 318.947 201.164 317.947 201.891 T
0 0 0 C
331.058 193.498 LS
326.902 195.409 LE
296.817 193.498 LS
303.876 195.409 LE
318.369 216.838 LS
318.369 211.104 LE
0 0 1 C
318.823 200.307 317.441 198.405 318.441 199.132 T
318.823 200.307 316.205 198.405 317.441 198.405 T
318.823 200.307 315.205 199.132 316.205 198.405 T
318.823 200.307 314.823 200.307 315.205 199.132 T
318.823 200.307 315.205 201.483 314.823 200.307 T
318.823 200.307 316.205 202.209 315.205 201.483 T
318.823 200.307 317.441 202.209 316.205 202.209 T
318.823 200.307 318.441 201.483 317.441 202.209 T
0 0 0 C
331.058 193.498 LS
332.232 192.958 LE
296.817 193.498 LS
294.822 192.958 LE
318.369 216.838 LS
318.369 218.458 LE
0 0 1 C
318.681 200.397 317.299 198.495 318.299 199.222 T
318.681 200.397 316.063 198.495 317.299 198.495 T
318.681 200.397 315.063 199.222 316.063 198.495 T
318.681 200.397 314.681 200.397 315.063 199.222 T
318.681 200.397 315.063 201.573 314.681 200.397 T
318.681 200.397 316.063 202.299 315.063 201.573 T
318.681 200.397 317.299 202.299 316.063 202.299 T
318.681 200.397 318.299 201.573 317.299 202.299 T
0 0 0 C
339.261 189.726 LS
332.232 192.958 LE
282.885 189.726 LS
294.822 192.958 LE
318.369 228.154 LS
318.369 218.458 LE
0 0 1 C
317.913 200.881 316.531 198.979 317.531 199.706 T
317.913 200.881 315.295 198.979 316.531 198.979 T
317.913 200.881 314.295 199.706 315.295 198.979 T
317.913 200.881 313.913 200.881 314.295 199.706 T
317.913 200.881 314.295 202.057 313.913 200.881 T
317.913 200.881 315.295 202.784 314.295 202.057 T
317.913 200.881 316.531 202.784 315.295 202.784 T
317.913 200.881 317.531 202.057 316.531 202.784 T
317.827 200.936 316.445 199.034 317.445 199.76 T
317.827 200.936 315.209 199.034 316.445 199.034 T
317.827 200.936 314.209 199.76 315.209 199.034 T
317.827 200.936 313.827 200.936 314.209 199.76 T
317.827 200.936 314.209 202.111 313.827 200.936 T
317.827 200.936 315.209 202.838 314.209 202.111 T
317.827 200.936 316.445 202.838 315.209 202.838 T
317.827 200.936 317.445 202.111 316.445 202.838 T
0 0 0 C
339.261 189.726 LS
340.714 189.058 LE
282.885 189.726 LS
280.417 189.058 LE
318.369 228.154 LS
318.369 230.158 LE
0 0 1 C
317.794 200.956 316.412 199.054 317.412 199.781 T
317.794 200.956 315.176 199.054 316.412 199.054 T
317.794 200.956 314.176 199.781 315.176 199.054 T
317.794 200.956 313.794 200.956 314.176 199.781 T
317.794 200.956 314.176 202.132 313.794 200.956 T
317.794 200.956 315.176 202.859 314.176 202.132 T
317.794 200.956 316.412 202.859 315.176 202.859 T
317.794 200.956 317.412 202.132 316.412 202.859 T
317.65 201.047 316.269 199.145 317.269 199.872 T
317.65 201.047 315.032 199.145 316.269 199.145 T
317.65 201.047 314.032 199.872 315.032 199.145 T
317.65 201.047 313.65 201.047 314.032 199.872 T
317.65 201.047 314.032 202.223 313.65 201.047 T
317.65 201.047 315.032 202.949 314.032 202.223 T
317.65 201.047 316.269 202.949 315.032 202.949 T
317.65 201.047 317.269 202.223 316.269 202.949 T
0 0 0 C
342.254 188.35 LS
340.714 189.058 LE
277.802 188.35 LS
280.417 189.058 LE
318.369 232.282 LS
318.369 230.158 LE
0 0 1 C
317.554 201.108 316.172 199.206 317.172 199.932 T
317.554 201.108 314.936 199.206 316.172 199.206 T
317.554 201.108 313.936 199.932 314.936 199.206 T
317.554 201.108 313.554 201.108 313.936 199.932 T
317.554 201.108 313.936 202.283 313.554 201.108 T
317.554 201.108 314.936 203.01 313.936 202.283 T
317.554 201.108 316.172 203.01 314.936 203.01 T
317.554 201.108 317.172 202.283 316.172 203.01 T
317.463 201.165 316.081 199.263 317.081 199.99 T
317.463 201.165 314.845 199.263 316.081 199.263 T
317.463 201.165 313.845 199.99 314.845 199.263 T
317.463 201.165 313.463 201.165 313.845 199.99 T
317.463 201.165 313.845 202.341 313.463 201.165 T
317.463 201.165 314.845 203.067 313.845 202.341 T
317.463 201.165 316.081 203.067 314.845 203.067 T
317.463 201.165 317.081 202.341 316.081 203.067 T
0 0 0 C
342.254 188.35 LS
347.219 186.067 LE
277.802 188.35 LS
269.37 186.067 LE
318.369 232.282 LS
318.369 239.131 LE
0 0 1 C
317.267 201.289 315.885 199.387 316.885 200.113 T
317.267 201.289 314.649 199.387 315.885 199.387 T
317.267 201.289 313.649 200.113 314.649 199.387 T
317.267 201.289 313.267 201.289 313.649 200.113 T
317.267 201.289 313.649 202.464 313.267 201.289 T
317.267 201.289 314.649 203.191 313.649 202.464 T
317.267 201.289 315.885 203.191 314.649 203.191 T
317.267 201.289 316.885 202.464 315.885 203.191 T
316.86 201.546 315.478 199.644 316.478 200.37 T
316.86 201.546 314.242 199.644 315.478 199.644 T
316.86 201.546 313.242 200.37 314.242 199.644 T
316.86 201.546 312.86 201.546 313.242 200.37 T
316.86 201.546 313.242 202.721 312.86 201.546 T
316.86 201.546 314.242 203.448 313.242 202.721 T
316.86 201.546 315.478 203.448 314.242 203.448 T
316.86 201.546 316.478 202.721 315.478 203.448 T
0 0 0 C
347.219 186.067 LS
348.793 185.343 LE
269.37 186.067 LS
266.695 185.343 LE
318.369 239.131 LS
318.369 241.304 LE
0 0 1 C
316.669 201.666 315.287 199.764 316.287 200.491 T
316.669 201.666 314.051 199.764 315.287 199.764 T
316.669 201.666 313.051 200.491 314.051 199.764 T
316.669 201.666 312.669 201.666 313.051 200.491 T
316.669 201.666 313.051 202.842 312.669 201.666 T
316.669 201.666 314.051 203.568 313.051 202.842 T
316.669 201.666 315.287 203.568 314.051 203.568 T
316.669 201.666 316.287 202.842 315.287 203.568 T
0 0 0 C
348.793 185.343 LS
355.799 182.121 LE
266.695 185.343 LS
254.798 182.121 LE
318.369 241.304 LS
318.369 250.967 LE
0 0 1 C
316.129 202.007 314.747 200.104 315.747 200.831 T
316.129 202.007 313.511 200.104 314.747 200.104 T
316.129 202.007 312.511 200.831 313.511 200.104 T
316.129 202.007 312.129 202.007 312.511 200.831 T
316.129 202.007 312.511 203.182 312.129 202.007 T
316.129 202.007 313.511 203.909 312.511 203.182 T
316.129 202.007 314.747 203.909 313.511 203.909 T
316.129 202.007 315.747 203.182 314.747 203.909 T
315.817 202.203 314.435 200.301 315.435 201.028 T
315.817 202.203 313.199 200.301 314.435 200.301 T
315.817 202.203 312.199 201.028 313.199 200.301 T
315.817 202.203 311.817 202.203 312.199 201.028 T
315.817 202.203 312.199 203.379 311.817 202.203 T
315.817 202.203 313.199 204.105 312.199 203.379 T
315.817 202.203 314.435 204.105 313.199 204.105 T
315.817 202.203 315.435 203.379 314.435 204.105 T
0 0 0 C
358.503 180.878 LS
355.799 182.121 LE
250.204 180.878 LS
254.798 182.121 LE
318.369 254.698 LS
318.369 250.967 LE
0 0 1 C
315.488 202.411 314.106 200.509 315.106 201.235 T
315.488 202.411 312.87 200.509 314.106 200.509 T
315.488 202.411 311.87 201.235 312.87 200.509 T
315.488 202.411 311.488 202.411 311.87 201.235 T
315.488 202.411 311.87 203.587 311.488 202.411 T
315.488 202.411 314.106 204.313 312.87 204.313 T
315.488 202.411 315.106 203.587 314.106 204.313 T
0 0 0 C
358.503 180.878 LS
358.961 180.667 LE
250.204 180.878 LS
249.426 180.667 LE
318.369 254.698 LS
318.369 255.33 LE
0 0 1 C
315.473 202.42 314.091 200.518 315.091 201.244 T
315.473 202.42 312.855 200.518 314.091 200.518 T
315.473 202.42 311.855 201.244 312.855 200.518 T
315.473 202.42 311.473 202.42 311.855 201.244 T
315.473 202.42 311.855 203.596 311.473 202.42 T
315.473 202.42 312.855 204.322 311.855 203.596 T
315.473 202.42 314.091 204.322 312.855 204.322 T
315.473 202.42 315.091 203.596 314.091 204.322 T
315.432 202.446 314.05 200.544 315.05 201.271 T
315.432 202.446 312.814 200.544 314.05 200.544 T
315.432 202.446 311.814 201.271 312.814 200.544 T
315.432 202.446 311.432 202.446 311.814 201.271 T
315.432 202.446 311.814 203.622 311.432 202.446 T
315.432 202.446 312.814 204.348 311.814 203.622 T
315.432 202.446 314.05 204.348 312.814 204.348 T
315.432 202.446 315.05 203.622 314.05 204.348 T
0 0 0 C
358.961 180.667 LS
359.125 180.592 LE
249.426 180.667 LS
249.148 180.592 LE
318.369 255.33 LS
318.369 255.556 LE
0 0 1 C
315.413 202.458 314.031 200.556 315.031 201.283 T
315.413 202.458 312.795 200.556 314.031 200.556 T
315.413 202.458 311.795 201.283 312.795 200.556 T
315.413 202.458 311.413 202.458 311.795 201.283 T
315.413 202.458 311.795 203.634 311.413 202.458 T
315.413 202.458 312.795 204.36 311.795 203.634 T
315.413 202.458 314.031 204.36 312.795 204.36 T
315.413 202.458 315.031 203.634 314.031 204.36 T
0 0 0 C
359.125 180.592 LS
361.273 179.604 LE
249.148 180.592 LS
245.499 179.604 LE
318.369 255.556 LS
318.369 258.52 LE
0 0 1 C
315.26 202.555 313.878 200.653 314.878 201.379 T
315.26 202.555 312.642 200.653 313.878 200.653 T
315.26 202.555 311.642 201.379 312.642 200.653 T
315.26 202.555 311.26 202.555 311.642 201.379 T
315.26 202.555 311.642 203.73 311.26 202.555 T
315.26 202.555 312.642 204.457 311.642 203.73 T
315.26 202.555 313.878 204.457 312.642 204.457 T
315.26 202.555 314.878 203.73 313.878 204.457 T
315.152 202.623 313.77 200.721 314.77 201.447 T
315.152 202.623 312.534 200.721 313.77 200.721 T
315.152 202.623 311.534 201.447 312.534 200.721 T
315.152 202.623 311.152 202.623 311.534 201.447 T
315.152 202.623 311.534 203.798 311.152 202.623 T
315.152 202.623 312.534 204.525 311.534 203.798 T
315.152 202.623 313.77 204.525 312.534 204.525 T
315.152 202.623 314.77 203.798 313.77 204.525 T
0 0 0 C
364.268 178.227 LS
361.273 179.604 LE
240.413 178.227 LS
245.499 179.604 LE
318.369 262.651 LS
318.369 258.52 LE
0 0 1 C
314.956 202.747 313.574 200.844 314.574 201.571 T
314.956 202.747 312.338 200.844 313.574 200.844 T
314.956 202.747 311.338 201.571 312.338 200.844 T
314.956 202.747 310.956 202.747 311.338 201.571 T
314.956 202.747 311.338 203.922 310.956 202.747 T
314.956 202.747 312.338 204.649 311.338 203.922 T
314.956 202.747 313.574 204.649 312.338 204.649 T
314.956 202.747 314.574 203.922 313.574 204.649 T
314.788 202.852 313.406 200.95 314.406 201.677 T
314.788 202.852 312.17 200.95 313.406 200.95 T
314.788 202.852 311.17 201.677 312.17 200.95 T
314.788 202.852 310.788 202.852 311.17 201.677 T
314.788 202.852 311.17 204.028 310.788 202.852 T
314.788 202.852 312.17 204.755 311.17 204.028 T
314.788 202.852 313.406 204.755 312.17 204.755 T
314.788 202.852 314.406 204.028 313.406 204.755 T
0 0 0 C
364.268 178.227 LS
365.354 177.727 LE
240.413 178.227 LS
238.568 177.727 LE
318.369 262.651 LS
318.369 264.15 LE
0 0 1 C
314.656 202.936 313.274 201.034 314.274 201.76 T
314.656 202.936 312.038 201.034 313.274 201.034 T
314.656 202.936 311.038 201.76 312.038 201.034 T
314.656 202.936 310.656 202.936 311.038 201.76 T
314.656 202.936 311.038 204.111 310.656 202.936 T
314.656 202.936 312.038 204.838 311.038 204.111 T
314.656 202.936 313.274 204.838 312.038 204.838 T
314.656 202.936 314.274 204.111 313.274 204.838 T
1 1 1 C
303.842 263.971 219.419 172.543 228.638 175.039 T
318.369 272.215 303.842 263.971 228.638 175.039 T
318.369 272.215 318.369 279.703 303.842 263.971 T
0 0 0 C
368.017 176.503 LS
365.354 177.727 LE
234.045 176.503 LS
238.568 177.727 LE
318.369 267.823 LS
318.369 264.15 LE
0 0 1 C
314.539 203.009 313.157 201.107 314.157 201.834 T
314.539 203.009 311.921 201.107 313.157 201.107 T
314.539 203.009 310.921 201.834 311.921 201.107 T
314.539 203.009 310.539 203.009 310.921 201.834 T
314.539 203.009 310.921 204.185 310.539 203.009 T
314.539 203.009 311.921 204.911 310.921 204.185 T
314.539 203.009 313.157 204.911 311.921 204.911 T
314.539 203.009 314.157 204.185 313.157 204.911 T
314.332 203.14 312.95 201.238 313.95 201.964 T
314.332 203.14 311.714 201.238 312.95 201.238 T
314.332 203.14 310.714 201.964 311.714 201.238 T
314.332 203.14 310.332 203.14 310.714 201.964 T
314.332 203.14 310.714 204.315 310.332 203.14 T
314.332 203.14 311.714 205.042 310.714 204.315 T
314.332 203.14 312.95 205.042 311.714 205.042 T
314.332 203.14 313.95 204.315 312.95 205.042 T
0 0 0 C
368.017 176.503 LS
370.782 175.232 LE
234.045 176.503 LS
229.35 175.232 LE
318.369 267.823 LS
318.369 271.637 LE
0 0 1 C
314.085 203.295 312.703 201.393 313.703 202.12 T
314.085 203.295 311.467 201.393 312.703 201.393 T
314.085 203.295 310.467 202.12 311.467 201.393 T
314.085 203.295 310.085 203.295 310.467 202.12 T
314.085 203.295 310.467 204.471 310.085 203.295 T
314.085 203.295 311.467 205.198 310.467 204.471 T
314.085 203.295 312.703 205.198 311.467 205.198 T
314.085 203.295 313.703 204.471 312.703 205.198 T
313.996 203.352 312.614 201.45 313.614 202.176 T
313.996 203.352 311.378 201.45 312.614 201.45 T
313.996 203.352 310.378 202.176 311.378 201.45 T
313.996 203.352 309.996 203.352 310.378 202.176 T
313.996 203.352 310.378 204.527 309.996 203.352 T
313.996 203.352 311.378 205.254 310.378 204.527 T
313.996 203.352 312.614 205.254 311.378 205.254 T
313.996 203.352 313.614 204.527 312.614 205.254 T
1 1 1 C
303.842 263.971 284.754 253.138 207.306 169.263 T
219.419 172.543 303.842 263.971 207.306 169.263 T
303.842 263.971 305.156 275.233 284.754 253.138 T
318.369 279.703 318.369 289.542 305.156 275.233 T
303.842 263.971 318.369 279.703 305.156 275.233 T
0 0 0 C
373.333 174.059 LS
370.782 175.232 LE
225.018 174.059 LS
229.35 175.232 LE
318.369 275.155 LS
318.369 271.637 LE
0 0 1 C
313.686 203.547 312.304 201.645 313.304 202.372 T
313.686 203.547 311.068 201.645 312.304 201.645 T
313.686 203.547 310.068 202.372 311.068 201.645 T
313.686 203.547 309.686 203.547 310.068 202.372 T
313.686 203.547 310.068 204.723 309.686 203.547 T
313.686 203.547 311.068 205.449 310.068 204.723 T
313.686 203.547 312.304 205.449 311.068 205.449 T
313.686 203.547 313.304 204.723 312.304 205.449 T
0 0 0 C
373.333 174.059 LS
375.737 172.953 LE
225.018 174.059 LS
220.933 172.953 LE
318.369 275.155 LS
318.369 278.473 LE
0 0 1 C
313.403 203.726 312.021 201.824 313.021 202.55 T
313.403 203.726 310.785 201.824 312.021 201.824 T
313.403 203.726 309.785 202.55 310.785 201.824 T
313.403 203.726 309.785 204.901 309.403 203.726 T
313.403 203.726 313.021 204.901 312.021 205.628 T
313.394 203.731 312.012 201.829 313.012 202.556 T
313.394 203.731 310.776 201.829 312.012 201.829 T
313.394 203.731 309.776 202.556 310.776 201.829 T
313.394 203.731 309.394 203.731 309.776 202.556 T
313.394 203.731 309.776 204.907 309.394 203.731 T
313.394 203.731 310.776 205.634 309.776 204.907 T
313.394 203.731 312.012 205.634 310.776 205.634 T
313.394 203.731 313.012 204.907 312.012 205.634 T
0 0 0 C
375.737 172.953 LS
377.195 172.283 LE
220.933 172.953 LS
218.458 172.283 LE
318.369 278.473 LS
318.369 280.483 LE
0 0 1 C
313.217 203.843 311.835 201.941 312.835 202.668 T
313.217 203.843 310.599 201.941 311.835 201.941 T
313.217 203.843 309.599 202.668 310.599 201.941 T
313.217 203.843 309.217 203.843 309.599 202.668 T
313.217 203.843 309.599 205.019 309.217 203.843 T
313.217 203.843 310.599 205.745 309.599 205.019 T
313.217 203.843 311.835 205.745 310.599 205.745 T
313.217 203.843 312.835 205.019 311.835 205.745 T
0 0 0 C
377.195 172.283 LS
377.914 171.952 LE
218.458 172.283 LS
217.236 171.952 LE
318.369 280.483 LS
318.369 281.476 LE
0 0 1 C
313.13 203.898 311.748 201.996 312.748 202.723 T
313.13 203.898 310.511 201.996 311.748 201.996 T
313.13 203.898 309.511 202.723 310.511 201.996 T
313.13 203.898 309.13 203.898 309.511 202.723 T
313.13 203.898 309.511 205.074 309.13 203.898 T
313.13 203.898 310.511 205.8 309.511 205.074 T
313.13 203.898 311.748 205.8 310.511 205.8 T
313.13 203.898 312.748 205.074 311.748 205.8 T
0 0 0 C
70.0399 134.116 LS
62.9306 137.385 LE
(0) 58.3825 139.476 10 /Helvetica SBR
70.0399 165.644 LS
62.9306 168.913 LE
(1) 58.3825 171.004 10 /Helvetica SBR
70.0399 197.171 LS
62.9306 200.441 LE
(2) 58.3825 202.532 10 /Helvetica SBR
70.0399 228.699 LS
62.9306 231.968 LE
(3) 58.3825 234.06 10 /Helvetica SBR
70.0399 260.227 LS
62.9306 263.496 LE
(4) 58.3825 265.588 10 /Helvetica SBR
70.0399 291.755 LS
62.9306 295.024 LE
(5) 58.3825 297.115 10 /Helvetica SBR
70.0399 323.283 LS
62.9306 326.552 LE
(6) 58.3825 328.643 10 /Helvetica SBR
1 1 1 C
72.8 132.847 318.369 388.5 72.8 322.014 T
284.754 253.138 72.8 132.847 207.306 169.263 T
318.369 388.5 72.8 132.847 284.754 253.138 T
305.156 275.233 318.369 388.5 284.754 253.138 T
318.369 289.542 318.369 388.5 305.156 275.233 T
0 0 0 C
381.677 170.222 LS
377.914 171.952 LE
210.846 170.222 LS
217.236 171.952 LE
318.369 286.666 LS
318.369 281.476 LE
0 0 1 C
313.078 203.931 311.696 202.029 312.696 202.755 T
313.078 203.931 310.46 202.029 311.696 202.029 T
313.078 203.931 309.46 202.755 310.46 202.029 T
313.078 203.931 309.078 203.931 309.46 202.755 T
313.078 203.931 309.46 205.106 309.078 203.931 T
313.078 203.931 310.46 205.833 309.46 205.106 T
313.078 203.931 311.696 205.833 310.46 205.833 T
313.078 203.931 312.696 205.106 311.696 205.833 T
312.671 204.187 311.289 202.285 312.289 203.011 T
312.671 204.187 310.053 202.285 311.289 202.285 T
312.671 204.187 309.053 203.011 310.053 202.285 T
312.671 204.187 308.671 204.187 309.053 203.011 T
312.671 204.187 309.053 205.363 308.671 204.187 T
312.671 204.187 310.053 206.089 309.053 205.363 T
312.671 204.187 311.289 206.089 310.053 206.089 T
312.671 204.187 312.289 205.363 311.289 206.089 T
0 0 0 C
381.677 170.222 LS
385.505 168.461 LE
210.846 170.222 LS
204.344 168.461 LE
318.369 286.666 LS
318.369 291.948 LE
0 0 1 C
312.207 204.48 310.825 202.578 311.825 203.305 T
312.207 204.48 309.589 202.578 310.825 202.578 T
312.207 204.48 308.589 203.305 309.589 202.578 T
312.207 204.48 308.207 204.48 308.589 203.305 T
312.207 204.48 308.589 205.656 308.207 204.48 T
312.207 204.48 309.589 206.383 308.589 205.656 T
312.207 204.48 310.825 206.383 309.589 206.383 T
312.207 204.48 311.825 205.656 310.825 206.383 T
0 0 0 C
385.505 168.461 LS
387.48 167.554 LE
204.344 168.461 LS
200.991 167.554 LE
318.369 291.948 LS
318.369 294.671 LE
0 0 1 C
311.967 204.631 310.585 202.729 311.585 203.456 T
311.967 204.631 309.349 202.729 310.585 202.729 T
311.967 204.631 308.349 203.456 309.349 202.729 T
311.967 204.631 307.967 204.631 308.349 203.456 T
311.967 204.631 308.349 205.807 307.967 204.631 T
311.967 204.631 309.349 206.534 308.349 205.807 T
311.967 204.631 310.585 206.534 309.349 206.534 T
311.967 204.631 311.585 205.807 310.585 206.534 T
0 0 0 C
389.68 166.542 LS
387.48 167.554 LE
197.254 166.542 LS
200.991 167.554 LE
318.369 297.706 LS
318.369 294.671 LE
0 0 1 C
311.775 204.753 310.393 202.851 311.393 203.577 T
311.775 204.753 309.157 202.851 310.393 202.851 T
311.775 204.753 308.157 203.577 309.157 202.851 T
311.775 204.753 307.775 204.753 308.157 203.577 T
311.775 204.753 308.157 205.928 307.775 204.753 T
311.775 204.753 309.157 206.655 308.157 205.928 T
311.775 204.753 310.393 206.655 309.157 206.655 T
311.775 204.753 311.393 205.928 310.393 206.655 T
311.7 204.8 310.318 202.898 311.318 203.624 T
311.7 204.8 309.082 202.898 310.318 202.898 T
311.7 204.8 308.082 203.624 309.082 202.898 T
311.7 204.8 307.7 204.8 308.082 203.624 T
311.7 204.8 308.082 205.976 307.7 204.8 T
311.7 204.8 309.082 206.702 308.082 205.976 T
311.7 204.8 310.318 206.702 309.082 206.702 T
311.7 204.8 311.318 205.976 310.318 206.702 T
0 0 0 C
391.318 165.788 LS
389.68 166.542 LE
194.471 165.788 LS
197.254 166.542 LE
318.369 299.966 LS
318.369 297.706 LE
0 0 1 C
311.501 204.926 310.119 203.024 311.119 203.75 T
311.501 204.926 308.883 203.024 310.119 203.024 T
311.501 204.926 307.883 203.75 308.883 203.024 T
311.501 204.926 307.501 204.926 307.883 203.75 T
311.501 204.926 307.883 206.101 307.501 204.926 T
311.501 204.926 308.883 206.828 307.883 206.101 T
311.501 204.926 310.119 206.828 308.883 206.828 T
311.501 204.926 311.119 206.101 310.119 206.828 T
0 0 0 C
392.195 165.385 LS
391.318 165.788 LE
192.982 165.385 LS
194.471 165.788 LE
318.369 301.176 LS
318.369 299.966 LE
0 0 1 C
311.481 204.938 310.099 203.036 311.099 203.763 T
311.481 204.938 308.863 203.036 310.099 203.036 T
311.481 204.938 307.863 203.763 308.863 203.036 T
311.481 204.938 307.481 204.938 307.863 203.763 T
311.481 204.938 307.863 206.114 307.481 204.938 T
311.481 204.938 308.863 206.84 307.863 206.114 T
311.481 204.938 310.099 206.84 308.863 206.84 T
311.481 204.938 311.099 206.114 310.099 206.84 T
311.394 204.993 310.012 203.091 311.012 203.817 T
311.394 204.993 308.776 203.091 310.012 203.091 T
311.394 204.993 307.776 203.817 308.776 203.091 T
311.394 204.993 307.394 204.993 307.776 203.817 T
311.394 204.993 307.776 206.168 307.394 204.993 T
311.394 204.993 308.776 206.895 307.776 206.168 T
311.394 204.993 310.012 206.895 308.776 206.895 T
311.394 204.993 311.012 206.168 310.012 206.895 T
0 0 0 C
400.439 161.594 LS
392.195 165.385 LE
178.98 161.594 LS
192.982 165.385 LE
318.369 312.549 LS
318.369 301.176 LE
0 0 1 C
310.99 205.248 309.608 203.346 310.608 204.072 T
310.99 205.248 308.372 203.346 309.608 203.346 T
310.99 205.248 307.372 204.072 308.372 203.346 T
310.99 205.248 306.99 205.248 307.372 204.072 T
310.99 205.248 307.372 206.423 306.99 205.248 T
310.99 205.248 308.372 207.15 307.372 206.423 T
310.99 205.248 309.608 207.15 308.372 207.15 T
310.99 205.248 310.608 206.423 309.608 207.15 T
310.392 205.625 309.01 203.723 310.01 204.449 T
310.392 205.625 307.774 203.723 309.01 203.723 T
310.392 205.625 306.774 204.449 307.774 203.723 T
310.392 205.625 306.392 205.625 306.774 204.449 T
310.392 205.625 306.774 206.8 306.392 205.625 T
310.392 205.625 307.774 207.527 306.774 206.8 T
310.392 205.625 309.01 207.527 307.774 207.527 T
310.392 205.625 310.01 206.8 309.01 207.527 T
0 0 0 C
406.462 158.825 LS
400.439 161.594 LE
168.751 158.825 LS
178.98 161.594 LE
318.369 320.857 LS
318.369 312.549 LE
0 0 1 C
310.247 205.716 308.865 203.814 309.865 204.541 T
310.247 205.716 307.628 203.814 308.865 203.814 T
310.247 205.716 306.628 204.541 307.628 203.814 T
310.247 205.716 306.247 205.716 306.628 204.541 T
310.247 205.716 306.628 206.892 306.247 205.716 T
310.247 205.716 307.628 207.618 306.628 206.892 T
310.247 205.716 308.865 207.618 307.628 207.618 T
310.247 205.716 309.865 206.892 308.865 207.618 T
309.66 206.086 308.278 204.184 309.278 204.911 T
309.66 206.086 307.042 204.184 308.278 204.184 T
309.66 206.086 306.042 204.911 307.042 204.184 T
309.66 206.086 305.66 206.086 306.042 204.911 T
309.66 206.086 306.042 207.262 305.66 206.086 T
309.66 206.086 307.042 207.989 306.042 207.262 T
309.66 206.086 308.278 207.989 307.042 207.989 T
309.66 206.086 309.278 207.262 308.278 207.989 T
0 0 0 C
412.374 156.106 LS
406.462 158.825 LE
158.71 156.106 LS
168.751 158.825 LE
318.369 329.013 LS
318.369 320.857 LE
0 0 1 C
309.439 206.226 308.057 204.324 309.057 205.05 T
309.439 206.226 306.821 204.324 308.057 204.324 T
309.439 206.226 305.821 205.05 306.821 204.324 T
309.439 206.226 305.439 206.226 305.821 205.05 T
309.439 206.226 305.821 207.401 305.439 206.226 T
309.439 206.226 306.821 208.128 305.821 207.401 T
309.439 206.226 308.057 208.128 306.821 208.128 T
309.439 206.226 309.057 207.401 308.057 208.128 T
308.942 206.54 307.56 204.637 308.56 205.364 T
308.942 206.54 306.324 204.637 307.56 204.637 T
308.942 206.54 305.324 205.364 306.324 204.637 T
308.942 206.54 304.942 206.54 305.324 205.364 T
308.942 206.54 305.324 207.715 304.942 206.54 T
308.942 206.54 306.324 208.442 305.324 207.715 T
308.942 206.54 307.56 208.442 306.324 208.442 T
308.942 206.54 308.56 207.715 307.56 208.442 T
0 0 0 C
416.575 154.175 LS
412.374 156.106 LE
151.576 154.175 LS
158.71 156.106 LE
318.369 334.807 LS
318.369 329.013 LE
0 0 1 C
308.729 206.674 307.347 204.771 308.347 205.498 T
308.729 206.674 306.111 204.771 307.347 204.771 T
308.729 206.674 305.111 205.498 306.111 204.771 T
308.729 206.674 304.729 206.674 305.111 205.498 T
308.729 206.674 305.111 207.849 304.729 206.674 T
308.729 206.674 306.111 208.576 305.111 207.849 T
308.729 206.674 307.347 208.576 306.111 208.576 T
308.729 206.674 308.347 207.849 307.347 208.576 T
308.431 206.862 307.049 204.959 308.049 205.686 T
308.431 206.862 305.813 204.959 307.049 204.959 T
308.431 206.862 304.813 205.686 305.813 204.959 T
308.431 206.862 304.431 206.862 304.813 205.686 T
308.431 206.862 304.813 208.037 304.431 206.862 T
308.431 206.862 305.813 208.764 304.813 208.037 T
308.431 206.862 307.049 208.764 305.813 208.764 T
308.431 206.862 308.049 208.037 307.049 208.764 T
0 0 0 C
417.318 153.833 LS
416.575 154.175 LE
150.314 153.833 LS
151.576 154.175 LE
318.369 335.832 LS
318.369 334.807 LE
0 0 1 C
308.341 206.918 306.959 205.016 307.959 205.743 T
308.341 206.918 305.723 205.016 306.959 205.016 T
308.341 206.918 304.723 205.743 305.723 205.016 T
308.341 206.918 304.341 206.918 304.723 205.743 T
308.341 206.918 304.723 208.094 304.341 206.918 T
308.341 206.918 305.723 208.821 304.723 208.094 T
308.341 206.918 306.959 208.821 305.723 208.821 T
308.341 206.918 307.959 208.094 306.959 208.821 T
0 0 0 C
418.004 153.518 LS
417.318 153.833 LE
149.148 153.518 LS
150.314 153.833 LE
318.369 336.779 LS
318.369 335.832 LE
0 0 1 C
308.257 206.971 306.875 205.069 307.875 205.796 T
308.257 206.971 305.639 205.069 306.875 205.069 T
308.257 206.971 304.639 205.796 305.639 205.069 T
308.257 206.971 304.257 206.971 304.639 205.796 T
308.257 206.971 304.639 208.147 304.257 206.971 T
308.257 206.971 305.639 208.873 304.639 208.147 T
308.257 206.971 306.875 208.873 305.639 208.873 T
308.257 206.971 307.875 208.147 306.875 208.873 T
0 0 0 C
429.152 148.391 LS
418.004 153.518 LE
130.214 148.391 LS
149.148 153.518 LE
318.369 352.158 LS
318.369 336.779 LE
0 0 1 C
308.152 207.037 306.77 205.135 307.77 205.862 T
308.152 207.037 305.534 205.135 306.77 205.135 T
308.152 207.037 304.534 205.862 305.534 205.135 T
308.152 207.037 304.152 207.037 304.534 205.862 T
308.152 207.037 304.534 208.213 304.152 207.037 T
308.152 207.037 305.534 208.94 304.534 208.213 T
308.152 207.037 306.77 208.94 305.534 208.94 T
308.152 207.037 307.77 208.213 306.77 208.94 T
306.902 207.826 305.52 205.924 306.52 206.65 T
306.902 207.826 304.284 205.924 305.52 205.924 T
306.902 207.826 303.284 206.65 304.284 205.924 T
306.902 207.826 302.902 207.826 303.284 206.65 T
306.902 207.826 303.284 209.001 302.902 207.826 T
306.902 207.826 304.284 209.728 303.284 209.001 T
306.902 207.826 305.52 209.728 304.284 209.728 T
306.902 207.826 306.52 209.001 305.52 209.728 T
0 0 0 C
429.152 148.391 LS
429.372 148.29 LE
130.214 148.391 LS
129.84 148.29 LE
318.369 352.158 LS
318.369 352.462 LE
0 0 1 C
306.876 207.842 305.494 205.94 306.494 206.667 T
306.876 207.842 304.258 205.94 305.494 205.94 T
306.876 207.842 303.258 206.667 304.258 205.94 T
306.876 207.842 302.876 207.842 303.258 206.667 T
306.876 207.842 303.258 209.018 302.876 207.842 T
306.876 207.842 304.258 209.744 303.258 209.018 T
306.876 207.842 305.494 209.744 304.258 209.744 T
306.876 207.842 306.494 209.018 305.494 209.744 T
0 0 0 C
440.063 143.374 LS
429.372 148.29 LE
111.683 143.374 LS
129.84 148.29 LE
318.369 367.21 LS
318.369 352.462 LE
0 0 1 C
305.675 208.599 304.293 206.697 305.293 207.424 T
305.675 208.599 303.057 206.697 304.293 206.697 T
305.675 208.599 302.057 207.424 303.057 206.697 T
305.675 208.599 301.675 208.599 302.057 207.424 T
305.675 208.599 302.057 209.775 301.675 208.599 T
305.675 208.599 303.057 210.501 302.057 209.775 T
305.675 208.599 304.293 210.501 303.057 210.501 T
305.675 208.599 305.293 209.775 304.293 210.501 T
305.577 208.662 304.195 206.76 305.195 207.486 T
305.577 208.662 302.958 206.76 304.195 206.76 T
305.577 208.662 301.958 207.486 302.958 206.76 T
305.577 208.662 301.577 208.662 301.958 207.486 T
305.577 208.662 301.958 209.837 301.577 208.662 T
305.577 208.662 302.958 210.564 301.958 209.837 T
305.577 208.662 304.195 210.564 302.958 210.564 T
305.577 208.662 305.195 209.837 304.195 210.564 T
0 0 0 C
446.109 140.594 LS
440.063 143.374 LE
101.414 140.594 LS
111.683 143.374 LE
318.369 375.55 LS
318.369 367.21 LE
0 0 1 C
305.332 208.816 303.95 206.914 304.95 207.64 T
305.332 208.816 302.714 206.914 303.95 206.914 T
305.332 208.816 301.714 207.64 302.714 206.914 T
305.332 208.816 301.332 208.816 301.714 207.64 T
305.332 208.816 301.714 209.992 301.332 208.816 T
305.332 208.816 302.714 210.718 301.714 209.992 T
305.332 208.816 303.95 210.718 302.714 210.718 T
305.332 208.816 304.95 209.992 303.95 210.718 T
304.842 209.125 303.46 207.223 304.46 207.95 T
304.842 209.125 302.224 207.223 303.46 207.223 T
304.842 209.125 301.224 207.95 302.224 207.223 T
304.842 209.125 300.842 209.125 301.224 207.95 T
304.842 209.125 301.224 210.301 300.842 209.125 T
304.842 209.125 302.224 211.027 301.224 210.301 T
304.842 209.125 303.46 211.027 302.224 211.027 T
304.842 209.125 304.46 210.301 303.46 211.027 T
0 0 0 C
446.109 140.594 LS
446.568 140.383 LE
101.414 140.594 LS
100.636 140.383 LE
318.369 375.55 LS
318.369 376.183 LE
0 0 1 C
304.786 209.16 303.404 207.258 304.404 207.985 T
304.786 209.16 302.168 207.258 303.404 207.258 T
304.786 209.16 301.168 207.985 302.168 207.258 T
304.786 209.16 300.786 209.16 301.168 207.985 T
304.786 209.16 301.168 210.336 300.786 209.16 T
304.786 209.16 302.168 211.062 301.168 210.336 T
304.786 209.16 303.404 211.062 302.168 211.062 T
304.786 209.16 304.404 210.336 303.404 211.062 T
0 0 0 C
460.129 134.147 LS
446.568 140.383 LE
77.603 134.147 LS
100.636 140.383 LE
318.369 376.183 LS
318.369 388.5 LE
323.001 386.37 LS
318.369 388.5 LE
310.501 386.37 LS
318.369 388.5 LE
0 0 1 C
303.138 210.2 301.756 208.298 302.756 209.024 T
303.138 210.2 300.52 208.298 301.756 208.298 T
303.138 210.2 299.52 209.024 300.52 208.298 T
303.138 210.2 299.138 210.2 299.52 209.024 T
303.138 210.2 299.52 211.375 299.138 210.2 T
303.138 210.2 300.52 212.102 299.52 211.375 T
303.138 210.2 301.756 212.102 300.52 212.102 T
303.138 210.2 302.756 211.375 301.756 212.102 T
0 0 0 C
84.8993 127.283 LS
72.8 132.847 LE
475.056 127.283 LS
460.129 134.147 LE
77.603 134.147 LS
72.8 132.847 L
62.339 130.014 LE
(2) 57.5182 128.709 10 /Helvetica STR
70.0399 134.116 LS
72.8 132.847 LE
0 0 1 C
302.933 210.329 301.551 208.427 302.551 209.153 T
302.933 210.329 300.315 208.427 301.551 208.427 T
302.933 210.329 299.315 209.153 300.315 208.427 T
302.933 210.329 298.933 210.329 299.315 209.153 T
302.933 210.329 299.315 211.504 298.933 210.329 T
302.933 210.329 300.315 212.231 299.315 211.504 T
302.933 210.329 301.551 212.231 300.315 212.231 T
302.933 210.329 302.551 211.504 301.551 212.231 T
0 0 0 C
72.8 149.538 LS
72.8 132.847 LE
337.928 379.506 LS
323.001 386.37 LE
285.148 379.506 LS
310.501 386.37 LE
84.9027 127.281 LS
84.8993 127.283 LE
72.8 149.542 LS
72.8 149.538 LE
475.06 127.281 LS
475.056 127.283 LE
337.932 379.504 LS
337.928 379.506 LE
285.143 379.504 LS
285.148 379.506 LE
84.9087 127.279 LS
84.9027 127.281 LE
72.8 149.55 LS
72.8 149.542 LE
475.066 127.279 LS
475.06 127.281 LE
337.938 379.501 LS
337.932 379.504 LE
285.132 379.501 LS
285.143 379.504 LE
0 0 1 C
301.323 211.345 299.941 209.442 300.941 210.169 T
301.323 211.345 298.705 209.442 299.941 209.442 T
301.323 211.345 297.705 210.169 298.705 209.442 T
301.323 211.345 297.323 211.345 297.705 210.169 T
301.323 211.345 297.705 212.52 297.323 211.345 T
301.323 211.345 298.705 213.247 297.705 212.52 T
301.323 211.345 299.941 213.247 298.705 213.247 T
301.323 211.345 300.941 212.52 299.941 213.247 T
0 0 0 C
84.9087 127.279 LS
90.6021 124.661 LE
72.8 149.55 LS
72.8 157.405 LE
475.066 127.279 LS
480.759 124.661 LE
0 0 1 C
300.754 211.703 299.372 209.801 300.372 210.527 T
300.754 211.703 298.136 209.801 299.372 209.801 T
300.754 211.703 297.136 210.527 298.136 209.801 T
300.754 211.703 296.754 211.703 297.136 210.527 T
300.754 211.703 297.136 212.879 296.754 211.703 T
300.754 211.703 298.136 213.605 297.136 212.879 T
300.754 211.703 299.372 213.605 298.136 213.605 T
300.754 211.703 300.372 212.879 299.372 213.605 T
0 0 0 C
337.938 379.501 LS
343.631 376.883 LE
285.132 379.501 LS
275.463 376.883 LE
0 0 1 C
300.631 211.781 299.249 209.879 300.249 210.605 T
300.631 211.781 298.013 209.879 299.249 209.879 T
300.631 211.781 297.013 210.605 298.013 209.879 T
300.631 211.781 296.631 211.781 297.013 210.605 T
300.631 211.781 297.013 212.956 296.631 211.781 T
300.631 211.781 298.013 213.683 297.013 212.956 T
300.631 211.781 299.249 213.683 298.013 213.683 T
300.631 211.781 300.249 212.956 299.249 213.683 T
0 0 0 C
110.243 115.629 LS
90.6021 124.661 LE
70.0399 165.644 LS
72.8 164.374 LE
72.8 184.498 LS
72.8 157.405 LE
500.4 115.629 LS
480.759 124.661 LE
363.272 367.852 LS
343.631 376.883 LE
242.105 367.852 LS
275.463 376.883 LE
0 0 1 C
298.244 213.286 296.862 211.384 297.862 212.111 T
298.244 213.286 295.626 211.384 296.862 211.384 T
298.244 213.286 294.626 212.111 295.626 211.384 T
298.244 213.286 294.244 213.286 294.626 212.111 T
298.244 213.286 294.626 214.462 294.244 213.286 T
298.244 213.286 295.626 215.188 294.626 214.462 T
298.244 213.286 296.862 215.188 295.626 215.188 T
298.244 213.286 297.862 214.462 296.862 215.188 T
0 0 0 C
110.491 115.515 LS
110.243 115.629 LE
72.8 184.841 LS
72.8 184.498 LE
500.648 115.515 LS
500.4 115.629 LE
363.52 367.738 LS
363.272 367.852 LE
241.684 367.738 LS
242.105 367.852 LE
0 0 1 C
298.213 213.306 296.831 211.403 297.831 212.13 T
298.213 213.306 295.595 211.403 296.831 211.403 T
298.213 213.306 294.595 212.13 295.595 211.403 T
298.213 213.306 294.213 213.306 294.595 212.13 T
298.213 213.306 294.595 214.481 294.213 213.306 T
298.213 213.306 295.595 215.208 294.595 214.481 T
298.213 213.306 296.831 215.208 295.595 215.208 T
298.213 213.306 297.831 214.481 296.831 215.208 T
0 0 0 C
119.908 111.185 LS
109.447 108.353 LE
110.491 115.515 LS
126.315 108.239 LE
70.0399 197.171 LS
72.8 195.902 LE
72.8 184.841 LS
72.8 206.67 LE
500.648 115.515 LS
506.8 112.686 LE
0 0 1 C
296.377 214.464 294.995 212.562 295.995 213.288 T
296.377 214.464 293.759 212.562 294.995 212.562 T
296.377 214.464 292.759 213.288 293.759 212.562 T
296.377 214.464 292.377 214.464 292.759 213.288 T
296.377 214.464 292.759 215.639 292.377 214.464 T
296.377 214.464 293.759 216.366 292.759 215.639 T
296.377 214.464 294.995 216.366 293.759 216.366 T
296.377 214.464 295.995 215.639 294.995 216.366 T
0 0 0 C
506.8 126.028 LS
506.8 112.686 LE
363.52 367.738 LS
379.344 360.462 LE
241.684 367.738 LS
214.809 360.462 LE
490.374 108.239 LS
506.8 112.686 LE
516.472 108.239 LS
506.8 112.686 LE
0 0 1 C
296.291 214.518 294.909 212.616 295.909 213.342 T
296.291 214.518 293.673 212.616 294.909 212.616 T
296.291 214.518 292.673 213.342 293.673 212.616 T
296.291 214.518 292.291 214.518 292.673 213.342 T
296.291 214.518 292.673 215.694 292.291 214.518 T
296.291 214.518 293.673 216.42 292.673 215.694 T
296.291 214.518 294.909 216.42 293.673 216.42 T
296.291 214.518 295.909 215.694 294.909 216.42 T
0 0 0 C
(1.5) 104.626 107.047 10 /Helvetica STR
129.681 106.691 LS
126.315 108.239 LE
72.8 211.313 LS
72.8 206.67 LE
506.8 130.672 LS
506.8 126.028 LE
382.71 358.914 LS
379.344 360.462 LE
209.092 358.914 LS
214.809 360.462 LE
484.657 106.691 LS
490.374 108.239 LE
516.472 108.239 LS
516.669 108.148 LE
0 0 1 C
295.881 214.776 294.499 212.874 295.499 213.601 T
295.881 214.776 293.263 212.874 294.499 212.874 T
295.881 214.776 292.263 213.601 293.263 212.874 T
295.881 214.776 291.881 214.776 292.263 213.601 T
295.881 214.776 292.263 215.952 291.881 214.776 T
295.881 214.776 293.263 216.678 292.263 215.952 T
295.881 214.776 294.499 216.678 293.263 216.678 T
295.881 214.776 295.499 215.952 294.499 216.678 T
0 0 0 C
160.29 92.616 LS
129.681 106.691 LE
70.0399 228.699 LS
72.8 227.43 LE
72.8 253.538 LS
72.8 211.313 LE
0 0 1 C
292.623 216.831 291.241 214.929 292.241 215.656 T
292.623 216.831 290.005 214.929 291.241 214.929 T
292.623 216.831 289.005 215.656 290.005 214.929 T
292.623 216.831 288.623 216.831 289.005 215.656 T
292.623 216.831 289.005 218.007 288.623 216.831 T
292.623 216.831 290.005 218.733 289.005 218.007 T
292.623 216.831 291.241 218.733 290.005 218.733 T
292.623 216.831 292.241 218.007 291.241 218.733 T
0 0 0 C
506.8 172.897 LS
506.8 130.672 LE
413.319 344.839 LS
382.71 358.914 LE
157.105 344.839 LS
209.092 358.914 LE
432.67 92.616 LS
484.657 106.691 LE
457.686 99.389 LS
467.556 94.8508 LE
(0.8) 472.104 92.7594 10 /Helvetica STL
(1) 521.217 106.057 10 /Helvetica STL
0 0 1 C
292.162 217.122 290.78 215.22 291.78 215.947 T
292.162 217.122 289.544 215.22 290.78 215.22 T
292.162 217.122 288.544 215.947 289.544 215.22 T
292.162 217.122 288.162 217.122 288.544 215.947 T
292.162 217.122 288.544 218.298 288.162 217.122 T
292.162 217.122 289.544 219.024 288.544 218.298 T
292.162 217.122 290.78 219.024 289.544 219.024 T
292.162 217.122 291.78 218.298 290.78 219.024 T
0 0 0 C
161.289 87.9727 LS
167.016 89.5233 LE
170.388 87.9727 LS
160.29 92.616 LE
70.0399 260.227 LS
72.8 258.958 LE
72.8 267.468 LS
72.8 253.538 LE
506.8 186.827 LS
506.8 172.897 LE
423.417 340.196 LS
413.319 344.839 LE
139.955 340.195 LS
157.105 344.839 LE
415.52 87.9727 LS
432.67 92.616 LE
0 0 1 C
290.934 217.896 289.552 215.994 290.552 216.72 T
290.934 217.896 288.316 215.994 289.552 215.994 T
290.934 217.896 287.316 216.72 288.316 215.994 T
290.934 217.896 286.934 217.896 287.316 216.72 T
290.934 217.896 287.316 219.072 286.934 217.896 T
290.934 217.896 288.316 219.798 287.316 219.072 T
290.934 217.896 289.552 219.798 288.316 219.798 T
290.934 217.896 290.552 219.072 289.552 219.798 T
0 0 0 C
161.289 87.9727 LS
156.555 86.691 LE
(1) 151.734 85.3858 10 /Helvetica STR
170.388 87.9727 LS
188.495 79.6463 LE
70.0399 291.755 LS
72.8 290.486 LE
72.8 267.468 LS
72.8 292.448 LE
0 0 1 C
289.944 218.52 288.562 216.618 289.562 217.345 T
289.944 218.52 287.326 216.618 288.562 216.618 T
289.944 218.52 286.326 217.345 287.326 216.618 T
289.944 218.52 285.944 218.52 286.326 217.345 T
289.944 218.52 286.326 219.696 285.944 218.52 T
289.944 218.52 287.326 220.422 286.326 219.696 T
289.944 218.52 288.562 220.422 287.326 220.422 T
289.944 218.52 289.562 219.696 288.562 220.422 T
0 0 0 C
506.8 186.827 LS
506.8 211.806 LE
423.417 340.196 LS
441.524 331.869 LE
139.955 340.195 LS
109.201 331.869 LE
415.52 87.9727 LS
384.766 79.6463 LE
408.573 86.0918 LS
418.442 81.5535 LE
0 0 1 C
288.733 219.284 287.351 217.382 288.351 218.108 T
288.733 219.284 286.115 217.382 287.351 217.382 T
288.733 219.284 285.115 218.108 286.115 217.382 T
288.733 219.284 284.733 219.284 285.115 218.108 T
288.733 219.284 285.115 220.459 284.733 219.284 T
288.733 219.284 286.115 221.186 285.115 220.459 T
288.733 219.284 287.351 221.186 286.115 221.186 T
288.733 219.284 288.351 220.459 287.351 221.186 T
0 0 0 C
209.437 66.5927 LS
214.124 67.8616 LE
216.883 66.5927 LS
188.495 79.6463 LE
72.8 292.448 LS
72.8 322.014 LE
0 0 1 C
286.086 220.954 284.704 219.051 285.704 219.778 T
286.086 220.954 283.468 219.051 284.704 219.051 T
286.086 220.954 282.468 219.778 283.468 219.051 T
286.086 220.954 282.086 220.954 282.468 219.778 T
286.086 220.954 282.468 222.129 282.086 220.954 T
286.086 220.954 283.468 222.856 282.468 222.129 T
286.086 220.954 284.704 222.856 283.468 222.856 T
286.086 220.954 285.704 222.129 284.704 222.856 T
0 0 0 C
79.7551 318.815 LS
72.8 322.014 LE
506.8 250.967 LS
506.8 211.806 LE
469.912 318.816 LS
441.524 331.869 LE
109.201 331.869 LS
72.8 322.014 LE
70.0399 323.283 LS
72.8 322.014 LE
336.552 66.5927 LS
384.766 79.6463 LE
359.459 72.7945 LS
369.328 68.2563 LE
(0.6) 422.99 79.4622 10 /Helvetica STL
0 0 1 C
285.283 221.46 283.902 219.558 284.902 220.284 T
285.283 221.46 282.665 219.558 283.902 219.558 T
285.283 221.46 281.665 220.284 282.665 219.558 T
285.283 221.46 281.283 221.46 281.665 220.284 T
285.283 221.46 281.665 222.635 281.283 221.46 T
285.283 221.46 282.665 223.362 281.665 222.635 T
285.283 221.46 283.902 223.362 282.665 223.362 T
285.283 221.46 284.902 222.635 283.902 223.362 T
0 0 0 C
209.437 66.5927 LS
203.663 65.0294 LE
(0.5) 198.842 63.7242 10 /Helvetica STR
260.426 46.5704 LS
216.883 66.5927 LE
506.8 250.967 LS
506.8 301.853 LE
0 0 1 C
282.682 223.1 281.3 221.198 282.3 221.924 T
282.682 223.1 280.064 221.198 281.3 221.198 T
282.682 223.1 279.064 221.924 280.064 221.198 T
282.682 223.1 278.682 223.1 279.064 221.924 T
282.682 223.1 279.064 224.276 278.682 223.1 T
282.682 223.1 280.064 225.002 279.064 224.276 T
282.682 223.1 281.3 225.002 280.064 225.002 T
282.682 223.1 282.3 224.276 281.3 225.002 T
0 0 0 C
495.497 298.793 LS
506.8 301.853 LE
123.298 298.793 LS
79.7551 318.815 LE
469.912 318.816 LS
506.8 301.853 LE
262.599 46.5704 LS
336.552 66.5927 LE
310.345 59.4972 LS
320.214 54.959 LE
(0.2) 324.763 52.8677 10 /Helvetica STL
(0.4) 373.876 66.1649 10 /Helvetica STL
0 0 1 C
279.992 224.797 278.61 222.895 279.61 223.621 T
279.992 224.797 277.374 222.895 278.61 222.895 T
279.992 224.797 276.374 223.621 277.374 222.895 T
279.992 224.797 275.992 224.797 276.374 223.621 T
279.992 224.797 276.374 225.973 275.992 224.797 T
279.992 224.797 277.374 226.699 276.374 225.973 T
279.992 224.797 278.61 226.699 277.374 226.699 T
279.992 224.797 279.61 225.973 278.61 226.699 T
0 0 0 C
260.426 46.5704 LS
261.231 46.2 LE
261.231 60.1275 LS
261.231 46.2 LE
495.497 298.793 LS
476.982 293.78 LE
123.298 298.793 LS
134.2 293.78 LE
262.599 46.5704 LS
261.231 46.2 L
250.77 43.3677 LE
(0) 245.95 42.0625 10 /Helvetica STR
261.231 46.2 LS
271.101 41.6618 LE
0 0 1 C
278.667 225.633 277.285 223.73 278.285 224.457 T
278.667 225.633 276.049 223.73 277.285 223.73 T
278.667 225.633 275.049 224.457 276.049 223.73 T
278.667 225.633 274.667 225.633 275.049 224.457 T
278.667 225.633 275.049 226.808 274.667 225.633 T
278.667 225.633 276.049 227.535 275.049 226.808 T
278.667 225.633 277.285 227.535 276.049 227.535 T
278.667 225.633 278.285 226.808 277.285 227.535 T
273.828 228.684 272.446 226.782 273.446 227.508 T
273.828 228.684 271.21 226.782 272.446 226.782 T
273.828 228.684 270.21 227.508 271.21 226.782 T
273.828 228.684 269.828 228.684 270.21 227.508 T
273.828 228.684 270.21 229.859 269.828 228.684 T
273.828 228.684 271.21 230.586 270.21 229.859 T
273.828 228.684 272.446 230.586 271.21 230.586 T
273.828 228.684 273.446 229.859 272.446 230.586 T
0 0 0 C
261.231 150.263 LS
261.231 60.1275 LE
(0) 275.649 39.5704 10 /Helvetica STL
366.009 263.735 LS
476.982 293.78 LE
199.539 263.735 LS
134.2 293.78 LE
0 0 1 C
270.726 230.64 269.344 228.738 270.344 229.465 T
270.726 230.64 268.108 228.738 269.344 228.738 T
270.726 230.64 267.108 229.465 268.108 228.738 T
270.726 230.64 266.726 230.64 267.108 229.465 T
270.726 230.64 267.108 231.816 266.726 230.64 T
270.726 230.64 268.108 232.543 267.108 231.816 T
270.726 230.64 269.344 232.543 268.108 232.543 T
270.726 230.64 270.344 231.816 269.344 232.543 T
0 0 0 C
261.231 234.091 LS
261.231 150.263 LE
262.802 235.792 LS
366.009 263.735 LE
260.307 235.792 LS
199.539 263.735 LE
0 0 1 C
263.341 235.298 261.959 233.396 262.959 234.122 T
263.341 235.298 260.723 233.396 261.959 233.396 T
263.341 235.298 259.723 234.122 260.723 233.396 T
263.341 235.298 259.341 235.298 259.723 234.122 T
263.341 235.298 259.723 236.474 259.341 235.298 T
263.341 235.298 260.723 237.2 259.723 236.474 T
263.341 235.298 261.959 237.2 260.723 237.2 T
263.341 235.298 262.959 236.474 261.959 237.2 T
0 0 0 C
261.231 234.091 LS
261.231 235.367 LE
262.802 235.792 LS
261.231 235.367 LE
260.307 235.792 LS
261.231 235.367 LE
grestore
showpage
cleartomark
%%PageTrailer
%%Trailer
end
%%EOF
