%!PS-Adobe-3.0 EPSF-3.0
%%Title: glps_renderer figure
%%Creator: GL2PS 1.3.8, (C) 1999-2012 C. Geuzaine
%%For: Octave
%%CreationDate: Thu May 14 22:29:02 2015
%%LanguageLevel: 3
%%DocumentData: Clean7Bit
%%Pages: 1
%%BoundingBox: 0 0 576 432
%%EndComments
%%BeginProlog
/gl2psdict 64 dict def gl2psdict begin
0 setlinecap 0 setlinejoin
/tryPS3shading false def % set to false to force subdivision
/rThreshold 0.064 def % red component subdivision threshold
/gThreshold 0.034 def % green component subdivision threshold
/bThreshold 0.1 def % blue component subdivision threshold
/BD { bind def } bind def
/C  { setrgbcolor } BD
/G  { 0.082 mul exch 0.6094 mul add exch 0.3086 mul add neg 1.0 add setgray } BD
/W  { setlinewidth } BD
/FC { findfont exch /SH exch def SH scalefont setfont } BD
/SW { dup stringwidth pop } BD
/S  { FC moveto show } BD
/SBC{ FC moveto SW -2 div 0 rmoveto show } BD
/SBR{ FC moveto SW neg 0 rmoveto show } BD
/SCL{ FC moveto 0 SH -2 div rmoveto show } BD
/SCC{ FC moveto SW -2 div SH -2 div rmoveto show } BD
/SCR{ FC moveto SW neg SH -2 div rmoveto show } BD
/STL{ FC moveto 0 SH neg rmoveto show } BD
/STC{ FC moveto SW -2 div SH neg rmoveto show } BD
/STR{ FC moveto SW neg SH neg rmoveto show } BD
/FCT { FC translate 0 0 } BD
/SR  { gsave FCT moveto rotate show grestore } BD
/SBCR{ gsave FCT moveto rotate SW -2 div 0 rmoveto show grestore } BD
/SBRR{ gsave FCT moveto rotate SW neg 0 rmoveto show grestore } BD
/SCLR{ gsave FCT moveto rotate 0 SH -2 div rmoveto show grestore} BD
/SCCR{ gsave FCT moveto rotate SW -2 div SH -2 div rmoveto show grestore} BD
/SCRR{ gsave FCT moveto rotate SW neg SH -2 div rmoveto show grestore} BD
/STLR{ gsave FCT moveto rotate 0 SH neg rmoveto show grestore } BD
/STCR{ gsave FCT moveto rotate SW -2 div SH neg rmoveto show grestore } BD
/STRR{ gsave FCT moveto rotate SW neg SH neg rmoveto show grestore } BD
/P  { newpath 0.0 360.0 arc closepath fill } BD
/LS { newpath moveto } BD
/L  { lineto } BD
/LE { lineto stroke } BD
/T  { newpath moveto lineto lineto closepath fill } BD
/STshfill {
      /b1 exch def /g1 exch def /r1 exch def /y1 exch def /x1 exch def
      /b2 exch def /g2 exch def /r2 exch def /y2 exch def /x2 exch def
      /b3 exch def /g3 exch def /r3 exch def /y3 exch def /x3 exch def
      gsave << /ShadingType 4 /ColorSpace [/DeviceRGB]
      /DataSource [ 0 x1 y1 r1 g1 b1 0 x2 y2 r2 g2 b2 0 x3 y3 r3 g3 b3 ] >>
      shfill grestore } BD
/Tm { 3 -1 roll 8 -1 roll 13 -1 roll add add 3 div
      3 -1 roll 7 -1 roll 11 -1 roll add add 3 div
      3 -1 roll 6 -1 roll 9 -1 roll add add 3 div C T } BD
/STsplit {
      4 index 15 index add 0.5 mul
      4 index 15 index add 0.5 mul
      4 index 15 index add 0.5 mul
      4 index 15 index add 0.5 mul
      4 index 15 index add 0.5 mul
      5 copy 5 copy 25 15 roll
      9 index 30 index add 0.5 mul
      9 index 30 index add 0.5 mul
      9 index 30 index add 0.5 mul
      9 index 30 index add 0.5 mul
      9 index 30 index add 0.5 mul
      5 copy 5 copy 35 5 roll 25 5 roll 15 5 roll
      4 index 10 index add 0.5 mul
      4 index 10 index add 0.5 mul
      4 index 10 index add 0.5 mul
      4 index 10 index add 0.5 mul
      4 index 10 index add 0.5 mul
      5 copy 5 copy 40 5 roll 25 5 roll 15 5 roll 25 5 roll
      STnoshfill STnoshfill STnoshfill STnoshfill } BD
/STnoshfill {
      2 index 8 index sub abs rThreshold gt
      { STsplit }
      { 1 index 7 index sub abs gThreshold gt
        { STsplit }
        { dup 6 index sub abs bThreshold gt
          { STsplit }
          { 2 index 13 index sub abs rThreshold gt
            { STsplit }
            { 1 index 12 index sub abs gThreshold gt
              { STsplit }
              { dup 11 index sub abs bThreshold gt
                { STsplit }
                { 7 index 13 index sub abs rThreshold gt
                  { STsplit }
                  { 6 index 12 index sub abs gThreshold gt
                    { STsplit }
                    { 5 index 11 index sub abs bThreshold gt
                      { STsplit }
                      { Tm }
                      ifelse }
                    ifelse }
                  ifelse }
                ifelse }
              ifelse }
            ifelse }
          ifelse }
        ifelse }
      ifelse } BD
tryPS3shading
{ /shfill where
  { /ST { STshfill } BD }
  { /ST { STnoshfill } BD }
  ifelse }
{ /ST { STnoshfill } BD }
ifelse
end
%%EndProlog
%%BeginSetup
/DeviceRGB setcolorspace
gl2psdict begin
%%EndSetup
%%Page: 1 1
%%BeginPageSetup
%%EndPageSetup
mark
gsave
1.0 1.0 scale
1 1 1 C
521.28 47.52 521.28 399.6 521.28 47.52 T
521.28 47.52 521.28 399.6 521.28 399.6 T
74.88 399.6 521.28 399.6 74.88 399.6 T
74.88 399.6 521.28 399.6 521.28 399.6 T
74.88 399.6 521.28 47.52 74.88 47.52 T
74.88 399.6 521.28 399.6 521.28 47.52 T
0.5 W
[16 0] 0 setdash
0 0 0 C
74.88 47.52 LS
521.28 47.52 LE
74.88 399.6 LS
521.28 399.6 LE
74.88 399.6 LS
521.28 399.6 LE
74.88 47.52 LS
521.28 47.52 LE
74.88 47.52 LS
74.88 399.6 LE
521.28 47.52 LS
521.28 399.6 LE
521.28 47.52 LS
521.28 399.6 LE
74.88 47.52 LS
74.88 399.6 L
74.88 399.6 LE
521.28 399.6 LS
521.28 399.6 LE
521.28 47.52 LS
521.28 47.52 LE
74.88 47.52 LS
74.88 47.52 L
74.88 51.985 LE
74.88 399.6 LS
74.88 395.135 LE
186.48 47.52 LS
186.48 51.985 LE
186.48 399.6 LS
186.48 395.135 LE
298.08 47.52 LS
298.08 51.985 LE
298.08 399.6 LS
298.08 395.135 LE
409.68 47.52 LS
409.68 51.985 LE
409.68 399.6 LS
409.68 395.135 LE
521.28 47.52 LS
521.28 51.985 LE
521.28 399.6 LS
521.28 395.135 LE
(0) 74.88 42.5189 10 /Helvetica STC
(0.5) 186.48 42.5189 10 /Helvetica STC
(1) 298.08 42.5189 10 /Helvetica STC
(1.5) 409.68 42.5189 10 /Helvetica STC
(2) 521.28 42.5189 10 /Helvetica STC
74.88 47.52 LS
79.348 47.52 LE
521.28 47.52 LS
516.812 47.52 LE
74.88 135.54 LS
79.348 135.54 LE
521.28 135.54 LS
516.812 135.54 LE
74.88 223.56 LS
79.348 223.56 LE
521.28 223.56 LS
516.812 223.56 LE
74.88 311.58 LS
79.348 311.58 LE
521.28 311.58 LS
516.812 311.58 LE
74.88 399.6 LS
79.348 399.6 LE
521.28 399.6 LS
516.812 399.6 LE
(0) 69.8755 47.52 10 /Helvetica SCR
(1) 69.8755 135.54 10 /Helvetica SCR
(2) 69.8755 223.56 10 /Helvetica SCR
(3) 69.8755 311.58 10 /Helvetica SCR
(4) 69.8755 399.6 10 /Helvetica SCR
0 0 1 C
523.278 48.4156 521.896 46.5135 522.896 47.24 T
523.278 48.4156 520.66 46.5135 521.896 46.5135 T
523.278 48.4156 519.66 47.24 520.66 46.5135 T
523.278 48.4156 519.278 48.4156 519.66 47.24 T
523.278 48.4156 519.66 49.5911 519.278 48.4156 T
523.278 48.4156 520.66 50.3177 519.66 49.5911 T
523.278 48.4156 521.896 50.3177 520.66 50.3177 T
523.278 48.4156 522.896 49.5911 521.896 50.3177 T
523.273 49.375 521.891 47.4729 522.891 48.1994 T
523.273 49.375 520.655 47.4729 521.891 47.4729 T
523.273 49.375 519.655 48.1994 520.655 47.4729 T
523.273 49.375 519.273 49.375 519.655 48.1994 T
523.273 49.375 519.655 50.5506 519.273 49.375 T
523.273 49.375 520.655 51.2771 519.655 50.5506 T
523.273 49.375 521.891 51.2771 520.655 51.2771 T
523.273 49.375 522.891 50.5506 521.891 51.2771 T
523.255 51.2771 521.873 49.375 522.873 50.1015 T
523.255 51.2771 520.637 49.375 521.873 49.375 T
523.255 51.2771 519.637 50.1015 520.637 49.375 T
523.255 51.2771 519.255 51.2771 519.637 50.1015 T
523.255 51.2771 519.637 52.4526 519.255 51.2771 T
523.255 51.2771 520.637 53.1792 519.637 52.4526 T
523.255 51.2771 521.873 53.1792 520.637 53.1792 T
523.255 51.2771 522.873 52.4526 521.873 53.1792 T
523.222 53.2292 521.84 51.3271 522.84 52.0536 T
523.222 53.2292 520.604 51.3271 521.84 51.3271 T
523.222 53.2292 519.604 52.0536 520.604 51.3271 T
523.222 53.2292 519.222 53.2292 519.604 52.0536 T
523.222 53.2292 519.604 54.4047 519.222 53.2292 T
523.222 53.2292 520.604 55.1313 519.604 54.4047 T
523.222 53.2292 521.84 55.1313 520.604 55.1313 T
523.222 53.2292 522.84 54.4047 521.84 55.1313 T
523.175 55.1476 521.793 53.2455 522.793 53.972 T
523.175 55.1476 520.557 53.2455 521.793 53.2455 T
523.175 55.1476 519.557 53.972 520.557 53.2455 T
523.175 55.1476 519.175 55.1476 519.557 53.972 T
523.175 55.1476 519.557 56.3232 519.175 55.1476 T
523.175 55.1476 520.557 57.0497 519.557 56.3232 T
523.175 55.1476 521.793 57.0497 520.557 57.0497 T
523.175 55.1476 522.793 56.3232 521.793 57.0497 T
523.11 57.1969 521.728 55.2948 522.728 56.0213 T
523.11 57.1969 520.492 55.2948 521.728 55.2948 T
523.11 57.1969 519.492 56.0213 520.492 55.2948 T
523.11 57.1969 519.11 57.1969 519.492 56.0213 T
523.11 57.1969 519.492 58.3725 519.11 57.1969 T
523.11 57.1969 520.492 59.099 519.492 58.3725 T
523.11 57.1969 521.728 59.099 520.492 59.099 T
523.11 57.1969 522.728 58.3725 521.728 59.099 T
523.032 59.2411 521.65 57.339 522.65 58.0655 T
523.032 59.2411 520.414 57.339 521.65 57.339 T
523.032 59.2411 519.414 58.0655 520.414 57.339 T
523.032 59.2411 519.032 59.2411 519.414 58.0655 T
523.032 59.2411 519.414 60.4167 519.032 59.2411 T
523.032 59.2411 520.414 61.1432 519.414 60.4167 T
523.032 59.2411 521.65 61.1432 520.414 61.1432 T
523.032 59.2411 522.65 60.4167 521.65 61.1432 T
522.936 61.3388 521.554 59.4367 522.554 60.1632 T
522.936 61.3388 520.318 59.4367 521.554 59.4367 T
522.936 61.3388 519.318 60.1632 520.318 59.4367 T
522.936 61.3388 518.936 61.3388 519.318 60.1632 T
522.936 61.3388 519.318 62.5143 518.936 61.3388 T
522.936 61.3388 520.318 63.2409 519.318 62.5143 T
522.936 61.3388 521.554 63.2409 520.318 63.2409 T
522.936 61.3388 522.554 62.5143 521.554 63.2409 T
522.82 63.5059 521.438 61.6038 522.438 62.3303 T
522.82 63.5059 520.202 61.6038 521.438 61.6038 T
522.82 63.5059 519.202 62.3303 520.202 61.6038 T
522.82 63.5059 518.82 63.5059 519.202 62.3303 T
522.82 63.5059 519.202 64.6815 518.82 63.5059 T
522.82 63.5059 520.202 65.408 519.202 64.6815 T
522.82 63.5059 521.438 65.408 520.202 65.408 T
522.82 63.5059 522.438 64.6815 521.438 65.408 T
522.684 65.6994 521.302 63.7973 522.302 64.5238 T
522.684 65.6994 520.066 63.7973 521.302 63.7973 T
522.684 65.6994 519.066 64.5238 520.066 63.7973 T
522.684 65.6994 518.684 65.6994 519.066 64.5238 T
522.684 65.6994 519.066 66.875 518.684 65.6994 T
522.684 65.6994 520.066 67.6015 519.066 66.875 T
522.684 65.6994 521.302 67.6015 520.066 67.6015 T
522.684 65.6994 522.302 66.875 521.302 67.6015 T
522.528 67.9544 521.146 66.0523 522.146 66.7788 T
522.528 67.9544 519.91 66.0523 521.146 66.0523 T
522.528 67.9544 518.91 66.7788 519.91 66.0523 T
522.528 67.9544 518.528 67.9544 518.91 66.7788 T
522.528 67.9544 518.91 69.1299 518.528 67.9544 T
522.528 67.9544 519.91 69.8565 518.91 69.1299 T
522.528 67.9544 521.146 69.8565 519.91 69.8565 T
522.528 67.9544 522.146 69.1299 521.146 69.8565 T
522.349 70.2525 520.967 68.3504 521.967 69.0769 T
522.349 70.2525 519.731 68.3504 520.967 68.3504 T
522.349 70.2525 518.731 69.0769 519.731 68.3504 T
522.349 70.2525 518.349 70.2525 518.731 69.0769 T
522.349 70.2525 518.731 71.428 518.349 70.2525 T
522.349 70.2525 519.731 72.1546 518.731 71.428 T
522.349 70.2525 520.967 72.1546 519.731 72.1546 T
522.349 70.2525 521.967 71.428 520.967 72.1546 T
522.144 72.6194 520.762 70.7173 521.762 71.4438 T
522.144 72.6194 519.526 70.7173 520.762 70.7173 T
522.144 72.6194 518.526 71.4438 519.526 70.7173 T
522.144 72.6194 518.144 72.6194 518.526 71.4438 T
522.144 72.6194 518.526 73.7949 518.144 72.6194 T
522.144 72.6194 519.526 74.5215 518.526 73.7949 T
522.144 72.6194 520.762 74.5215 519.526 74.5215 T
522.144 72.6194 521.762 73.7949 520.762 74.5215 T
521.916 75.0118 520.534 73.1097 521.534 73.8362 T
521.916 75.0118 519.298 73.1097 520.534 73.1097 T
521.916 75.0118 518.298 73.8362 519.298 73.1097 T
521.916 75.0118 517.916 75.0118 518.298 73.8362 T
521.916 75.0118 518.298 76.1874 517.916 75.0118 T
521.916 75.0118 519.298 76.9139 518.298 76.1874 T
521.916 75.0118 520.534 76.9139 519.298 76.9139 T
521.916 75.0118 521.534 76.1874 520.534 76.9139 T
521.662 77.4694 520.28 75.5673 521.28 76.2939 T
521.662 77.4694 519.044 75.5673 520.28 75.5673 T
521.662 77.4694 518.044 76.2939 519.044 75.5673 T
521.662 77.4694 517.662 77.4694 518.044 76.2939 T
521.662 77.4694 518.044 78.645 517.662 77.4694 T
521.662 77.4694 519.044 79.3715 518.044 78.645 T
521.662 77.4694 520.28 79.3715 519.044 79.3715 T
521.662 77.4694 521.28 78.645 520.28 79.3715 T
521.378 79.9772 519.996 78.0751 520.996 78.8016 T
521.378 79.9772 518.76 78.0751 519.996 78.0751 T
521.378 79.9772 517.76 78.8016 518.76 78.0751 T
521.378 79.9772 517.378 79.9772 517.76 78.8016 T
521.378 79.9772 517.76 81.1528 517.378 79.9772 T
521.378 79.9772 518.76 81.8793 517.76 81.1528 T
521.378 79.9772 519.996 81.8793 518.76 81.8793 T
521.378 79.9772 520.996 81.1528 519.996 81.8793 T
521.064 82.5532 519.682 80.6511 520.682 81.3776 T
521.064 82.5532 518.446 80.6511 519.682 80.6511 T
521.064 82.5532 517.446 81.3776 518.446 80.6511 T
521.064 82.5532 517.064 82.5532 517.446 81.3776 T
521.064 82.5532 517.446 83.7288 517.064 82.5532 T
521.064 82.5532 518.446 84.4553 517.446 83.7288 T
521.064 82.5532 519.682 84.4553 518.446 84.4553 T
521.064 82.5532 520.682 83.7288 519.682 84.4553 T
520.718 85.1873 519.336 83.2852 520.336 84.0117 T
520.718 85.1873 518.1 83.2852 519.336 83.2852 T
520.718 85.1873 517.1 84.0117 518.1 83.2852 T
520.718 85.1873 516.718 85.1873 517.1 84.0117 T
520.718 85.1873 517.1 86.3629 516.718 85.1873 T
520.718 85.1873 518.1 87.0894 517.1 86.3629 T
520.718 85.1873 519.336 87.0894 518.1 87.0894 T
520.718 85.1873 520.336 86.3629 519.336 87.0894 T
520.338 87.8803 518.956 85.9782 519.956 86.7048 T
520.338 87.8803 517.72 85.9782 518.956 85.9782 T
520.338 87.8803 516.72 86.7048 517.72 85.9782 T
520.338 87.8803 516.338 87.8803 516.72 86.7048 T
520.338 87.8803 516.72 89.0559 516.338 87.8803 T
520.338 87.8803 517.72 89.7824 516.72 89.0559 T
520.338 87.8803 518.956 89.7824 517.72 89.7824 T
520.338 87.8803 519.956 89.0559 518.956 89.7824 T
519.921 90.6316 518.539 88.7295 519.539 89.4561 T
519.921 90.6316 517.303 88.7295 518.539 88.7295 T
519.921 90.6316 516.303 89.4561 517.303 88.7295 T
519.921 90.6316 515.921 90.6316 516.303 89.4561 T
519.921 90.6316 516.303 91.8072 515.921 90.6316 T
519.921 90.6316 517.303 92.5338 516.303 91.8072 T
519.921 90.6316 518.539 92.5338 517.303 92.5338 T
519.921 90.6316 519.539 91.8072 518.539 92.5338 T
519.466 93.4526 518.084 91.5505 519.084 92.277 T
519.466 93.4526 516.848 91.5505 518.084 91.5505 T
519.466 93.4526 515.848 92.277 516.848 91.5505 T
519.466 93.4526 515.466 93.4526 515.848 92.277 T
519.466 93.4526 515.848 94.6282 515.466 93.4526 T
519.466 93.4526 516.848 95.3547 515.848 94.6282 T
519.466 93.4526 518.084 95.3547 516.848 95.3547 T
519.466 93.4526 519.084 94.6282 518.084 95.3547 T
518.968 96.3345 517.586 94.4324 518.586 95.1589 T
518.968 96.3345 516.35 94.4324 517.586 94.4324 T
518.968 96.3345 515.35 95.1589 516.35 94.4324 T
518.968 96.3345 514.968 96.3345 515.35 95.1589 T
518.968 96.3345 515.35 97.51 514.968 96.3345 T
518.968 96.3345 516.35 98.2366 515.35 97.51 T
518.968 96.3345 517.586 98.2366 516.35 98.2366 T
518.968 96.3345 518.586 97.51 517.586 98.2366 T
518.428 99.2879 517.046 97.3858 518.046 98.1123 T
518.428 99.2879 515.81 97.3858 517.046 97.3858 T
518.428 99.2879 514.81 98.1123 515.81 97.3858 T
518.428 99.2879 514.428 99.2879 514.81 98.1123 T
518.428 99.2879 514.81 100.463 514.428 99.2879 T
518.428 99.2879 515.81 101.19 514.81 100.463 T
518.428 99.2879 517.046 101.19 515.81 101.19 T
518.428 99.2879 518.046 100.463 517.046 101.19 T
517.843 102.306 516.461 100.404 517.461 101.131 T
517.843 102.306 515.225 100.404 516.461 100.404 T
517.843 102.306 514.225 101.131 515.225 100.404 T
517.843 102.306 513.843 102.306 514.225 101.131 T
517.843 102.306 514.225 103.482 513.843 102.306 T
517.843 102.306 515.225 104.209 514.225 103.482 T
517.843 102.306 516.461 104.209 515.225 104.209 T
517.843 102.306 517.461 103.482 516.461 104.209 T
517.207 105.4 515.825 103.498 516.825 104.225 T
517.207 105.4 514.589 103.498 515.825 103.498 T
517.207 105.4 513.589 104.225 514.589 103.498 T
517.207 105.4 513.207 105.4 513.589 104.225 T
517.207 105.4 513.589 106.576 513.207 105.4 T
517.207 105.4 514.589 107.302 513.589 106.576 T
517.207 105.4 515.825 107.302 514.589 107.302 T
517.207 105.4 516.825 106.576 515.825 107.302 T
516.519 108.568 515.137 106.666 516.137 107.393 T
516.519 108.568 513.901 106.666 515.137 106.666 T
516.519 108.568 512.901 107.393 513.901 106.666 T
516.519 108.568 512.519 108.568 512.901 107.393 T
516.519 108.568 512.901 109.744 512.519 108.568 T
516.519 108.568 513.901 110.471 512.901 109.744 T
516.519 108.568 515.137 110.471 513.901 110.471 T
516.519 108.568 516.137 109.744 515.137 110.471 T
515.776 111.807 514.394 109.905 515.394 110.632 T
515.776 111.807 513.158 109.905 514.394 109.905 T
515.776 111.807 512.158 110.632 513.158 109.905 T
515.776 111.807 511.776 111.807 512.158 110.632 T
515.776 111.807 512.158 112.983 511.776 111.807 T
515.776 111.807 513.158 113.71 512.158 112.983 T
515.776 111.807 514.394 113.71 513.158 113.71 T
515.776 111.807 515.394 112.983 514.394 113.71 T
514.975 115.123 513.593 113.221 514.593 113.947 T
514.975 115.123 512.357 113.221 513.593 113.221 T
514.975 115.123 511.357 113.947 512.357 113.221 T
514.975 115.123 510.975 115.123 511.357 113.947 T
514.975 115.123 511.357 116.298 510.975 115.123 T
514.975 115.123 512.357 117.025 511.357 116.298 T
514.975 115.123 513.593 117.025 512.357 117.025 T
514.975 115.123 514.593 116.298 513.593 117.025 T
514.111 118.515 512.729 116.613 513.729 117.339 T
514.111 118.515 511.493 116.613 512.729 116.613 T
514.111 118.515 510.493 117.339 511.493 116.613 T
514.111 118.515 510.111 118.515 510.493 117.339 T
514.111 118.515 510.493 119.69 510.111 118.515 T
514.111 118.515 511.493 120.417 510.493 119.69 T
514.111 118.515 512.729 120.417 511.493 120.417 T
514.111 118.515 513.729 119.69 512.729 120.417 T
513.18 121.992 511.798 120.09 512.798 120.817 T
513.18 121.992 510.562 120.09 511.798 120.09 T
513.18 121.992 509.562 120.817 510.562 120.09 T
513.18 121.992 509.18 121.992 509.562 120.817 T
513.18 121.992 509.562 123.168 509.18 121.992 T
513.18 121.992 510.562 123.895 509.562 123.168 T
513.18 121.992 511.798 123.895 510.562 123.895 T
513.18 121.992 512.798 123.168 511.798 123.895 T
512.18 125.547 510.798 123.645 511.798 124.371 T
512.18 125.547 509.562 123.645 510.798 123.645 T
512.18 125.547 508.562 124.371 509.562 123.645 T
512.18 125.547 508.18 125.547 508.562 124.371 T
512.18 125.547 508.562 126.722 508.18 125.547 T
512.18 125.547 509.562 127.449 508.562 126.722 T
512.18 125.547 510.798 127.449 509.562 127.449 T
512.18 125.547 511.798 126.722 510.798 127.449 T
511.104 129.19 509.722 127.288 510.722 128.014 T
511.104 129.19 508.486 127.288 509.722 127.288 T
511.104 129.19 507.486 128.014 508.486 127.288 T
511.104 129.19 507.104 129.19 507.486 128.014 T
511.104 129.19 507.486 130.365 507.104 129.19 T
511.104 129.19 508.486 131.092 507.486 130.365 T
511.104 129.19 509.722 131.092 508.486 131.092 T
511.104 129.19 510.722 130.365 509.722 131.092 T
509.953 132.911 508.571 131.009 509.571 131.735 T
509.953 132.911 507.335 131.009 508.571 131.009 T
509.953 132.911 506.335 131.735 507.335 131.009 T
509.953 132.911 505.953 132.911 506.335 131.735 T
509.953 132.911 506.335 134.086 505.953 132.911 T
509.953 132.911 507.335 134.813 506.335 134.086 T
509.953 132.911 508.571 134.813 507.335 134.813 T
509.953 132.911 509.571 134.086 508.571 134.813 T
508.714 136.723 507.332 134.821 508.332 135.547 T
508.714 136.723 506.096 134.821 507.332 134.821 T
508.714 136.723 505.096 135.547 506.096 134.821 T
508.714 136.723 504.714 136.723 505.096 135.547 T
508.714 136.723 505.096 137.899 504.714 136.723 T
508.714 136.723 506.096 138.625 505.096 137.899 T
508.714 136.723 507.332 138.625 506.096 138.625 T
508.714 136.723 508.332 137.899 507.332 138.625 T
507.39 140.623 506.008 138.721 507.008 139.448 T
507.39 140.623 504.772 138.721 506.008 138.721 T
507.39 140.623 503.772 139.448 504.772 138.721 T
507.39 140.623 503.39 140.623 503.772 139.448 T
507.39 140.623 503.772 141.799 503.39 140.623 T
507.39 140.623 504.772 142.525 503.772 141.799 T
507.39 140.623 506.008 142.525 504.772 142.525 T
507.39 140.623 507.008 141.799 506.008 142.525 T
505.971 144.609 504.589 142.707 505.589 143.433 T
505.971 144.609 503.353 142.707 504.589 142.707 T
505.971 144.609 502.353 143.433 503.353 142.707 T
505.971 144.609 501.971 144.609 502.353 143.433 T
505.971 144.609 502.353 145.784 501.971 144.609 T
505.971 144.609 503.353 146.511 502.353 145.784 T
505.971 144.609 504.589 146.511 503.353 146.511 T
505.971 144.609 505.589 145.784 504.589 146.511 T
504.455 148.688 503.073 146.785 504.073 147.512 T
504.455 148.688 501.837 146.785 503.073 146.785 T
504.455 148.688 500.837 147.512 501.837 146.785 T
504.455 148.688 500.455 148.688 500.837 147.512 T
504.455 148.688 500.837 149.863 500.455 148.688 T
504.455 148.688 501.837 150.59 500.837 149.863 T
504.455 148.688 503.073 150.59 501.837 150.59 T
504.455 148.688 504.073 149.863 503.073 150.59 T
502.833 152.859 501.451 150.957 502.451 151.683 T
502.833 152.859 500.215 150.957 501.451 150.957 T
502.833 152.859 499.215 151.683 500.215 150.957 T
502.833 152.859 498.833 152.859 499.215 151.683 T
502.833 152.859 499.215 154.034 498.833 152.859 T
502.833 152.859 500.215 154.761 499.215 154.034 T
502.833 152.859 501.451 154.761 500.215 154.761 T
502.833 152.859 502.451 154.034 501.451 154.761 T
501.098 157.125 499.716 155.223 500.716 155.95 T
501.098 157.125 498.48 155.223 499.716 155.223 T
501.098 157.125 497.48 155.95 498.48 155.223 T
501.098 157.125 497.098 157.125 497.48 155.95 T
501.098 157.125 497.48 158.301 497.098 157.125 T
501.098 157.125 498.48 159.027 497.48 158.301 T
501.098 157.125 499.716 159.027 498.48 159.027 T
501.098 157.125 500.716 158.301 499.716 159.027 T
499.248 161.484 497.866 159.582 498.866 160.308 T
499.248 161.484 496.63 159.582 497.866 159.582 T
499.248 161.484 495.63 160.308 496.63 159.582 T
499.248 161.484 495.248 161.484 495.63 160.308 T
499.248 161.484 495.63 162.659 495.248 161.484 T
499.248 161.484 496.63 163.386 495.63 162.659 T
499.248 161.484 497.866 163.386 496.63 163.386 T
499.248 161.484 498.866 162.659 497.866 163.386 T
497.275 165.937 495.893 164.035 496.893 164.761 T
497.275 165.937 494.657 164.035 495.893 164.035 T
497.275 165.937 493.657 164.761 494.657 164.035 T
497.275 165.937 493.275 165.937 493.657 164.761 T
497.275 165.937 493.657 167.112 493.275 165.937 T
497.275 165.937 494.657 167.839 493.657 167.112 T
497.275 165.937 495.893 167.839 494.657 167.839 T
497.275 165.937 496.893 167.112 495.893 167.839 T
495.168 170.487 493.786 168.584 494.786 169.311 T
495.168 170.487 492.55 168.584 493.786 168.584 T
495.168 170.487 491.55 169.311 492.55 168.584 T
495.168 170.487 491.168 170.487 491.55 169.311 T
495.168 170.487 491.55 171.662 491.168 170.487 T
495.168 170.487 492.55 172.389 491.55 171.662 T
495.168 170.487 493.786 172.389 492.55 172.389 T
495.168 170.487 494.786 171.662 493.786 172.389 T
492.927 175.131 491.545 173.229 492.545 173.956 T
492.927 175.131 490.309 173.229 491.545 173.229 T
492.927 175.131 489.309 173.956 490.309 173.229 T
492.927 175.131 488.927 175.131 489.309 173.956 T
492.927 175.131 489.309 176.307 488.927 175.131 T
492.927 175.131 490.309 177.034 489.309 176.307 T
492.927 175.131 491.545 177.034 490.309 177.034 T
492.927 175.131 492.545 176.307 491.545 177.034 T
490.539 179.87 489.157 177.967 490.157 178.694 T
490.539 179.87 487.921 177.967 489.157 177.967 T
490.539 179.87 486.921 178.694 487.921 177.967 T
490.539 179.87 486.539 179.87 486.921 178.694 T
490.539 179.87 486.921 181.045 486.539 179.87 T
490.539 179.87 487.921 181.772 486.921 181.045 T
490.539 179.87 489.157 181.772 487.921 181.772 T
490.539 179.87 490.157 181.045 489.157 181.772 T
487.999 184.706 486.617 182.804 487.617 183.531 T
487.999 184.706 485.381 182.804 486.617 182.804 T
487.999 184.706 484.381 183.531 485.381 182.804 T
487.999 184.706 483.999 184.706 484.381 183.531 T
487.999 184.706 484.381 185.882 483.999 184.706 T
487.999 184.706 485.381 186.608 484.381 185.882 T
487.999 184.706 486.617 186.608 485.381 186.608 T
487.999 184.706 487.617 185.882 486.617 186.608 T
485.3 189.634 483.918 187.731 484.918 188.458 T
485.3 189.634 482.682 187.731 483.918 187.731 T
485.3 189.634 481.682 188.458 482.682 187.731 T
485.3 189.634 481.3 189.634 481.682 188.458 T
485.3 189.634 481.682 190.809 481.3 189.634 T
485.3 189.634 482.682 191.536 481.682 190.809 T
485.3 189.634 483.918 191.536 482.682 191.536 T
485.3 189.634 484.918 190.809 483.918 191.536 T
482.43 194.656 481.048 192.754 482.048 193.48 T
482.43 194.656 479.812 192.754 481.048 192.754 T
482.43 194.656 478.812 193.48 479.812 192.754 T
482.43 194.656 478.43 194.656 478.812 193.48 T
482.43 194.656 478.812 195.832 478.43 194.656 T
482.43 194.656 479.812 196.558 478.812 195.832 T
482.43 194.656 481.048 196.558 479.812 196.558 T
482.43 194.656 482.048 195.832 481.048 196.558 T
479.385 199.77 478.004 197.868 479.004 198.594 T
479.385 199.77 476.767 197.868 478.004 197.868 T
479.385 199.77 475.767 198.594 476.767 197.868 T
479.385 199.77 475.386 199.77 475.767 198.594 T
479.385 199.77 475.767 200.946 475.386 199.77 T
479.385 199.77 476.767 201.672 475.767 200.946 T
479.385 199.77 478.004 201.672 476.767 201.672 T
479.385 199.77 479.004 200.946 478.004 201.672 T
476.151 204.976 474.769 203.074 475.769 203.801 T
476.151 204.976 473.533 203.074 474.769 203.074 T
476.151 204.976 472.533 203.801 473.533 203.074 T
476.151 204.976 472.151 204.976 472.533 203.801 T
476.151 204.976 472.533 206.152 472.151 204.976 T
476.151 204.976 473.533 206.878 472.533 206.152 T
476.151 204.976 474.769 206.878 473.533 206.878 T
476.151 204.976 475.769 206.152 474.769 206.878 T
472.727 210.267 471.345 208.365 472.345 209.092 T
472.727 210.267 470.109 208.365 471.345 208.365 T
472.727 210.267 469.109 209.092 470.109 208.365 T
472.727 210.267 468.727 210.267 469.109 209.092 T
472.727 210.267 469.109 211.443 468.727 210.267 T
472.727 210.267 470.109 212.169 469.109 211.443 T
472.727 210.267 471.345 212.169 470.109 212.169 T
472.727 210.267 472.345 211.443 471.345 212.169 T
469.098 215.643 467.716 213.741 468.716 214.468 T
469.098 215.643 466.48 213.741 467.716 213.741 T
469.098 215.643 465.48 214.468 466.48 213.741 T
469.098 215.643 465.098 215.643 465.48 214.468 T
469.098 215.643 465.48 216.819 465.098 215.643 T
469.098 215.643 466.48 217.546 465.48 216.819 T
469.098 215.643 467.716 217.546 466.48 217.546 T
469.098 215.643 468.716 216.819 467.716 217.546 T
465.257 221.101 463.875 219.199 464.875 219.925 T
465.257 221.101 462.639 219.199 463.875 219.199 T
465.257 221.101 461.639 219.925 462.639 219.199 T
465.257 221.101 461.257 221.101 461.639 219.925 T
465.257 221.101 461.639 222.276 461.257 221.101 T
465.257 221.101 462.639 223.003 461.639 222.276 T
465.257 221.101 463.875 223.003 462.639 223.003 T
465.257 221.101 464.875 222.276 463.875 223.003 T
461.197 226.633 459.815 224.731 460.815 225.457 T
461.197 226.633 458.579 224.731 459.815 224.731 T
461.197 226.633 457.579 225.457 458.579 224.731 T
461.197 226.633 457.197 226.633 457.579 225.457 T
461.197 226.633 457.579 227.808 457.197 226.633 T
461.197 226.633 458.579 228.535 457.579 227.808 T
461.197 226.633 459.815 228.535 458.579 228.535 T
461.197 226.633 460.815 227.808 459.815 228.535 T
456.909 232.237 455.527 230.335 456.527 231.061 T
456.909 232.237 454.291 230.335 455.527 230.335 T
456.909 232.237 453.291 231.061 454.291 230.335 T
456.909 232.237 452.909 232.237 453.291 231.061 T
456.909 232.237 453.291 233.413 452.909 232.237 T
456.909 232.237 454.291 234.139 453.291 233.413 T
456.909 232.237 455.527 234.139 454.291 234.139 T
456.909 232.237 456.527 233.413 455.527 234.139 T
452.383 237.91 451.001 236.008 452.001 236.734 T
452.383 237.91 449.765 236.008 451.001 236.008 T
452.383 237.91 448.765 236.734 449.765 236.008 T
452.383 237.91 448.383 237.91 448.765 236.734 T
452.383 237.91 448.765 239.085 448.383 237.91 T
452.383 237.91 449.765 239.812 448.765 239.085 T
452.383 237.91 451.001 239.812 449.765 239.812 T
452.383 237.91 452.001 239.085 451.001 239.812 T
447.611 243.641 446.229 241.739 447.229 242.465 T
447.611 243.641 444.993 241.739 446.229 241.739 T
447.611 243.641 443.993 242.465 444.993 241.739 T
447.611 243.641 443.611 243.641 443.993 242.465 T
447.611 243.641 443.993 244.816 443.611 243.641 T
447.611 243.641 444.993 245.543 443.993 244.816 T
447.611 243.641 446.229 245.543 444.993 245.543 T
447.611 243.641 447.229 244.816 446.229 245.543 T
442.584 249.425 441.202 247.523 442.202 248.249 T
442.584 249.425 439.966 247.523 441.202 247.523 T
442.584 249.425 438.966 248.249 439.966 247.523 T
442.584 249.425 438.584 249.425 438.966 248.249 T
442.584 249.425 438.966 250.6 438.584 249.425 T
442.584 249.425 439.966 251.327 438.966 250.6 T
442.584 249.425 441.202 251.327 439.966 251.327 T
442.584 249.425 442.202 250.6 441.202 251.327 T
437.299 255.252 435.917 253.35 436.917 254.077 T
437.299 255.252 434.681 253.35 435.917 253.35 T
437.299 255.252 433.681 254.077 434.681 253.35 T
437.299 255.252 433.299 255.252 433.681 254.077 T
437.299 255.252 433.681 256.428 433.299 255.252 T
437.299 255.252 434.681 257.155 433.681 256.428 T
437.299 255.252 435.917 257.155 434.681 257.155 T
437.299 255.252 436.917 256.428 435.917 257.155 T
431.746 261.117 430.364 259.215 431.364 259.942 T
431.746 261.117 429.128 259.215 430.364 259.215 T
431.746 261.117 428.128 259.942 429.128 259.215 T
431.746 261.117 427.746 261.117 428.128 259.942 T
431.746 261.117 428.128 262.293 427.746 261.117 T
431.746 261.117 429.128 263.019 428.128 262.293 T
431.746 261.117 430.364 263.019 429.128 263.019 T
431.746 261.117 431.364 262.293 430.364 263.019 T
425.92 267.009 424.538 265.107 425.538 265.834 T
425.92 267.009 423.302 265.107 424.538 265.107 T
425.92 267.009 422.302 265.834 423.302 265.107 T
425.92 267.009 421.92 267.009 422.302 265.834 T
425.92 267.009 422.302 268.185 421.92 267.009 T
425.92 267.009 423.302 268.911 422.302 268.185 T
425.92 267.009 424.538 268.911 423.302 268.911 T
425.92 267.009 425.538 268.185 424.538 268.911 T
419.813 272.916 418.431 271.014 419.431 271.741 T
419.813 272.916 417.195 271.014 418.431 271.014 T
419.813 272.916 416.195 271.741 417.195 271.014 T
419.813 272.916 415.813 272.916 416.195 271.741 T
419.813 272.916 416.195 274.092 415.813 272.916 T
419.813 272.916 417.195 274.818 416.195 274.092 T
419.813 272.916 418.431 274.818 417.195 274.818 T
419.813 272.916 419.431 274.092 418.431 274.818 T
413.425 278.83 412.043 276.927 413.043 277.654 T
413.425 278.83 410.807 276.927 412.043 276.927 T
413.425 278.83 409.807 277.654 410.807 276.927 T
413.425 278.83 409.425 278.83 409.807 277.654 T
413.425 278.83 409.807 280.005 409.425 278.83 T
413.425 278.83 410.807 280.732 409.807 280.005 T
413.425 278.83 412.043 280.732 410.807 280.732 T
413.425 278.83 413.043 280.005 412.043 280.732 T
406.75 284.737 405.368 282.834 406.368 283.561 T
406.75 284.737 404.131 282.834 405.368 282.834 T
406.75 284.737 403.131 283.561 404.131 282.834 T
406.75 284.737 402.75 284.737 403.131 283.561 T
406.75 284.737 403.131 285.912 402.75 284.737 T
406.75 284.737 404.131 286.639 403.131 285.912 T
406.75 284.737 405.368 286.639 404.131 286.639 T
406.75 284.737 406.368 285.912 405.368 286.639 T
399.786 290.622 398.404 288.72 399.404 289.447 T
399.786 290.622 397.168 288.72 398.404 288.72 T
399.786 290.622 396.168 289.447 397.168 288.72 T
399.786 290.622 395.786 290.622 396.168 289.447 T
399.786 290.622 396.168 291.798 395.786 290.622 T
399.786 290.622 397.168 292.525 396.168 291.798 T
399.786 290.622 398.404 292.525 397.168 292.525 T
399.786 290.622 399.404 291.798 398.404 292.525 T
392.534 296.478 391.152 294.575 392.152 295.302 T
392.534 296.478 389.916 294.575 391.152 294.575 T
392.534 296.478 388.916 295.302 389.916 294.575 T
392.534 296.478 388.534 296.478 388.916 295.302 T
392.534 296.478 388.916 297.653 388.534 296.478 T
392.534 296.478 389.916 298.38 388.916 297.653 T
392.534 296.478 391.152 298.38 389.916 298.38 T
392.534 296.478 392.152 297.653 391.152 298.38 T
384.99 302.289 383.608 300.386 384.608 301.113 T
384.99 302.289 382.372 300.386 383.608 300.386 T
384.99 302.289 381.372 301.113 382.372 300.386 T
384.99 302.289 380.99 302.289 381.372 301.113 T
384.99 302.289 381.372 303.464 380.99 302.289 T
384.99 302.289 382.372 304.191 381.372 303.464 T
384.99 302.289 383.608 304.191 382.372 304.191 T
384.99 302.289 384.608 303.464 383.608 304.191 T
377.16 308.039 375.778 306.137 376.778 306.863 T
377.16 308.039 374.542 306.137 375.778 306.137 T
377.16 308.039 373.542 306.863 374.542 306.137 T
377.16 308.039 373.16 308.039 373.542 306.863 T
377.16 308.039 373.542 309.215 373.16 308.039 T
377.16 308.039 374.542 309.941 373.542 309.215 T
377.16 308.039 375.778 309.941 374.542 309.941 T
377.16 308.039 376.778 309.215 375.778 309.941 T
369.049 313.714 367.667 311.812 368.667 312.539 T
369.049 313.714 366.431 311.812 367.667 311.812 T
369.049 313.714 365.431 312.539 366.431 311.812 T
369.049 313.714 365.049 313.714 365.431 312.539 T
369.049 313.714 365.431 314.89 365.049 313.714 T
369.049 313.714 366.431 315.617 365.431 314.89 T
369.049 313.714 367.667 315.617 366.431 315.617 T
369.049 313.714 368.667 314.89 367.667 315.617 T
360.659 319.301 359.277 317.399 360.277 318.126 T
360.659 319.301 358.041 317.399 359.277 317.399 T
360.659 319.301 357.041 318.126 358.041 317.399 T
360.659 319.301 356.659 319.301 357.041 318.126 T
360.659 319.301 357.041 320.477 356.659 319.301 T
360.659 319.301 358.041 321.203 357.041 320.477 T
360.659 319.301 359.277 321.203 358.041 321.203 T
360.659 319.301 360.277 320.477 359.277 321.203 T
351.999 324.786 350.617 322.884 351.617 323.61 T
351.999 324.786 349.381 322.884 350.617 322.884 T
351.999 324.786 348.381 323.61 349.381 322.884 T
351.999 324.786 347.999 324.786 348.381 323.61 T
351.999 324.786 348.381 325.961 347.999 324.786 T
351.999 324.786 349.381 326.688 348.381 325.961 T
351.999 324.786 350.617 326.688 349.381 326.688 T
351.999 324.786 351.617 325.961 350.617 326.688 T
343.079 330.15 341.698 328.247 342.698 328.974 T
343.079 330.15 340.461 328.247 341.698 328.247 T
343.079 330.15 339.461 328.974 340.461 328.247 T
343.079 330.15 339.079 330.15 339.461 328.974 T
343.079 330.15 339.461 331.325 339.079 330.15 T
343.079 330.15 340.461 332.052 339.461 331.325 T
343.079 330.15 341.698 332.052 340.461 332.052 T
343.079 330.15 342.698 331.325 341.698 332.052 T
333.906 335.383 332.524 333.481 333.524 334.208 T
333.906 335.383 331.288 333.481 332.524 333.481 T
333.906 335.383 330.288 334.208 331.288 333.481 T
333.906 335.383 329.906 335.383 330.288 334.208 T
333.906 335.383 330.288 336.559 329.906 335.383 T
333.906 335.383 331.288 337.285 330.288 336.559 T
333.906 335.383 332.524 337.285 331.288 337.285 T
333.906 335.383 333.524 336.559 332.524 337.285 T
324.498 340.468 323.116 338.566 324.116 339.293 T
324.498 340.468 321.88 338.566 323.116 338.566 T
324.498 340.468 320.88 339.293 321.88 338.566 T
324.498 340.468 320.498 340.468 320.88 339.293 T
324.498 340.468 320.88 341.644 320.498 340.468 T
324.498 340.468 321.88 342.37 320.88 341.644 T
324.498 340.468 323.116 342.37 321.88 342.37 T
324.498 340.468 324.116 341.644 323.116 342.37 T
314.865 345.394 313.483 343.492 314.483 344.218 T
314.865 345.394 312.247 343.492 313.483 343.492 T
314.865 345.394 311.247 344.218 312.247 343.492 T
314.865 345.394 310.865 345.394 311.247 344.218 T
314.865 345.394 311.247 346.569 310.865 345.394 T
314.865 345.394 312.247 347.296 311.247 346.569 T
314.865 345.394 313.483 347.296 312.247 347.296 T
314.865 345.394 314.483 346.569 313.483 347.296 T
305.024 350.145 303.642 348.243 304.642 348.97 T
305.024 350.145 302.406 348.243 303.642 348.243 T
305.024 350.145 301.406 348.97 302.406 348.243 T
305.024 350.145 301.024 350.145 301.406 348.97 T
305.024 350.145 301.406 351.321 301.024 350.145 T
305.024 350.145 302.406 352.047 301.406 351.321 T
305.024 350.145 303.642 352.047 302.406 352.047 T
305.024 350.145 304.642 351.321 303.642 352.047 T
294.992 354.712 293.61 352.81 294.61 353.537 T
294.992 354.712 292.374 352.81 293.61 352.81 T
294.992 354.712 291.374 353.537 292.374 352.81 T
294.992 354.712 290.992 354.712 291.374 353.537 T
294.992 354.712 291.374 355.888 290.992 354.712 T
294.992 354.712 292.374 356.615 291.374 355.888 T
294.992 354.712 293.61 356.615 292.374 356.615 T
294.992 354.712 294.61 355.888 293.61 356.615 T
284.787 359.083 283.405 357.181 284.405 357.907 T
284.787 359.083 282.169 357.181 283.405 357.181 T
284.787 359.083 281.169 357.907 282.169 357.181 T
284.787 359.083 280.787 359.083 281.169 357.907 T
284.787 359.083 281.169 360.258 280.787 359.083 T
284.787 359.083 282.169 360.985 281.169 360.258 T
284.787 359.083 283.405 360.985 282.169 360.985 T
284.787 359.083 284.405 360.258 283.405 360.985 T
274.436 363.245 273.054 361.343 274.054 362.07 T
274.436 363.245 271.818 361.343 273.054 361.343 T
274.436 363.245 270.818 362.07 271.818 361.343 T
274.436 363.245 270.436 363.245 270.818 362.07 T
274.436 363.245 270.818 364.421 270.436 363.245 T
274.436 363.245 271.818 365.147 270.818 364.421 T
274.436 363.245 273.054 365.147 271.818 365.147 T
274.436 363.245 274.054 364.421 273.054 365.147 T
263.946 367.195 262.564 365.292 263.564 366.019 T
263.946 367.195 261.328 365.292 262.564 365.292 T
263.946 367.195 260.328 366.019 261.328 365.292 T
263.946 367.195 259.946 367.195 260.328 366.019 T
263.946 367.195 260.328 368.37 259.946 367.195 T
263.946 367.195 261.328 369.097 260.328 368.37 T
263.946 367.195 262.564 369.097 261.328 369.097 T
263.946 367.195 263.564 368.37 262.564 369.097 T
253.351 370.92 251.969 369.018 252.969 369.745 T
253.351 370.92 250.733 369.018 251.969 369.018 T
253.351 370.92 249.733 369.745 250.733 369.018 T
253.351 370.92 249.351 370.92 249.733 369.745 T
253.351 370.92 249.733 372.096 249.351 370.92 T
253.351 370.92 250.733 372.823 249.733 372.096 T
253.351 370.92 251.969 372.823 250.733 372.823 T
253.351 370.92 252.969 372.096 251.969 372.823 T
242.67 374.417 241.288 372.515 242.288 373.242 T
242.67 374.417 240.052 372.515 241.288 372.515 T
242.67 374.417 239.052 373.242 240.052 372.515 T
242.67 374.417 238.67 374.417 239.052 373.242 T
242.67 374.417 239.052 375.593 238.67 374.417 T
242.67 374.417 240.052 376.32 239.052 375.593 T
242.67 374.417 241.288 376.32 240.052 376.32 T
242.67 374.417 242.288 375.593 241.288 376.32 T
231.92 377.683 230.538 375.781 231.538 376.507 T
231.92 377.683 229.302 375.781 230.538 375.781 T
231.92 377.683 228.302 376.507 229.302 375.781 T
231.92 377.683 227.92 377.683 228.302 376.507 T
231.92 377.683 228.302 378.859 227.92 377.683 T
231.92 377.683 229.302 379.585 228.302 378.859 T
231.92 377.683 230.538 379.585 229.302 379.585 T
231.92 377.683 231.538 378.859 230.538 379.585 T
221.133 380.71 219.752 378.808 220.752 379.534 T
221.133 380.71 218.515 378.808 219.752 378.808 T
221.133 380.71 217.515 379.534 218.515 378.808 T
221.133 380.71 217.133 380.71 217.515 379.534 T
221.133 380.71 217.515 381.886 217.133 380.71 T
221.133 380.71 218.515 382.612 217.515 381.886 T
221.133 380.71 219.752 382.612 218.515 382.612 T
221.133 380.71 220.752 381.886 219.752 382.612 T
210.322 383.501 208.94 381.599 209.94 382.326 T
210.322 383.501 207.704 381.599 208.94 381.599 T
210.322 383.501 206.704 382.326 207.704 381.599 T
210.322 383.501 206.322 383.501 206.704 382.326 T
210.322 383.501 206.704 384.677 206.322 383.501 T
210.322 383.501 207.704 385.403 206.704 384.677 T
210.322 383.501 208.94 385.403 207.704 385.403 T
210.322 383.501 209.94 384.677 208.94 385.403 T
199.514 386.054 198.132 384.152 199.132 384.878 T
199.514 386.054 196.896 384.152 198.132 384.152 T
199.514 386.054 195.896 384.878 196.896 384.152 T
199.514 386.054 195.514 386.054 195.896 384.878 T
199.514 386.054 195.896 387.229 195.514 386.054 T
199.514 386.054 196.896 387.956 195.896 387.229 T
199.514 386.054 198.132 387.956 196.896 387.956 T
199.514 386.054 199.132 387.229 198.132 387.956 T
188.73 388.369 187.348 386.467 188.348 387.193 T
188.73 388.369 186.112 386.467 187.348 386.467 T
188.73 388.369 185.112 387.193 186.112 386.467 T
188.73 388.369 184.73 388.369 185.112 387.193 T
188.73 388.369 185.112 389.544 184.73 388.369 T
188.73 388.369 186.112 390.271 185.112 389.544 T
188.73 388.369 187.348 390.271 186.112 390.271 T
188.73 388.369 188.348 389.544 187.348 390.271 T
177.997 390.449 176.615 388.546 177.615 389.273 T
177.997 390.449 175.379 388.546 176.615 388.546 T
177.997 390.449 174.379 389.273 175.379 388.546 T
177.997 390.449 173.997 390.449 174.379 389.273 T
177.997 390.449 174.379 391.624 173.997 390.449 T
177.997 390.449 175.379 392.351 174.379 391.624 T
177.997 390.449 176.615 392.351 175.379 392.351 T
177.997 390.449 177.615 391.624 176.615 392.351 T
167.32 392.299 165.938 390.397 166.938 391.123 T
167.32 392.299 164.702 390.397 165.938 390.397 T
167.32 392.299 163.702 391.123 164.702 390.397 T
167.32 392.299 163.32 392.299 163.702 391.123 T
167.32 392.299 163.702 393.474 163.32 392.299 T
167.32 392.299 164.702 394.201 163.702 393.474 T
167.32 392.299 165.938 394.201 164.702 394.201 T
167.32 392.299 166.938 393.474 165.938 394.201 T
156.735 393.921 155.353 392.019 156.353 392.745 T
156.735 393.921 154.117 392.019 155.353 392.019 T
156.735 393.921 153.117 392.745 154.117 392.019 T
156.735 393.921 152.735 393.921 153.117 392.745 T
156.735 393.921 153.117 395.096 152.735 393.921 T
156.735 393.921 154.117 395.823 153.117 395.096 T
156.735 393.921 155.353 395.823 154.117 395.823 T
156.735 393.921 156.353 395.096 155.353 395.823 T
146.248 395.323 144.866 393.421 145.866 394.148 T
146.248 395.323 143.63 393.421 144.866 393.421 T
146.248 395.323 142.63 394.148 143.63 393.421 T
146.248 395.323 142.248 395.323 142.63 394.148 T
146.248 395.323 142.63 396.499 142.248 395.323 T
146.248 395.323 143.63 397.225 142.63 396.499 T
146.248 395.323 144.866 397.225 143.63 397.225 T
146.248 395.323 145.866 396.499 144.866 397.225 T
135.872 396.512 134.49 394.61 135.49 395.337 T
135.872 396.512 133.254 394.61 134.49 394.61 T
135.872 396.512 132.254 395.337 133.254 394.61 T
135.872 396.512 131.872 396.512 132.254 395.337 T
135.872 396.512 132.254 397.688 131.872 396.512 T
135.872 396.512 133.254 398.414 132.254 397.688 T
135.872 396.512 134.49 398.414 133.254 398.414 T
135.872 396.512 135.49 397.688 134.49 398.414 T
125.64 397.494 124.258 395.592 125.258 396.318 T
125.64 397.494 123.022 395.592 124.258 395.592 T
125.64 397.494 122.022 396.318 123.022 395.592 T
125.64 397.494 121.64 397.494 122.022 396.318 T
125.64 397.494 122.022 398.669 121.64 397.494 T
125.64 397.494 123.022 399.396 122.022 398.669 T
125.64 397.494 124.258 399.396 123.022 399.396 T
125.64 397.494 125.258 398.669 124.258 399.396 T
115.538 398.277 114.156 396.375 115.156 397.102 T
115.538 398.277 112.92 396.375 114.156 396.375 T
115.538 398.277 111.92 397.102 112.92 396.375 T
115.538 398.277 111.538 398.277 111.92 397.102 T
115.538 398.277 111.92 399.453 111.538 398.277 T
115.538 398.277 112.92 400.179 111.92 399.453 T
115.538 398.277 114.156 400.179 112.92 400.179 T
115.538 398.277 115.156 399.453 114.156 400.179 T
105.625 398.869 104.243 396.967 105.243 397.694 T
105.625 398.869 103.007 396.967 104.243 396.967 T
105.625 398.869 102.007 397.694 103.007 396.967 T
105.625 398.869 101.625 398.869 102.007 397.694 T
105.625 398.869 102.007 400.045 101.625 398.869 T
105.625 398.869 103.007 400.772 102.007 400.045 T
105.625 398.869 104.243 400.772 103.007 400.772 T
105.625 398.869 105.243 400.045 104.243 400.772 T
95.8348 399.282 94.4529 397.38 95.4528 398.107 T
95.8348 399.282 93.2168 397.38 94.4529 397.38 T
95.8348 399.282 92.2168 398.107 93.2168 397.38 T
95.8348 399.282 91.8348 399.282 92.2168 398.107 T
95.8348 399.282 92.2168 400.458 91.8348 399.282 T
95.8348 399.282 93.2168 401.184 92.2168 400.458 T
95.8348 399.282 94.4529 401.184 93.2168 401.184 T
95.8348 399.282 95.4528 400.458 94.4529 401.184 T
86.2775 399.522 84.8955 397.62 85.8955 398.346 T
86.2775 399.522 83.6594 397.62 84.8955 397.62 T
86.2775 399.522 82.6594 398.346 83.6594 397.62 T
86.2775 399.522 82.2775 399.522 82.6594 398.346 T
86.2775 399.522 82.6594 400.697 82.2775 399.522 T
86.2775 399.522 83.6594 401.424 82.6594 400.697 T
86.2775 399.522 84.8955 401.424 83.6594 401.424 T
86.2775 399.522 85.8955 400.697 84.8955 401.424 T
78.5762 399.597 77.1943 397.695 78.1943 398.422 T
78.5762 399.597 75.9582 397.695 77.1943 397.695 T
78.5762 399.597 74.9582 398.422 75.9582 397.695 T
78.5762 399.597 74.5763 399.597 74.9582 398.422 T
78.5762 399.597 74.9582 400.773 74.5763 399.597 T
78.5762 399.597 75.9582 401.499 74.9582 400.773 T
78.5762 399.597 77.1943 401.499 75.9582 401.499 T
78.5762 399.597 78.1943 400.773 77.1943 401.499 T
grestore
showpage
cleartomark
%%PageTrailer
%%Trailer
end
%%EOF
