%!PS-Adobe-3.0 EPSF-3.0
%%Title: glps_renderer figure
%%Creator: GL2PS 1.3.8, (C) 1999-2012 C. Geuzaine
%%For: Octave
%%CreationDate: Thu May 14 22:29:03 2015
%%LanguageLevel: 3
%%DocumentData: Clean7Bit
%%Pages: 1
%%BoundingBox: 0 0 560 420
%%EndComments
%%BeginProlog
/gl2psdict 64 dict def gl2psdict begin
0 setlinecap 0 setlinejoin
/tryPS3shading false def % set to false to force subdivision
/rThreshold 0.064 def % red component subdivision threshold
/gThreshold 0.034 def % green component subdivision threshold
/bThreshold 0.1 def % blue component subdivision threshold
/BD { bind def } bind def
/C  { setrgbcolor } BD
/G  { 0.082 mul exch 0.6094 mul add exch 0.3086 mul add neg 1.0 add setgray } BD
/W  { setlinewidth } BD
/FC { findfont exch /SH exch def SH scalefont setfont } BD
/SW { dup stringwidth pop } BD
/S  { FC moveto show } BD
/SBC{ FC moveto SW -2 div 0 rmoveto show } BD
/SBR{ FC moveto SW neg 0 rmoveto show } BD
/SCL{ FC moveto 0 SH -2 div rmoveto show } BD
/SCC{ FC moveto SW -2 div SH -2 div rmoveto show } BD
/SCR{ FC moveto SW neg SH -2 div rmoveto show } BD
/STL{ FC moveto 0 SH neg rmoveto show } BD
/STC{ FC moveto SW -2 div SH neg rmoveto show } BD
/STR{ FC moveto SW neg SH neg rmoveto show } BD
/FCT { FC translate 0 0 } BD
/SR  { gsave FCT moveto rotate show grestore } BD
/SBCR{ gsave FCT moveto rotate SW -2 div 0 rmoveto show grestore } BD
/SBRR{ gsave FCT moveto rotate SW neg 0 rmoveto show grestore } BD
/SCLR{ gsave FCT moveto rotate 0 SH -2 div rmoveto show grestore} BD
/SCCR{ gsave FCT moveto rotate SW -2 div SH -2 div rmoveto show grestore} BD
/SCRR{ gsave FCT moveto rotate SW neg SH -2 div rmoveto show grestore} BD
/STLR{ gsave FCT moveto rotate 0 SH neg rmoveto show grestore } BD
/STCR{ gsave FCT moveto rotate SW -2 div SH neg rmoveto show grestore } BD
/STRR{ gsave FCT moveto rotate SW neg SH neg rmoveto show grestore } BD
/P  { newpath 0.0 360.0 arc closepath fill } BD
/LS { newpath moveto } BD
/L  { lineto } BD
/LE { lineto stroke } BD
/T  { newpath moveto lineto lineto closepath fill } BD
/STshfill {
      /b1 exch def /g1 exch def /r1 exch def /y1 exch def /x1 exch def
      /b2 exch def /g2 exch def /r2 exch def /y2 exch def /x2 exch def
      /b3 exch def /g3 exch def /r3 exch def /y3 exch def /x3 exch def
      gsave << /ShadingType 4 /ColorSpace [/DeviceRGB]
      /DataSource [ 0 x1 y1 r1 g1 b1 0 x2 y2 r2 g2 b2 0 x3 y3 r3 g3 b3 ] >>
      shfill grestore } BD
/Tm { 3 -1 roll 8 -1 roll 13 -1 roll add add 3 div
      3 -1 roll 7 -1 roll 11 -1 roll add add 3 div
      3 -1 roll 6 -1 roll 9 -1 roll add add 3 div C T } BD
/STsplit {
      4 index 15 index add 0.5 mul
      4 index 15 index add 0.5 mul
      4 index 15 index add 0.5 mul
      4 index 15 index add 0.5 mul
      4 index 15 index add 0.5 mul
      5 copy 5 copy 25 15 roll
      9 index 30 index add 0.5 mul
      9 index 30 index add 0.5 mul
      9 index 30 index add 0.5 mul
      9 index 30 index add 0.5 mul
      9 index 30 index add 0.5 mul
      5 copy 5 copy 35 5 roll 25 5 roll 15 5 roll
      4 index 10 index add 0.5 mul
      4 index 10 index add 0.5 mul
      4 index 10 index add 0.5 mul
      4 index 10 index add 0.5 mul
      4 index 10 index add 0.5 mul
      5 copy 5 copy 40 5 roll 25 5 roll 15 5 roll 25 5 roll
      STnoshfill STnoshfill STnoshfill STnoshfill } BD
/STnoshfill {
      2 index 8 index sub abs rThreshold gt
      { STsplit }
      { 1 index 7 index sub abs gThreshold gt
        { STsplit }
        { dup 6 index sub abs bThreshold gt
          { STsplit }
          { 2 index 13 index sub abs rThreshold gt
            { STsplit }
            { 1 index 12 index sub abs gThreshold gt
              { STsplit }
              { dup 11 index sub abs bThreshold gt
                { STsplit }
                { 7 index 13 index sub abs rThreshold gt
                  { STsplit }
                  { 6 index 12 index sub abs gThreshold gt
                    { STsplit }
                    { 5 index 11 index sub abs bThreshold gt
                      { STsplit }
                      { Tm }
                      ifelse }
                    ifelse }
                  ifelse }
                ifelse }
              ifelse }
            ifelse }
          ifelse }
        ifelse }
      ifelse } BD
tryPS3shading
{ /shfill where
  { /ST { STshfill } BD }
  { /ST { STnoshfill } BD }
  ifelse }
{ /ST { STnoshfill } BD }
ifelse
end
%%EndProlog
%%BeginSetup
/DeviceRGB setcolorspace
gl2psdict begin
%%EndSetup
%%Page: 1 1
%%BeginPageSetup
%%EndPageSetup
mark
gsave
1.0 1.0 scale
1 1 1 C
72.8 132.847 506.8 112.686 261.231 46.2 T
72.8 132.847 318.369 199.333 506.8 112.686 T
506.8 112.686 318.369 388.5 506.8 301.853 T
506.8 112.686 318.369 199.333 318.369 388.5 T
0.5 W
[16 0] 0 setdash
0 0 0 C
70.0399 134.116 LS
62.9306 137.385 LE
(0) 58.3825 139.476 10 /Helvetica SBR
70.0399 165.644 LS
62.9306 168.913 LE
(1) 58.3825 171.004 10 /Helvetica SBR
(2) 58.3825 202.532 10 /Helvetica SBR
1 1 1 C
72.8 132.847 318.369 388.5 236.805 366.417 T
72.8 188.804 72.8 132.847 236.805 366.417 T
72.8 132.847 318.369 199.333 318.369 388.5 T
0 0 1 C
247.725 156.877 246.343 154.975 247.343 155.701 T
247.725 156.877 245.107 154.975 246.343 154.975 T
247.725 156.877 244.107 155.701 245.107 154.975 T
247.725 156.877 243.725 156.877 244.107 155.701 T
247.725 156.877 244.107 158.052 243.725 156.877 T
247.725 156.877 245.107 158.779 244.107 158.052 T
247.725 156.877 246.343 158.779 245.107 158.779 T
247.725 156.877 247.343 158.052 246.343 158.779 T
0 0 0 C
416.602 154.162 LS
318.369 199.333 LE
151.529 154.162 LS
318.369 199.333 LE
318.369 334.845 LS
318.369 199.333 LE
0 0 1 C
305.068 155.197 303.686 153.295 304.686 154.021 T
305.068 155.197 302.45 153.295 303.686 153.295 T
305.068 155.197 301.45 154.021 302.45 153.295 T
305.068 155.197 301.068 155.197 301.45 154.021 T
305.068 155.197 301.45 156.372 301.068 155.197 T
305.068 155.197 302.45 157.099 301.45 156.372 T
305.068 155.197 303.686 157.099 302.45 157.099 T
305.068 155.197 304.686 156.372 303.686 157.099 T
0 0 0 C
422.447 151.475 LS
416.602 154.162 LE
141.603 151.475 LS
151.529 154.162 LE
318.369 342.908 LS
318.369 334.845 LE
0 0 1 C
183.615 152.57 182.234 150.668 183.234 151.394 T
183.615 152.57 180.997 150.668 182.234 150.668 T
183.615 152.57 179.997 151.394 180.997 150.668 T
183.615 152.57 179.615 152.57 179.997 151.394 T
183.615 152.57 179.997 153.745 179.615 152.57 T
183.615 152.57 180.997 154.472 179.997 153.745 T
183.615 152.57 182.234 154.472 180.997 154.472 T
183.615 152.57 183.234 153.745 182.234 154.472 T
260.426 167.471 259.044 165.569 260.044 166.296 T
260.426 167.471 257.808 165.569 259.044 165.569 T
260.426 167.471 256.808 166.296 257.808 165.569 T
260.426 167.471 256.426 167.471 256.808 166.296 T
260.426 167.471 256.808 168.647 256.426 167.471 T
260.426 167.471 257.808 169.373 256.808 168.647 T
260.426 167.471 259.044 169.373 257.808 169.373 T
260.426 167.471 260.044 168.647 259.044 169.373 T
0 0 0 C
422.447 151.475 LS
426.091 149.799 LE
141.603 151.475 LS
135.414 149.799 LE
318.369 342.908 LS
318.369 347.935 LE
0 0 1 C
358.194 151.223 356.812 149.321 357.812 150.048 T
358.194 151.223 355.576 149.321 356.812 149.321 T
358.194 151.223 354.576 150.048 355.576 149.321 T
358.194 151.223 354.194 151.223 354.576 150.048 T
358.194 151.223 354.576 152.399 354.194 151.223 T
358.194 151.223 355.576 153.125 354.576 152.399 T
358.194 151.223 356.812 153.125 355.576 153.125 T
358.194 151.223 357.812 152.399 356.812 153.125 T
0 0 0 C
427.586 149.111 LS
426.091 149.799 LE
132.874 149.111 LS
135.414 149.799 LE
318.369 349.998 LS
318.369 347.935 LE
0 0 1 C
325.644 164.551 324.262 162.649 325.262 163.376 T
325.644 164.551 323.026 162.649 324.262 162.649 T
325.644 164.551 322.026 163.376 323.026 162.649 T
325.644 164.551 321.644 164.551 322.026 163.376 T
325.644 164.551 322.026 165.727 321.644 164.551 T
325.644 164.551 323.026 166.454 322.026 165.727 T
325.644 164.551 324.262 166.454 323.026 166.454 T
325.644 164.551 325.262 165.727 324.262 166.454 T
0 0 0 C
128.17 147.838 LS
132.874 149.111 LE
0 0 1 C
190.865 165.029 189.483 163.127 190.483 163.853 T
190.865 165.029 188.247 163.127 189.483 163.127 T
190.865 165.029 187.247 163.853 188.247 163.127 T
190.865 165.029 186.865 165.029 187.247 163.853 T
190.865 165.029 187.247 166.205 186.865 165.029 T
190.865 165.029 188.247 166.931 187.247 166.205 T
190.865 165.029 189.483 166.931 188.247 166.931 T
190.865 165.029 190.483 166.205 189.483 166.931 T
0 0 0 C
128.17 147.838 LS
118.785 145.297 LE
427.586 149.111 LS
435.882 145.297 LE
318.369 349.998 LS
318.369 361.441 LE
0 0 1 C
391.386 146.596 390.005 144.694 391.005 145.421 T
391.386 146.596 388.768 144.694 390.005 144.694 T
391.386 146.596 387.768 145.421 388.768 144.694 T
391.386 146.596 387.386 146.596 387.768 145.421 T
391.386 146.596 387.768 147.772 387.386 146.596 T
391.386 146.596 388.768 148.499 387.768 147.772 T
391.386 146.596 390.005 148.499 388.768 148.499 T
391.386 146.596 391.005 147.772 390.005 148.499 T
279.76 181.121 278.378 179.219 279.378 179.946 T
279.76 181.121 277.142 179.219 278.378 179.219 T
279.76 181.121 276.142 179.946 277.142 179.219 T
279.76 181.121 275.76 181.121 276.142 179.946 T
279.76 181.121 276.142 182.297 275.76 181.121 T
279.76 181.121 277.142 183.023 276.142 182.297 T
279.76 181.121 278.378 183.023 277.142 183.023 T
279.76 181.121 279.378 182.297 278.378 183.023 T
0 0 0 C
437.162 144.708 LS
435.882 145.297 LE
116.61 144.708 LS
118.785 145.297 LE
318.369 363.208 LS
318.369 361.441 LE
0 0 1 C
131.596 146.091 130.214 144.189 131.214 144.916 T
131.596 146.091 128.978 144.189 130.214 144.189 T
131.596 146.091 127.978 144.916 128.978 144.189 T
131.596 146.091 127.596 146.091 127.978 144.916 T
131.596 146.091 127.978 147.267 127.596 146.091 T
131.596 146.091 128.978 147.993 127.978 147.267 T
131.596 146.091 130.214 147.993 128.978 147.993 T
131.596 146.091 131.214 147.267 130.214 147.993 T
0 0 0 C
438.36 144.157 LS
437.162 144.708 LE
114.575 144.157 LS
116.61 144.708 LE
318.369 364.861 LS
318.369 363.208 LE
0 0 1 C
376.021 158.436 374.639 156.534 375.639 157.26 T
376.021 158.436 373.403 156.534 374.639 156.534 T
376.021 158.436 372.403 157.26 373.403 156.534 T
376.021 158.436 372.021 158.436 372.403 157.26 T
376.021 158.436 372.403 159.611 372.021 158.436 T
376.021 158.436 373.403 160.338 372.403 159.611 T
376.021 158.436 374.639 160.338 373.403 160.338 T
376.021 158.436 375.639 159.611 374.639 160.338 T
0 0 0 C
442.851 142.092 LS
438.36 144.157 LE
106.948 142.092 LS
114.575 144.157 LE
318.369 371.056 LS
318.369 364.861 LE
0 0 1 C
206.314 180.317 204.932 178.415 205.932 179.141 T
206.314 180.317 203.696 178.415 204.932 178.415 T
206.314 180.317 202.696 179.141 203.696 178.415 T
206.314 180.317 202.314 180.317 202.696 179.141 T
206.314 180.317 202.696 181.492 202.314 180.317 T
206.314 180.317 203.696 182.219 202.696 181.492 T
206.314 180.317 204.932 182.219 203.696 182.219 T
206.314 180.317 205.932 181.492 204.932 182.219 T
345.448 175.686 344.066 173.784 345.066 174.51 T
345.448 175.686 342.83 173.784 344.066 173.784 T
345.448 175.686 341.83 174.51 342.83 173.784 T
345.448 175.686 341.448 175.686 341.83 174.51 T
345.448 175.686 341.83 176.862 341.448 175.686 T
345.448 175.686 342.83 177.588 341.83 176.862 T
345.448 175.686 344.066 177.588 342.83 177.588 T
345.448 175.686 345.066 176.862 344.066 177.588 T
0 0 0 C
442.851 142.092 LS
447.861 139.788 LE
106.948 142.092 LS
98.439 139.788 LE
318.369 371.056 LS
318.369 377.967 LE
0 0 1 C
128.877 157.793 127.495 155.891 128.495 156.617 T
128.877 157.793 126.259 155.891 127.495 155.891 T
128.877 157.793 125.259 156.617 126.259 155.891 T
128.877 157.793 124.877 157.793 125.259 156.617 T
128.877 157.793 125.259 158.968 124.877 157.793 T
128.877 157.793 126.259 159.695 125.259 158.968 T
128.877 157.793 127.495 159.695 126.259 159.695 T
128.877 157.793 128.495 158.968 127.495 159.695 T
0 0 0 C
447.861 139.788 LS
452.739 137.545 LE
98.439 139.788 LS
90.1538 137.545 LE
318.369 377.967 LS
318.369 384.696 LE
0 0 1 C
417.035 150.634 415.653 148.732 416.653 149.459 T
417.035 150.634 414.417 148.732 415.653 148.732 T
417.035 150.634 413.417 149.459 414.417 148.732 T
417.035 150.634 413.035 150.634 413.417 149.459 T
417.035 150.634 413.417 151.81 413.035 150.634 T
417.035 150.634 414.417 152.536 413.417 151.81 T
417.035 150.634 415.653 152.536 414.417 152.536 T
417.035 150.634 416.653 151.81 415.653 152.536 T
0 0 0 C
452.739 137.545 LS
453.289 137.292 LE
90.1538 137.545 LS
89.2206 137.292 LE
318.369 384.696 LS
318.369 385.454 LE
0 0 1 C
431.287 139.795 429.905 137.893 430.905 138.62 T
431.287 139.795 428.669 137.893 429.905 137.893 T
431.287 139.795 427.669 138.62 428.669 137.893 T
431.287 139.795 427.287 139.795 427.669 138.62 T
431.287 139.795 427.669 140.971 427.287 139.795 T
431.287 139.795 428.669 141.698 427.669 140.971 T
431.287 139.795 429.905 141.698 428.669 141.698 T
431.287 139.795 430.905 140.971 429.905 141.698 T
0 0 0 C
88.643 137.136 LS
89.2206 137.292 LE
0 0 1 C
302.769 194.967 301.387 193.065 302.387 193.792 T
302.769 194.967 300.151 193.065 301.387 193.065 T
302.769 194.967 299.151 193.792 300.151 193.065 T
302.769 194.967 298.769 194.967 299.151 193.792 T
302.769 194.967 299.151 196.143 298.769 194.967 T
302.769 194.967 300.151 196.869 299.151 196.143 T
302.769 194.967 301.387 196.869 300.151 196.869 T
302.769 194.967 302.387 196.143 301.387 196.869 T
0 0 0 C
88.643 137.136 LS
85.8829 136.389 LE
455.254 136.389 LS
453.289 137.292 LE
318.369 388.165 LS
318.369 385.454 LE
0 0 1 C
396.921 166.265 395.539 164.363 396.539 165.09 T
396.921 166.265 394.303 164.363 395.539 164.363 T
396.921 166.265 393.303 165.09 394.303 164.363 T
396.921 166.265 392.921 166.265 393.303 165.09 T
396.921 166.265 393.303 167.441 392.921 166.265 T
396.921 166.265 394.303 168.167 393.303 167.441 T
396.921 166.265 395.539 168.167 394.303 168.167 T
396.921 166.265 396.539 167.441 395.539 168.167 T
0 0 0 C
455.254 136.389 LS
457.144 135.52 LE
85.8829 136.389 LS
82.6731 135.52 LE
318.369 388.165 LS
318.369 388.5 LE
0 0 1 C
222.064 196.627 220.682 194.725 221.682 195.451 T
222.064 196.627 219.446 194.725 220.682 194.725 T
222.064 196.627 218.446 195.451 219.446 194.725 T
222.064 196.627 218.064 196.627 218.446 195.451 T
222.064 196.627 218.446 197.802 218.064 196.627 T
222.064 196.627 219.446 198.529 218.446 197.802 T
222.064 196.627 220.682 198.529 219.446 198.529 T
222.064 196.627 221.682 197.802 220.682 198.529 T
0 0 0 C
320.016 387.743 LS
318.369 388.5 LE
315.571 387.743 LS
318.369 388.5 LE
0 0 1 C
89.3701 139.64 87.9882 137.738 88.9882 138.464 T
89.3701 139.64 86.7521 137.738 87.9882 137.738 T
89.3701 139.64 85.7521 138.464 86.7521 137.738 T
89.3701 139.64 85.3701 139.64 85.7521 138.464 T
89.3701 139.64 85.7521 140.815 85.3701 139.64 T
89.3701 139.64 86.7521 141.542 85.7521 140.815 T
89.3701 139.64 87.9882 141.542 86.7521 141.542 T
89.3701 139.64 88.9882 140.815 87.9882 141.542 T
0 0 0 C
458.535 134.88 LS
457.144 135.52 LE
80.3102 134.88 LS
82.6731 135.52 LE
321.407 387.103 LS
320.016 387.743 LE
313.208 387.103 LS
315.571 387.743 LE
0 0 1 C
132.856 171.344 131.475 169.442 132.475 170.168 T
132.856 171.344 130.238 169.442 131.475 169.442 T
132.856 171.344 129.238 170.168 130.238 169.442 T
132.856 171.344 128.857 171.344 129.238 170.168 T
132.856 171.344 129.238 172.52 128.857 171.344 T
132.856 171.344 130.238 173.246 129.238 172.52 T
132.856 171.344 131.475 173.246 130.238 173.246 T
132.856 171.344 132.475 172.52 131.475 173.246 T
0 0 0 C
462.406 133.1 LS
458.535 134.88 LE
73.7361 133.1 LS
80.3102 134.88 LE
72.2488 133.1 LS
70.0399 134.116 LE
325.278 385.323 LS
321.407 387.103 LE
306.634 385.323 LS
313.208 387.103 LE
0 0 1 C
370.085 185.402 368.703 183.5 369.703 184.227 T
370.085 185.402 367.467 183.5 368.703 183.5 T
370.085 185.402 366.467 184.227 367.467 183.5 T
370.085 185.402 366.085 185.402 366.467 184.227 T
370.085 185.402 366.467 186.578 366.085 185.402 T
370.085 185.402 367.467 187.304 366.467 186.578 T
370.085 185.402 368.703 187.304 367.467 187.304 T
370.085 185.402 369.703 186.578 368.703 187.304 T
0 0 0 C
76.1236 131.318 LS
72.8 132.847 LE
462.406 133.1 LS
466.281 131.318 LE
73.7361 133.1 LS
72.8 132.847 LE
67.1551 131.318 LS
72.8 132.847 LE
72.2488 133.1 LS
72.8 132.847 LE
0 0 1 C
81.3562 143.248 79.9743 141.346 80.9743 142.073 T
81.3562 143.248 78.7382 141.346 79.9743 141.346 T
81.3562 143.248 77.7382 142.073 78.7382 141.346 T
81.3562 143.248 77.3563 143.248 77.7382 142.073 T
81.3562 143.248 77.7382 144.424 77.3563 143.248 T
81.3562 143.248 78.7382 145.15 77.7382 144.424 T
81.3562 143.248 79.9743 145.15 78.7382 145.15 T
81.3562 143.248 80.9743 144.424 79.9743 145.15 T
0 0 0 C
72.8 137.432 LS
72.8 132.847 LE
325.278 385.323 LS
329.153 383.541 LE
306.634 385.323 LS
300.053 383.541 LE
0 0 1 C
446.136 142.753 444.754 140.851 445.754 141.578 T
446.136 142.753 443.518 140.851 444.754 140.851 T
446.136 142.753 442.518 141.578 443.518 140.851 T
446.136 142.753 442.136 142.753 442.518 141.578 T
446.136 142.753 442.518 143.929 442.136 142.753 T
446.136 142.753 443.518 144.656 442.518 143.929 T
446.136 142.753 444.754 144.656 443.518 144.656 T
446.136 142.753 445.754 143.929 444.754 144.656 T
0 0 0 C
67.1551 131.318 LS
62.8957 130.165 LE
76.1236 131.318 LS
78.6316 130.165 LE
72.8 137.432 LS
72.8 140.891 LE
466.281 131.318 LS
468.789 130.165 LE
329.153 383.541 LS
331.661 382.388 LE
300.053 383.541 LS
295.793 382.388 LE
0 0 1 C
458.142 133.656 456.76 131.754 457.76 132.481 T
458.142 133.656 455.524 131.754 456.76 131.754 T
458.142 133.656 454.524 132.481 455.524 131.754 T
458.142 133.656 454.142 133.656 454.524 132.481 T
458.142 133.656 454.524 134.832 454.142 133.656 T
458.142 133.656 455.524 135.559 454.524 134.832 T
458.142 133.656 456.76 135.559 455.524 135.559 T
458.142 133.656 457.76 134.832 456.76 135.559 T
0 0 0 C
62.8957 130.165 LS
62.339 130.014 LE
79.2976 129.859 LS
78.6316 130.165 LE
72.8 141.81 LS
72.8 140.891 LE
332.327 382.082 LS
331.661 382.388 LE
294.662 382.082 LS
295.793 382.388 LE
0 0 1 C
434.533 156.237 433.151 154.335 434.151 155.062 T
434.533 156.237 431.915 154.335 433.151 154.335 T
434.533 156.237 430.915 155.062 431.915 154.335 T
434.533 156.237 430.533 156.237 430.915 155.062 T
434.533 156.237 430.915 157.413 430.533 156.237 T
434.533 156.237 431.915 158.139 430.915 157.413 T
434.533 156.237 433.151 158.139 431.915 158.139 T
434.533 156.237 434.151 157.413 433.151 158.139 T
0 0 0 C
(4) 57.5182 128.709 10 /Helvetica STR
85.3974 127.054 LS
79.2976 129.859 LE
0 0 1 C
143.185 188.208 141.803 186.306 142.803 187.033 T
143.185 188.208 140.567 186.306 141.803 186.306 T
143.185 188.208 139.567 187.033 140.567 186.306 T
143.185 188.208 139.185 188.208 139.567 187.033 T
143.185 188.208 139.567 189.384 139.185 188.208 T
143.185 188.208 140.567 190.11 139.567 189.384 T
143.185 188.208 141.803 190.11 140.567 190.11 T
143.185 188.208 142.803 189.384 141.803 190.11 T
0 0 0 C
72.8 150.225 LS
72.8 141.81 LE
475.554 127.054 LS
469.455 129.859 LE
338.427 379.277 LS
332.327 382.082 LE
284.302 379.277 LS
294.662 382.082 LE
0 0 1 C
418.706 172.959 417.324 171.057 418.324 171.784 T
418.706 172.959 416.088 171.057 417.324 171.057 T
418.706 172.959 415.088 171.784 416.088 171.057 T
418.706 172.959 414.706 172.959 415.088 171.784 T
418.706 172.959 415.088 174.135 414.706 172.959 T
418.706 172.959 416.088 174.861 415.088 174.135 T
418.706 172.959 417.324 174.861 416.088 174.861 T
418.706 172.959 418.324 174.135 417.324 174.861 T
0 0 0 C
85.3974 127.054 LS
86.656 126.475 LE
72.8 150.225 LS
72.8 151.961 LE
475.554 127.054 LS
476.813 126.475 LE
0 0 1 C
327.006 208.381 325.624 206.479 326.624 207.206 T
327.006 208.381 324.388 206.479 325.624 206.479 T
327.006 208.381 323.388 207.206 324.388 206.479 T
327.006 208.381 323.006 208.381 323.388 207.206 T
327.006 208.381 323.388 209.557 323.006 208.381 T
327.006 208.381 324.388 210.283 323.388 209.557 T
327.006 208.381 325.624 210.283 324.388 210.283 T
327.006 208.381 326.624 209.557 325.624 210.283 T
0 0 0 C
338.427 379.277 LS
339.685 378.698 LE
284.302 379.277 LS
282.165 378.698 LE
0 0 1 C
471.256 128.876 469.874 126.974 470.874 127.7 T
471.256 128.876 468.638 126.974 469.874 126.974 T
471.256 128.876 467.638 127.7 468.638 126.974 T
471.256 128.876 467.256 128.876 467.638 127.7 T
471.256 128.876 467.638 130.051 467.256 128.876 T
471.256 128.876 468.638 130.778 467.638 130.051 T
471.256 128.876 469.874 130.778 468.638 130.778 T
471.256 128.876 470.874 130.051 469.874 130.778 T
0 0 0 C
88.4999 125.627 LS
86.656 126.475 LE
0 0 1 C
243.44 214.162 242.058 212.26 243.058 212.986 T
243.44 214.162 240.822 212.26 242.058 212.26 T
243.44 214.162 239.822 212.986 240.822 212.26 T
243.44 214.162 239.44 214.162 239.822 212.986 T
243.44 214.162 239.822 215.337 239.44 214.162 T
243.44 214.162 240.822 216.064 239.822 215.337 T
243.44 214.162 242.058 216.064 240.822 216.064 T
243.44 214.162 243.058 215.337 242.058 216.064 T
0 0 0 C
72.8 154.505 LS
72.8 151.961 LE
478.657 125.627 LS
476.813 126.475 LE
341.529 377.85 LS
339.685 378.698 LE
279.033 377.85 LS
282.165 378.698 LE
0 0 1 C
81.6004 157.388 80.2184 155.486 81.2184 156.212 T
81.6004 157.388 78.9824 155.486 80.2184 155.486 T
81.6004 157.388 77.9824 156.212 78.9824 155.486 T
81.6004 157.388 77.6004 157.388 77.9824 156.212 T
81.6004 157.388 77.9824 158.563 77.6004 157.388 T
81.6004 157.388 78.9824 159.29 77.9824 158.563 T
81.6004 157.388 80.2184 159.29 78.9824 159.29 T
81.6004 157.388 81.2184 158.563 80.2184 159.29 T
0 0 0 C
88.4999 125.627 LS
90.3216 124.79 LE
72.8 154.505 LS
72.8 157.018 LE
478.657 125.627 LS
480.479 124.79 LE
341.529 377.85 LS
343.351 377.012 LE
279.033 377.85 LS
275.939 377.012 LE
0 0 1 C
469.553 135.587 468.171 133.685 469.171 134.411 T
469.553 135.587 466.935 133.685 468.171 133.685 T
469.553 135.587 465.935 134.411 466.935 133.685 T
469.553 135.587 465.553 135.587 465.935 134.411 T
469.553 135.587 465.935 136.762 465.553 135.587 T
469.553 135.587 466.935 137.489 465.935 136.762 T
469.553 135.587 468.171 137.489 466.935 137.489 T
469.553 135.587 469.171 136.762 468.171 137.489 T
0 0 0 C
92.9078 123.6 LS
90.3216 124.79 LE
70.0532 165.638 LS
70.0399 165.644 LE
72.8 160.585 LS
72.8 157.018 LE
483.065 123.6 LS
480.479 124.79 LE
345.937 375.823 LS
343.351 377.012 LE
271.547 375.823 LS
275.939 377.012 LE
0 0 1 C
462.074 146.476 460.693 144.574 461.693 145.3 T
462.074 146.476 459.456 144.574 460.693 144.574 T
462.074 146.476 458.456 145.3 459.456 144.574 T
462.074 146.476 458.074 146.476 458.456 145.3 T
462.074 146.476 458.456 147.652 458.074 146.476 T
462.074 146.476 459.456 148.378 458.456 147.652 T
462.074 146.476 460.693 148.378 459.456 148.378 T
462.074 146.476 461.693 147.652 460.693 148.378 T
0 0 0 C
92.9078 123.6 LS
96.3587 122.014 LE
70.0532 165.638 LS
72.8 164.374 LE
72.8 160.585 LS
72.8 165.346 LE
483.065 123.6 LS
486.516 122.014 LE
0 0 1 C
392.447 194.515 391.065 192.613 392.065 193.34 T
392.447 194.515 389.829 192.613 391.065 192.613 T
392.447 194.515 388.829 193.34 389.829 192.613 T
392.447 194.515 388.447 194.515 388.829 193.34 T
392.447 194.515 388.829 195.691 388.447 194.515 T
392.447 194.515 389.829 196.418 388.829 195.691 T
392.447 194.515 391.065 196.418 389.829 196.418 T
392.447 194.515 392.065 195.691 391.065 196.418 T
0 0 0 C
345.937 375.823 LS
349.388 374.236 LE
271.547 375.823 LS
265.686 374.236 LE
0 0 1 C
483.149 126.134 481.767 124.232 482.767 124.958 T
483.149 126.134 480.531 124.232 481.767 124.232 T
483.149 126.134 479.531 124.958 480.531 124.232 T
483.149 126.134 479.149 126.134 479.531 124.958 T
483.149 126.134 479.531 127.309 479.149 126.134 T
483.149 126.134 480.531 128.036 479.531 127.309 T
483.149 126.134 481.767 128.036 480.531 128.036 T
483.149 126.134 482.767 127.309 481.767 128.036 T
0 0 0 C
100.055 120.314 LS
96.3587 122.014 LE
72.8 170.444 LS
72.8 165.346 LE
490.212 120.314 LS
486.516 122.014 LE
0 0 1 C
453.419 160.671 452.037 158.769 453.037 159.495 T
453.419 160.671 450.801 158.769 452.037 158.769 T
453.419 160.671 449.801 159.495 450.801 158.769 T
453.419 160.671 449.419 160.671 449.801 159.495 T
453.419 160.671 449.801 161.846 449.419 160.671 T
453.419 160.671 450.801 162.573 449.801 161.846 T
453.419 160.671 452.037 162.573 450.801 162.573 T
453.419 160.671 453.037 161.846 452.037 162.573 T
0 0 0 C
353.084 372.537 LS
349.388 374.236 LE
259.409 372.537 LS
265.686 374.236 LE
0 0 1 C
484.353 129.203 482.972 127.301 483.972 128.027 T
484.353 129.203 481.735 127.301 482.972 127.301 T
484.353 129.203 480.735 128.027 481.735 127.301 T
484.353 129.203 480.354 129.203 480.735 128.027 T
484.353 129.203 480.735 130.379 480.354 129.203 T
484.353 129.203 481.735 131.105 480.735 130.379 T
484.353 129.203 482.972 131.105 481.735 131.105 T
484.353 129.203 483.972 130.379 482.972 131.105 T
0 0 0 C
101.616 119.596 LS
100.055 120.314 LE
0 0 1 C
157.211 206.73 155.829 204.828 156.829 205.555 T
157.211 206.73 154.593 204.828 155.829 204.828 T
157.211 206.73 153.593 205.555 154.593 204.828 T
157.211 206.73 153.211 206.73 153.593 205.555 T
157.211 206.73 153.593 207.906 153.211 206.73 T
157.211 206.73 154.593 208.632 153.593 207.906 T
157.211 206.73 155.829 208.632 154.593 208.632 T
157.211 206.73 156.829 207.906 155.829 208.632 T
0 0 0 C
72.8 172.598 LS
72.8 170.444 LE
491.773 119.596 LS
490.212 120.314 LE
354.645 371.819 LS
353.084 372.537 LE
256.757 371.819 LS
259.409 372.537 LE
0 0 1 C
89.0402 174.442 87.6582 172.54 88.6582 173.266 T
89.0402 174.442 86.4221 172.54 87.6582 172.54 T
89.0402 174.442 85.4221 173.266 86.4221 172.54 T
89.0402 174.442 85.0402 174.442 85.4221 173.266 T
89.0402 174.442 85.4221 175.617 85.0402 174.442 T
89.0402 174.442 86.4221 176.344 85.4221 175.617 T
89.0402 174.442 87.6582 176.344 86.4221 176.344 T
89.0402 174.442 88.6582 175.617 87.6582 176.344 T
0 0 0 C
101.616 119.596 LS
104.92 118.077 LE
72.8 172.598 LS
72.8 177.156 LE
491.773 119.596 LS
495.077 118.077 LE
354.645 371.819 LS
357.949 370.3 LE
256.757 371.819 LS
251.145 370.299 LE
0 0 1 C
480.975 138.976 479.593 137.074 480.593 137.8 T
480.975 138.976 478.357 137.074 479.593 137.074 T
480.975 138.976 477.357 137.8 478.357 137.074 T
480.975 138.976 476.975 138.976 477.357 137.8 T
480.975 138.976 477.357 140.152 476.975 138.976 T
480.975 138.976 478.357 140.878 477.357 140.152 T
480.975 138.976 479.593 140.878 478.357 140.878 T
480.975 138.976 480.593 140.152 479.593 140.878 T
0 0 0 C
104.92 118.077 LS
107.517 116.883 LE
72.8 177.156 LS
72.8 180.738 LE
495.077 118.077 LS
497.674 116.883 LE
357.949 370.3 LS
360.546 369.106 LE
251.145 370.299 LS
246.735 369.106 LE
0 0 1 C
498.356 118.299 496.974 116.396 497.974 117.123 T
498.356 118.299 495.738 116.396 496.974 116.396 T
498.356 118.299 494.738 117.123 495.738 116.396 T
498.356 118.299 494.356 118.299 494.738 117.123 T
498.356 118.299 494.738 119.474 494.356 118.299 T
498.356 118.299 495.738 120.201 494.738 119.474 T
498.356 118.299 496.974 120.201 495.738 120.201 T
498.356 118.299 497.974 119.474 496.974 120.201 T
0 0 0 C
70.0399 197.171 LS
62.9306 200.441 LE
70.0399 228.699 LS
62.9306 231.968 LE
(3) 58.3825 234.06 10 /Helvetica SBR
70.0399 260.227 LS
62.9306 263.496 LE
(4) 58.3825 265.588 10 /Helvetica SBR
70.0399 291.755 LS
62.9306 295.024 LE
(5) 58.3825 297.115 10 /Helvetica SBR
70.0399 323.283 LS
62.9306 326.552 LE
(6) 58.3825 328.643 10 /Helvetica SBR
1 1 1 C
72.8 322.014 72.8 188.804 236.805 366.417 T
0 0 0 C
109.582 115.933 LS
107.517 116.883 LE
72.8 183.587 LS
72.8 180.738 LE
499.739 115.933 LS
497.674 116.883 LE
0 0 1 C
438.576 178.804 437.194 176.902 438.194 177.629 T
438.576 178.804 435.958 176.902 437.194 176.902 T
438.576 178.804 434.958 177.629 435.958 176.902 T
438.576 178.804 434.576 178.804 434.958 177.629 T
438.576 178.804 434.958 179.98 434.576 178.804 T
438.576 178.804 435.958 180.706 434.958 179.98 T
438.576 178.804 437.194 180.706 435.958 180.706 T
438.576 178.804 438.194 179.98 437.194 180.706 T
0 0 0 C
362.611 368.156 LS
360.546 369.106 LE
243.227 368.156 LS
246.735 369.106 LE
0 0 1 C
494.977 126.1 493.595 124.198 494.595 124.925 T
494.977 126.1 492.359 124.198 493.595 124.198 T
494.977 126.1 491.359 124.925 492.359 124.198 T
494.977 126.1 490.977 126.1 491.359 124.925 T
494.977 126.1 491.359 127.276 490.977 126.1 T
494.977 126.1 492.359 128.003 491.359 127.276 T
494.977 126.1 493.595 128.003 492.359 128.003 T
494.977 126.1 494.595 127.276 493.595 128.003 T
0 0 0 C
111.85 114.89 LS
109.582 115.933 LE
72.8 186.716 LS
72.8 183.587 LE
502.007 114.89 LS
499.739 115.933 LE
364.879 367.113 LS
362.611 368.156 LE
239.375 367.113 LS
243.227 368.156 LE
0 0 1 C
477.709 149.418 476.327 147.516 477.327 148.243 T
477.709 149.418 475.091 147.516 476.327 147.516 T
477.709 149.418 474.091 148.243 475.091 147.516 T
477.709 149.418 473.709 149.418 474.091 148.243 T
477.709 149.418 474.091 150.594 473.709 149.418 T
477.709 149.418 475.091 151.32 474.091 150.594 T
477.709 149.418 476.327 151.32 475.091 151.32 T
477.709 149.418 477.327 150.594 476.327 151.32 T
0 0 0 C
114.826 113.522 LS
111.85 114.89 LE
72.8 190.821 LS
72.8 186.716 LE
504.983 113.522 LS
502.007 114.89 LE
0 0 1 C
269.052 230.476 267.67 228.574 268.67 229.3 T
269.052 230.476 266.434 228.574 267.67 228.574 T
269.052 230.476 265.434 229.3 266.434 228.574 T
269.052 230.476 265.052 230.476 265.434 229.3 T
269.052 230.476 265.434 231.651 265.052 230.476 T
269.052 230.476 266.434 232.378 265.434 231.651 T
269.052 230.476 267.67 232.378 266.434 232.378 T
269.052 230.476 268.67 231.651 267.67 232.378 T
0 0 0 C
367.855 365.745 LS
364.879 367.113 LE
234.321 365.745 LS
239.375 367.113 LE
0 0 1 C
353.923 219.474 352.541 217.572 353.541 218.299 T
353.923 219.474 351.305 217.572 352.541 217.572 T
353.923 219.474 350.305 218.299 351.305 217.572 T
353.923 219.474 349.923 219.474 350.305 218.299 T
353.923 219.474 350.305 220.65 349.923 219.474 T
353.923 219.474 351.305 221.376 350.305 220.65 T
353.923 219.474 352.541 221.376 351.305 221.376 T
353.923 219.474 353.541 220.65 352.541 221.376 T
0 0 0 C
114.826 113.522 LS
116.5 112.752 LE
70.791 196.826 LS
70.0399 197.171 LE
72.8 190.821 LS
72.8 193.131 LE
504.983 113.522 LS
506.657 112.752 LE
367.855 365.745 LS
369.529 364.975 LE
234.321 365.745 LS
231.477 364.975 LE
0 0 1 C
496.604 131.682 495.222 129.78 496.222 130.506 T
496.604 131.682 493.986 129.78 495.222 129.78 T
496.604 131.682 492.986 130.506 493.986 129.78 T
496.604 131.682 492.604 131.682 492.986 130.506 T
496.604 131.682 492.986 132.858 492.604 131.682 T
496.604 131.682 493.986 133.584 492.986 132.858 T
496.604 131.682 495.222 133.584 493.986 133.584 T
496.604 131.682 496.222 132.858 495.222 133.584 T
0 0 0 C
116.837 112.597 LS
116.5 112.752 LE
71.1272 196.672 LS
70.791 196.826 LE
72.8 193.595 LS
72.8 193.131 LE
506.657 112.752 LS
506.8 112.686 LE
506.8 112.953 LS
506.8 112.686 LE
369.866 364.82 LS
369.529 364.975 LE
230.906 364.82 LS
231.477 364.975 LE
506.471 112.597 LS
506.8 112.686 LE
506.994 112.597 LS
506.8 112.686 LE
0 0 1 C
503.798 121.508 502.416 119.605 503.416 120.332 T
503.798 121.508 501.18 119.605 502.416 119.605 T
503.798 121.508 500.18 120.332 501.18 119.605 T
503.798 121.508 499.798 121.508 500.18 120.332 T
503.798 121.508 500.18 122.683 499.798 121.508 T
503.798 121.508 501.18 123.41 500.18 122.683 T
503.798 121.508 502.416 123.41 501.18 123.41 T
503.798 121.508 503.416 122.683 502.416 123.41 T
0 0 0 C
117.267 110.47 LS
119.908 111.185 LE
121.463 110.47 LS
116.837 112.597 LE
71.1272 196.672 LS
72.8 195.902 LE
72.8 199.977 LS
72.8 193.595 LE
506.8 119.335 LS
506.8 112.953 LE
374.492 362.693 LS
369.866 364.82 LE
223.049 362.693 LS
230.906 364.82 LE
498.614 110.47 LS
506.471 112.597 LE
511.62 110.47 LS
506.994 112.597 LE
0 0 1 C
469.934 164.723 468.552 162.821 469.552 163.547 T
469.934 164.723 467.316 162.821 468.552 162.821 T
469.934 164.723 466.316 163.547 467.316 162.821 T
469.934 164.723 465.934 164.723 466.316 163.547 T
469.934 164.723 466.316 165.898 465.934 164.723 T
469.934 164.723 467.316 166.625 466.316 165.898 T
469.934 164.723 468.552 166.625 467.316 166.625 T
469.934 164.723 469.552 165.898 468.552 166.625 T
0 0 0 C
113.16 109.358 LS
117.267 110.47 LE
123.881 109.358 LS
121.463 110.47 LE
72.8 202.504 LS
72.8 199.977 LE
0 0 1 C
415.831 201.284 414.449 199.382 415.449 200.108 T
415.831 201.284 413.213 199.382 414.449 199.382 T
415.831 201.284 412.213 200.108 413.213 199.382 T
415.831 201.284 411.831 201.284 412.213 200.108 T
415.831 201.284 412.213 202.459 411.831 201.284 T
415.831 201.284 413.213 203.186 412.213 202.459 T
415.831 201.284 414.449 203.186 413.213 203.186 T
415.831 201.284 415.449 202.459 414.449 203.186 T
0 0 0 C
72.8 202.504 LS
72.8 203.313 LE
506.8 122.671 LS
506.8 119.335 LE
376.91 361.581 LS
374.492 362.693 LE
218.942 361.581 LS
223.049 362.693 LE
494.507 109.358 LS
498.614 110.47 LE
514.038 109.358 LS
511.62 110.47 LE
0 0 1 C
87.2515 188.774 85.8695 186.872 86.8695 187.599 T
87.2515 188.774 84.6335 186.872 85.8695 186.872 T
87.2515 188.774 83.6335 187.599 84.6335 186.872 T
87.2515 188.774 83.2515 188.774 83.6335 187.599 T
87.2515 188.774 83.6335 189.95 83.2515 188.774 T
87.2515 188.774 84.6335 190.677 83.6335 189.95 T
87.2515 188.774 85.8695 190.677 84.6335 190.677 T
87.2515 188.774 86.8695 189.95 85.8695 190.677 T
0 0 0 C
113.16 109.358 LS
112.434 109.162 LE
123.881 109.358 LS
124.308 109.162 LE
72.8 203.313 LS
72.8 203.902 LE
506.8 122.671 LS
506.8 123.26 LE
376.91 361.581 LS
377.337 361.384 LE
218.942 361.581 LS
218.216 361.384 LE
494.507 109.358 LS
493.781 109.162 LE
514.038 109.358 LS
514.465 109.162 LE
0 0 1 C
495.252 141.15 493.87 139.248 494.87 139.975 T
495.252 141.15 492.634 139.248 493.87 139.248 T
495.252 141.15 491.634 139.975 492.634 139.248 T
495.252 141.15 491.252 141.15 491.634 139.975 T
495.252 141.15 491.634 142.326 491.252 141.15 T
495.252 141.15 492.634 143.052 491.634 142.326 T
495.252 141.15 493.87 143.052 492.634 143.052 T
495.252 141.15 494.87 142.326 493.87 143.052 T
0 0 0 C
112.434 109.162 LS
109.447 108.353 LE
124.308 109.162 LS
127.876 107.521 LE
0 0 1 C
173.585 225.72 172.203 223.818 173.203 224.544 T
173.585 225.72 170.967 223.818 172.203 223.818 T
173.585 225.72 169.967 224.544 170.967 223.818 T
173.585 225.72 169.585 225.72 169.967 224.544 T
173.585 225.72 169.967 226.895 169.585 225.72 T
173.585 225.72 170.967 227.622 169.967 226.895 T
173.585 225.72 172.203 227.622 170.967 227.622 T
173.585 225.72 173.203 226.895 172.203 227.622 T
0 0 0 C
72.8 203.902 LS
72.8 208.824 LE
506.8 123.26 LS
506.8 128.183 LE
377.337 361.384 LS
380.906 359.744 LE
218.216 361.384 LS
212.156 359.744 LE
493.781 109.162 LS
487.721 107.521 LE
514.465 109.162 LS
516.669 108.148 LE
0 0 1 C
507.152 128.703 505.77 126.8 506.77 127.527 T
507.152 128.703 504.534 126.8 505.77 126.8 T
507.152 128.703 503.534 127.527 504.534 126.8 T
507.152 128.703 503.152 128.703 503.534 127.527 T
507.152 128.703 503.534 129.878 503.152 128.703 T
507.152 128.703 504.534 130.605 503.534 129.878 T
507.152 128.703 505.77 130.605 504.534 130.605 T
507.152 128.703 506.77 129.878 505.77 130.605 T
0 0 0 C
(3) 104.626 107.047 10 /Helvetica STR
131.784 105.724 LS
127.876 107.521 LE
72.8 214.214 LS
72.8 208.824 LE
0 0 1 C
490.024 153.303 488.642 151.401 489.642 152.128 T
490.024 153.303 487.406 151.401 488.642 151.401 T
490.024 153.303 486.406 152.128 487.406 151.401 T
490.024 153.303 486.024 153.303 486.406 152.128 T
490.024 153.303 486.406 154.479 486.024 153.303 T
490.024 153.303 487.406 155.205 486.406 154.479 T
490.024 153.303 488.642 155.205 487.406 155.205 T
490.024 153.303 489.642 154.479 488.642 155.205 T
0 0 0 C
506.8 133.573 LS
506.8 128.183 LE
384.813 357.947 LS
380.906 359.744 LE
205.52 357.947 LS
212.156 359.744 LE
481.085 105.724 LS
487.721 107.521 LE
(2) 521.217 106.057 10 /Helvetica STL
0 0 1 C
504.308 136.45 502.926 134.548 503.926 135.274 T
504.308 136.45 501.69 134.548 502.926 134.548 T
504.308 136.45 500.69 135.274 501.69 134.548 T
504.308 136.45 500.308 136.45 500.69 135.274 T
504.308 136.45 500.69 137.625 500.308 136.45 T
504.308 136.45 501.69 138.352 500.69 137.625 T
504.308 136.45 502.926 138.352 501.69 138.352 T
504.308 136.45 503.926 137.625 502.926 138.352 T
0 0 0 C
133.604 104.887 LS
131.784 105.724 LE
72.8 216.725 LS
72.8 214.214 LE
506.8 136.084 LS
506.8 133.573 LE
386.633 357.11 LS
384.813 357.947 LE
202.429 357.11 LS
205.52 357.947 LE
477.994 104.887 LS
481.085 105.724 LE
0 0 1 C
456.466 183.273 455.084 181.371 456.084 182.097 T
456.466 183.273 453.848 181.371 455.084 181.371 T
456.466 183.273 452.848 182.097 453.848 181.371 T
456.466 183.273 452.466 183.273 452.848 182.097 T
456.466 183.273 452.848 184.448 452.466 183.273 T
456.466 183.273 453.848 185.175 452.848 184.448 T
456.466 183.273 455.084 185.175 453.848 185.175 T
456.466 183.273 456.084 184.448 455.084 185.175 T
0 0 0 C
133.604 104.887 LS
143.284 100.436 LE
70.0399 228.699 LS
72.8 227.43 LE
72.8 216.725 LS
72.8 230.078 LE
506.8 143.595 LS
506.8 136.084 LE
0 0 1 C
502.681 144.656 501.299 142.754 502.299 143.481 T
502.681 144.656 500.063 142.754 501.299 142.754 T
502.681 144.656 499.063 143.481 500.063 142.754 T
502.681 144.656 498.681 144.656 499.063 143.481 T
502.681 144.656 499.063 145.832 498.681 144.656 T
502.681 144.656 500.063 146.559 499.063 145.832 T
502.681 144.656 501.299 146.559 500.063 146.559 T
502.681 144.656 502.299 145.832 501.299 146.559 T
0 0 0 C
506.8 143.595 LS
506.8 149.437 LE
386.633 357.11 LS
396.313 352.659 LE
202.429 357.11 LS
185.989 352.659 LE
477.994 104.887 LS
461.554 100.436 LE
0 0 1 C
483.945 167.163 482.563 165.26 483.563 165.987 T
483.945 167.163 481.327 165.26 482.563 165.26 T
483.945 167.163 480.327 165.987 481.327 165.26 T
483.945 167.163 479.945 167.163 480.327 165.987 T
483.945 167.163 480.327 168.338 479.945 167.163 T
483.945 167.163 481.327 169.065 480.327 168.338 T
483.945 167.163 482.563 169.065 481.327 169.065 T
483.945 167.163 483.563 168.338 482.563 169.065 T
0 0 0 C
147.235 98.6189 LS
143.284 100.436 LE
72.8 235.53 LS
72.8 230.078 LE
506.8 154.888 LS
506.8 149.437 LE
400.265 350.842 LS
396.313 352.659 LE
179.277 350.842 LS
185.989 352.659 LE
454.842 98.6189 LS
461.554 100.436 LE
0 0 1 C
97.2097 206.657 95.8277 204.755 96.8277 205.481 T
97.2097 206.657 94.5916 204.755 95.8277 204.755 T
97.2097 206.657 93.5917 205.481 94.5916 204.755 T
97.2097 206.657 93.2097 206.657 93.5917 205.481 T
97.2097 206.657 93.5917 207.832 93.2097 206.657 T
97.2097 206.657 94.5916 208.559 93.5917 207.832 T
97.2097 206.657 95.8277 208.559 94.5916 208.559 T
97.2097 206.657 96.8277 207.832 95.8277 208.559 T
0 0 0 C
147.935 98.2973 LS
147.235 98.6189 LE
72.8 236.494 LS
72.8 235.53 LE
506.8 155.853 LS
506.8 154.888 LE
400.964 350.52 LS
400.265 350.842 LE
178.089 350.52 LS
179.277 350.842 LE
453.654 98.2973 LS
454.842 98.6189 LE
0 0 1 C
379.566 227.401 378.185 225.498 379.185 226.225 T
379.566 227.401 376.948 225.498 378.185 225.498 T
379.566 227.401 375.948 226.225 376.948 225.498 T
379.566 227.401 375.566 227.401 375.948 226.225 T
379.566 227.401 375.948 228.576 375.566 227.401 T
379.566 227.401 376.948 229.303 375.948 228.576 T
379.566 227.401 378.185 229.303 376.948 229.303 T
379.566 227.401 379.185 228.576 378.185 229.303 T
0 0 0 C
147.935 98.2973 LS
151.608 96.6084 LE
0 0 1 C
296.731 243.726 295.349 241.823 296.349 242.55 T
296.731 243.726 294.113 241.823 295.349 241.823 T
296.731 243.726 293.113 242.55 294.113 241.823 T
296.731 243.726 292.731 243.726 293.113 242.55 T
296.731 243.726 293.113 244.901 292.731 243.726 T
296.731 243.726 294.113 245.628 293.113 244.901 T
296.731 243.726 295.349 245.628 294.113 245.628 T
296.731 243.726 296.349 244.901 295.349 245.628 T
0 0 0 C
72.8 236.494 LS
72.8 241.561 LE
506.8 155.853 LS
506.8 160.92 LE
400.964 350.52 LS
404.637 348.831 LE
178.089 350.52 LS
171.851 348.831 LE
453.654 98.2973 LS
447.416 96.6084 LE
0 0 1 C
500.494 156.015 499.112 154.113 500.112 154.84 T
500.494 156.015 497.876 154.113 499.112 154.113 T
500.494 156.015 496.876 154.84 497.876 154.113 T
500.494 156.015 496.494 156.015 496.876 154.84 T
500.494 156.015 496.876 157.191 496.494 156.015 T
500.494 156.015 497.876 157.917 496.876 157.191 T
500.494 156.015 499.112 157.917 497.876 157.917 T
500.494 156.015 500.112 157.191 499.112 157.917 T
0 0 0 C
153.509 95.7342 LS
151.608 96.6084 LE
72.8 244.184 LS
72.8 241.561 LE
506.8 163.542 LS
506.8 160.92 LE
406.538 347.957 LS
404.637 348.831 LE
168.622 347.957 LS
171.851 348.831 LE
444.187 95.7342 LS
447.416 96.6084 LE
446.127 95.7342 LS
445.408 96.0647 LE
0 0 1 C
436.756 205.448 435.374 203.546 436.374 204.272 T
436.756 205.448 434.138 203.546 435.374 203.546 T
436.756 205.448 433.138 204.272 434.138 203.546 T
436.756 205.448 432.756 205.448 433.138 204.272 T
436.756 205.448 433.138 206.623 432.756 205.448 T
436.756 205.448 434.138 207.35 433.138 206.623 T
436.756 205.448 435.374 207.35 434.138 207.35 T
436.756 205.448 436.374 206.623 435.374 207.35 T
0 0 0 C
159.474 92.9911 LS
153.509 95.7342 LE
72.8 252.413 LS
72.8 244.184 LE
506.8 171.772 LS
506.8 163.542 LE
412.503 345.214 LS
406.538 347.957 LE
158.49 345.214 LS
168.622 347.957 LE
434.055 92.9911 LS
444.187 95.7342 LE
452.092 92.9911 LS
446.127 95.7342 LE
0 0 1 C
196.137 243.444 194.755 241.542 195.755 242.269 T
196.137 243.444 193.519 241.542 194.755 241.542 T
196.137 243.444 192.519 242.269 193.519 241.542 T
196.137 243.444 192.137 243.444 192.519 242.269 T
196.137 243.444 192.519 244.62 192.137 243.444 T
196.137 243.444 193.519 245.347 192.519 244.62 T
196.137 243.444 194.755 245.347 193.519 245.347 T
196.137 243.444 195.755 244.62 194.755 245.347 T
0 0 0 C
159.474 92.9911 LS
164.544 90.6599 LE
70.0399 260.227 LS
72.8 258.958 LE
72.8 252.413 LS
72.8 259.407 LE
0 0 1 C
472.577 186.125 471.195 184.223 472.195 184.95 T
472.577 186.125 469.959 184.223 471.195 184.223 T
472.577 186.125 468.959 184.95 469.959 184.223 T
472.577 186.125 468.577 186.125 468.959 184.95 T
472.577 186.125 468.959 187.301 468.577 186.125 T
472.577 186.125 469.959 188.027 468.959 187.301 T
472.577 186.125 471.195 188.027 469.959 188.027 T
472.577 186.125 472.195 187.301 471.195 188.027 T
0 0 0 C
506.8 171.772 LS
506.8 178.766 LE
412.503 345.214 LS
417.573 342.883 LE
158.49 345.214 LS
149.88 342.883 LE
434.055 92.9911 LS
425.445 90.6599 LE
452.092 92.9911 LS
455.277 91.5265 LE
0 0 1 C
495.432 168.409 494.05 166.507 495.05 167.233 T
495.432 168.409 492.814 166.507 494.05 166.507 T
495.432 168.409 491.814 167.233 492.814 166.507 T
495.432 168.409 491.432 168.409 491.814 167.233 T
495.432 168.409 491.814 169.584 491.432 168.409 T
495.432 168.409 492.814 170.311 491.814 169.584 T
495.432 168.409 494.05 170.311 492.814 170.311 T
495.432 168.409 495.05 169.584 494.05 170.311 T
0 0 0 C
167.016 89.5233 LS
156.555 86.691 LE
(2) 151.734 85.3858 10 /Helvetica STR
177.393 84.7515 LS
164.544 90.6599 LE
72.8 277.132 LS
72.8 259.407 LE
506.8 196.49 LS
506.8 178.766 LE
430.422 336.974 LS
417.573 342.883 LE
128.057 336.974 LS
149.88 342.883 LE
403.622 84.7515 LS
425.445 90.6599 LE
(1.5) 459.825 89.4351 10 /Helvetica STL
0 0 1 C
112.243 224.815 110.861 222.913 111.861 223.639 T
112.243 224.815 109.625 222.913 110.861 222.913 T
112.243 224.815 108.625 223.639 109.625 222.913 T
112.243 224.815 108.243 224.815 108.625 223.639 T
112.243 224.815 108.625 225.991 108.243 224.815 T
112.243 224.815 109.625 226.717 108.625 225.991 T
112.243 224.815 110.861 226.717 109.625 226.717 T
112.243 224.815 111.861 225.991 110.861 226.717 T
0 0 0 C
184.134 81.6519 LS
177.393 84.7515 LE
72.8 286.431 LS
72.8 277.132 LE
506.8 205.789 LS
506.8 196.49 LE
437.163 333.875 LS
430.422 336.974 LE
116.609 333.875 LS
128.057 336.974 LE
392.174 81.6519 LS
403.622 84.7515 LE
0 0 1 C
403.048 231.157 401.666 229.255 402.666 229.981 T
403.048 231.157 400.43 229.255 401.666 229.255 T
403.048 231.157 399.43 229.981 400.43 229.255 T
403.048 231.157 399.048 231.157 399.43 229.981 T
403.048 231.157 399.43 232.333 399.048 231.157 T
403.048 231.157 400.43 233.059 399.43 232.333 T
403.048 231.157 401.666 233.059 400.43 233.059 T
403.048 231.157 402.666 232.333 401.666 233.059 T
0 0 0 C
187.624 80.0472 LS
184.134 81.6519 LE
70.0399 291.755 LS
72.8 290.486 LE
72.8 291.245 LS
72.8 286.431 LE
506.8 207.834 LS
506.8 205.789 LE
0 0 1 C
454.024 207.322 452.642 205.42 453.642 206.146 T
454.024 207.322 451.406 205.42 452.642 205.42 T
454.024 207.322 450.406 206.146 451.406 205.42 T
454.024 207.322 450.024 207.322 450.406 206.146 T
454.024 207.322 450.406 208.497 450.024 207.322 T
454.024 207.322 451.406 209.224 450.406 208.497 T
454.024 207.322 452.642 209.224 451.406 209.224 T
454.024 207.322 453.642 208.497 452.642 209.224 T
0 0 0 C
506.8 207.834 LS
506.8 210.604 LE
440.653 332.27 LS
437.163 333.875 LE
110.682 332.27 LS
116.609 333.875 LE
386.247 80.0472 LS
392.174 81.6519 LE
0 0 1 C
324.177 252.18 322.795 250.278 323.795 251.005 T
324.177 252.18 321.559 250.278 322.795 250.278 T
324.177 252.18 320.559 251.005 321.559 250.278 T
324.177 252.18 320.177 252.18 320.559 251.005 T
324.177 252.18 320.559 253.356 320.177 252.18 T
324.177 252.18 321.559 254.083 320.559 253.356 T
324.177 252.18 322.795 254.083 321.559 254.083 T
324.177 252.18 323.795 253.356 322.795 254.083 T
0 0 0 C
187.624 80.0472 LS
188.185 79.7891 LE
72.8 291.245 LS
72.8 292.019 LE
506.8 210.604 LS
506.8 211.378 LE
440.653 332.27 LS
441.214 332.012 LE
110.682 332.27 LS
109.729 332.012 LE
386.247 80.0472 LS
385.294 79.7892 LE
0 0 1 C
483.405 188.288 482.023 186.386 483.023 187.112 T
483.405 188.288 480.787 186.386 482.023 186.386 T
483.405 188.288 479.787 187.112 480.787 186.386 T
483.405 188.288 479.405 188.288 479.787 187.112 T
483.405 188.288 479.787 189.463 479.405 188.288 T
483.405 188.288 480.787 190.19 479.787 189.463 T
483.405 188.288 482.023 190.19 480.787 190.19 T
483.405 188.288 483.023 189.463 482.023 190.19 T
0 0 0 C
214.058 67.8438 LS
214.124 67.8616 LE
214.162 67.8438 LS
188.185 79.7891 LE
72.8 292.019 LS
72.8 322.014 LE
77.0344 320.067 LS
72.8 322.014 LE
0 0 1 C
222.943 256.98 221.561 255.078 222.561 255.804 T
222.943 256.98 220.325 255.078 221.561 255.078 T
222.943 256.98 219.325 255.804 220.325 255.078 T
222.943 256.98 218.943 256.98 219.325 255.804 T
222.943 256.98 219.325 258.155 218.943 256.98 T
222.943 256.98 220.325 258.882 219.325 258.155 T
222.943 256.98 221.561 258.882 220.325 258.882 T
222.943 256.98 222.561 258.155 221.561 258.882 T
0 0 0 C
506.8 247.214 LS
506.8 211.378 LE
467.191 320.067 LS
441.214 332.012 LE
109.729 332.012 LS
72.8 322.014 LE
70.0399 323.283 LS
72.8 322.014 LE
341.173 67.8438 LS
385.294 79.7892 LE
384.016 79.4431 LS
393.885 74.9049 LE
(1) 398.433 72.8136 10 /Helvetica STL
0 0 1 C
466.675 206.504 465.293 204.601 466.293 205.328 T
466.675 206.504 464.057 204.601 465.293 204.601 T
466.675 206.504 463.057 205.328 464.057 204.601 T
466.675 206.504 462.675 206.504 463.057 205.328 T
466.675 206.504 463.057 207.679 462.675 206.504 T
466.675 206.504 464.057 208.406 463.057 207.679 T
466.675 206.504 465.293 208.406 464.057 208.406 T
466.675 206.504 466.293 207.679 465.293 208.406 T
0 0 0 C
214.058 67.8438 LS
212.367 67.386 LE
214.162 67.8438 LS
215.158 67.386 LE
77.0344 320.067 LS
78.03 319.609 LE
506.8 247.214 LS
506.8 248.587 LE
467.191 320.067 LS
468.187 319.609 LE
341.173 67.8438 LS
339.482 67.386 LE
0 0 1 C
127.566 239.077 126.184 237.175 127.184 237.902 T
127.566 239.077 124.948 237.175 126.184 237.175 T
127.566 239.077 123.948 237.902 124.948 237.175 T
127.566 239.077 123.566 239.077 123.948 237.902 T
127.566 239.077 123.948 240.253 123.566 239.077 T
127.566 239.077 124.948 240.98 123.948 240.253 T
127.566 239.077 126.184 240.98 124.948 240.98 T
127.566 239.077 127.184 240.253 126.184 240.98 T
0 0 0 C
212.367 67.386 LS
203.663 65.0294 LE
220.625 64.8719 LS
215.158 67.386 LE
83.4974 317.095 LS
78.03 319.609 LE
506.8 256.129 LS
506.8 248.587 LE
473.655 317.095 LS
468.187 319.609 LE
330.197 64.8719 LS
339.482 67.386 LE
0 0 1 C
422.303 230.771 420.921 228.869 421.921 229.595 T
422.303 230.771 419.685 228.869 420.921 228.869 T
422.303 230.771 418.685 229.595 419.685 228.869 T
422.303 230.771 418.303 230.771 418.685 229.595 T
422.303 230.771 418.685 231.947 418.303 230.771 T
422.303 230.771 419.685 232.673 418.685 231.947 T
422.303 230.771 420.921 232.673 419.685 232.673 T
422.303 230.771 421.921 231.947 420.921 232.673 T
0 0 0 C
(1) 198.842 63.7242 10 /Helvetica STR
242.278 54.9155 LS
220.625 64.8719 LE
105.15 307.138 LS
83.4974 317.095 LE
506.8 285.999 LS
506.8 256.129 LE
0 0 1 C
350.471 254.192 349.089 252.29 350.089 253.017 T
350.471 254.192 347.853 252.29 349.089 252.29 T
350.471 254.192 346.853 253.017 347.853 252.29 T
350.471 254.192 346.471 254.192 346.853 253.017 T
350.471 254.192 346.853 255.368 346.471 254.192 T
350.471 254.192 347.853 256.094 346.853 255.368 T
350.471 254.192 349.089 256.094 347.853 256.094 T
350.471 254.192 350.089 255.368 349.089 256.094 T
0 0 0 C
495.307 307.138 LS
473.655 317.095 LE
293.422 54.9155 LS
330.197 64.8719 LE
322.624 62.8215 LS
332.493 58.2833 LE
(0.5) 337.041 56.192 10 /Helvetica STL
0 0 1 C
251.866 263.963 250.484 262.061 251.484 262.787 T
251.866 263.963 249.248 262.061 250.484 262.061 T
251.866 263.963 248.248 262.787 249.248 262.061 T
251.866 263.963 247.866 263.963 248.248 262.787 T
251.866 263.963 248.248 265.138 247.866 263.963 T
251.866 263.963 249.248 265.865 248.248 265.138 T
251.866 263.963 250.484 265.865 249.248 265.865 T
251.866 263.963 251.484 265.138 250.484 265.865 T
0 0 0 C
258.15 47.6168 LS
242.278 54.9155 LE
506.8 285.999 LS
506.8 301.853 LE
0 0 1 C
434.782 227.972 433.4 226.07 434.4 226.796 T
434.782 227.972 432.164 226.07 433.4 226.07 T
434.782 227.972 431.164 226.796 432.164 226.07 T
434.782 227.972 430.782 227.972 431.164 226.796 T
434.782 227.972 431.164 229.147 430.782 227.972 T
434.782 227.972 432.164 229.874 431.164 229.147 T
434.782 227.972 433.4 229.874 432.164 229.874 T
434.782 227.972 434.4 229.147 433.4 229.874 T
0 0 0 C
499.362 299.84 LS
506.8 301.853 LE
121.022 299.84 LS
105.15 307.138 LE
495.307 307.138 LS
506.8 301.853 LE
266.464 47.6168 LS
293.422 54.9155 LE
0 0 1 C
151.747 249.957 150.365 248.055 151.365 248.781 T
151.747 249.957 149.129 248.055 150.365 248.055 T
151.747 249.957 148.129 248.781 149.129 248.055 T
151.747 249.957 147.747 249.957 148.129 248.781 T
151.747 249.957 148.129 251.133 147.747 249.957 T
151.747 249.957 149.129 251.859 148.129 251.133 T
151.747 249.957 150.365 251.859 149.129 251.859 T
151.747 249.957 151.365 251.133 150.365 251.859 T
0 0 0 C
258.15 47.6168 LS
261.231 46.2 LE
0 0 1 C
371.974 250.615 370.592 248.713 371.592 249.439 T
371.974 250.615 369.355 248.713 370.592 248.713 T
371.974 250.615 368.355 249.439 369.355 248.713 T
371.974 250.615 367.974 250.615 368.355 249.439 T
371.974 250.615 368.355 251.79 367.974 250.615 T
371.974 250.615 369.355 252.517 368.355 251.79 T
371.974 250.615 370.592 252.517 369.355 252.517 T
371.974 250.615 371.592 251.79 370.592 252.517 T
0 0 0 C
261.231 78.6379 LS
261.231 46.2 LE
454.192 287.61 LS
499.362 299.84 LE
147.618 287.61 LS
121.022 299.84 LE
266.464 47.6168 LS
261.231 46.2 L
250.77 43.3677 LE
(0) 245.95 42.0625 10 /Helvetica STR
261.231 46.2 LS
271.101 41.6618 LE
(0) 275.649 39.5704 10 /Helvetica STL
0 0 1 C
280.451 263.486 279.069 261.584 280.069 262.31 T
280.451 263.486 277.833 261.584 279.069 261.584 T
280.451 263.486 276.833 262.31 277.833 261.584 T
280.451 263.486 276.451 263.486 276.833 262.31 T
280.451 263.486 276.833 264.661 276.451 263.486 T
280.451 263.486 277.833 265.388 276.833 264.661 T
280.451 263.486 279.069 265.388 277.833 265.388 T
280.451 263.486 280.069 264.661 279.069 265.388 T
0 0 0 C
261.231 96.8354 LS
261.231 78.6379 LE
431.788 281.544 LS
454.192 287.61 LE
160.809 281.544 LS
147.618 287.61 LE
0 0 1 C
181.301 254.799 179.919 252.897 180.919 253.624 T
181.301 254.799 178.683 252.897 179.919 252.897 T
181.301 254.799 177.683 253.624 178.683 252.897 T
181.301 254.799 177.301 254.799 177.683 253.624 T
181.301 254.799 177.683 255.975 177.301 254.799 T
181.301 254.799 178.683 256.702 177.683 255.975 T
181.301 254.799 179.919 256.702 178.683 256.702 T
181.301 254.799 180.919 255.975 179.919 256.702 T
0 0 0 C
261.231 103.949 LS
261.231 96.8354 LE
423.029 279.173 LS
431.788 281.544 LE
165.966 279.173 LS
160.809 281.544 LE
0 0 1 C
387.864 243.339 386.482 241.437 387.482 242.164 T
387.864 243.339 385.246 241.437 386.482 241.437 T
387.864 243.339 384.246 242.164 385.246 241.437 T
387.864 243.339 383.864 243.339 384.246 242.164 T
387.864 243.339 384.246 244.515 383.864 243.339 T
387.864 243.339 385.246 245.241 384.246 244.515 T
387.864 243.339 386.482 245.241 385.246 245.241 T
387.864 243.339 387.482 244.515 386.482 245.241 T
0 0 0 C
261.231 131.919 LS
261.231 103.949 LE
388.593 269.85 LS
423.029 279.173 LE
186.242 269.85 LS
165.966 279.173 LE
0 0 1 C
306.158 256.779 304.776 254.877 305.776 255.603 T
306.158 256.779 303.54 254.877 304.776 254.877 T
306.158 256.779 302.54 255.603 303.54 254.877 T
306.158 256.779 302.158 256.779 302.54 255.603 T
306.158 256.779 302.54 257.955 302.158 256.779 T
306.158 256.779 303.54 258.681 302.54 257.955 T
306.158 256.779 304.776 258.681 303.54 258.681 T
306.158 256.779 305.776 257.955 304.776 258.681 T
0 0 0 C
261.231 149.813 LS
261.231 131.919 LE
366.564 263.885 LS
388.593 269.85 LE
199.213 263.885 LS
186.242 269.85 LE
0 0 1 C
208.976 252.756 207.594 250.854 208.594 251.581 T
208.976 252.756 206.358 250.854 207.594 250.854 T
208.976 252.756 205.358 251.581 206.358 250.854 T
208.976 252.756 204.976 252.756 205.358 251.581 T
208.976 252.756 205.358 253.932 204.976 252.756 T
208.976 252.756 206.358 254.658 205.358 253.932 T
208.976 252.756 207.594 254.658 206.358 254.658 T
208.976 252.756 208.594 253.932 207.594 254.658 T
0 0 0 C
261.231 177.667 LS
261.231 149.813 LE
332.27 254.601 LS
366.564 263.885 LE
219.404 254.601 LS
199.213 263.885 LE
0 0 1 C
325.63 246.223 324.248 244.321 325.248 245.047 T
325.63 246.223 323.012 244.321 324.248 244.321 T
325.63 246.223 322.012 245.047 323.012 244.321 T
325.63 246.223 321.63 246.223 322.012 245.047 T
325.63 246.223 322.012 247.399 321.63 246.223 T
325.63 246.223 323.012 248.125 322.012 247.399 T
325.63 246.223 324.248 248.125 323.012 248.125 T
325.63 246.223 325.248 247.399 324.248 248.125 T
0 0 0 C
261.231 195.656 LS
261.231 177.667 LE
310.123 248.604 LS
332.27 254.601 LE
232.445 248.604 LS
219.404 254.601 LE
0 0 1 C
240.021 246.187 238.639 244.285 239.639 245.012 T
240.021 246.187 237.403 244.285 238.639 244.285 T
240.021 246.187 236.403 245.012 237.403 244.285 T
240.021 246.187 236.021 246.187 236.403 245.012 T
240.021 246.187 236.403 247.363 236.021 246.187 T
240.021 246.187 237.403 248.09 236.403 247.363 T
240.021 246.187 238.639 248.09 237.403 248.09 T
240.021 246.187 239.639 247.363 238.639 248.09 T
0 0 0 C
261.231 234.105 LS
261.231 195.656 LE
262.786 235.788 LS
310.123 248.604 LE
260.316 235.788 LS
232.445 248.604 LE
0 0 1 C
263.423 235.775 262.041 233.873 263.041 234.6 T
263.423 235.775 260.805 233.873 262.041 233.873 T
263.423 235.775 259.805 234.6 260.805 233.873 T
263.423 235.775 259.423 235.775 259.805 234.6 T
263.423 235.775 259.805 236.951 259.423 235.775 T
263.423 235.775 260.805 237.677 259.805 236.951 T
263.423 235.775 262.041 237.677 260.805 237.677 T
263.423 235.775 263.041 236.951 262.041 237.677 T
0 0 0 C
261.231 234.105 LS
261.231 235.367 LE
262.786 235.788 LS
261.231 235.367 LE
260.316 235.788 LS
261.231 235.367 LE
grestore
showpage
cleartomark
%%PageTrailer
%%Trailer
end
%%EOF
