%!PS-Adobe-3.0 EPSF-3.0
%%Title: glps_renderer figure
%%Creator: GL2PS 1.3.8, (C) 1999-2012 C. Geuzaine
%%For: Octave
%%CreationDate: Thu May 14 22:29:03 2015
%%LanguageLevel: 3
%%DocumentData: Clean7Bit
%%Pages: 1
%%BoundingBox: 0 0 576 432
%%EndComments
%%BeginProlog
/gl2psdict 64 dict def gl2psdict begin
0 setlinecap 0 setlinejoin
/tryPS3shading false def % set to false to force subdivision
/rThreshold 0.064 def % red component subdivision threshold
/gThreshold 0.034 def % green component subdivision threshold
/bThreshold 0.1 def % blue component subdivision threshold
/BD { bind def } bind def
/C  { setrgbcolor } BD
/G  { 0.082 mul exch 0.6094 mul add exch 0.3086 mul add neg 1.0 add setgray } BD
/W  { setlinewidth } BD
/FC { findfont exch /SH exch def SH scalefont setfont } BD
/SW { dup stringwidth pop } BD
/S  { FC moveto show } BD
/SBC{ FC moveto SW -2 div 0 rmoveto show } BD
/SBR{ FC moveto SW neg 0 rmoveto show } BD
/SCL{ FC moveto 0 SH -2 div rmoveto show } BD
/SCC{ FC moveto SW -2 div SH -2 div rmoveto show } BD
/SCR{ FC moveto SW neg SH -2 div rmoveto show } BD
/STL{ FC moveto 0 SH neg rmoveto show } BD
/STC{ FC moveto SW -2 div SH neg rmoveto show } BD
/STR{ FC moveto SW neg SH neg rmoveto show } BD
/FCT { FC translate 0 0 } BD
/SR  { gsave FCT moveto rotate show grestore } BD
/SBCR{ gsave FCT moveto rotate SW -2 div 0 rmoveto show grestore } BD
/SBRR{ gsave FCT moveto rotate SW neg 0 rmoveto show grestore } BD
/SCLR{ gsave FCT moveto rotate 0 SH -2 div rmoveto show grestore} BD
/SCCR{ gsave FCT moveto rotate SW -2 div SH -2 div rmoveto show grestore} BD
/SCRR{ gsave FCT moveto rotate SW neg SH -2 div rmoveto show grestore} BD
/STLR{ gsave FCT moveto rotate 0 SH neg rmoveto show grestore } BD
/STCR{ gsave FCT moveto rotate SW -2 div SH neg rmoveto show grestore } BD
/STRR{ gsave FCT moveto rotate SW neg SH neg rmoveto show grestore } BD
/P  { newpath 0.0 360.0 arc closepath fill } BD
/LS { newpath moveto } BD
/L  { lineto } BD
/LE { lineto stroke } BD
/T  { newpath moveto lineto lineto closepath fill } BD
/STshfill {
      /b1 exch def /g1 exch def /r1 exch def /y1 exch def /x1 exch def
      /b2 exch def /g2 exch def /r2 exch def /y2 exch def /x2 exch def
      /b3 exch def /g3 exch def /r3 exch def /y3 exch def /x3 exch def
      gsave << /ShadingType 4 /ColorSpace [/DeviceRGB]
      /DataSource [ 0 x1 y1 r1 g1 b1 0 x2 y2 r2 g2 b2 0 x3 y3 r3 g3 b3 ] >>
      shfill grestore } BD
/Tm { 3 -1 roll 8 -1 roll 13 -1 roll add add 3 div
      3 -1 roll 7 -1 roll 11 -1 roll add add 3 div
      3 -1 roll 6 -1 roll 9 -1 roll add add 3 div C T } BD
/STsplit {
      4 index 15 index add 0.5 mul
      4 index 15 index add 0.5 mul
      4 index 15 index add 0.5 mul
      4 index 15 index add 0.5 mul
      4 index 15 index add 0.5 mul
      5 copy 5 copy 25 15 roll
      9 index 30 index add 0.5 mul
      9 index 30 index add 0.5 mul
      9 index 30 index add 0.5 mul
      9 index 30 index add 0.5 mul
      9 index 30 index add 0.5 mul
      5 copy 5 copy 35 5 roll 25 5 roll 15 5 roll
      4 index 10 index add 0.5 mul
      4 index 10 index add 0.5 mul
      4 index 10 index add 0.5 mul
      4 index 10 index add 0.5 mul
      4 index 10 index add 0.5 mul
      5 copy 5 copy 40 5 roll 25 5 roll 15 5 roll 25 5 roll
      STnoshfill STnoshfill STnoshfill STnoshfill } BD
/STnoshfill {
      2 index 8 index sub abs rThreshold gt
      { STsplit }
      { 1 index 7 index sub abs gThreshold gt
        { STsplit }
        { dup 6 index sub abs bThreshold gt
          { STsplit }
          { 2 index 13 index sub abs rThreshold gt
            { STsplit }
            { 1 index 12 index sub abs gThreshold gt
              { STsplit }
              { dup 11 index sub abs bThreshold gt
                { STsplit }
                { 7 index 13 index sub abs rThreshold gt
                  { STsplit }
                  { 6 index 12 index sub abs gThreshold gt
                    { STsplit }
                    { 5 index 11 index sub abs bThreshold gt
                      { STsplit }
                      { Tm }
                      ifelse }
                    ifelse }
                  ifelse }
                ifelse }
              ifelse }
            ifelse }
          ifelse }
        ifelse }
      ifelse } BD
tryPS3shading
{ /shfill where
  { /ST { STshfill } BD }
  { /ST { STnoshfill } BD }
  ifelse }
{ /ST { STnoshfill } BD }
ifelse
end
%%EndProlog
%%BeginSetup
/DeviceRGB setcolorspace
gl2psdict begin
%%EndSetup
%%Page: 1 1
%%BeginPageSetup
%%EndPageSetup
mark
gsave
1.0 1.0 scale
1 1 1 C
521.28 47.52 521.28 399.6 521.28 47.52 T
521.28 47.52 521.28 399.6 521.28 399.6 T
74.88 399.6 521.28 399.6 74.88 399.6 T
74.88 399.6 521.28 399.6 521.28 399.6 T
74.88 399.6 521.28 47.52 74.88 47.52 T
74.88 399.6 521.28 399.6 521.28 47.52 T
0.5 W
[16 0] 0 setdash
0 0 0 C
74.88 47.52 LS
521.28 47.52 LE
74.88 399.6 LS
521.28 399.6 LE
74.88 399.6 LS
521.28 399.6 LE
74.88 47.52 LS
521.28 47.52 LE
74.88 47.52 LS
74.88 399.6 LE
521.28 47.52 LS
521.28 399.6 LE
521.28 47.52 LS
521.28 399.6 LE
74.88 47.52 LS
74.88 399.6 L
74.88 399.6 LE
521.28 399.6 LS
521.28 399.6 LE
521.28 47.52 LS
521.28 47.52 LE
74.88 47.52 LS
74.88 47.52 L
74.88 51.985 LE
74.88 399.6 LS
74.88 395.135 LE
186.48 47.52 LS
186.48 51.985 LE
186.48 399.6 LS
186.48 395.135 LE
298.08 47.52 LS
298.08 51.985 LE
298.08 399.6 LS
298.08 395.135 LE
409.68 47.52 LS
409.68 51.985 LE
409.68 399.6 LS
409.68 395.135 LE
521.28 47.52 LS
521.28 51.985 LE
521.28 399.6 LS
521.28 395.135 LE
(0) 74.88 42.5189 10 /Helvetica STC
(0.5) 186.48 42.5189 10 /Helvetica STC
(1) 298.08 42.5189 10 /Helvetica STC
(1.5) 409.68 42.5189 10 /Helvetica STC
(2) 521.28 42.5189 10 /Helvetica STC
74.88 47.52 LS
79.348 47.52 LE
521.28 47.52 LS
516.812 47.52 LE
74.88 135.54 LS
79.348 135.54 LE
521.28 135.54 LS
516.812 135.54 LE
74.88 223.56 LS
79.348 223.56 LE
521.28 223.56 LS
516.812 223.56 LE
74.88 311.58 LS
79.348 311.58 LE
521.28 311.58 LS
516.812 311.58 LE
74.88 399.6 LS
79.348 399.6 LE
521.28 399.6 LS
516.812 399.6 LE
(0) 69.8755 47.52 10 /Helvetica SCR
(1) 69.8755 135.54 10 /Helvetica SCR
(2) 69.8755 223.56 10 /Helvetica SCR
(3) 69.8755 311.58 10 /Helvetica SCR
(4) 69.8755 399.6 10 /Helvetica SCR
0 0 1 C
523.28 48.1701 521.898 46.268 522.898 46.9945 T
523.28 48.1701 520.662 46.268 521.898 46.268 T
523.28 48.1701 519.662 46.9945 520.662 46.268 T
523.28 48.1701 519.28 48.1701 519.662 46.9945 T
523.28 48.1701 519.662 49.3457 519.28 48.1701 T
523.28 48.1701 520.662 50.0722 519.662 49.3457 T
523.28 48.1701 521.898 50.0722 520.662 50.0722 T
523.28 48.1701 522.898 49.3457 521.898 50.0722 T
523.273 49.2943 521.891 47.3922 522.891 48.1187 T
523.273 49.2943 520.655 47.3922 521.891 47.3922 T
523.273 49.2943 519.655 48.1187 520.655 47.3922 T
523.273 49.2943 519.273 49.2943 519.655 48.1187 T
523.273 49.2943 519.655 50.4699 519.273 49.2943 T
523.273 49.2943 520.655 51.1964 519.655 50.4699 T
523.273 49.2943 521.891 51.1964 520.655 51.1964 T
523.273 49.2943 522.891 50.4699 521.891 51.1964 T
523.255 51.2681 521.873 49.366 522.873 50.0925 T
523.255 51.2681 520.637 49.366 521.873 49.366 T
523.255 51.2681 519.637 50.0925 520.637 49.366 T
523.255 51.2681 519.255 51.2681 519.637 50.0925 T
523.255 51.2681 519.637 52.4436 519.255 51.2681 T
523.255 51.2681 520.637 53.1702 519.637 52.4436 T
523.255 51.2681 521.873 53.1702 520.637 53.1702 T
523.255 51.2681 522.873 52.4436 521.873 53.1702 T
523.222 53.1873 521.84 51.2852 522.84 52.0117 T
523.222 53.1873 520.604 51.2852 521.84 51.2852 T
523.222 53.1873 519.604 52.0117 520.604 51.2852 T
523.222 53.1873 519.222 53.1873 519.604 52.0117 T
523.222 53.1873 519.604 54.3628 519.222 53.1873 T
523.222 53.1873 520.604 55.0894 519.604 54.3628 T
523.222 53.1873 521.84 55.0894 520.604 55.0894 T
523.222 53.1873 522.84 54.3628 521.84 55.0894 T
523.175 55.1818 521.793 53.2797 522.793 54.0062 T
523.175 55.1818 520.557 53.2797 521.793 53.2797 T
523.175 55.1818 519.557 54.0062 520.557 53.2797 T
523.175 55.1818 519.175 55.1818 519.557 54.0062 T
523.175 55.1818 519.557 56.3574 519.175 55.1818 T
523.175 55.1818 520.557 57.0839 519.557 56.3574 T
523.175 55.1818 521.793 57.0839 520.557 57.0839 T
523.175 55.1818 522.793 56.3574 521.793 57.0839 T
523.113 57.179 521.731 55.2769 522.731 56.0035 T
523.113 57.179 520.495 55.2769 521.731 55.2769 T
523.113 57.179 519.495 56.0035 520.495 55.2769 T
523.113 57.179 519.113 57.179 519.495 56.0035 T
523.113 57.179 519.495 58.3546 519.113 57.179 T
523.113 57.179 520.495 59.0812 519.495 58.3546 T
523.113 57.179 521.731 59.0812 520.495 59.0812 T
523.113 57.179 522.731 58.3546 521.731 59.0812 T
523.032 59.2522 521.65 57.3501 522.65 58.0766 T
523.032 59.2522 520.414 57.3501 521.65 57.3501 T
523.032 59.2522 519.414 58.0766 520.414 57.3501 T
523.032 59.2522 519.032 59.2522 519.414 58.0766 T
523.032 59.2522 519.414 60.4278 519.032 59.2522 T
523.032 59.2522 520.414 61.1543 519.414 60.4278 T
523.032 59.2522 521.65 61.1543 520.414 61.1543 T
523.032 59.2522 522.65 60.4278 521.65 61.1543 T
522.934 61.3611 521.552 59.459 522.552 60.1856 T
522.934 61.3611 520.316 59.459 521.552 59.459 T
522.934 61.3611 519.316 60.1856 520.316 59.459 T
522.934 61.3611 518.934 61.3611 519.316 60.1856 T
522.934 61.3611 519.316 62.5367 518.934 61.3611 T
522.934 61.3611 520.316 63.2632 519.316 62.5367 T
522.934 61.3611 521.552 63.2632 520.316 63.2632 T
522.934 61.3611 522.552 62.5367 521.552 63.2632 T
522.82 63.4902 521.438 61.5881 522.438 62.3146 T
522.82 63.4902 520.202 61.5881 521.438 61.5881 T
522.82 63.4902 519.202 62.3146 520.202 61.5881 T
522.82 63.4902 518.82 63.4902 519.202 62.3146 T
522.82 63.4902 519.202 64.6657 518.82 63.4902 T
522.82 63.4902 520.202 65.3923 519.202 64.6657 T
522.82 63.4902 521.438 65.3923 520.202 65.3923 T
522.82 63.4902 522.438 64.6657 521.438 65.3923 T
522.684 65.7037 521.302 63.8016 522.302 64.5281 T
522.684 65.7037 520.066 63.8016 521.302 63.8016 T
522.684 65.7037 519.066 64.5281 520.066 63.8016 T
522.684 65.7037 518.684 65.7037 519.066 64.5281 T
522.684 65.7037 519.066 66.8793 518.684 65.7037 T
522.684 65.7037 520.066 67.6058 519.066 66.8793 T
522.684 65.7037 521.302 67.6058 520.066 67.6058 T
522.684 65.7037 522.302 66.8793 521.302 67.6058 T
522.528 67.9556 521.146 66.0535 522.146 66.78 T
522.528 67.9556 519.91 66.0535 521.146 66.0535 T
522.528 67.9556 518.91 66.78 519.91 66.0535 T
522.528 67.9556 518.528 67.9556 518.91 66.78 T
522.528 67.9556 518.91 69.1312 518.528 67.9556 T
522.528 67.9556 519.91 69.8577 518.91 69.1312 T
522.528 67.9556 521.146 69.8577 519.91 69.8577 T
522.528 67.9556 522.146 69.1312 521.146 69.8577 T
522.349 70.2505 520.967 68.3484 521.967 69.075 T
522.349 70.2505 519.731 68.3484 520.967 68.3484 T
522.349 70.2505 518.731 69.075 519.731 68.3484 T
522.349 70.2505 518.349 70.2505 518.731 69.075 T
522.349 70.2505 518.731 71.4261 518.349 70.2505 T
522.349 70.2505 519.731 72.1527 518.731 71.4261 T
522.349 70.2505 520.967 72.1527 519.731 72.1527 T
522.349 70.2505 521.967 71.4261 520.967 72.1527 T
522.146 72.6063 520.764 70.7042 521.764 71.4308 T
522.146 72.6063 519.528 70.7042 520.764 70.7042 T
522.146 72.6063 518.528 71.4308 519.528 70.7042 T
522.146 72.6063 518.146 72.6063 518.528 71.4308 T
522.146 72.6063 518.528 73.7819 518.146 72.6063 T
522.146 72.6063 519.528 74.5084 518.528 73.7819 T
522.146 72.6063 520.764 74.5084 519.528 74.5084 T
522.146 72.6063 521.764 73.7819 520.764 74.5084 T
521.918 75.0055 520.536 73.1033 521.536 73.8299 T
521.918 75.0055 519.3 73.1033 520.536 73.1033 T
521.918 75.0055 518.3 73.8299 519.3 73.1033 T
521.918 75.0055 517.918 75.0055 518.3 73.8299 T
521.918 75.0055 518.3 76.181 517.918 75.0055 T
521.918 75.0055 519.3 76.9076 518.3 76.181 T
521.918 75.0055 520.536 76.9076 519.3 76.9076 T
521.918 75.0055 521.536 76.181 520.536 76.9076 T
521.664 77.4595 520.282 75.5574 521.282 76.2839 T
521.664 77.4595 519.046 75.5574 520.282 75.5574 T
521.664 77.4595 518.046 76.2839 519.046 75.5574 T
521.664 77.4595 517.664 77.4595 518.046 76.2839 T
521.664 77.4595 518.046 78.635 517.664 77.4595 T
521.664 77.4595 519.046 79.3616 518.046 78.635 T
521.664 77.4595 520.282 79.3616 519.046 79.3616 T
521.664 77.4595 521.282 78.635 520.282 79.3616 T
521.378 79.9828 519.996 78.0807 520.996 78.8072 T
521.378 79.9828 518.76 78.0807 519.996 78.0807 T
521.378 79.9828 517.76 78.8072 518.76 78.0807 T
521.378 79.9828 517.378 79.9828 517.76 78.8072 T
521.378 79.9828 517.76 81.1584 517.378 79.9828 T
521.378 79.9828 518.76 81.8849 517.76 81.1584 T
521.378 79.9828 519.996 81.8849 518.76 81.8849 T
521.378 79.9828 520.996 81.1584 519.996 81.8849 T
521.064 82.5538 519.682 80.6517 520.682 81.3783 T
521.064 82.5538 518.446 80.6517 519.682 80.6517 T
521.064 82.5538 517.446 81.3783 518.446 80.6517 T
521.064 82.5538 517.064 82.5538 517.446 81.3783 T
521.064 82.5538 517.446 83.7294 517.064 82.5538 T
521.064 82.5538 518.446 84.4559 517.446 83.7294 T
521.064 82.5538 519.682 84.4559 518.446 84.4559 T
521.064 82.5538 520.682 83.7294 519.682 84.4559 T
520.718 85.1835 519.336 83.2814 520.336 84.0079 T
520.718 85.1835 518.1 83.2814 519.336 83.2814 T
520.718 85.1835 517.1 84.0079 518.1 83.2814 T
520.718 85.1835 516.718 85.1835 517.1 84.0079 T
520.718 85.1835 517.1 86.3591 516.718 85.1835 T
520.718 85.1835 518.1 87.0856 517.1 86.3591 T
520.718 85.1835 519.336 87.0856 518.1 87.0856 T
520.718 85.1835 520.336 86.3591 519.336 87.0856 T
520.338 87.8728 518.956 85.9707 519.956 86.6973 T
520.338 87.8728 517.72 85.9707 518.956 85.9707 T
520.338 87.8728 516.72 86.6973 517.72 85.9707 T
520.338 87.8728 516.338 87.8728 516.72 86.6973 T
520.338 87.8728 516.72 89.0484 516.338 87.8728 T
520.338 87.8728 517.72 89.775 516.72 89.0484 T
520.338 87.8728 518.956 89.775 517.72 89.775 T
520.338 87.8728 519.956 89.0484 518.956 89.775 T
519.921 90.6361 518.539 88.734 519.539 89.4605 T
519.921 90.6361 517.303 88.734 518.539 88.734 T
519.921 90.6361 516.303 89.4605 517.303 88.734 T
519.921 90.6361 515.921 90.6361 516.303 89.4605 T
519.921 90.6361 516.303 91.8116 515.921 90.6361 T
519.921 90.6361 517.303 92.5382 516.303 91.8116 T
519.921 90.6361 518.539 92.5382 517.303 92.5382 T
519.921 90.6361 519.539 91.8116 518.539 92.5382 T
519.466 93.4505 518.084 91.5484 519.084 92.2749 T
519.466 93.4505 516.848 91.5484 518.084 91.5484 T
519.466 93.4505 515.848 92.2749 516.848 91.5484 T
519.466 93.4505 515.466 93.4505 515.848 92.2749 T
519.466 93.4505 515.848 94.6261 515.466 93.4505 T
519.466 93.4505 516.848 95.3526 515.848 94.6261 T
519.466 93.4505 518.084 95.3526 516.848 95.3526 T
519.466 93.4505 519.084 94.6261 518.084 95.3526 T
518.968 96.3347 517.586 94.4325 518.586 95.1591 T
518.968 96.3347 516.35 94.4325 517.586 94.4325 T
518.968 96.3347 515.35 95.1591 516.35 94.4325 T
518.968 96.3347 514.968 96.3347 515.35 95.1591 T
518.968 96.3347 515.35 97.5102 514.968 96.3347 T
518.968 96.3347 516.35 98.2368 515.35 97.5102 T
518.968 96.3347 517.586 98.2368 516.35 98.2368 T
518.968 96.3347 518.586 97.5102 517.586 98.2368 T
518.428 99.2899 517.046 97.3878 518.046 98.1143 T
518.428 99.2899 515.81 97.3878 517.046 97.3878 T
518.428 99.2899 514.81 98.1143 515.81 97.3878 T
518.428 99.2899 514.428 99.2899 514.81 98.1143 T
518.428 99.2899 514.81 100.465 514.428 99.2899 T
518.428 99.2899 515.81 101.192 514.81 100.465 T
518.428 99.2899 517.046 101.192 515.81 101.192 T
518.428 99.2899 518.046 100.465 517.046 101.192 T
517.841 102.31 516.459 100.408 517.459 101.135 T
517.841 102.31 515.223 100.408 516.459 100.408 T
517.841 102.31 514.223 101.135 515.223 100.408 T
517.841 102.31 513.841 102.31 514.223 101.135 T
517.841 102.31 514.223 103.486 513.841 102.31 T
517.841 102.31 515.223 104.212 514.223 103.486 T
517.841 102.31 516.459 104.212 515.223 104.212 T
517.841 102.31 517.459 103.486 516.459 104.212 T
517.207 105.401 515.825 103.499 516.825 104.225 T
517.207 105.401 514.589 103.499 515.825 103.499 T
517.207 105.401 513.589 104.225 514.589 103.499 T
517.207 105.401 513.207 105.401 513.589 104.225 T
517.207 105.401 513.589 106.577 513.207 105.401 T
517.207 105.401 514.589 107.303 513.589 106.577 T
517.207 105.401 515.825 107.303 514.589 107.303 T
517.207 105.401 516.825 106.577 515.825 107.303 T
516.519 108.566 515.137 106.664 516.137 107.39 T
516.519 108.566 513.901 106.664 515.137 106.664 T
516.519 108.566 512.901 107.39 513.901 106.664 T
516.519 108.566 512.519 108.566 512.901 107.39 T
516.519 108.566 512.901 109.741 512.519 108.566 T
516.519 108.566 513.901 110.468 512.901 109.741 T
516.519 108.566 515.137 110.468 513.901 110.468 T
516.519 108.566 516.137 109.741 515.137 110.468 T
515.776 111.809 514.394 109.907 515.394 110.634 T
515.776 111.809 513.158 109.907 514.394 109.907 T
515.776 111.809 512.158 110.634 513.158 109.907 T
515.776 111.809 511.776 111.809 512.158 110.634 T
515.776 111.809 512.158 112.985 511.776 111.809 T
515.776 111.809 513.158 113.711 512.158 112.985 T
515.776 111.809 514.394 113.711 513.158 113.711 T
515.776 111.809 515.394 112.985 514.394 113.711 T
514.975 115.123 513.593 113.221 514.593 113.947 T
514.975 115.123 512.357 113.221 513.593 113.221 T
514.975 115.123 511.357 113.947 512.357 113.221 T
514.975 115.123 510.975 115.123 511.357 113.947 T
514.975 115.123 511.357 116.298 510.975 115.123 T
514.975 115.123 512.357 117.025 511.357 116.298 T
514.975 115.123 513.593 117.025 512.357 117.025 T
514.975 115.123 514.593 116.298 513.593 117.025 T
514.109 118.518 512.727 116.616 513.727 117.343 T
514.109 118.518 511.491 116.616 512.727 116.616 T
514.109 118.518 510.491 117.343 511.491 116.616 T
514.109 118.518 510.109 118.518 510.491 117.343 T
514.109 118.518 510.491 119.694 510.109 118.518 T
514.109 118.518 511.491 120.42 510.491 119.694 T
514.109 118.518 512.727 120.42 511.491 120.42 T
514.109 118.518 513.727 119.694 512.727 120.42 T
513.18 121.99 511.798 120.088 512.798 120.814 T
513.18 121.99 510.562 120.088 511.798 120.088 T
513.18 121.99 509.562 120.814 510.562 120.088 T
513.18 121.99 509.18 121.99 509.562 120.814 T
513.18 121.99 509.562 123.166 509.18 121.99 T
513.18 121.99 510.562 123.892 509.562 123.166 T
513.18 121.99 511.798 123.892 510.562 123.892 T
513.18 121.99 512.798 123.166 511.798 123.892 T
512.18 125.546 510.798 123.644 511.798 124.371 T
512.18 125.546 509.562 123.644 510.798 123.644 T
512.18 125.546 508.562 124.371 509.562 123.644 T
512.18 125.546 508.18 125.546 508.562 124.371 T
512.18 125.546 508.562 126.722 508.18 125.546 T
512.18 125.546 509.562 127.448 508.562 126.722 T
512.18 125.546 510.798 127.448 509.562 127.448 T
512.18 125.546 511.798 126.722 510.798 127.448 T
511.107 129.184 509.725 127.282 510.725 128.009 T
511.107 129.184 508.489 127.282 509.725 127.282 T
511.107 129.184 507.489 128.009 508.489 127.282 T
511.107 129.184 507.107 129.184 507.489 128.009 T
511.107 129.184 507.489 130.36 507.107 129.184 T
511.107 129.184 508.489 131.086 507.489 130.36 T
511.107 129.184 509.725 131.086 508.489 131.086 T
511.107 129.184 510.725 130.36 509.725 131.086 T
509.953 132.911 508.571 131.009 509.571 131.735 T
509.953 132.911 507.335 131.009 508.571 131.009 T
509.953 132.911 506.335 131.735 507.335 131.009 T
509.953 132.911 505.953 132.911 506.335 131.735 T
509.953 132.911 506.335 134.086 505.953 132.911 T
509.953 132.911 507.335 134.813 506.335 134.086 T
509.953 132.911 508.571 134.813 507.335 134.813 T
509.953 132.911 509.571 134.086 508.571 134.813 T
508.716 136.722 507.334 134.82 508.334 135.547 T
508.716 136.722 506.098 134.82 507.334 134.82 T
508.716 136.722 505.098 135.547 506.098 134.82 T
508.716 136.722 504.716 136.722 505.098 135.547 T
508.716 136.722 505.098 137.898 504.716 136.722 T
508.716 136.722 506.098 138.624 505.098 137.898 T
508.716 136.722 507.334 138.624 506.098 138.624 T
508.716 136.722 508.334 137.898 507.334 138.624 T
507.39 140.622 506.008 138.72 507.008 139.447 T
507.39 140.622 504.772 138.72 506.008 138.72 T
507.39 140.622 503.772 139.447 504.772 138.72 T
507.39 140.622 503.39 140.622 503.772 139.447 T
507.39 140.622 503.772 141.798 503.39 140.622 T
507.39 140.622 504.772 142.524 503.772 141.798 T
507.39 140.622 506.008 142.524 504.772 142.524 T
507.39 140.622 507.008 141.798 506.008 142.524 T
505.971 144.611 504.589 142.709 505.589 143.436 T
505.971 144.611 503.353 142.709 504.589 142.709 T
505.971 144.611 502.353 143.436 503.353 142.709 T
505.971 144.611 501.971 144.611 502.353 143.436 T
505.971 144.611 502.353 145.787 501.971 144.611 T
505.971 144.611 503.353 146.513 502.353 145.787 T
505.971 144.611 504.589 146.513 503.353 146.513 T
505.971 144.611 505.589 145.787 504.589 146.513 T
504.453 148.688 503.071 146.786 504.071 147.513 T
504.453 148.688 501.835 146.786 503.071 146.786 T
504.453 148.688 500.835 147.513 501.835 146.786 T
504.453 148.688 500.453 148.688 500.835 147.513 T
504.453 148.688 500.835 149.864 500.453 148.688 T
504.453 148.688 501.835 150.591 500.835 149.864 T
504.453 148.688 503.071 150.591 501.835 150.591 T
504.453 148.688 504.071 149.864 503.071 150.591 T
502.83 152.861 501.448 150.959 502.448 151.686 T
502.83 152.861 500.212 150.959 501.448 150.959 T
502.83 152.861 499.212 151.686 500.212 150.959 T
502.83 152.861 498.83 152.861 499.212 151.686 T
502.83 152.861 499.212 154.037 498.83 152.861 T
502.83 152.861 500.212 154.764 499.212 154.037 T
502.83 152.861 501.448 154.764 500.212 154.764 T
502.83 152.861 502.448 154.037 501.448 154.764 T
501.098 157.126 499.716 155.224 500.716 155.95 T
501.098 157.126 498.48 155.224 499.716 155.224 T
501.098 157.126 497.48 155.95 498.48 155.224 T
501.098 157.126 497.098 157.126 497.48 155.95 T
501.098 157.126 497.48 158.302 497.098 157.126 T
501.098 157.126 498.48 159.028 497.48 158.302 T
501.098 157.126 499.716 159.028 498.48 159.028 T
501.098 157.126 500.716 158.302 499.716 159.028 T
499.248 161.483 497.866 159.581 498.866 160.307 T
499.248 161.483 496.63 159.581 497.866 159.581 T
499.248 161.483 495.63 160.307 496.63 159.581 T
499.248 161.483 495.248 161.483 495.63 160.307 T
499.248 161.483 495.63 162.659 495.248 161.483 T
499.248 161.483 496.63 163.385 495.63 162.659 T
499.248 161.483 497.866 163.385 496.63 163.385 T
499.248 161.483 498.866 162.659 497.866 163.385 T
497.273 165.937 495.891 164.035 496.891 164.761 T
497.273 165.937 494.655 164.035 495.891 164.035 T
497.273 165.937 493.655 164.761 494.655 164.035 T
497.273 165.937 493.273 165.937 493.655 164.761 T
497.273 165.937 493.655 167.112 493.273 165.937 T
497.273 165.937 494.655 167.839 493.655 167.112 T
497.273 165.937 495.891 167.839 494.655 167.839 T
497.273 165.937 496.891 167.112 495.891 167.839 T
495.17 170.486 493.788 168.584 494.788 169.31 T
495.17 170.486 492.552 168.584 493.788 168.584 T
495.17 170.486 491.552 169.31 492.552 168.584 T
495.17 170.486 491.17 170.486 491.552 169.31 T
495.17 170.486 491.552 171.661 491.17 170.486 T
495.17 170.486 492.552 172.388 491.552 171.661 T
495.17 170.486 493.788 172.388 492.552 172.388 T
495.17 170.486 494.788 171.661 493.788 172.388 T
492.927 175.131 491.545 173.228 492.545 173.955 T
492.927 175.131 490.309 173.228 491.545 173.228 T
492.927 175.131 489.309 173.955 490.309 173.228 T
492.927 175.131 488.927 175.131 489.309 173.955 T
492.927 175.131 489.309 176.306 488.927 175.131 T
492.927 175.131 490.309 177.033 489.309 176.306 T
492.927 175.131 491.545 177.033 490.309 177.033 T
492.927 175.131 492.545 176.306 491.545 177.033 T
490.539 179.87 489.157 177.967 490.157 178.694 T
490.539 179.87 487.921 177.967 489.157 177.967 T
490.539 179.87 486.921 178.694 487.921 177.967 T
490.539 179.87 486.539 179.87 486.921 178.694 T
490.539 179.87 486.921 181.045 486.539 179.87 T
490.539 179.87 487.921 181.772 486.921 181.045 T
490.539 179.87 489.157 181.772 487.921 181.772 T
490.539 179.87 490.157 181.045 489.157 181.772 T
488.001 184.704 486.619 182.801 487.619 183.528 T
488.001 184.704 485.383 182.801 486.619 182.801 T
488.001 184.704 484.383 183.528 485.383 182.801 T
488.001 184.704 484.001 184.704 484.383 183.528 T
488.001 184.704 484.383 185.879 484.001 184.704 T
488.001 184.704 485.383 186.606 484.383 185.879 T
488.001 184.704 486.619 186.606 485.383 186.606 T
488.001 184.704 487.619 185.879 486.619 186.606 T
485.3 189.634 483.918 187.731 484.918 188.458 T
485.3 189.634 482.682 187.731 483.918 187.731 T
485.3 189.634 481.682 188.458 482.682 187.731 T
485.3 189.634 481.3 189.634 481.682 188.458 T
485.3 189.634 481.682 190.809 481.3 189.634 T
485.3 189.634 482.682 191.536 481.682 190.809 T
485.3 189.634 483.918 191.536 482.682 191.536 T
485.3 189.634 484.918 190.809 483.918 191.536 T
482.43 194.656 481.048 192.754 482.048 193.48 T
482.43 194.656 479.812 192.754 481.048 192.754 T
482.43 194.656 478.812 193.48 479.812 192.754 T
482.43 194.656 478.43 194.656 478.812 193.48 T
482.43 194.656 478.812 195.832 478.43 194.656 T
482.43 194.656 479.812 196.558 478.812 195.832 T
482.43 194.656 481.048 196.558 479.812 196.558 T
482.43 194.656 482.048 195.832 481.048 196.558 T
479.383 199.77 478.001 197.868 479.001 198.594 T
479.383 199.77 476.765 197.868 478.001 197.868 T
479.383 199.77 475.765 198.594 476.765 197.868 T
479.383 199.77 475.383 199.77 475.765 198.594 T
479.383 199.77 475.765 200.946 475.383 199.77 T
479.383 199.77 476.765 201.672 475.765 200.946 T
479.383 199.77 478.001 201.672 476.765 201.672 T
479.383 199.77 479.001 200.946 478.001 201.672 T
476.151 204.975 474.769 203.073 475.769 203.8 T
476.151 204.975 473.533 203.073 474.769 203.073 T
476.151 204.975 472.533 203.8 473.533 203.073 T
476.151 204.975 472.151 204.975 472.533 203.8 T
476.151 204.975 472.533 206.151 472.151 204.975 T
476.151 204.975 473.533 206.878 472.533 206.151 T
476.151 204.975 474.769 206.878 473.533 206.878 T
476.151 204.975 475.769 206.151 474.769 206.878 T
472.727 210.266 471.345 208.364 472.345 209.091 T
472.727 210.266 470.109 208.364 471.345 208.364 T
472.727 210.266 469.109 209.091 470.109 208.364 T
472.727 210.266 468.727 210.266 469.109 209.091 T
472.727 210.266 469.109 211.442 468.727 210.266 T
472.727 210.266 470.109 212.168 469.109 211.442 T
472.727 210.266 471.345 212.168 470.109 212.168 T
472.727 210.266 472.345 211.442 471.345 212.168 T
469.098 215.643 467.716 213.74 468.716 214.467 T
469.098 215.643 466.48 213.74 467.716 213.74 T
469.098 215.643 465.48 214.467 466.48 213.74 T
469.098 215.643 465.098 215.643 465.48 214.467 T
469.098 215.643 465.48 216.818 465.098 215.643 T
469.098 215.643 466.48 217.545 465.48 216.818 T
469.098 215.643 467.716 217.545 466.48 217.545 T
469.098 215.643 468.716 216.818 467.716 217.545 T
465.259 221.1 463.877 219.198 464.877 219.924 T
465.259 221.1 462.641 219.198 463.877 219.198 T
465.259 221.1 461.641 219.924 462.641 219.198 T
465.259 221.1 461.259 221.1 461.641 219.924 T
465.259 221.1 461.641 222.275 461.259 221.1 T
465.259 221.1 462.641 223.002 461.641 222.275 T
465.259 221.1 463.877 223.002 462.641 223.002 T
465.259 221.1 464.877 222.275 463.877 223.002 T
461.197 226.633 459.815 224.731 460.815 225.457 T
461.197 226.633 458.579 224.731 459.815 224.731 T
461.197 226.633 457.579 225.457 458.579 224.731 T
461.197 226.633 457.197 226.633 457.579 225.457 T
461.197 226.633 457.579 227.808 457.197 226.633 T
461.197 226.633 458.579 228.535 457.579 227.808 T
461.197 226.633 459.815 228.535 458.579 228.535 T
461.197 226.633 460.815 227.808 459.815 228.535 T
456.907 232.24 455.525 230.338 456.525 231.064 T
456.907 232.24 454.289 230.338 455.525 230.338 T
456.907 232.24 453.289 231.064 454.289 230.338 T
456.907 232.24 452.907 232.24 453.289 231.064 T
456.907 232.24 453.289 233.415 452.907 232.24 T
456.907 232.24 454.289 234.142 453.289 233.415 T
456.907 232.24 455.525 234.142 454.289 234.142 T
456.907 232.24 456.525 233.415 455.525 234.142 T
452.383 237.91 451.001 236.008 452.001 236.734 T
452.383 237.91 449.765 236.008 451.001 236.008 T
452.383 237.91 448.765 236.734 449.765 236.008 T
452.383 237.91 448.383 237.91 448.765 236.734 T
452.383 237.91 448.765 239.085 448.383 237.91 T
452.383 237.91 449.765 239.812 448.765 239.085 T
452.383 237.91 451.001 239.812 449.765 239.812 T
452.383 237.91 452.001 239.085 451.001 239.812 T
447.611 243.641 446.229 241.739 447.229 242.465 T
447.611 243.641 444.993 241.739 446.229 241.739 T
447.611 243.641 443.993 242.465 444.993 241.739 T
447.611 243.641 443.611 243.641 443.993 242.465 T
447.611 243.641 443.993 244.816 443.611 243.641 T
447.611 243.641 444.993 245.543 443.993 244.816 T
447.611 243.641 446.229 245.543 444.993 245.543 T
447.611 243.641 447.229 244.816 446.229 245.543 T
442.584 249.425 441.202 247.523 442.202 248.249 T
442.584 249.425 439.966 247.523 441.202 247.523 T
442.584 249.425 438.966 248.249 439.966 247.523 T
442.584 249.425 438.584 249.425 438.966 248.249 T
442.584 249.425 438.966 250.6 438.584 249.425 T
442.584 249.425 439.966 251.327 438.966 250.6 T
442.584 249.425 441.202 251.327 439.966 251.327 T
442.584 249.425 442.202 250.6 441.202 251.327 T
437.299 255.252 435.917 253.35 436.917 254.077 T
437.299 255.252 434.681 253.35 435.917 253.35 T
437.299 255.252 433.681 254.077 434.681 253.35 T
437.299 255.252 433.299 255.252 433.681 254.077 T
437.299 255.252 433.681 256.428 433.299 255.252 T
437.299 255.252 434.681 257.155 433.681 256.428 T
437.299 255.252 435.917 257.155 434.681 257.155 T
437.299 255.252 436.917 256.428 435.917 257.155 T
431.746 261.119 430.364 259.217 431.364 259.943 T
431.746 261.119 429.128 259.217 430.364 259.217 T
431.746 261.119 428.128 259.943 429.128 259.217 T
431.746 261.119 427.746 261.119 428.128 259.943 T
431.746 261.119 428.128 262.295 427.746 261.119 T
431.746 261.119 429.128 263.021 428.128 262.295 T
431.746 261.119 430.364 263.021 429.128 263.021 T
431.746 261.119 431.364 262.295 430.364 263.021 T
425.92 267.009 424.538 265.107 425.538 265.834 T
425.92 267.009 423.302 265.107 424.538 265.107 T
425.92 267.009 422.302 265.834 423.302 265.107 T
425.92 267.009 421.92 267.009 422.302 265.834 T
425.92 267.009 422.302 268.185 421.92 267.009 T
425.92 267.009 423.302 268.911 422.302 268.185 T
425.92 267.009 424.538 268.911 423.302 268.911 T
425.92 267.009 425.538 268.185 424.538 268.911 T
419.813 272.915 418.431 271.013 419.431 271.74 T
419.813 272.915 417.195 271.013 418.431 271.013 T
419.813 272.915 416.195 271.74 417.195 271.013 T
419.813 272.915 415.813 272.915 416.195 271.74 T
419.813 272.915 416.195 274.091 415.813 272.915 T
419.813 272.915 417.195 274.818 416.195 274.091 T
419.813 272.915 418.431 274.818 417.195 274.818 T
419.813 272.915 419.431 274.091 418.431 274.818 T
413.425 278.829 412.043 276.927 413.043 277.653 T
413.425 278.829 410.807 276.927 412.043 276.927 T
413.425 278.829 409.807 277.653 410.807 276.927 T
413.425 278.829 409.425 278.829 409.807 277.653 T
413.425 278.829 409.807 280.004 409.425 278.829 T
413.425 278.829 410.807 280.731 409.807 280.004 T
413.425 278.829 412.043 280.731 410.807 280.731 T
413.425 278.829 413.043 280.004 412.043 280.731 T
406.75 284.736 405.368 282.834 406.368 283.56 T
406.75 284.736 404.131 282.834 405.368 282.834 T
406.75 284.736 403.131 283.56 404.131 282.834 T
406.75 284.736 402.75 284.736 403.131 283.56 T
406.75 284.736 403.131 285.911 402.75 284.736 T
406.75 284.736 404.131 286.638 403.131 285.911 T
406.75 284.736 405.368 286.638 404.131 286.638 T
406.75 284.736 406.368 285.911 405.368 286.638 T
399.786 290.623 398.404 288.721 399.404 289.448 T
399.786 290.623 397.168 288.721 398.404 288.721 T
399.786 290.623 396.168 289.448 397.168 288.721 T
399.786 290.623 395.786 290.623 396.168 289.448 T
399.786 290.623 396.168 291.799 395.786 290.623 T
399.786 290.623 397.168 292.525 396.168 291.799 T
399.786 290.623 398.404 292.525 397.168 292.525 T
399.786 290.623 399.404 291.799 398.404 292.525 T
392.532 296.478 391.15 294.576 392.15 295.303 T
392.532 296.478 389.914 294.576 391.15 294.576 T
392.532 296.478 388.914 295.303 389.914 294.576 T
392.532 296.478 388.532 296.478 388.914 295.303 T
392.532 296.478 388.914 297.654 388.532 296.478 T
392.532 296.478 389.914 298.381 388.914 297.654 T
392.532 296.478 391.15 298.381 389.914 298.381 T
392.532 296.478 392.15 297.654 391.15 298.381 T
384.99 302.288 383.608 300.386 384.608 301.112 T
384.99 302.288 382.372 300.386 383.608 300.386 T
384.99 302.288 381.372 301.112 382.372 300.386 T
384.99 302.288 380.99 302.288 381.372 301.112 T
384.99 302.288 381.372 303.463 380.99 302.288 T
384.99 302.288 382.372 304.19 381.372 303.463 T
384.99 302.288 383.608 304.19 382.372 304.19 T
384.99 302.288 384.608 303.463 383.608 304.19 T
377.16 308.038 375.778 306.136 376.778 306.862 T
377.16 308.038 374.542 306.136 375.778 306.136 T
377.16 308.038 373.542 306.862 374.542 306.136 T
377.16 308.038 373.16 308.038 373.542 306.862 T
377.16 308.038 373.542 309.214 373.16 308.038 T
377.16 308.038 374.542 309.94 373.542 309.214 T
377.16 308.038 375.778 309.94 374.542 309.94 T
377.16 308.038 376.778 309.214 375.778 309.94 T
369.051 313.713 367.669 311.811 368.669 312.537 T
369.051 313.713 366.433 311.811 367.669 311.811 T
369.051 313.713 365.433 312.537 366.433 311.811 T
369.051 313.713 365.051 313.713 365.433 312.537 T
369.051 313.713 365.433 314.888 365.051 313.713 T
369.051 313.713 366.433 315.615 365.433 314.888 T
369.051 313.713 367.669 315.615 366.433 315.615 T
369.051 313.713 368.669 314.888 367.669 315.615 T
360.659 319.301 359.277 317.399 360.277 318.126 T
360.659 319.301 358.041 317.399 359.277 317.399 T
360.659 319.301 357.041 318.126 358.041 317.399 T
360.659 319.301 356.659 319.301 357.041 318.126 T
360.659 319.301 357.041 320.477 356.659 319.301 T
360.659 319.301 358.041 321.203 357.041 320.477 T
360.659 319.301 359.277 321.203 358.041 321.203 T
360.659 319.301 360.277 320.477 359.277 321.203 T
352.001 324.785 350.619 322.883 351.619 323.609 T
352.001 324.785 349.383 322.883 350.619 322.883 T
352.001 324.785 348.383 323.609 349.383 322.883 T
352.001 324.785 348.001 324.785 348.383 323.609 T
352.001 324.785 348.383 325.96 348.001 324.785 T
352.001 324.785 349.383 326.687 348.383 325.96 T
352.001 324.785 350.619 326.687 349.383 326.687 T
352.001 324.785 351.619 325.96 350.619 326.687 T
343.079 330.15 341.698 328.248 342.698 328.975 T
343.079 330.15 340.461 328.248 341.698 328.248 T
343.079 330.15 339.461 328.975 340.461 328.248 T
343.079 330.15 339.079 330.15 339.461 328.975 T
343.079 330.15 339.461 331.326 339.079 330.15 T
343.079 330.15 340.461 332.053 339.461 331.326 T
343.079 330.15 341.698 332.053 340.461 332.053 T
343.079 330.15 342.698 331.326 341.698 332.053 T
333.908 335.382 332.526 333.48 333.526 334.207 T
333.908 335.382 331.29 333.48 332.526 333.48 T
333.908 335.382 330.29 334.207 331.29 333.48 T
333.908 335.382 329.908 335.382 330.29 334.207 T
333.908 335.382 330.29 336.558 329.908 335.382 T
333.908 335.382 331.29 337.284 330.29 336.558 T
333.908 335.382 332.526 337.284 331.29 337.284 T
333.908 335.382 333.526 336.558 332.526 337.284 T
324.498 340.468 323.116 338.566 324.116 339.293 T
324.498 340.468 321.88 338.566 323.116 338.566 T
324.498 340.468 320.88 339.293 321.88 338.566 T
324.498 340.468 320.498 340.468 320.88 339.293 T
324.498 340.468 320.88 341.644 320.498 340.468 T
324.498 340.468 321.88 342.37 320.88 341.644 T
324.498 340.468 323.116 342.37 321.88 342.37 T
324.498 340.468 324.116 341.644 323.116 342.37 T
314.869 345.392 313.487 343.49 314.487 344.216 T
314.869 345.392 312.251 343.49 313.487 343.49 T
314.869 345.392 311.251 344.216 312.251 343.49 T
314.869 345.392 310.869 345.392 311.251 344.216 T
314.869 345.392 311.251 346.568 310.869 345.392 T
314.869 345.392 312.251 347.294 311.251 346.568 T
314.869 345.392 313.487 347.294 312.251 347.294 T
314.869 345.392 314.487 346.568 313.487 347.294 T
305.024 350.145 303.642 348.243 304.642 348.97 T
305.024 350.145 302.406 348.243 303.642 348.243 T
305.024 350.145 301.406 348.97 302.406 348.243 T
305.024 350.145 301.024 350.145 301.406 348.97 T
305.024 350.145 301.406 351.321 301.024 350.145 T
305.024 350.145 302.406 352.047 301.406 351.321 T
305.024 350.145 303.642 352.047 302.406 352.047 T
305.024 350.145 304.642 351.321 303.642 352.047 T
294.992 354.712 293.61 352.81 294.61 353.537 T
294.992 354.712 292.374 352.81 293.61 352.81 T
294.992 354.712 291.374 353.537 292.374 352.81 T
294.992 354.712 290.992 354.712 291.374 353.537 T
294.992 354.712 291.374 355.888 290.992 354.712 T
294.992 354.712 292.374 356.615 291.374 355.888 T
294.992 354.712 293.61 356.615 292.374 356.615 T
294.992 354.712 294.61 355.888 293.61 356.615 T
284.793 359.081 283.411 357.179 284.411 357.905 T
284.793 359.081 282.175 357.179 283.411 357.179 T
284.793 359.081 281.175 357.905 282.175 357.179 T
284.793 359.081 280.793 359.081 281.175 357.905 T
284.793 359.081 281.175 360.256 280.793 359.081 T
284.793 359.081 282.175 360.983 281.175 360.256 T
284.793 359.081 283.411 360.983 282.175 360.983 T
284.793 359.081 284.411 360.256 283.411 360.983 T
274.434 363.246 273.052 361.344 274.052 362.07 T
274.434 363.246 271.816 361.344 273.052 361.344 T
274.434 363.246 270.816 362.07 271.816 361.344 T
274.434 363.246 270.434 363.246 270.816 362.07 T
274.434 363.246 270.816 364.422 270.434 363.246 T
274.434 363.246 271.816 365.148 270.816 364.422 T
274.434 363.246 273.052 365.148 271.816 365.148 T
274.434 363.246 274.052 364.422 273.052 365.148 T
263.947 367.195 262.566 365.292 263.566 366.019 T
263.947 367.195 261.329 365.292 262.566 365.292 T
263.947 367.195 260.329 366.019 261.329 365.292 T
263.947 367.195 259.947 367.195 260.329 366.019 T
263.947 367.195 260.329 368.37 259.947 367.195 T
263.947 367.195 261.329 369.097 260.329 368.37 T
263.947 367.195 262.566 369.097 261.329 369.097 T
263.947 367.195 263.566 368.37 262.566 369.097 T
253.351 370.92 251.969 369.018 252.969 369.745 T
253.351 370.92 250.733 369.018 251.969 369.018 T
253.351 370.92 249.733 369.745 250.733 369.018 T
253.351 370.92 249.351 370.92 249.733 369.745 T
253.351 370.92 249.733 372.096 249.351 370.92 T
253.351 370.92 250.733 372.823 249.733 372.096 T
253.351 370.92 251.969 372.823 250.733 372.823 T
253.351 370.92 252.969 372.096 251.969 372.823 T
242.67 374.417 241.288 372.515 242.288 373.242 T
242.67 374.417 240.052 372.515 241.288 372.515 T
242.67 374.417 239.052 373.242 240.052 372.515 T
242.67 374.417 238.67 374.417 239.052 373.242 T
242.67 374.417 239.052 375.593 238.67 374.417 T
242.67 374.417 240.052 376.32 239.052 375.593 T
242.67 374.417 241.288 376.32 240.052 376.32 T
242.67 374.417 242.288 375.593 241.288 376.32 T
231.912 377.686 230.53 375.784 231.53 376.51 T
231.912 377.686 229.294 375.784 230.53 375.784 T
231.912 377.686 228.294 376.51 229.294 375.784 T
231.912 377.686 227.912 377.686 228.294 376.51 T
231.912 377.686 228.294 378.861 227.912 377.686 T
231.912 377.686 229.294 379.588 228.294 378.861 T
231.912 377.686 230.53 379.588 229.294 379.588 T
231.912 377.686 231.53 378.861 230.53 379.588 T
221.129 380.712 219.747 378.81 220.747 379.536 T
221.129 380.712 218.511 378.81 219.747 378.81 T
221.129 380.712 217.511 379.536 218.511 378.81 T
221.129 380.712 217.129 380.712 217.511 379.536 T
221.129 380.712 217.511 381.887 217.129 380.712 T
221.129 380.712 218.511 382.614 217.511 381.887 T
221.129 380.712 219.747 382.614 218.511 382.614 T
221.129 380.712 220.747 381.887 219.747 382.614 T
210.328 383.499 208.946 381.597 209.946 382.324 T
210.328 383.499 207.71 381.597 208.946 381.597 T
210.328 383.499 206.71 382.324 207.71 381.597 T
210.328 383.499 206.328 383.499 206.71 382.324 T
210.328 383.499 206.71 384.675 206.328 383.499 T
210.328 383.499 207.71 385.401 206.71 384.675 T
210.328 383.499 208.946 385.401 207.71 385.401 T
210.328 383.499 209.946 384.675 208.946 385.401 T
199.521 386.052 198.139 384.15 199.139 384.876 T
199.521 386.052 196.903 384.15 198.139 384.15 T
199.521 386.052 195.903 384.876 196.903 384.15 T
199.521 386.052 195.521 386.052 195.903 384.876 T
199.521 386.052 195.903 387.228 195.521 386.052 T
199.521 386.052 196.903 387.954 195.903 387.228 T
199.521 386.052 198.139 387.954 196.903 387.954 T
199.521 386.052 199.139 387.228 198.139 387.954 T
188.73 388.369 187.348 386.467 188.348 387.193 T
188.73 388.369 186.112 386.467 187.348 386.467 T
188.73 388.369 185.112 387.193 186.112 386.467 T
188.73 388.369 184.73 388.369 185.112 387.193 T
188.73 388.369 185.112 389.544 184.73 388.369 T
188.73 388.369 186.112 390.271 185.112 389.544 T
188.73 388.369 187.348 390.271 186.112 390.271 T
188.73 388.369 188.348 389.544 187.348 390.271 T
177.97 390.454 176.588 388.552 177.588 389.278 T
177.97 390.454 175.352 388.552 176.588 388.552 T
177.97 390.454 174.352 389.278 175.352 388.552 T
177.97 390.454 173.97 390.454 174.352 389.278 T
177.97 390.454 174.352 391.629 173.97 390.454 T
177.97 390.454 175.352 392.356 174.352 391.629 T
177.97 390.454 176.588 392.356 175.352 392.356 T
177.97 390.454 177.588 391.629 176.588 392.356 T
167.31 392.301 165.928 390.398 166.928 391.125 T
167.31 392.301 164.692 390.398 165.928 390.398 T
167.31 392.301 163.692 391.125 164.692 390.398 T
167.31 392.301 163.31 392.301 163.692 391.125 T
167.31 392.301 163.692 393.476 163.31 392.301 T
167.31 392.301 164.692 394.203 163.692 393.476 T
167.31 392.301 165.928 394.203 164.692 394.203 T
167.31 392.301 166.928 393.476 165.928 394.203 T
156.73 393.922 155.348 392.02 156.349 392.746 T
156.73 393.922 154.112 392.02 155.348 392.02 T
156.73 393.922 153.112 392.746 154.112 392.02 T
156.73 393.922 152.73 393.922 153.112 392.746 T
156.73 393.922 153.112 395.097 152.73 393.922 T
156.73 393.922 154.112 395.824 153.112 395.097 T
156.73 393.922 155.348 395.824 154.112 395.824 T
156.73 393.922 156.349 395.097 155.348 395.824 T
146.144 395.336 144.762 393.434 145.762 394.161 T
146.144 395.336 143.526 393.434 144.762 393.434 T
146.144 395.336 142.526 394.161 143.526 393.434 T
146.144 395.336 142.144 395.336 142.526 394.161 T
146.144 395.336 142.526 396.512 142.144 395.336 T
146.144 395.336 143.526 397.238 142.526 396.512 T
146.144 395.336 144.762 397.238 143.526 397.238 T
146.144 395.336 145.762 396.512 144.762 397.238 T
135.921 396.507 134.539 394.605 135.539 395.331 T
135.921 396.507 133.303 394.605 134.539 394.605 T
135.921 396.507 132.303 395.331 133.303 394.605 T
135.921 396.507 131.921 396.507 132.303 395.331 T
135.921 396.507 132.303 397.683 131.921 396.507 T
135.921 396.507 133.303 398.409 132.303 397.683 T
135.921 396.507 134.539 398.409 133.303 398.409 T
135.921 396.507 135.539 397.683 134.539 398.409 T
125.605 397.496 124.223 395.594 125.223 396.321 T
125.605 397.496 122.987 395.594 124.223 395.594 T
125.605 397.496 121.987 396.321 122.987 395.594 T
125.605 397.496 121.605 397.496 121.987 396.321 T
125.605 397.496 121.987 398.672 121.605 397.496 T
125.605 397.496 122.987 399.398 121.987 398.672 T
125.605 397.496 124.223 399.398 122.987 399.398 T
125.605 397.496 125.223 398.672 124.223 399.398 T
115.645 398.27 114.263 396.368 115.263 397.094 T
115.645 398.27 113.027 396.368 114.263 396.368 T
115.645 398.27 112.027 397.094 113.027 396.368 T
115.645 398.27 111.645 398.27 112.027 397.094 T
115.645 398.27 112.027 399.446 111.645 398.27 T
115.645 398.27 113.027 400.172 112.027 399.446 T
115.645 398.27 114.263 400.172 113.027 400.172 T
115.645 398.27 115.263 399.446 114.263 400.172 T
105.439 398.879 104.057 396.977 105.057 397.704 T
105.439 398.879 102.821 396.977 104.057 396.977 T
105.439 398.879 101.821 397.704 102.821 396.977 T
105.439 398.879 101.439 398.879 101.821 397.704 T
105.439 398.879 101.821 400.055 101.439 398.879 T
105.439 398.879 102.821 400.781 101.821 400.055 T
105.439 398.879 104.057 400.781 102.821 400.781 T
105.439 398.879 105.057 400.055 104.057 400.781 T
97.5545 399.222 96.1725 397.32 97.1725 398.047 T
97.5545 399.222 94.9365 397.32 96.1725 397.32 T
97.5545 399.222 93.9365 398.047 94.9365 397.32 T
97.5545 399.222 93.5545 399.222 93.9365 398.047 T
97.5545 399.222 93.9365 400.398 93.5545 399.222 T
97.5545 399.222 94.9365 401.125 93.9365 400.398 T
97.5545 399.222 96.1725 401.125 94.9365 401.125 T
97.5545 399.222 97.1725 400.398 96.1725 401.125 T
89.4427 399.461 88.0608 397.559 89.0608 398.285 T
89.4427 399.461 86.8247 397.559 88.0608 397.559 T
89.4427 399.461 85.8247 398.285 86.8247 397.559 T
89.4427 399.461 85.4428 399.461 85.8247 398.285 T
89.4427 399.461 85.8247 400.637 85.4428 399.461 T
89.4427 399.461 86.8247 401.363 85.8247 400.637 T
89.4427 399.461 88.0608 401.363 86.8247 401.363 T
89.4427 399.461 89.0608 400.637 88.0608 401.363 T
89.4427 399.461 88.0608 397.559 89.0608 398.285 T
89.4427 399.461 86.8247 397.559 88.0608 397.559 T
89.4427 399.461 85.8247 398.285 86.8247 397.559 T
89.4427 399.461 85.4428 399.461 85.8247 398.285 T
89.4427 399.461 85.8247 400.637 85.4428 399.461 T
89.4427 399.461 86.8247 401.363 85.8247 400.637 T
89.4427 399.461 88.0608 401.363 86.8247 401.363 T
89.4427 399.461 89.0608 400.637 88.0608 401.363 T
grestore
showpage
cleartomark
%%PageTrailer
%%Trailer
end
%%EOF
