%!PS-Adobe-3.0 EPSF-3.0
%%Title: glps_renderer figure
%%Creator: GL2PS 1.3.8, (C) 1999-2012 C. Geuzaine
%%For: Octave
%%CreationDate: Thu May 14 22:29:04 2015
%%LanguageLevel: 3
%%DocumentData: Clean7Bit
%%Pages: 1
%%BoundingBox: 0 0 560 420
%%EndComments
%%BeginProlog
/gl2psdict 64 dict def gl2psdict begin
0 setlinecap 0 setlinejoin
/tryPS3shading false def % set to false to force subdivision
/rThreshold 0.064 def % red component subdivision threshold
/gThreshold 0.034 def % green component subdivision threshold
/bThreshold 0.1 def % blue component subdivision threshold
/BD { bind def } bind def
/C  { setrgbcolor } BD
/G  { 0.082 mul exch 0.6094 mul add exch 0.3086 mul add neg 1.0 add setgray } BD
/W  { setlinewidth } BD
/FC { findfont exch /SH exch def SH scalefont setfont } BD
/SW { dup stringwidth pop } BD
/S  { FC moveto show } BD
/SBC{ FC moveto SW -2 div 0 rmoveto show } BD
/SBR{ FC moveto SW neg 0 rmoveto show } BD
/SCL{ FC moveto 0 SH -2 div rmoveto show } BD
/SCC{ FC moveto SW -2 div SH -2 div rmoveto show } BD
/SCR{ FC moveto SW neg SH -2 div rmoveto show } BD
/STL{ FC moveto 0 SH neg rmoveto show } BD
/STC{ FC moveto SW -2 div SH neg rmoveto show } BD
/STR{ FC moveto SW neg SH neg rmoveto show } BD
/FCT { FC translate 0 0 } BD
/SR  { gsave FCT moveto rotate show grestore } BD
/SBCR{ gsave FCT moveto rotate SW -2 div 0 rmoveto show grestore } BD
/SBRR{ gsave FCT moveto rotate SW neg 0 rmoveto show grestore } BD
/SCLR{ gsave FCT moveto rotate 0 SH -2 div rmoveto show grestore} BD
/SCCR{ gsave FCT moveto rotate SW -2 div SH -2 div rmoveto show grestore} BD
/SCRR{ gsave FCT moveto rotate SW neg SH -2 div rmoveto show grestore} BD
/STLR{ gsave FCT moveto rotate 0 SH neg rmoveto show grestore } BD
/STCR{ gsave FCT moveto rotate SW -2 div SH neg rmoveto show grestore } BD
/STRR{ gsave FCT moveto rotate SW neg SH neg rmoveto show grestore } BD
/P  { newpath 0.0 360.0 arc closepath fill } BD
/LS { newpath moveto } BD
/L  { lineto } BD
/LE { lineto stroke } BD
/T  { newpath moveto lineto lineto closepath fill } BD
/STshfill {
      /b1 exch def /g1 exch def /r1 exch def /y1 exch def /x1 exch def
      /b2 exch def /g2 exch def /r2 exch def /y2 exch def /x2 exch def
      /b3 exch def /g3 exch def /r3 exch def /y3 exch def /x3 exch def
      gsave << /ShadingType 4 /ColorSpace [/DeviceRGB]
      /DataSource [ 0 x1 y1 r1 g1 b1 0 x2 y2 r2 g2 b2 0 x3 y3 r3 g3 b3 ] >>
      shfill grestore } BD
/Tm { 3 -1 roll 8 -1 roll 13 -1 roll add add 3 div
      3 -1 roll 7 -1 roll 11 -1 roll add add 3 div
      3 -1 roll 6 -1 roll 9 -1 roll add add 3 div C T } BD
/STsplit {
      4 index 15 index add 0.5 mul
      4 index 15 index add 0.5 mul
      4 index 15 index add 0.5 mul
      4 index 15 index add 0.5 mul
      4 index 15 index add 0.5 mul
      5 copy 5 copy 25 15 roll
      9 index 30 index add 0.5 mul
      9 index 30 index add 0.5 mul
      9 index 30 index add 0.5 mul
      9 index 30 index add 0.5 mul
      9 index 30 index add 0.5 mul
      5 copy 5 copy 35 5 roll 25 5 roll 15 5 roll
      4 index 10 index add 0.5 mul
      4 index 10 index add 0.5 mul
      4 index 10 index add 0.5 mul
      4 index 10 index add 0.5 mul
      4 index 10 index add 0.5 mul
      5 copy 5 copy 40 5 roll 25 5 roll 15 5 roll 25 5 roll
      STnoshfill STnoshfill STnoshfill STnoshfill } BD
/STnoshfill {
      2 index 8 index sub abs rThreshold gt
      { STsplit }
      { 1 index 7 index sub abs gThreshold gt
        { STsplit }
        { dup 6 index sub abs bThreshold gt
          { STsplit }
          { 2 index 13 index sub abs rThreshold gt
            { STsplit }
            { 1 index 12 index sub abs gThreshold gt
              { STsplit }
              { dup 11 index sub abs bThreshold gt
                { STsplit }
                { 7 index 13 index sub abs rThreshold gt
                  { STsplit }
                  { 6 index 12 index sub abs gThreshold gt
                    { STsplit }
                    { 5 index 11 index sub abs bThreshold gt
                      { STsplit }
                      { Tm }
                      ifelse }
                    ifelse }
                  ifelse }
                ifelse }
              ifelse }
            ifelse }
          ifelse }
        ifelse }
      ifelse } BD
tryPS3shading
{ /shfill where
  { /ST { STshfill } BD }
  { /ST { STnoshfill } BD }
  ifelse }
{ /ST { STnoshfill } BD }
ifelse
end
%%EndProlog
%%BeginSetup
/DeviceRGB setcolorspace
gl2psdict begin
%%EndSetup
%%Page: 1 1
%%BeginPageSetup
%%EndPageSetup
mark
gsave
1.0 1.0 scale
1 1 1 C
72.8 132.847 506.8 112.686 261.231 46.2 T
72.8 132.847 318.369 199.333 506.8 112.686 T
506.8 112.686 318.369 388.5 506.8 301.853 T
506.8 112.686 318.369 199.333 318.369 388.5 T
0.5 W
[16 0] 0 setdash
0 0 0 C
70.0399 134.116 LS
62.9306 137.385 LE
(0) 58.3825 139.476 10 /Helvetica SBR
70.0399 165.644 LS
62.9306 168.913 LE
(1) 58.3825 171.004 10 /Helvetica SBR
70.0399 197.171 LS
62.9306 200.441 LE
(2) 58.3825 202.532 10 /Helvetica SBR
70.0399 228.699 LS
62.9306 231.968 LE
(3) 58.3825 234.06 10 /Helvetica SBR
70.0399 260.227 LS
62.9306 263.496 LE
(4) 58.3825 265.588 10 /Helvetica SBR
70.0399 291.755 LS
62.9306 295.024 LE
(5) 58.3825 297.115 10 /Helvetica SBR
70.0399 323.283 LS
62.9306 326.552 LE
(6) 58.3825 328.643 10 /Helvetica SBR
1 1 1 C
72.8 132.847 318.369 388.5 72.8 322.014 T
72.8 132.847 318.369 199.333 318.369 388.5 T
0 0 1 C
248.198 155.61 246.816 153.708 247.816 154.434 T
248.198 155.61 245.58 153.708 246.816 153.708 T
248.198 155.61 244.58 154.434 245.58 153.708 T
248.198 155.61 244.198 155.61 244.58 154.434 T
248.198 155.61 244.58 156.786 244.198 155.61 T
248.198 155.61 245.58 157.512 244.58 156.786 T
248.198 155.61 246.816 157.512 245.58 157.512 T
248.198 155.61 247.816 156.786 246.816 157.512 T
0 0 0 C
416.141 154.374 LS
318.369 199.333 LE
152.312 154.374 LS
318.369 199.333 LE
318.369 334.209 LS
318.369 199.333 LE
0 0 1 C
298.836 155.668 297.454 153.766 298.454 154.492 T
298.836 155.668 296.218 153.766 297.454 153.766 T
298.836 155.668 295.218 154.492 296.218 153.766 T
298.836 155.668 294.836 155.668 295.218 154.492 T
298.836 155.668 295.218 156.843 294.836 155.668 T
298.836 155.668 296.218 157.57 295.218 156.843 T
298.836 155.668 297.454 157.57 296.218 157.57 T
298.836 155.668 298.454 156.843 297.454 157.57 T
259.736 167.544 258.354 165.642 259.354 166.368 T
259.736 167.544 257.118 165.642 258.354 165.642 T
259.736 167.544 256.118 166.368 257.118 165.642 T
259.736 167.544 255.736 167.544 256.118 166.368 T
259.736 167.544 256.118 168.72 255.736 167.544 T
259.736 167.544 257.118 169.446 256.118 168.72 T
259.736 167.544 258.354 169.446 257.118 169.446 T
259.736 167.544 259.354 168.72 258.354 169.446 T
0 0 0 C
424.784 150.4 LS
416.141 154.374 LE
137.633 150.4 LS
152.312 154.374 LE
318.369 346.133 LS
318.369 334.209 LE
0 0 1 C
176.758 153.077 175.376 151.174 176.376 151.901 T
176.758 153.077 174.14 151.174 175.376 151.174 T
176.758 153.077 173.14 151.901 174.14 151.174 T
176.758 153.077 172.758 153.077 173.14 151.901 T
176.758 153.077 173.14 154.252 172.758 153.077 T
176.758 153.077 174.14 154.979 173.14 154.252 T
176.758 153.077 175.376 154.979 174.14 154.979 T
176.758 153.077 176.376 154.252 175.376 154.979 T
0 0 0 C
424.784 150.4 LS
426.114 149.788 LE
137.633 150.4 LS
135.374 149.788 LE
318.369 346.133 LS
318.369 347.967 LE
0 0 1 C
357.89 151.392 356.508 149.49 357.508 150.217 T
357.89 151.392 355.272 149.49 356.508 149.49 T
357.89 151.392 354.272 150.217 355.272 149.49 T
357.89 151.392 353.89 151.392 354.272 150.217 T
357.89 151.392 354.272 152.568 353.89 151.392 T
357.89 151.392 355.272 153.295 354.272 152.568 T
357.89 151.392 356.508 153.295 355.272 153.295 T
357.89 151.392 357.508 152.568 356.508 153.295 T
0 0 0 C
427.409 149.193 LS
426.114 149.788 LE
133.174 149.193 LS
135.374 149.788 LE
318.369 349.754 LS
318.369 347.967 LE
0 0 1 C
323.022 165.013 321.64 163.11 322.64 163.837 T
323.022 165.013 320.404 163.11 321.64 163.11 T
323.022 165.013 319.404 163.837 320.404 163.11 T
323.022 165.013 319.022 165.013 319.404 163.837 T
323.022 165.013 319.404 166.188 319.022 165.013 T
323.022 165.013 320.404 166.915 319.404 166.188 T
323.022 165.013 321.64 166.915 320.404 166.915 T
323.022 165.013 322.64 166.188 321.64 166.915 T
0 0 0 C
129.155 148.104 LS
133.174 149.193 LE
0 0 1 C
193.065 165.001 191.683 163.099 192.683 163.826 T
193.065 165.001 190.447 163.099 191.683 163.099 T
193.065 165.001 189.447 163.826 190.447 163.099 T
193.065 165.001 189.065 165.001 189.447 163.826 T
193.065 165.001 189.447 166.177 189.065 165.001 T
193.065 165.001 190.447 166.903 189.447 166.177 T
193.065 165.001 191.683 166.903 190.447 166.903 T
193.065 165.001 192.683 166.177 191.683 166.903 T
0 0 0 C
129.155 148.104 LS
119.071 145.374 LE
427.409 149.193 LS
435.713 145.374 LE
318.369 349.754 LS
318.369 361.209 LE
0 0 1 C
137.151 147.669 135.769 145.767 136.769 146.494 T
137.151 147.669 134.533 145.767 135.769 145.767 T
137.151 147.669 133.533 146.494 134.533 145.767 T
137.151 147.669 133.151 147.669 133.533 146.494 T
137.151 147.669 133.533 148.845 133.151 147.669 T
137.151 147.669 134.533 149.571 133.533 148.845 T
137.151 147.669 135.769 149.571 134.533 149.571 T
137.151 147.669 136.769 148.845 135.769 149.571 T
279.424 181.289 278.042 179.387 279.042 180.114 T
279.424 181.289 276.806 179.387 278.042 179.387 T
279.424 181.289 275.806 180.114 276.806 179.387 T
279.424 181.289 275.424 181.289 275.806 180.114 T
279.424 181.289 275.806 182.465 275.424 181.289 T
279.424 181.289 276.806 183.191 275.806 182.465 T
279.424 181.289 278.042 183.191 276.806 183.191 T
279.424 181.289 279.042 182.465 278.042 183.191 T
0 0 0 C
438.968 143.877 LS
435.713 145.374 LE
113.543 143.877 LS
119.071 145.374 LE
318.369 365.699 LS
318.369 361.209 LE
0 0 1 C
376.95 158.699 375.568 156.797 376.568 157.523 T
376.95 158.699 374.332 156.797 375.568 156.797 T
376.95 158.699 373.332 157.523 374.332 156.797 T
376.95 158.699 372.95 158.699 373.332 157.523 T
376.95 158.699 373.332 159.874 372.95 158.699 T
376.95 158.699 374.332 160.601 373.332 159.874 T
376.95 158.699 375.568 160.601 374.332 160.601 T
376.95 158.699 376.568 159.874 375.568 160.601 T
0 0 0 C
438.968 143.877 LS
439.796 143.497 LE
113.543 143.877 LS
112.137 143.497 LE
318.369 365.699 LS
318.369 366.841 LE
0 0 1 C
397.741 147.732 396.359 145.83 397.359 146.556 T
397.741 147.732 395.123 145.83 396.359 145.83 T
397.741 147.732 394.123 146.556 395.123 145.83 T
397.741 147.732 393.741 147.732 394.123 146.556 T
397.741 147.732 394.123 148.907 393.741 147.732 T
397.741 147.732 395.123 149.634 394.123 148.907 T
397.741 147.732 396.359 149.634 395.123 149.634 T
397.741 147.732 397.359 148.907 396.359 149.634 T
0 0 0 C
442.571 142.221 LS
439.796 143.497 LE
107.423 142.221 LS
112.137 143.497 LE
318.369 370.67 LS
318.369 366.841 LE
0 0 1 C
204.668 180.186 203.287 178.284 204.287 179.01 T
204.668 180.186 202.05 178.284 203.287 178.284 T
204.668 180.186 201.05 179.01 202.05 178.284 T
204.668 180.186 200.668 180.186 201.05 179.01 T
204.668 180.186 201.05 181.362 200.668 180.186 T
204.668 180.186 202.05 182.088 201.05 181.362 T
204.668 180.186 203.287 182.088 202.05 182.088 T
204.668 180.186 204.287 181.362 203.287 182.088 T
345.841 175.274 344.459 173.372 345.459 174.099 T
345.841 175.274 343.223 173.372 344.459 173.372 T
345.841 175.274 342.223 174.099 343.223 173.372 T
345.841 175.274 341.841 175.274 342.223 174.099 T
345.841 175.274 342.223 176.45 341.841 175.274 T
345.841 175.274 343.223 177.176 342.223 176.45 T
345.841 175.274 344.459 177.176 343.223 177.176 T
345.841 175.274 345.459 176.45 344.459 177.176 T
0 0 0 C
442.571 142.221 LS
445.91 140.686 LE
107.423 142.221 LS
101.753 140.685 LE
318.369 370.67 LS
318.369 375.275 LE
0 0 1 C
115.784 146.745 114.402 144.842 115.402 145.569 T
115.784 146.745 113.166 144.842 114.402 144.842 T
115.784 146.745 112.166 145.569 113.166 144.842 T
115.784 146.745 111.784 146.745 112.166 145.569 T
115.784 146.745 112.166 147.92 111.784 146.745 T
115.784 146.745 113.166 148.647 112.166 147.92 T
115.784 146.745 114.402 148.647 113.166 148.647 T
115.784 146.745 115.402 147.92 114.402 148.647 T
0 0 0 C
445.91 140.686 LS
452.758 137.537 LE
101.753 140.685 LS
90.1225 137.537 LE
318.369 375.275 LS
318.369 384.722 LE
0 0 1 C
125.731 155.9 124.349 153.998 125.349 154.725 T
125.731 155.9 123.113 153.998 124.349 153.998 T
125.731 155.9 122.113 154.725 123.113 153.998 T
125.731 155.9 121.731 155.9 122.113 154.725 T
125.731 155.9 122.113 157.076 121.731 155.9 T
125.731 155.9 123.113 157.802 122.113 157.076 T
125.731 155.9 124.349 157.802 123.113 157.802 T
125.731 155.9 125.349 157.076 124.349 157.802 T
430.478 139.805 429.096 137.903 430.096 138.63 T
430.478 139.805 427.86 137.903 429.096 137.903 T
430.478 139.805 426.86 138.63 427.86 137.903 T
430.478 139.805 426.478 139.805 426.86 138.63 T
430.478 139.805 426.86 140.981 426.478 139.805 T
430.478 139.805 427.86 141.707 426.86 140.981 T
430.478 139.805 429.096 141.707 427.86 141.707 T
430.478 139.805 430.096 140.981 429.096 141.707 T
0 0 0 C
452.852 137.493 LS
452.758 137.537 LE
89.9619 137.493 LS
90.1225 137.537 LE
318.369 384.852 LS
318.369 384.722 LE
0 0 1 C
419.188 149.17 417.806 147.268 418.806 147.995 T
419.188 149.17 416.57 147.268 417.806 147.268 T
419.188 149.17 415.57 147.995 416.57 147.268 T
419.188 149.17 415.188 149.17 415.57 147.995 T
419.188 149.17 415.57 150.346 415.188 149.17 T
419.188 149.17 416.57 151.072 415.57 150.346 T
419.188 149.17 417.806 151.072 416.57 151.072 T
419.188 149.17 418.806 150.346 417.806 151.072 T
0 0 0 C
88.8866 137.202 LS
89.9619 137.493 LE
0 0 1 C
302.4 194.894 301.018 192.992 302.018 193.719 T
302.4 194.894 299.782 192.992 301.018 192.992 T
302.4 194.894 298.782 193.719 299.782 192.992 T
302.4 194.894 298.4 194.894 298.782 193.719 T
302.4 194.894 298.782 196.07 298.4 194.894 T
302.4 194.894 299.782 196.796 298.782 196.07 T
302.4 194.894 301.018 196.796 299.782 196.796 T
302.4 194.894 302.018 196.07 301.018 196.796 T
0 0 0 C
88.8866 137.202 LS
84.7848 136.091 LE
455.901 136.091 LS
452.852 137.493 LE
318.369 384.852 LS
318.369 388.5 LE
318.773 388.314 LS
318.369 388.5 LE
317.682 388.314 LS
318.369 388.5 LE
0 0 1 C
397.275 166.737 395.893 164.835 396.893 165.562 T
397.275 166.737 394.656 164.835 395.893 164.835 T
397.275 166.737 393.656 165.562 394.656 164.835 T
397.275 166.737 393.275 166.737 393.656 165.562 T
397.275 166.737 393.656 167.913 393.275 166.737 T
397.275 166.737 394.656 168.639 393.656 167.913 T
397.275 166.737 395.893 168.639 394.656 168.639 T
397.275 166.737 396.893 167.913 395.893 168.639 T
0 0 0 C
458.08 135.089 LS
455.901 136.091 LE
81.0824 135.089 LS
84.7848 136.091 LE
0 0 1 C
222.82 196.779 221.438 194.876 222.438 195.603 T
222.82 196.779 220.202 194.876 221.438 194.876 T
222.82 196.779 219.202 195.603 220.202 194.876 T
222.82 196.779 218.82 196.779 219.202 195.603 T
222.82 196.779 219.202 197.954 218.82 196.779 T
222.82 196.779 220.202 198.681 219.202 197.954 T
222.82 196.779 221.438 198.681 220.202 198.681 T
222.82 196.779 222.438 197.954 221.438 198.681 T
0 0 0 C
320.953 387.312 LS
318.773 388.314 LE
313.98 387.312 LS
317.682 388.314 LE
0 0 1 C
134.964 171.982 133.582 170.08 134.582 170.807 T
134.964 171.982 132.346 170.08 133.582 170.08 T
134.964 171.982 131.346 170.807 132.346 170.08 T
134.964 171.982 130.964 171.982 131.346 170.807 T
134.964 171.982 131.346 173.158 130.964 171.982 T
134.964 171.982 132.346 173.884 131.346 173.158 T
134.964 171.982 133.582 173.884 132.346 173.884 T
134.964 171.982 134.582 173.158 133.582 173.884 T
0 0 0 C
75.8891 131.426 LS
72.8 132.847 LE
458.08 135.089 LS
466.046 131.426 LE
0 0 1 C
368.951 185.575 367.569 183.673 368.569 184.399 T
368.951 185.575 366.333 183.673 367.569 183.673 T
368.951 185.575 365.333 184.399 366.333 183.673 T
368.951 185.575 364.951 185.575 365.333 184.399 T
368.951 185.575 365.333 186.75 364.951 185.575 T
368.951 185.575 366.333 187.477 365.333 186.75 T
368.951 185.575 367.569 187.477 366.333 187.477 T
368.951 185.575 368.569 186.75 367.569 187.477 T
0 0 0 C
81.0824 135.089 LS
72.8 132.847 LE
67.5534 131.426 LS
72.8 132.847 LE
70.0399 134.116 LS
72.8 132.847 LE
72.8 137.108 LS
72.8 132.847 LE
320.953 387.312 LS
328.918 383.649 LE
313.98 387.312 LS
300.451 383.649 LE
0 0 1 C
448.661 140.031 447.279 138.129 448.279 138.855 T
448.661 140.031 446.043 138.129 447.279 138.129 T
448.661 140.031 445.043 138.855 446.043 138.129 T
448.661 140.031 444.661 140.031 445.043 138.855 T
448.661 140.031 445.043 141.206 444.661 140.031 T
448.661 140.031 446.043 141.933 445.043 141.206 T
448.661 140.031 447.279 141.933 446.043 141.933 T
448.661 140.031 448.279 141.206 447.279 141.933 T
0 0 0 C
67.5534 131.426 LS
62.339 130.014 LE
80.4853 129.313 LS
75.8891 131.426 LE
72.8 143.448 LS
72.8 137.108 LE
470.642 129.313 LS
466.046 131.426 LE
0 0 1 C
446.082 144.067 444.7 142.165 445.7 142.892 T
446.082 144.067 443.464 142.165 444.7 142.165 T
446.082 144.067 442.464 142.892 443.464 142.165 T
446.082 144.067 442.082 144.067 442.464 142.892 T
446.082 144.067 442.464 145.243 442.082 144.067 T
446.082 144.067 443.464 145.969 442.464 145.243 T
446.082 144.067 444.7 145.969 443.464 145.969 T
446.082 144.067 445.7 145.243 444.7 145.969 T
0 0 0 C
333.514 381.535 LS
328.918 383.649 LE
292.645 381.535 LS
300.451 383.649 LE
0 0 1 C
435.973 156.358 434.591 154.455 435.591 155.182 T
435.973 156.358 433.355 154.455 434.591 154.455 T
435.973 156.358 432.355 155.182 433.355 154.455 T
435.973 156.358 431.973 156.358 432.355 155.182 T
435.973 156.358 432.355 157.533 431.973 156.358 T
435.973 156.358 433.355 158.26 432.355 157.533 T
435.973 156.358 434.591 158.26 433.355 158.26 T
435.973 156.358 435.591 157.533 434.591 158.26 T
0 0 0 C
80.4853 129.313 LS
81.0299 129.062 LE
72.8 143.448 LS
72.8 144.2 LE
470.642 129.313 LS
471.187 129.062 LE
333.514 381.535 LS
334.059 381.285 LE
292.645 381.535 LS
291.72 381.285 LE
0 0 1 C
85.1584 152.634 83.7764 150.732 84.7764 151.458 T
85.1584 152.634 82.5403 150.732 83.7764 150.732 T
85.1584 152.634 81.5403 151.458 82.5403 150.732 T
85.1584 152.634 81.1584 152.634 81.5403 151.458 T
85.1584 152.634 81.5403 153.809 81.1584 152.634 T
85.1584 152.634 82.5403 154.536 81.5403 153.809 T
85.1584 152.634 83.7764 154.536 82.5403 154.536 T
85.1584 152.634 84.7764 153.809 83.7764 154.536 T
0 0 0 C
(4) 57.5182 128.709 10 /Helvetica STR
82.6014 128.34 LS
81.0299 129.062 LE
0 0 1 C
144.334 188.531 142.952 186.629 143.952 187.355 T
144.334 188.531 141.716 186.629 142.952 186.629 T
144.334 188.531 140.716 187.355 141.716 186.629 T
144.334 188.531 140.334 188.531 140.716 187.355 T
144.334 188.531 140.716 189.706 140.334 188.531 T
144.334 188.531 141.716 190.433 140.716 189.706 T
144.334 188.531 142.952 190.433 141.716 190.433 T
144.334 188.531 143.952 189.706 142.952 190.433 T
0 0 0 C
72.8 146.368 LS
72.8 144.2 LE
472.758 128.34 LS
471.187 129.062 LE
335.63 380.562 LS
334.059 381.285 LE
289.051 380.562 LS
291.72 381.285 LE
0 0 1 C
92.7616 160.241 91.3797 158.339 92.3797 159.065 T
92.7616 160.241 90.1436 158.339 91.3797 158.339 T
92.7616 160.241 89.1436 159.065 90.1436 158.339 T
92.7616 160.241 88.7616 160.241 89.1436 159.065 T
92.7616 160.241 89.1436 161.417 88.7616 160.241 T
92.7616 160.241 90.1436 162.143 89.1436 161.417 T
92.7616 160.241 91.3797 162.143 90.1436 162.143 T
92.7616 160.241 92.3797 161.417 91.3797 162.143 T
0 0 0 C
84.8105 127.324 LS
82.6014 128.34 LE
72.8 149.415 LS
72.8 146.368 LE
474.968 127.324 LS
472.758 128.34 LE
337.84 379.547 LS
335.63 380.562 LE
285.299 379.547 LS
289.051 380.562 LE
0 0 1 C
417.672 173.072 416.29 171.169 417.29 171.896 T
417.672 173.072 415.054 171.169 416.29 171.169 T
417.672 173.072 414.054 171.896 415.054 171.169 T
417.672 173.072 413.672 173.072 414.054 171.896 T
417.672 173.072 414.054 174.247 413.672 173.072 T
417.672 173.072 415.054 174.974 414.054 174.247 T
417.672 173.072 416.29 174.974 415.054 174.974 T
417.672 173.072 417.29 174.247 416.29 174.974 T
0 0 0 C
86.3787 126.603 LS
84.8105 127.324 LE
72.8 151.578 LS
72.8 149.415 LE
476.536 126.603 LS
474.968 127.324 LE
339.408 378.826 LS
337.84 379.547 LE
282.636 378.826 LS
285.299 379.547 LE
0 0 1 C
327.178 208.333 325.797 206.431 326.797 207.157 T
327.178 208.333 324.56 206.431 325.797 206.431 T
327.178 208.333 323.56 207.157 324.56 206.431 T
327.178 208.333 323.178 208.333 323.56 207.157 T
327.178 208.333 323.56 209.509 323.178 208.333 T
327.178 208.333 324.56 210.235 323.56 209.509 T
327.178 208.333 325.797 210.235 324.56 210.235 T
327.178 208.333 326.797 209.509 325.797 210.235 T
0 0 0 C
86.3787 126.603 LS
93.0354 123.542 LE
0 0 1 C
243.383 214.141 242.001 212.239 243.001 212.965 T
243.383 214.141 240.765 212.239 242.001 212.239 T
243.383 214.141 239.765 212.965 240.765 212.239 T
243.383 214.141 239.383 214.141 239.765 212.965 T
243.383 214.141 239.765 215.316 239.383 214.141 T
243.383 214.141 240.765 216.043 239.765 215.316 T
243.383 214.141 242.001 216.043 240.765 216.043 T
243.383 214.141 243.001 215.316 242.001 216.043 T
0 0 0 C
70.1807 165.579 LS
70.0399 165.644 LE
72.8 151.578 LS
72.8 160.761 LE
476.536 126.603 LS
483.192 123.542 LE
339.408 378.826 LS
346.065 375.765 LE
282.636 378.826 LS
271.33 375.765 LE
0 0 1 C
473.562 134.187 472.181 132.285 473.181 133.011 T
473.562 134.187 470.944 132.285 472.181 132.285 T
473.562 134.187 469.944 133.011 470.944 132.285 T
473.562 134.187 469.562 134.187 469.944 133.011 T
473.562 134.187 469.944 135.363 469.562 134.187 T
473.562 134.187 470.944 136.089 469.944 135.363 T
473.562 134.187 472.181 136.089 470.944 136.089 T
473.562 134.187 473.181 135.363 472.181 136.089 T
0 0 0 C
93.4351 123.358 LS
93.0354 123.542 LE
70.5804 165.395 LS
70.1807 165.579 LE
72.8 161.313 LS
72.8 160.761 LE
483.592 123.358 LS
483.192 123.542 LE
346.464 375.581 LS
346.065 375.765 LE
270.651 375.581 LS
271.33 375.765 LE
0 0 1 C
463.472 145.648 462.09 143.746 463.09 144.473 T
463.472 145.648 460.854 143.746 462.09 143.746 T
463.472 145.648 459.854 144.473 460.854 143.746 T
463.472 145.648 459.472 145.648 459.854 144.473 T
463.472 145.648 459.854 146.824 459.472 145.648 T
463.472 145.648 460.854 147.55 459.854 146.824 T
463.472 145.648 462.09 147.55 460.854 147.55 T
463.472 145.648 463.09 146.824 462.09 147.55 T
0 0 0 C
93.4351 123.358 LS
98.6794 120.946 LE
70.5804 165.395 LS
72.8 164.374 LE
72.8 161.313 LS
72.8 168.547 LE
483.592 123.358 LS
488.836 120.946 LE
0 0 1 C
392.718 194.348 391.336 192.446 392.336 193.172 T
392.718 194.348 390.099 192.446 391.336 192.446 T
392.718 194.348 389.099 193.172 390.099 192.446 T
392.718 194.348 388.718 194.348 389.099 193.172 T
392.718 194.348 389.099 195.523 388.718 194.348 T
392.718 194.348 390.099 196.25 389.099 195.523 T
392.718 194.348 391.336 196.25 390.099 196.25 T
392.718 194.348 392.336 195.523 391.336 196.25 T
0 0 0 C
346.464 375.581 LS
351.709 373.169 LE
270.651 375.581 LS
261.744 373.169 LE
0 0 1 C
453.361 160.015 451.979 158.113 452.979 158.84 T
453.361 160.015 450.743 158.113 451.979 158.113 T
453.361 160.015 449.743 158.84 450.743 158.113 T
453.361 160.015 449.361 160.015 449.743 158.84 T
453.361 160.015 449.743 161.191 449.361 160.015 T
453.361 160.015 450.743 161.918 449.743 161.191 T
453.361 160.015 451.979 161.918 450.743 161.918 T
453.361 160.015 452.979 161.191 451.979 161.918 T
0 0 0 C
98.6794 120.946 LS
100.787 119.977 LE
0 0 1 C
91.3625 175.341 89.9805 173.439 90.9805 174.165 T
91.3625 175.341 88.7445 173.439 89.9805 173.439 T
91.3625 175.341 87.7445 174.165 88.7445 173.439 T
91.3625 175.341 87.3625 175.341 87.7445 174.165 T
91.3625 175.341 87.7445 176.516 87.3625 175.341 T
91.3625 175.341 88.7445 177.243 87.7445 176.516 T
91.3625 175.341 89.9805 177.243 88.7445 177.243 T
91.3625 175.341 90.9805 176.516 89.9805 177.243 T
0 0 0 C
72.8 168.547 LS
72.8 171.455 LE
488.836 120.946 LS
490.944 119.977 LE
351.709 373.169 LS
353.817 372.2 LE
261.744 373.169 LS
258.164 372.2 LE
0 0 1 C
475.479 140.825 474.097 138.923 475.097 139.649 T
475.479 140.825 472.861 138.923 474.097 138.923 T
475.479 140.825 471.861 139.649 472.861 138.923 T
475.479 140.825 471.479 140.825 471.861 139.649 T
475.479 140.825 471.861 142.001 471.479 140.825 T
475.479 140.825 472.861 142.727 471.861 142.001 T
475.479 140.825 474.097 142.727 472.861 142.727 T
475.479 140.825 475.097 142.001 474.097 142.727 T
0 0 0 C
107.114 117.068 LS
100.787 119.977 LE
0 0 1 C
156.97 206.788 155.588 204.885 156.588 205.612 T
156.97 206.788 154.352 204.885 155.588 204.885 T
156.97 206.788 153.352 205.612 154.352 204.885 T
156.97 206.788 152.97 206.788 153.352 205.612 T
156.97 206.788 153.352 207.963 152.97 206.788 T
156.97 206.788 154.352 208.69 153.352 207.963 T
156.97 206.788 155.588 208.69 154.352 208.69 T
156.97 206.788 156.588 207.963 155.588 208.69 T
0 0 0 C
72.8 180.182 LS
72.8 171.455 LE
497.271 117.068 LS
490.944 119.977 LE
360.143 369.291 LS
353.817 372.2 LE
247.419 369.291 LS
258.164 372.2 LE
0 0 1 C
469.09 153.654 467.708 151.752 468.708 152.478 T
469.09 153.654 466.472 151.752 467.708 151.752 T
469.09 153.654 465.472 152.478 466.472 151.752 T
469.09 153.654 465.09 153.654 465.472 152.478 T
469.09 153.654 465.472 154.829 465.09 153.654 T
469.09 153.654 466.472 155.556 465.472 154.829 T
469.09 153.654 467.708 155.556 466.472 155.556 T
469.09 153.654 468.708 154.829 467.708 155.556 T
0 0 0 C
107.942 116.687 LS
107.114 117.068 LE
72.8 181.325 LS
72.8 180.182 LE
498.1 116.687 LS
497.271 117.068 LE
360.972 368.91 LS
360.143 369.291 LE
246.012 368.91 LS
247.419 369.291 LE
0 0 1 C
437.528 179.178 436.146 177.276 437.146 178.002 T
437.528 179.178 434.91 177.276 436.146 177.276 T
437.528 179.178 433.91 178.002 434.91 177.276 T
437.528 179.178 433.528 179.178 433.91 178.002 T
437.528 179.178 433.91 180.353 433.528 179.178 T
437.528 179.178 434.91 181.08 433.91 180.353 T
437.528 179.178 436.146 181.08 434.91 181.08 T
437.528 179.178 437.146 180.353 436.146 181.08 T
0 0 0 C
114.59 113.63 LS
107.942 116.687 LE
72.8 190.496 LS
72.8 181.325 LE
504.747 113.63 LS
498.1 116.687 LE
0 0 1 C
268.943 230.39 267.561 228.488 268.561 229.214 T
268.943 230.39 266.325 228.488 267.561 228.488 T
268.943 230.39 265.325 229.214 266.325 228.488 T
268.943 230.39 264.943 230.39 265.325 229.214 T
268.943 230.39 265.325 231.565 264.943 230.39 T
268.943 230.39 266.325 232.292 265.325 231.565 T
268.943 230.39 267.561 232.292 266.325 232.292 T
268.943 230.39 268.561 231.565 267.561 232.292 T
0 0 0 C
367.619 365.853 LS
360.972 368.91 LE
234.722 365.853 LS
246.012 368.91 LE
0 0 1 C
353.959 219.339 352.577 217.437 353.577 218.163 T
353.959 219.339 351.341 217.437 352.577 217.437 T
353.959 219.339 350.341 218.163 351.341 217.437 T
353.959 219.339 349.959 219.339 350.341 218.163 T
353.959 219.339 350.341 220.514 349.959 219.339 T
353.959 219.339 351.341 221.241 350.341 220.514 T
353.959 219.339 352.577 221.241 351.341 221.241 T
353.959 219.339 353.577 220.514 352.577 221.241 T
0 0 0 C
118.83 110.893 LS
119.908 111.185 LE
114.59 113.63 LS
120.543 110.893 LE
70.0399 197.171 LS
72.8 195.902 LE
72.8 190.496 LS
72.8 198.707 LE
0 0 1 C
96.4131 190.497 95.0311 188.595 96.0311 189.321 T
96.4131 190.497 93.7951 188.595 95.0311 188.595 T
96.4131 190.497 92.7951 189.321 93.7951 188.595 T
96.4131 190.497 92.4131 190.497 92.7951 189.321 T
96.4131 190.497 92.7951 191.672 92.4131 190.497 T
96.4131 190.497 93.7951 192.399 92.7951 191.672 T
96.4131 190.497 95.0311 192.399 93.7951 192.399 T
96.4131 190.497 96.0311 191.672 95.0311 192.399 T
0 0 0 C
504.747 113.63 LS
506.8 112.686 LE
506.8 118.066 LS
506.8 112.686 LE
367.619 365.853 LS
373.572 363.116 LE
234.722 365.853 LS
224.612 363.116 LE
500.177 110.893 LS
506.8 112.686 LE
510.7 110.893 LS
506.8 112.686 LE
0 0 1 C
480.884 153.764 479.503 151.862 480.503 152.589 T
480.884 153.764 478.266 151.862 479.503 151.862 T
480.884 153.764 477.266 152.589 478.266 151.862 T
480.884 153.764 476.884 153.764 477.266 152.589 T
480.884 153.764 477.266 154.94 476.884 153.764 T
480.884 153.764 478.266 155.666 477.266 154.94 T
480.884 153.764 479.503 155.666 478.266 155.666 T
480.884 153.764 480.503 154.94 479.503 155.666 T
0 0 0 C
117.819 110.619 LS
118.83 110.893 LE
121.138 110.619 LS
120.543 110.893 LE
72.8 199.528 LS
72.8 198.707 LE
506.8 118.887 LS
506.8 118.066 LE
374.167 362.842 LS
373.572 363.116 LE
223.601 362.842 LS
224.612 363.116 LE
499.166 110.619 LS
500.177 110.893 LE
511.295 110.619 LS
510.7 110.893 LE
0 0 1 C
469.619 164.753 468.237 162.851 469.237 163.578 T
469.619 164.753 467.001 162.851 468.237 162.851 T
469.619 164.753 466.001 163.578 467.001 162.851 T
469.619 164.753 465.619 164.753 466.001 163.578 T
469.619 164.753 466.001 165.929 465.619 164.753 T
469.619 164.753 467.001 166.655 466.001 165.929 T
469.619 164.753 468.237 166.655 467.001 166.655 T
469.619 164.753 469.237 165.929 468.237 166.655 T
0 0 0 C
117.819 110.619 LS
112.151 109.085 LE
121.138 110.619 LS
124.475 109.085 LE
72.8 202.526 LS
72.8 199.528 LE
0 0 1 C
416.221 201.102 414.839 199.199 415.839 199.926 T
416.221 201.102 413.603 199.199 414.839 199.199 T
416.221 201.102 412.603 199.926 413.603 199.199 T
416.221 201.102 412.221 201.102 412.603 199.926 T
416.221 201.102 412.603 202.277 412.221 201.102 T
416.221 201.102 413.603 203.004 412.603 202.277 T
416.221 201.102 414.839 203.004 413.603 203.004 T
416.221 201.102 415.839 202.277 414.839 203.004 T
0 0 0 C
72.8 202.526 LS
72.8 204.132 LE
506.8 118.887 LS
506.8 123.491 LE
374.167 362.842 LS
377.504 361.308 LE
223.601 362.842 LS
217.933 361.308 LE
499.166 110.619 LS
493.498 109.085 LE
511.295 110.619 LS
514.632 109.085 LE
0 0 1 C
483.667 154.157 482.285 152.255 483.285 152.981 T
483.667 154.157 481.049 152.255 482.285 152.255 T
483.667 154.157 480.049 152.981 481.049 152.255 T
483.667 154.157 479.667 154.157 480.049 152.981 T
483.667 154.157 480.049 155.332 479.667 154.157 T
483.667 154.157 481.049 156.059 480.049 155.332 T
0 0 0 C
112.151 109.085 LS
109.447 108.353 LE
126.545 108.133 LS
124.475 109.085 LE
72.8 206.988 LS
72.8 204.132 LE
506.8 126.346 LS
506.8 123.491 LE
379.574 360.356 LS
377.504 361.308 LE
214.417 360.356 LS
217.933 361.308 LE
489.982 108.133 LS
493.498 109.085 LE
514.632 109.085 LS
516.669 108.148 LE
0 0 1 C
484.483 154.974 483.101 153.072 484.101 153.799 T
484.483 154.974 481.865 153.072 483.101 153.072 T
484.483 154.974 480.865 153.799 481.865 153.072 T
484.483 154.974 480.483 154.974 480.865 153.799 T
484.483 154.974 480.865 156.15 480.483 154.974 T
484.483 154.974 481.865 156.877 480.865 156.15 T
484.483 154.974 483.101 156.877 481.865 156.877 T
484.483 154.974 484.101 156.15 483.101 156.877 T
0 0 0 C
(3) 104.626 107.047 10 /Helvetica STR
133.737 104.826 LS
126.545 108.133 LE
0 0 1 C
174.613 226.01 173.231 224.108 174.231 224.834 T
174.613 226.01 171.995 224.108 173.231 224.108 T
174.613 226.01 170.995 224.834 171.995 224.108 T
174.613 226.01 170.613 226.01 170.995 224.834 T
174.613 226.01 170.995 227.186 170.613 226.01 T
174.613 226.01 171.995 227.912 170.995 227.186 T
174.613 226.01 173.231 227.912 171.995 227.912 T
174.613 226.01 174.231 227.186 173.231 227.912 T
0 0 0 C
72.8 216.909 LS
72.8 206.988 LE
506.8 136.268 LS
506.8 126.346 LE
386.766 357.049 LS
379.574 360.356 LE
202.202 357.049 LS
214.417 360.356 LE
477.767 104.826 LS
489.982 108.133 LE
(2) 521.217 106.057 10 /Helvetica STL
0 0 1 C
457.591 182.557 456.209 180.655 457.209 181.381 T
457.591 182.557 454.973 180.655 456.209 180.655 T
457.591 182.557 453.973 181.381 454.973 180.655 T
457.591 182.557 453.591 182.557 453.973 181.381 T
457.591 182.557 453.973 183.733 453.591 182.557 T
457.591 182.557 454.973 184.459 453.973 183.733 T
457.591 182.557 456.209 184.459 454.973 184.459 T
457.591 182.557 457.209 183.733 456.209 184.459 T
0 0 0 C
133.737 104.826 LS
142.042 101.007 LE
70.0399 228.699 LS
72.8 227.43 LE
72.8 216.909 LS
72.8 228.365 LE
506.8 136.268 LS
506.8 147.723 LE
386.766 357.049 LS
395.071 353.23 LE
202.202 357.049 LS
188.098 353.23 LE
477.767 104.826 LS
463.663 101.007 LE
0 0 1 C
478.43 171.27 477.048 169.368 478.048 170.094 T
478.43 171.27 475.812 169.368 477.048 169.368 T
478.43 171.27 474.812 170.094 475.812 169.368 T
478.43 171.27 474.43 171.27 474.812 170.094 T
478.43 171.27 474.812 172.445 474.43 171.27 T
478.43 171.27 475.812 173.172 474.812 172.445 T
478.43 171.27 477.048 173.172 475.812 173.172 T
478.43 171.27 478.048 172.445 477.048 173.172 T
0 0 0 C
145.759 99.2979 LS
142.042 101.007 LE
72.8 233.493 LS
72.8 228.365 LE
506.8 152.851 LS
506.8 147.723 LE
398.788 351.521 LS
395.071 353.23 LE
181.785 351.521 LS
188.098 353.23 LE
457.35 99.2979 LS
463.663 101.007 LE
0 0 1 C
101.458 208.141 100.076 206.239 101.076 206.965 T
101.458 208.141 98.8397 206.239 100.076 206.239 T
101.458 208.141 97.8397 206.965 98.8397 206.239 T
101.458 208.141 97.4577 208.141 97.8397 206.965 T
101.458 208.141 97.8397 209.316 97.4577 208.141 T
101.458 208.141 98.8397 210.043 97.8397 209.316 T
101.458 208.141 100.076 210.043 98.8397 210.043 T
101.458 208.141 101.076 209.316 100.076 210.043 T
0 0 0 C
147.889 98.3184 LS
145.759 99.2979 LE
72.8 236.431 LS
72.8 233.493 LE
506.8 155.79 LS
506.8 152.851 LE
400.918 350.541 LS
398.788 351.521 LE
178.167 350.541 LS
181.785 351.521 LE
453.732 98.3184 LS
457.35 99.2979 LE
0 0 1 C
379.955 227.258 378.573 225.356 379.573 226.083 T
379.955 227.258 377.337 225.356 378.573 225.356 T
379.955 227.258 376.337 226.083 377.337 225.356 T
379.955 227.258 375.955 227.258 376.337 226.083 T
379.955 227.258 376.337 228.434 375.955 227.258 T
379.955 227.258 377.337 229.16 376.337 228.434 T
379.955 227.258 378.573 229.16 377.337 229.16 T
379.955 227.258 379.573 228.434 378.573 229.16 T
0 0 0 C
147.889 98.3184 LS
150.157 97.2754 LE
0 0 1 C
296.173 243.784 294.791 241.882 295.791 242.608 T
296.173 243.784 293.555 241.882 294.791 241.882 T
296.173 243.784 292.555 242.608 293.555 241.882 T
296.173 243.784 292.173 243.784 292.555 242.608 T
296.173 243.784 292.555 244.959 292.173 243.784 T
296.173 243.784 293.555 245.686 292.555 244.959 T
296.173 243.784 294.791 245.686 293.555 245.686 T
296.173 243.784 295.791 244.959 294.791 245.686 T
0 0 0 C
72.8 236.431 LS
72.8 239.56 LE
506.8 155.79 LS
506.8 158.919 LE
400.918 350.541 LS
403.186 349.498 LE
178.167 350.541 LS
174.314 349.498 LE
453.732 98.3184 LS
449.879 97.2754 LE
0 0 1 C
492.123 163.67 490.741 161.768 491.741 162.494 T
492.123 163.67 489.505 161.768 490.741 161.768 T
492.123 163.67 488.505 162.494 489.505 161.768 T
492.123 163.67 488.123 163.67 488.505 162.494 T
492.123 163.67 488.505 164.846 488.123 163.67 T
492.123 163.67 489.505 165.572 488.505 164.846 T
492.123 163.67 490.741 165.572 489.505 165.572 T
492.123 163.67 491.741 164.846 490.741 165.572 T
0 0 0 C
153.786 95.6066 LS
150.157 97.2754 LE
72.8 244.567 LS
72.8 239.56 LE
506.8 163.925 LS
506.8 158.919 LE
406.815 347.829 LS
403.186 349.498 LE
168.151 347.829 LS
174.314 349.498 LE
443.716 95.6066 LS
449.879 97.2754 LE
446.404 95.6066 LS
445.408 96.0647 LE
0 0 1 C
436.238 205.847 434.856 203.945 435.856 204.671 T
436.238 205.847 433.62 203.945 434.856 203.945 T
436.238 205.847 432.62 204.671 433.62 203.945 T
436.238 205.847 432.238 205.847 432.62 204.671 T
436.238 205.847 432.62 207.022 432.238 205.847 T
436.238 205.847 433.62 207.749 432.62 207.022 T
436.238 205.847 434.856 207.749 433.62 207.749 T
436.238 205.847 435.856 207.022 434.856 207.749 T
0 0 0 C
159.361 93.0432 LS
153.786 95.6066 LE
72.8 252.257 LS
72.8 244.567 LE
506.8 171.615 LS
506.8 163.925 LE
412.39 345.266 LS
406.815 347.829 LE
158.683 345.266 LS
168.151 347.829 LE
434.248 93.0432 LS
443.716 95.6066 LE
451.979 93.0432 LS
446.404 95.6066 LE
0 0 1 C
196.423 243.455 195.041 241.553 196.041 242.28 T
196.423 243.455 193.805 241.553 195.041 241.553 T
196.423 243.455 192.805 242.28 193.805 241.553 T
196.423 243.455 192.423 243.455 192.805 242.28 T
196.423 243.455 192.805 244.631 192.423 243.455 T
196.423 243.455 193.805 245.358 192.805 244.631 T
196.423 243.455 195.041 245.358 193.805 245.358 T
196.423 243.455 196.041 244.631 195.041 245.358 T
0 0 0 C
159.361 93.0432 LS
162.445 91.6253 LE
71.0259 259.774 LS
70.0399 260.227 LE
72.8 252.257 LS
72.8 256.511 LE
0 0 1 C
474.258 185.127 472.876 183.225 473.876 183.951 T
474.258 185.127 471.639 183.225 472.876 183.225 T
474.258 185.127 470.639 183.951 471.639 183.225 T
474.258 185.127 470.258 185.127 470.639 183.951 T
474.258 185.127 470.639 186.302 470.258 185.127 T
474.258 185.127 471.639 187.029 470.639 186.302 T
474.258 185.127 472.876 187.029 471.639 187.029 T
474.258 185.127 473.876 186.302 472.876 187.029 T
0 0 0 C
506.8 171.615 LS
506.8 175.869 LE
412.39 345.266 LS
415.474 343.848 LE
158.683 345.266 LS
153.446 343.848 LE
434.248 93.0432 LS
429.011 91.6253 LE
451.979 93.0432 LS
455.062 91.6253 LE
0 0 1 C
491.946 170.598 490.564 168.696 491.564 169.423 T
491.946 170.598 489.327 168.696 490.564 168.696 T
491.946 170.598 488.328 169.423 489.327 168.696 T
491.946 170.598 487.946 170.598 488.328 169.423 T
491.946 170.598 488.328 171.774 487.946 170.598 T
491.946 170.598 489.327 172.5 488.328 171.774 T
491.946 170.598 490.564 172.5 489.327 172.5 T
491.946 170.598 491.564 171.774 490.564 172.5 T
0 0 0 C
160.435 87.7416 LS
167.016 89.5233 LE
170.89 87.7416 LS
162.445 91.6253 LE
71.0259 259.774 LS
72.8 258.958 LE
72.8 268.162 LS
72.8 256.511 LE
506.8 187.52 LS
506.8 175.869 LE
423.92 339.964 LS
415.474 343.848 LE
139.101 339.964 LS
153.446 343.848 LE
414.666 87.7416 LS
429.011 91.6253 LE
455.062 91.6253 LS
455.277 91.5265 LE
(1.5) 459.825 89.4351 10 /Helvetica STL
0 0 1 C
121.744 226.668 120.362 224.766 121.362 225.492 T
121.744 226.668 119.126 224.766 120.362 224.766 T
121.744 226.668 118.126 225.492 119.126 224.766 T
121.744 226.668 117.744 226.668 118.126 225.492 T
121.744 226.668 118.126 227.844 117.744 226.668 T
121.744 226.668 119.126 228.57 118.126 227.844 T
121.744 226.668 120.362 228.57 119.126 228.57 T
121.744 226.668 121.362 227.844 120.362 228.57 T
0 0 0 C
160.435 87.7416 LS
156.555 86.691 LE
(2) 151.734 85.3858 10 /Helvetica STR
185.815 80.8788 LS
170.89 87.7416 LE
71.5417 291.064 LS
70.0399 291.755 LE
72.8 288.75 LS
72.8 268.162 LE
0 0 1 C
402.693 231.388 401.311 229.485 402.311 230.212 T
402.693 231.388 400.075 229.485 401.311 229.485 T
402.693 231.388 399.075 230.212 400.075 229.485 T
402.693 231.388 398.693 231.388 399.075 230.212 T
402.693 231.388 399.075 232.563 398.693 231.388 T
402.693 231.388 400.075 233.29 399.075 232.563 T
402.693 231.388 401.311 233.29 400.075 233.29 T
402.693 231.388 402.311 232.563 401.311 233.29 T
0 0 0 C
506.8 208.109 LS
506.8 187.52 LE
438.844 333.102 LS
423.92 339.964 LE
113.753 333.102 LS
139.101 339.964 LE
389.318 80.8788 LS
414.666 87.7416 LE
0 0 1 C
477.279 192.114 475.897 190.212 476.897 190.938 T
477.279 192.114 474.661 190.212 475.897 190.212 T
477.279 192.114 473.661 190.938 474.661 190.212 T
477.279 192.114 473.279 192.114 473.661 190.938 T
477.279 192.114 473.661 193.289 473.279 192.114 T
477.279 192.114 474.661 194.016 473.661 193.289 T
477.279 192.114 475.897 194.016 474.661 194.016 T
477.279 192.114 476.897 193.289 475.897 194.016 T
0 0 0 C
187.435 80.1338 LS
185.815 80.8788 LE
71.5417 291.064 LS
72.8 290.486 LE
72.8 290.985 LS
72.8 288.75 LE
506.8 208.64 LS
506.8 208.109 LE
0 0 1 C
451.848 208.764 450.466 206.862 451.466 207.589 T
451.848 208.764 449.23 206.862 450.466 206.862 T
451.848 208.764 448.23 207.589 449.23 206.862 T
451.848 208.764 447.848 208.764 448.23 207.589 T
451.848 208.764 448.23 209.94 447.848 208.764 T
451.848 208.764 449.23 210.666 448.23 209.94 T
451.848 208.764 450.466 210.666 449.23 210.666 T
451.848 208.764 451.466 209.94 450.466 210.666 T
0 0 0 C
506.8 208.64 LS
506.8 210.344 LE
440.464 332.357 LS
438.844 333.102 LE
111.002 332.357 LS
113.753 333.102 LE
386.567 80.1338 LS
389.318 80.8788 LE
0 0 1 C
324.238 252.129 322.856 250.227 323.856 250.954 T
324.238 252.129 321.62 250.227 322.856 250.227 T
324.238 252.129 320.62 250.954 321.62 250.227 T
324.238 252.129 320.238 252.129 320.62 250.954 T
324.238 252.129 320.62 253.305 320.238 252.129 T
324.238 252.129 321.62 254.031 320.62 253.305 T
324.238 252.129 322.856 254.031 321.62 254.031 T
324.238 252.129 323.856 253.305 322.856 254.031 T
0 0 0 C
198.737 74.9369 LS
187.435 80.1338 LE
72.8 306.576 LS
72.8 290.985 LE
506.8 225.935 LS
506.8 210.344 LE
451.766 327.16 LS
440.464 332.357 LE
91.8067 327.16 LS
111.002 332.357 LE
367.372 74.9369 LS
386.567 80.1338 LE
393.815 74.9369 LS
384.016 79.4431 LE
0 0 1 C
222.436 256.932 221.055 255.03 222.055 255.756 T
222.436 256.932 219.818 255.03 221.055 255.03 T
222.436 256.932 218.818 255.756 219.818 255.03 T
222.436 256.932 218.436 256.932 218.818 255.756 T
222.436 256.932 218.818 258.108 218.436 256.932 T
222.436 256.932 219.818 258.834 218.818 258.108 T
222.436 256.932 221.055 258.834 219.818 258.834 T
222.436 256.932 222.055 258.108 221.055 258.834 T
0 0 0 C
206.966 71.1527 LS
198.737 74.9369 LE
72.8 317.928 LS
72.8 306.576 LE
506.8 237.287 LS
506.8 225.935 LE
459.995 323.376 LS
451.766 327.16 LE
77.83 323.376 LS
91.8067 327.16 LE
353.395 71.1527 LS
367.372 74.9369 LE
393.815 74.9369 LS
393.885 74.9049 LE
(1) 398.433 72.8136 10 /Helvetica STL
0 0 1 C
469.996 202.904 468.614 201.002 469.614 201.729 T
469.996 202.904 467.378 201.002 468.614 201.002 T
469.996 202.904 466.378 201.729 467.378 201.002 T
469.996 202.904 465.996 202.904 466.378 201.729 T
469.996 202.904 466.378 204.08 465.996 202.904 T
469.996 202.904 467.378 204.806 466.378 204.08 T
469.996 202.904 468.614 204.806 467.378 204.806 T
469.996 202.904 469.614 204.08 468.614 204.806 T
0 0 0 C
214.124 67.8616 LS
203.663 65.0294 LE
221.816 64.3246 LS
206.966 71.1527 LE
72.8 317.928 LS
72.8 322.014 LE
0 0 1 C
135.229 240.712 133.847 238.81 134.847 239.537 T
135.229 240.712 132.611 238.81 133.847 238.81 T
135.229 240.712 131.611 239.537 132.611 238.81 T
135.229 240.712 131.229 240.712 131.611 239.537 T
135.229 240.712 131.611 241.888 131.229 240.712 T
135.229 240.712 132.611 242.614 131.611 241.888 T
135.229 240.712 133.847 242.614 132.611 242.614 T
135.229 240.712 134.847 241.888 133.847 242.614 T
0 0 0 C
84.6876 316.547 LS
72.8 322.014 LE
506.8 257.771 LS
506.8 237.287 LE
474.845 316.547 LS
459.995 323.376 LE
77.83 323.376 LS
72.8 322.014 LE
70.0399 323.283 LS
72.8 322.014 LE
328.175 64.3246 LS
353.395 71.1527 LE
0 0 1 C
423.107 230.589 421.725 228.687 422.725 229.413 T
423.107 230.589 420.489 228.687 421.725 228.687 T
423.107 230.589 419.489 229.413 420.489 228.687 T
423.107 230.589 419.107 230.589 419.489 229.413 T
423.107 230.589 419.489 231.765 419.107 230.589 T
423.107 230.589 420.489 232.491 419.489 231.765 T
423.107 230.589 421.725 232.491 420.489 232.491 T
423.107 230.589 422.725 231.765 421.725 232.491 T
0 0 0 C
(1) 198.842 63.7242 10 /Helvetica STR
241.731 55.1671 LS
221.816 64.3246 LE
104.603 307.39 LS
84.6876 316.547 LE
506.8 285.244 LS
506.8 257.771 LE
0 0 1 C
350.299 254.225 348.917 252.323 349.917 253.049 T
350.299 254.225 347.681 252.323 348.917 252.323 T
350.299 254.225 346.681 253.049 347.681 252.323 T
350.299 254.225 346.299 254.225 346.681 253.049 T
350.299 254.225 346.681 255.4 346.299 254.225 T
350.299 254.225 347.681 256.127 346.681 255.4 T
350.299 254.225 348.917 256.127 347.681 256.127 T
350.299 254.225 349.917 255.4 348.917 256.127 T
0 0 0 C
494.76 307.39 LS
474.845 316.547 LE
294.352 55.1671 LS
328.175 64.3246 LE
322.624 62.8215 LS
332.493 58.2833 LE
(0.5) 337.041 56.192 10 /Helvetica STL
0 0 1 C
251.613 263.926 250.231 262.024 251.231 262.75 T
251.613 263.926 248.995 262.024 250.231 262.024 T
251.613 263.926 247.995 262.75 248.995 262.024 T
251.613 263.926 247.613 263.926 247.995 262.75 T
251.613 263.926 247.995 265.101 247.613 263.926 T
251.613 263.926 248.995 265.828 247.995 265.101 T
251.613 263.926 250.231 265.828 248.995 265.828 T
251.613 263.926 251.231 265.101 250.231 265.828 T
0 0 0 C
255.612 48.7838 LS
241.731 55.1671 LE
506.8 285.244 LS
506.8 301.853 LE
503.672 301.007 LS
506.8 301.853 LE
0 0 1 C
164.394 252.956 163.012 251.054 164.012 251.78 T
164.394 252.956 161.776 251.054 163.012 251.054 T
164.394 252.956 160.776 251.78 161.776 251.054 T
164.394 252.956 160.394 252.956 160.776 251.78 T
164.394 252.956 160.776 254.132 160.394 252.956 T
164.394 252.956 161.776 254.858 160.776 254.132 T
164.394 252.956 163.012 254.858 161.776 254.858 T
164.394 252.956 164.012 254.132 163.012 254.858 T
0 0 0 C
118.484 301.007 LS
104.603 307.39 LE
494.76 307.39 LS
506.8 301.853 LE
270.775 48.7838 LS
294.352 55.1671 LE
0 0 1 C
432.329 229.101 430.947 227.199 431.947 227.926 T
432.329 229.101 429.711 227.199 430.947 227.199 T
432.329 229.101 428.711 227.926 429.711 227.199 T
432.329 229.101 428.329 229.101 428.711 227.926 T
432.329 229.101 428.711 230.277 428.329 229.101 T
432.329 229.101 429.711 231.003 428.711 230.277 T
432.329 229.101 430.947 231.003 429.711 231.003 T
432.329 229.101 431.947 230.277 430.947 231.003 T
0 0 0 C
255.612 48.7838 LS
261.231 46.2 LE
0 0 1 C
372.122 250.577 370.74 248.675 371.74 249.402 T
372.122 250.577 369.504 248.675 370.74 248.675 T
372.122 250.577 368.504 249.402 369.504 248.675 T
372.122 250.577 368.122 250.577 368.504 249.402 T
372.122 250.577 368.504 251.753 368.122 250.577 T
372.122 250.577 369.504 252.479 368.504 251.753 T
372.122 250.577 370.74 252.479 369.504 252.479 T
372.122 250.577 371.74 251.753 370.74 252.479 T
0 0 0 C
261.231 78.6877 LS
261.231 46.2 LE
454.131 287.594 LS
503.672 301.007 LE
147.654 287.594 LS
118.484 301.007 LE
270.775 48.7838 LS
261.231 46.2 L
250.77 43.3677 LE
(0) 245.95 42.0625 10 /Helvetica STR
261.231 46.2 LS
271.101 41.6618 LE
(0) 275.649 39.5704 10 /Helvetica STL
0 0 1 C
280.679 263.474 279.297 261.572 280.297 262.299 T
280.679 263.474 278.061 261.572 279.297 261.572 T
280.679 263.474 277.061 262.299 278.061 261.572 T
280.679 263.474 276.679 263.474 277.061 262.299 T
280.679 263.474 277.061 264.65 276.679 263.474 T
280.679 263.474 278.061 265.376 277.061 264.65 T
280.679 263.474 279.297 265.376 278.061 265.376 T
280.679 263.474 280.297 264.65 279.297 265.376 T
0 0 0 C
261.231 103.466 LS
261.231 78.6877 LE
423.625 279.334 LS
454.131 287.594 LE
165.616 279.334 LS
147.654 287.594 LE
0 0 1 C
187.025 255.307 185.643 253.405 186.643 254.132 T
187.025 255.307 184.407 253.405 185.643 253.405 T
187.025 255.307 183.407 254.132 184.407 253.405 T
187.025 255.307 183.025 255.307 183.407 254.132 T
187.025 255.307 183.407 256.483 183.025 255.307 T
187.025 255.307 184.407 257.209 183.407 256.483 T
187.025 255.307 185.643 257.209 184.407 257.209 T
187.025 255.307 186.643 256.483 185.643 257.209 T
0 0 0 C
261.231 108.107 LS
261.231 103.466 LE
417.911 277.787 LS
423.625 279.334 LE
168.98 277.787 LS
165.616 279.334 LE
0 0 1 C
386.576 243.322 385.194 241.42 386.194 242.147 T
386.576 243.322 383.958 241.42 385.194 241.42 T
386.576 243.322 382.958 242.147 383.958 241.42 T
386.576 243.322 382.576 243.322 382.958 242.147 T
386.576 243.322 382.958 244.498 382.576 243.322 T
386.576 243.322 383.958 245.224 382.958 244.498 T
386.576 243.322 385.194 245.224 383.958 245.224 T
386.576 243.322 386.194 244.498 385.194 245.224 T
0 0 0 C
261.231 131.965 LS
261.231 108.107 LE
388.537 269.834 LS
417.911 277.787 LE
186.275 269.834 LS
168.98 277.787 LE
0 0 1 C
306.342 256.754 304.96 254.852 305.96 255.578 T
306.342 256.754 303.724 254.852 304.96 254.852 T
306.342 256.754 302.724 255.578 303.724 254.852 T
306.342 256.754 302.342 256.754 302.724 255.578 T
306.342 256.754 302.724 257.93 302.342 256.754 T
306.342 256.754 303.724 258.656 302.724 257.93 T
306.342 256.754 304.96 258.656 303.724 258.656 T
306.342 256.754 305.96 257.93 304.96 258.656 T
0 0 0 C
261.231 139.113 LS
261.231 131.965 LE
379.737 267.452 LS
388.537 269.834 LE
191.457 267.452 LS
186.275 269.834 LE
0 0 1 C
220.042 255.732 218.66 253.83 219.66 254.557 T
220.042 255.732 217.424 253.83 218.66 253.83 T
220.042 255.732 216.424 254.557 217.424 253.83 T
220.042 255.732 216.042 255.732 216.424 254.557 T
220.042 255.732 216.424 256.908 216.042 255.732 T
220.042 255.732 217.424 257.634 216.424 256.908 T
220.042 255.732 218.66 257.634 217.424 257.634 T
220.042 255.732 219.66 256.908 218.66 257.634 T
0 0 0 C
261.231 176.271 LS
261.231 139.113 LE
333.989 255.066 LS
379.737 267.452 LE
218.392 255.066 LS
191.457 267.452 LE
0 0 1 C
325.852 246.493 324.47 244.59 325.47 245.317 T
325.852 246.493 323.234 244.59 324.47 244.59 T
325.852 246.493 322.234 245.317 323.234 244.59 T
325.852 246.493 321.852 246.493 322.234 245.317 T
325.852 246.493 322.234 247.668 321.852 246.493 T
325.852 246.493 323.234 248.395 322.234 247.668 T
325.852 246.493 324.47 248.395 323.234 248.395 T
325.852 246.493 325.47 247.668 324.47 248.395 T
0 0 0 C
261.231 196.291 LS
261.231 176.271 LE
309.341 248.393 LS
333.989 255.066 LE
232.905 248.393 LS
218.392 255.066 LE
0 0 1 C
245.032 246.287 243.65 244.385 244.65 245.112 T
245.032 246.287 242.414 244.385 243.65 244.385 T
245.032 246.287 241.414 245.112 242.414 244.385 T
245.032 246.287 241.032 246.287 241.414 245.112 T
245.032 246.287 241.414 247.463 241.032 246.287 T
245.032 246.287 242.414 248.189 241.414 247.463 T
245.032 246.287 243.65 248.189 242.414 248.189 T
245.032 246.287 244.65 247.463 243.65 248.189 T
0 0 0 C
261.231 235.314 LS
261.231 196.291 LE
261.296 235.385 LS
309.341 248.393 LE
261.193 235.385 LS
232.905 248.393 LE
0 0 1 C
263.255 235.374 261.873 233.472 262.873 234.198 T
263.255 235.374 260.637 233.472 261.873 233.472 T
263.255 235.374 259.637 234.198 260.637 233.472 T
263.255 235.374 259.255 235.374 259.637 234.198 T
263.255 235.374 259.637 236.549 259.255 235.374 T
263.255 235.374 260.637 237.276 259.637 236.549 T
263.255 235.374 261.873 237.276 260.637 237.276 T
263.255 235.374 262.873 236.549 261.873 237.276 T
0 0 0 C
261.231 235.314 LS
261.231 235.367 LE
261.296 235.385 LS
261.231 235.367 LE
261.193 235.385 LS
261.231 235.367 LE
grestore
showpage
cleartomark
%%PageTrailer
%%Trailer
end
%%EOF
